%!PS-Adobe-2.0 EPSF-2.0
%%BoundingBox:  0 0 567 546
%%Title: plots/CorrelationMatrixS.eps: Correlations between MVA input variables (signal)
%%Creator: ROOT Version 5.34/09
%%CreationDate: Sat Jan  4 23:50:16 2014
%%EndComments
%%BeginProlog
80 dict begin
/s {stroke} def /l {lineto} def /m {moveto} def /t {translate} def
/r {rotate} def /rl {roll}  def /R {repeat} def
/d {rlineto} def /rm {rmoveto} def /gr {grestore} def /f {eofill} def
/c {setrgbcolor} def /black {0 setgray} def /sd {setdash} def
/cl {closepath} def /sf {scalefont setfont} def /lw {setlinewidth} def
/box {m dup 0 exch d exch 0 d 0 exch neg d cl} def
/NC{systemdict begin initclip end}def/C{NC box clip newpath}def
/bl {box s} def /bf {box f} def /Y { 0 exch d} def /X { 0 d} def 
/K {{pop pop 0 moveto} exch kshow} bind def
/ita {/ang 15 def gsave [1 0 ang dup sin exch cos div 1 0 0] concat} def 
/mp {newpath /y exch def /x exch def} def
/side {[w .77 mul w .23 mul] .385 w mul sd w 0 l currentpoint t -144 r} def
/mr {mp x y w2 0 360 arc} def /m24 {mr s} def /m20 {mr f} def
/mb {mp x y w2 add m w2 neg 0 d 0 w neg d w 0 d 0 w d cl} def
/mt {mp x y w2 add m w2 neg w neg d w 0 d cl} def
/m21 {mb f} def /m25 {mb s} def /m22 {mt f} def /m26{mt s} def
/m23 {mp x y w2 sub m w2 w d w neg 0 d cl f} def
/m27 {mp x y w2 add m w3 neg w2 neg d w3 w2 neg d w3 w2 d cl s} def
/m28 {mp x w2 sub y w2 sub w3 add m w3 0 d  0 w3 neg d w3 0 d 0 w3 d w3 0 d  0 w3 d w3 neg 0 d 0 w3 d w3 neg 0 d 0 w3 neg d w3 neg 0 d cl s } def
/m29 {mp gsave x w2 sub y w2 add w3 sub m currentpoint t 4 {side} repeat cl fill gr} def
/m30 {mp gsave x w2 sub y w2 add w3 sub m currentpoint t 4 {side} repeat cl s gr} def
/m31 {mp x y w2 sub m 0 w d x w2 sub y m w 0 d x w2 sub y w2 add m w w neg d x w2 sub y w2 sub m w w d s} def
/m32 {mp x y w2 sub m w2 w d w neg 0 d cl s} def
/m33 {mp x y w2 add m w3 neg w2 neg d w3 w2 neg d w3 w2 d cl f} def
/m34 {mp x w2 sub y w2 sub w3 add m w3 0 d  0 w3 neg d w3 0 d 0 w3 d w3 0 d  0 w3 d w3 neg 0 d 0 w3 d w3 neg 0 d 0 w3 neg d w3 neg 0 d cl f } def
/m2 {mp x y w2 sub m 0 w d x w2 sub y m w 0 d s} def
/m5 {mp x w2 sub y w2 sub m w w d x w2 sub y w2 add m w w neg d s} def
/reEncode {exch findfont dup length dict begin {1 index /FID eq  {pop pop} {def} ifelse } forall /Encoding exch def currentdict end dup /FontName get exch definefont pop } def [/Times-Bold /Times-Italic /Times-BoldItalic /Helvetica /Helvetica-Oblique
 /Helvetica-Bold /Helvetica-BoldOblique /Courier /Courier-Oblique /Courier-Bold /Courier-BoldOblique /Times-Roman /AvantGarde-Book /AvantGarde-BookOblique /AvantGarde-Demi /AvantGarde-DemiOblique /Bookman-Demi /Bookman-DemiItalic /Bookman-Light
 /Bookman-LightItalic /Helvetica-Narrow /Helvetica-Narrow-Bold /Helvetica-Narrow-BoldOblique /Helvetica-Narrow-Oblique /NewCenturySchlbk-Roman /NewCenturySchlbk-Bold /NewCenturySchlbk-BoldItalic /NewCenturySchlbk-Italic /Palatino-Bold
 /Palatino-BoldItalic /Palatino-Italic /Palatino-Roman ] {ISOLatin1Encoding reEncode } forall
%%EndProlog
%%BeginSetup
%%EndSetup
newpath  gsave  .25 .25 scale  gsave  0 0 t 0.490196 0.545098 0.615686 c[  ] 0 sd 3 lw 0.941176 0.941176 0.941176 c 2268 2184 0 0 bf black 1 1 0.992157 c 1633 1572 340 328 bf black 1633 1572 340 328 bl 1 1 0.992157 c 1633 1572 340 328 bf black 1633
 1572 340 328 bl 1 1 1 c 1 0 0 c 408 393 340 328 bf 0.6 1 0 c 409 393 748 328 bf 0.88 1 0 c 408 393 1157 328 bf 0 1 0.8 c 408 393 1565 328 bf 0.6 1 0 c 408 393 340 721 bf 1 0 0 c 409 393 748 721 bf 1 0.186667 0 c 408 393 1157 721 bf 0.133333 1 0 c
 408 393 1565 721 bf 0.88 1 0 c 408 393 340 1114 bf 1 0.186667 0 c 409 393 748 1114 bf 1 0 0 c 408 393 1157 1114 bf 0 1 0.333333 c 408 393 1565 1114 bf 0 1 0.8 c 408 393 340 1507 bf 0.133333 1 0 c 409 393 748 1507 bf 0 1 0.333333 c 408 393 1157 1507
 bf 1 0 0 c 408 393 1565 1507 bf 0.386667 0 1 c 102 78 1984 328 bf 0.2 0 1 c 102 79 1984 406 bf 0 0.0800001 1 c 102 78 1984 485 bf 0 0.266667 1 c 102 79 1984 563 bf 0 0.546666 1 c 102 79 1984 642 bf 0 0.733333 1 c 102 78 1984 721 bf 0 1 0.986667 c
 102 79 1984 799 bf 0 1 0.8 c 102 79 1984 878 bf 0 1 0.52 c 102 78 1984 957 bf 0 1 0.333333 c 102 79 1984 1035 bf 0 1 0.0533333 c 102 78 1984 1114 bf 0.133333 1 0 c 102 79 1984 1192 bf 0.413333 1 0 c 102 79 1984 1271 bf 0.6 1 0 c 102 78 1984 1350 bf
 0.88 1 0 c 102 79 1984 1428 bf 1 0.933333 0 c 102 79 1984 1507 bf 1 0.653333 0 c 102 78 1984 1586 bf 1 0.466667 0 c 102 79 1984 1664 bf 1 0.186667 0 c 102 78 1984 1743 bf 1 0 0 c 102 79 1984 1821 bf black 2086 328 m 1572 Y s 2037 328 m 49 X s 2037
 485 m 49 X s 2037 642 m 49 X s 2037 799 m 49 X s 2037 957 m 49 X s 2037 1114 m 49 X s 2037 1271 m 49 X s 2037 1428 m 49 X s 2037 1586 m 49 X s 2037 1743 m 49 X s 2037 1900 m 49 X s
 gsave  2268 2184 0 0 C 2096.5 304.391 t 0 r /Helvetica findfont 72.293 sf 0 0 m (\255100) show NC gr 
 gsave  2268 2184 0 0 C 2096.5 460.392 t 0 r /Helvetica findfont 72.293 sf 0 0 m (\25580) show NC gr 
 gsave  2268 2184 0 0 C 2096.5 616.393 t 0 r /Helvetica findfont 72.293 sf 0 0 m (\25560) show NC gr 
 gsave  2268 2184 0 0 C 2096.5 776.198 t 0 r /Helvetica findfont 72.293 sf 0 0 m (\25540) show NC gr 
 gsave  2268 2184 0 0 C 2096.5 932.199 t 0 r /Helvetica findfont 72.293 sf 0 0 m (\25520) show NC gr 
 gsave  2268 2184 0 0 C 2096.5 1088.2 t 0 r /Helvetica findfont 72.293 sf 0 0 m (0) show NC gr 
 gsave  2268 2184 0 0 C 2096.5 1248.01 t 0 r /Helvetica findfont 72.293 sf 0 0 m (20) show NC gr 
 gsave  2268 2184 0 0 C 2096.5 1404.01 t 0 r /Helvetica findfont 72.293 sf 0 0 m (40) show NC gr 
 gsave  2268 2184 0 0 C 2096.5 1560.01 t 0 r /Helvetica findfont 72.293 sf 0 0 m (60) show NC gr 
 gsave  2268 2184 0 0 C 2096.5 1719.81 t 0 r /Helvetica findfont 72.293 sf 0 0 m (80) show NC gr 
 gsave  2268 2184 0 0 C 2096.5 1875.81 t 0 r /Helvetica findfont 72.293 sf 0 0 m (100) show NC gr  1 1 1 c black 340 328 m 1633 X s
 gsave  2268 2184 0 0 C 536.49 262.538 t -19 r /Helvetica findfont 53.2685 sf 0 0 m (GTND_bubble) show NC gr 
 gsave  2268 2184 0 0 C 943.614 262.538 t -19 r /Helvetica findfont 53.2685 sf 0 0 m (GTND_depression) show NC gr 
 gsave  2268 2184 0 0 C 1350.74 262.538 t -19 r /Helvetica findfont 53.2685 sf 0 0 m (GTND_economy) show NC gr 
 gsave  2268 2184 0 0 C 1757.86 262.538 t -19 r /Helvetica findfont 53.2685 sf 0 0 m (GTND_markets) show NC gr  340 375 m -47 Y s[ 4 8] 0 sd 340 1900 m -1572 Y s[  ] 0 sd 748 375 m -47 Y s[ 4 8] 0 sd 748 1900 m -1572 Y s[  ] 0 sd 1157 375 m -47 Y s[
 4 8] 0 sd 1157 1900 m -1572 Y s[  ] 0 sd 1565 375 m -47 Y s[ 4 8] 0 sd 1565 1900 m -1572 Y s[  ] 0 sd 1973 375 m -47 Y s[ 4 8] 0 sd 1973 1900 m -1572 Y s[  ] 0 sd 340 1900 m 1633 X s 340 1853 m 47 Y s 748 1853 m 47 Y s 1157 1853 m 47 Y s 1565 1853 m
 47 Y s 1973 1853 m 47 Y s 340 328 m 1572 Y s
 gsave  2268 2184 0 0 C -26.6343 506.051 t 0 r /Helvetica findfont 53.2685 sf 0 0 m (GTND_bubble) show NC gr 
 gsave  2268 2184 0 0 C -125.561 905.565 t 0 r /Helvetica findfont 53.2685 sf 0 0 m (GTND_depression) show NC gr 
 gsave  2268 2184 0 0 C -83.7077 1297.47 t 0 r /Helvetica findfont 53.2685 sf 0 0 m (GTND_economy) show NC gr 
 gsave  2268 2184 0 0 C -57.0734 1685.57 t 0 r /Helvetica findfont 53.2685 sf 0 0 m (GTND_markets) show NC gr  389 328 m -49 X s[ 4 8] 0 sd 1973 328 m -1633 X s[  ] 0 sd 389 721 m -49 X s[ 4 8] 0 sd 1973 721 m -1633 X s[  ] 0 sd 389 1114 m -49 X s[ 4
 8] 0 sd 1973 1114 m -1633 X s[  ] 0 sd 389 1507 m -49 X s[ 4 8] 0 sd 1973 1507 m -1633 X s[  ] 0 sd 389 1900 m -49 X s[ 4 8] 0 sd 1973 1900 m -1633 X s[  ] 0 sd 1973 328 m 1572 Y s 1924 328 m 49 X s 1924 721 m 49 X s 1924 1114 m 49 X s 1924 1507 m
 49 X s 1924 1900 m 49 X s 0.490196 0.545098 0.615686 c 0.364706 0.419608 0.490196 c 1362 128 23 2045 bf 0.490196 0.545098 0.615686 c 23 2045 m 1362 X s 1385 2045 m 128 Y s 1385 2173 m -1362 X s 23 2173 m -128 Y s 1 1 1 c black 1 1 1 c
 gsave  2268 2184 0 0 C 87.5126 2081.28 t 0 r /Helvetica-Bold findfont 98.9272 sf 0 0 m (Correlation Matrix \(signal\)) show NC gr  black 1 1 1 c
 gsave  2268 2184 0 0 C 490.831 502.246 t 0 r /Helvetica-Bold findfont 60.8783 sf 0 0 m (100) show NC gr  black 1 1 1 c
 gsave  2268 2184 0 0 C 909.37 502.246 t 0 r /Helvetica-Bold findfont 60.8783 sf 0 0 m ( 39) show NC gr  black 1 1 1 c
 gsave  2268 2184 0 0 C 1316.49 498.441 t 0 r /Helvetica-Bold findfont 60.8783 sf 0 0 m ( 47) show NC gr  black 1 1 1 c
 gsave  2268 2184 0 0 C 1719.81 498.441 t 0 r /Helvetica-Bold findfont 60.8783 sf 0 0 m (\25522) show NC gr  black 1 1 1 c
 gsave  2268 2184 0 0 C 502.246 897.955 t 0 r /Helvetica-Bold findfont 60.8783 sf 0 0 m ( 39) show NC gr  black 1 1 1 c
 gsave  2268 2184 0 0 C 897.955 897.955 t 0 r /Helvetica-Bold findfont 60.8783 sf 0 0 m (100) show NC gr  black 1 1 1 c
 gsave  2268 2184 0 0 C 1316.49 897.955 t 0 r /Helvetica-Bold findfont 60.8783 sf 0 0 m ( 83) show NC gr  black 1 1 1 c
 gsave  2268 2184 0 0 C 1723.62 897.955 t 0 r /Helvetica-Bold findfont 60.8783 sf 0 0 m ( 18) show NC gr  black 1 1 1 c
 gsave  2268 2184 0 0 C 502.246 1286.05 t 0 r /Helvetica-Bold findfont 60.8783 sf 0 0 m ( 47) show NC gr  black 1 1 1 c
 gsave  2268 2184 0 0 C 909.37 1289.86 t 0 r /Helvetica-Bold findfont 60.8783 sf 0 0 m ( 83) show NC gr  black 1 1 1 c
 gsave  2268 2184 0 0 C 1305.08 1289.86 t 0 r /Helvetica-Bold findfont 60.8783 sf 0 0 m (100) show NC gr  black 1 1 1 c
 gsave  2268 2184 0 0 C 1735.03 1286.05 t 0 r /Helvetica-Bold findfont 60.8783 sf 0 0 m ( \2551) show NC gr  black 1 1 1 c
 gsave  2268 2184 0 0 C 498.441 1677.96 t 0 r /Helvetica-Bold findfont 60.8783 sf 0 0 m (\25522) show NC gr  black 1 1 1 c
 gsave  2268 2184 0 0 C 909.37 1681.76 t 0 r /Helvetica-Bold findfont 60.8783 sf 0 0 m ( 18) show NC gr  black 1 1 1 c
 gsave  2268 2184 0 0 C 1327.91 1677.96 t 0 r /Helvetica-Bold findfont 60.8783 sf 0 0 m ( \2551) show NC gr  black 1 1 1 c
 gsave  2268 2184 0 0 C 1712.2 1681.76 t 0 r /Helvetica-Bold findfont 60.8783 sf 0 0 m (100) show NC gr  black
 gsave  2268 2184 0 0 C 1201.89 1921.93 t 0 r /Helvetica-Bold findfont 53.2685 sf 0 0 m (Linear correlation coefficients in %) show NC gr 
 gr  gr showpage
end
%%EOF
