%!PS-Adobe-2.0 EPSF-2.0
%%BoundingBox:  0 0 567 420
%%Title: plots/mva_BoostedFisher.eps: TMVA response BoostedFisher
%%Creator: ROOT Version 5.34/09
%%CreationDate: Sun Jan  5 00:02:30 2014
%%EndComments
%%BeginProlog
80 dict begin
/s {stroke} def /l {lineto} def /m {moveto} def /t {translate} def
/r {rotate} def /rl {roll}  def /R {repeat} def
/d {rlineto} def /rm {rmoveto} def /gr {grestore} def /f {eofill} def
/c {setrgbcolor} def /black {0 setgray} def /sd {setdash} def
/cl {closepath} def /sf {scalefont setfont} def /lw {setlinewidth} def
/box {m dup 0 exch d exch 0 d 0 exch neg d cl} def
/NC{systemdict begin initclip end}def/C{NC box clip newpath}def
/bl {box s} def /bf {box f} def /Y { 0 exch d} def /X { 0 d} def 
/K {{pop pop 0 moveto} exch kshow} bind def
/ita {/ang 15 def gsave [1 0 ang dup sin exch cos div 1 0 0] concat} def 
/mp {newpath /y exch def /x exch def} def
/side {[w .77 mul w .23 mul] .385 w mul sd w 0 l currentpoint t -144 r} def
/mr {mp x y w2 0 360 arc} def /m24 {mr s} def /m20 {mr f} def
/mb {mp x y w2 add m w2 neg 0 d 0 w neg d w 0 d 0 w d cl} def
/mt {mp x y w2 add m w2 neg w neg d w 0 d cl} def
/m21 {mb f} def /m25 {mb s} def /m22 {mt f} def /m26{mt s} def
/m23 {mp x y w2 sub m w2 w d w neg 0 d cl f} def
/m27 {mp x y w2 add m w3 neg w2 neg d w3 w2 neg d w3 w2 d cl s} def
/m28 {mp x w2 sub y w2 sub w3 add m w3 0 d  0 w3 neg d w3 0 d 0 w3 d w3 0 d  0 w3 d w3 neg 0 d 0 w3 d w3 neg 0 d 0 w3 neg d w3 neg 0 d cl s } def
/m29 {mp gsave x w2 sub y w2 add w3 sub m currentpoint t 4 {side} repeat cl fill gr} def
/m30 {mp gsave x w2 sub y w2 add w3 sub m currentpoint t 4 {side} repeat cl s gr} def
/m31 {mp x y w2 sub m 0 w d x w2 sub y m w 0 d x w2 sub y w2 add m w w neg d x w2 sub y w2 sub m w w d s} def
/m32 {mp x y w2 sub m w2 w d w neg 0 d cl s} def
/m33 {mp x y w2 add m w3 neg w2 neg d w3 w2 neg d w3 w2 d cl f} def
/m34 {mp x w2 sub y w2 sub w3 add m w3 0 d  0 w3 neg d w3 0 d 0 w3 d w3 0 d  0 w3 d w3 neg 0 d 0 w3 d w3 neg 0 d 0 w3 neg d w3 neg 0 d cl f } def
/m2 {mp x y w2 sub m 0 w d x w2 sub y m w 0 d s} def
/m5 {mp x w2 sub y w2 sub m w w d x w2 sub y w2 add m w w neg d s} def
/reEncode {exch findfont dup length dict begin {1 index /FID eq  {pop pop} {def} ifelse } forall /Encoding exch def currentdict end dup /FontName get exch definefont pop } def [/Times-Bold /Times-Italic /Times-BoldItalic /Helvetica /Helvetica-Oblique
 /Helvetica-Bold /Helvetica-BoldOblique /Courier /Courier-Oblique /Courier-Bold /Courier-BoldOblique /Times-Roman /AvantGarde-Book /AvantGarde-BookOblique /AvantGarde-Demi /AvantGarde-DemiOblique /Bookman-Demi /Bookman-DemiItalic /Bookman-Light
 /Bookman-LightItalic /Helvetica-Narrow /Helvetica-Narrow-Bold /Helvetica-Narrow-BoldOblique /Helvetica-Narrow-Oblique /NewCenturySchlbk-Roman /NewCenturySchlbk-Bold /NewCenturySchlbk-BoldItalic /NewCenturySchlbk-Italic /Palatino-Bold
 /Palatino-BoldItalic /Palatino-Italic /Palatino-Roman ] {ISOLatin1Encoding reEncode } forall
%%EndProlog
%%BeginSetup
%%EndSetup
newpath  gsave  .25 .25 scale  gsave  0 0 t 0.490196 0.545098 0.615686 c[  ] 0 sd 3 lw 0.941176 0.941176 0.941176 c 2268 1682 0 0 bf black 1 1 0.992157 c 1916 1312 238 202 bf black 1916 1312 238 202 bl 1 1 0.992157 c 1916 1312 238 202 bf black 1916
 1312 238 202 bl 238 202 m 1916 X s
 gsave  2268 1682 0 0 C 1305.08 34.244 t 0 r /Helvetica-Bold findfont 72.293 sf 0 0 m (BoostedFisher response) show NC gr  238 244 m -42 Y s 283 223 m -21 Y s 327 223 m -21 Y s 372 223 m -21 Y s 417 223 m -21 Y s 462 244 m -42 Y s 506 223 m -21 Y s
 551 223 m -21 Y s 596 223 m -21 Y s 640 223 m -21 Y s 685 244 m -42 Y s 730 223 m -21 Y s 774 223 m -21 Y s 819 223 m -21 Y s 864 223 m -21 Y s 908 244 m -42 Y s 953 223 m -21 Y s 998 223 m -21 Y s 1042 223 m -21 Y s 1087 223 m -21 Y s 1132 244 m
 -42 Y s 1177 223 m -21 Y s 1221 223 m -21 Y s 1266 223 m -21 Y s 1311 223 m -21 Y s 1355 244 m -42 Y s 1400 223 m -21 Y s 1445 223 m -21 Y s 1489 223 m -21 Y s 1534 223 m -21 Y s 1579 244 m -42 Y s 1623 223 m -21 Y s 1668 223 m -21 Y s 1713 223 m
 -21 Y s 1757 223 m -21 Y s 1802 244 m -42 Y s 1847 223 m -21 Y s 1891 223 m -21 Y s 1936 223 m -21 Y s 1981 223 m -21 Y s 2026 244 m -42 Y s 2026 244 m -42 Y s 2070 223 m -21 Y s 2115 223 m -21 Y s
 gsave  2268 1682 0 0 C 209.269 129.366 t 0 r /Helvetica-Bold findfont 64.6832 sf 0 0 m (\2551) show NC gr 
 gsave  2268 1682 0 0 C 403.319 129.366 t 0 r /Helvetica-Bold findfont 64.6832 sf 0 0 m (\2550.9) show NC gr 
 gsave  2268 1682 0 0 C 627.807 129.366 t 0 r /Helvetica-Bold findfont 64.6832 sf 0 0 m (\2550.8) show NC gr 
 gsave  2268 1682 0 0 C 848.491 129.366 t 0 r /Helvetica-Bold findfont 64.6832 sf 0 0 m (\2550.7) show NC gr 
 gsave  2268 1682 0 0 C 1072.98 129.366 t 0 r /Helvetica-Bold findfont 64.6832 sf 0 0 m (\2550.6) show NC gr 
 gsave  2268 1682 0 0 C 1297.47 129.366 t 0 r /Helvetica-Bold findfont 64.6832 sf 0 0 m (\2550.5) show NC gr 
 gsave  2268 1682 0 0 C 1518.15 129.366 t 0 r /Helvetica-Bold findfont 64.6832 sf 0 0 m (\2550.4) show NC gr 
 gsave  2268 1682 0 0 C 1742.64 129.366 t 0 r /Helvetica-Bold findfont 64.6832 sf 0 0 m (\2550.3) show NC gr 
 gsave  2268 1682 0 0 C 1967.13 129.366 t 0 r /Helvetica-Bold findfont 64.6832 sf 0 0 m (\2550.2) show NC gr  238 1514 m 1916 X s 238 1471 m 43 Y s 283 1492 m 22 Y s 327 1492 m 22 Y s 372 1492 m 22 Y s 417 1492 m 22 Y s 462 1471 m 43 Y s 506 1492 m
 22 Y s 551 1492 m 22 Y s 596 1492 m 22 Y s 640 1492 m 22 Y s 685 1471 m 43 Y s 730 1492 m 22 Y s 774 1492 m 22 Y s 819 1492 m 22 Y s 864 1492 m 22 Y s 908 1471 m 43 Y s 953 1492 m 22 Y s 998 1492 m 22 Y s 1042 1492 m 22 Y s 1087 1492 m 22 Y s 1132
 1471 m 43 Y s 1177 1492 m 22 Y s 1221 1492 m 22 Y s 1266 1492 m 22 Y s 1311 1492 m 22 Y s 1355 1471 m 43 Y s 1400 1492 m 22 Y s 1445 1492 m 22 Y s 1489 1492 m 22 Y s 1534 1492 m 22 Y s 1579 1471 m 43 Y s 1623 1492 m 22 Y s 1668 1492 m 22 Y s 1713
 1492 m 22 Y s 1757 1492 m 22 Y s 1802 1471 m 43 Y s 1847 1492 m 22 Y s 1891 1492 m 22 Y s 1936 1492 m 22 Y s 1981 1492 m 22 Y s 2026 1471 m 43 Y s 2026 1471 m 43 Y s 2070 1492 m 22 Y s 2115 1492 m 22 Y s 238 202 m 1312 Y s
 gsave  2268 1682 0 0 C 64.6832 1430.64 t 90 r /Helvetica-Bold findfont 72.293 sf 0 0 m (dx) show NC gr 
 gsave  2268 1682 0 0 C 30.4391 1411.62 t 90 r /Helvetica-Bold findfont 45.6587 sf 0 0 m ( ) show NC gr 
 gsave  2268 1682 0 0 C 64.6832 1388.79 t 90 r /Helvetica-Bold findfont 72.293 sf 0 0 m (/) show NC gr 
 gsave  2268 1682 0 0 C 30.4391 1369.76 t 90 r /Helvetica-Bold findfont 45.6587 sf 0 0 m ( ) show NC gr 
 gsave  2268 1682 0 0 C 60.8783 1095.81 t 90 r /Helvetica-Bold findfont 72.293 sf 0 0 m (\(1/N\) dN) show NC gr  291 202 m -53 X s 265 256 m -27 X s 265 311 m -27 X s 265 366 m -27 X s 291 420 m -53 X s 265 475 m -27 X s 265 529 m -27 X s 265 584 m
 -27 X s 291 639 m -53 X s 265 693 m -27 X s 265 748 m -27 X s 265 802 m -27 X s 291 857 m -53 X s 265 912 m -27 X s 265 966 m -27 X s 265 1021 m -27 X s 291 1075 m -53 X s 265 1130 m -27 X s 265 1184 m -27 X s 265 1239 m -27 X s 291 1294 m -53 X s
 265 1348 m -27 X s 265 1403 m -27 X s 265 1457 m -27 X s 291 1512 m -53 X s 291 1512 m -53 X s
 gsave  2268 1682 0 0 C 175.025 178.83 t 0 r /Helvetica-Bold findfont 64.6832 sf 0 0 m (0) show NC gr 
 gsave  2268 1682 0 0 C 175.025 395.709 t 0 r /Helvetica-Bold findfont 64.6832 sf 0 0 m (2) show NC gr 
 gsave  2268 1682 0 0 C 175.025 612.588 t 0 r /Helvetica-Bold findfont 64.6832 sf 0 0 m (4) show NC gr 
 gsave  2268 1682 0 0 C 175.025 833.272 t 0 r /Helvetica-Bold findfont 64.6832 sf 0 0 m (6) show NC gr 
 gsave  2268 1682 0 0 C 175.025 1050.15 t 0 r /Helvetica-Bold findfont 64.6832 sf 0 0 m (8) show NC gr 
 gsave  2268 1682 0 0 C 136.976 1267.03 t 0 r /Helvetica-Bold findfont 64.6832 sf 0 0 m (10) show NC gr 
 gsave  2268 1682 0 0 C 136.976 1487.71 t 0 r /Helvetica-Bold findfont 64.6832 sf 0 0 m (12) show NC gr  2154 202 m 1312 Y s 2101 202 m 53 X s 2128 256 m 26 X s 2128 311 m 26 X s 2128 366 m 26 X s 2101 420 m 53 X s 2128 475 m 26 X s 2128 529 m 26 X s
 2128 584 m 26 X s 2101 639 m 53 X s 2128 693 m 26 X s 2128 748 m 26 X s 2128 802 m 26 X s 2101 857 m 53 X s 2128 912 m 26 X s 2128 966 m 26 X s 2128 1021 m 26 X s 2101 1075 m 53 X s 2128 1130 m 26 X s 2128 1184 m 26 X s 2128 1239 m 26 X s 2101 1294
 m 53 X s 2128 1348 m 26 X s 2128 1403 m 26 X s 2128 1457 m 26 X s 2101 1512 m 53 X s 2101 1512 m 53 X s 0.490196 0.545098 0.615686 c 0.95 0.95 0.95 c 0.490196 0.545098 0.615686 c 680 202 238 1312 bl 238 1312 m 680 X s 918 1312 m 202 Y s 918 1514 m
 -680 X s 238 1514 m -202 Y s black
 gsave  2268 1682 0 0 C 442.205 1431.17 t 0 r /Times-Italic findfont 76.0979 sf 0 0 m (Signal) show NC gr  0.49 0.6 0.82 c 269 1428 m 143 X 70 Y -143 X f 0 0 0.933333 c 6 lw 269 1498 m 143 X s 269 1428 m 143 X s 412 1428 m 70 Y s 269 1428 m 70 Y s
 black
 gsave  2268 1682 0 0 C 442.205 1330.27 t 0 r /Times-Italic findfont 76.0979 sf 0 0 m (Background) show NC gr  1 0 0 c 3 lw 412 1374 m -47 -47 d s 387 1398 m -70 -71 d s 339 1398 m -70 -71 d s 291 1398 m -22 -23 d s 6 lw 0 0 0.933333 c 1 0 0 c 269
 1398 m 143 X s 269 1327 m 143 X s 412 1327 m 71 Y s 269 1327 m 71 Y s 0 0 0.933333 c 0.49 0.6 0.82 c black 3 lw 0.49 0.6 0.82 c 2154 202 m -1916 X 847 Y 48 X -379 Y 48 X -376 Y 48 X 98 Y 48 X -2 Y 48 X -96 Y 48 X 475 Y 47 X -97 Y 48 X -377 Y 48 X
 279 Y 48 X 94 Y 48 X -182 Y 48 X -99 Y 96 X -89 Y 48 X -96 Y 191 X 195 Y 48 X -195 Y 144 X 108 Y 48 X -108 Y 191 X 96 Y 48 X -96 Y 479 X 93 Y 48 X f 6 lw 0 0 0.933333 c 0.49 0.6 0.82 c 0 0 0.933333 c 238 1049 m 48 X -379 Y 48 X -376 Y 48 X 98 Y 48 X
 -2 Y 48 X -96 Y 48 X 475 Y 47 X -97 Y 48 X -377 Y 48 X 279 Y 48 X 94 Y 48 X -182 Y 48 X -99 Y 96 X -89 Y 48 X -96 Y 191 X 195 Y 48 X -195 Y 144 X 108 Y 48 X -108 Y 191 X 96 Y 48 X -96 Y 479 X 93 Y 48 X s 1 0 0 c black 3 lw 1 0 0 c 2126 202 m s 2078
 202 m s 2030 202 m s 1982 202 m s 1934 202 m cl s 1886 202 m s 1837 202 m s 1789 202 m s 1741 202 m s 1693 202 m s 1645 202 m s 1597 202 m s 1579 233 m -30 -31 d s 1578 279 m -46 -46 d s 1501 202 m s 1453 202 m s 1404 202 m s 1356 202 m cl s 1308
 202 m s 1260 202 m s 1212 202 m s 1164 202 m s 1116 202 m s 1100 235 m -32 -33 d s 1100 283 m -47 -48 d s 1020 202 m cl s 1100 331 m -47 -48 d s 972 202 m s 1078 356 m -25 -25 d s 923 202 m s 909 235 m -34 -33 d s 909 283 m -82 -81 d s 909 332 m
 -130 -130 d s 909 380 m -178 -178 d s 909 428 m -48 -48 d s 837 356 m -154 -154 d s 865 432 m -4 -4 d s 813 380 m -178 -178 d s 813 428 m -48 -48 d s 741 356 m -154 -154 d s 769 432 m -4 -4 d s 695 358 m -156 -156 d s 669 381 m -179 -179 d s 669 429
 m -227 -227 d s 669 477 m -275 -275 d s 669 525 m -323 -323 d s 669 573 m -96 -96 d s 529 433 m -231 -231 d s 669 621 m -96 -96 d s 526 477 m -276 -275 d s 662 662 m -89 -89 d s 509 509 m -271 -271 d s 614 662 m -41 -40 d s 478 526 m -48 -48 d s 383
 431 m -145 -145 d s 478 574 m -48 -48 d s 382 478 m -144 -144 d s 440 584 m -10 -10 d s 382 526 m -144 -144 d s 382 574 m -48 -48 d s 318 511 m -80 -80 d s 382 622 m -48 -48 d s 286 527 m -48 -48 d s 376 665 m -42 -42 d s 286 575 m -48 -48 d s 286
 623 m -48 -48 d s 286 671 m -48 -48 d s 286 719 m -48 -48 d s 286 767 m -48 -48 d s 286 815 m -48 -48 d s 286 863 m -48 -48 d s 286 911 m -48 -48 d s 286 959 m -48 -47 d s 286 1008 m -48 -48 d s 286 1056 m -48 -48 d s 286 1104 m -48 -48 d s 286 1152
 m -48 -48 d s 286 1200 m -48 -48 d s 286 1248 m -48 -48 d s 285 1295 m -47 -47 d s 6 lw 238 1295 m 48 X -784 Y 48 X 154 Y 48 X -234 Y 48 X 153 Y 48 X -75 Y 48 X -76 Y 47 X 229 Y 96 X -304 Y 48 X -2 Y 48 X 76 Y 48 X -76 Y 48 X 76 Y 48 X -230 Y 144 X
 154 Y 47 X -154 Y 432 X 77 Y 47 X -77 Y 575 X s black 3 lw 238 202 m 1916 X s 238 244 m -42 Y s 283 223 m -21 Y s 327 223 m -21 Y s 372 223 m -21 Y s 417 223 m -21 Y s 462 244 m -42 Y s 506 223 m -21 Y s 551 223 m -21 Y s 596 223 m -21 Y s 640 223 m
 -21 Y s 685 244 m -42 Y s 730 223 m -21 Y s 774 223 m -21 Y s 819 223 m -21 Y s 864 223 m -21 Y s 908 244 m -42 Y s 953 223 m -21 Y s 998 223 m -21 Y s 1042 223 m -21 Y s 1087 223 m -21 Y s 1132 244 m -42 Y s 1177 223 m -21 Y s 1221 223 m -21 Y s
 1266 223 m -21 Y s 1311 223 m -21 Y s 1355 244 m -42 Y s 1400 223 m -21 Y s 1445 223 m -21 Y s 1489 223 m -21 Y s 1534 223 m -21 Y s 1579 244 m -42 Y s 1623 223 m -21 Y s 1668 223 m -21 Y s 1713 223 m -21 Y s 1757 223 m -21 Y s 1802 244 m -42 Y s
 1847 223 m -21 Y s 1891 223 m -21 Y s 1936 223 m -21 Y s 1981 223 m -21 Y s 2026 244 m -42 Y s 2026 244 m -42 Y s 2070 223 m -21 Y s 2115 223 m -21 Y s 238 1514 m 1916 X s 238 1471 m 43 Y s 283 1492 m 22 Y s 327 1492 m 22 Y s 372 1492 m 22 Y s 417
 1492 m 22 Y s 462 1471 m 43 Y s 506 1492 m 22 Y s 551 1492 m 22 Y s 596 1492 m 22 Y s 640 1492 m 22 Y s 685 1471 m 43 Y s 730 1492 m 22 Y s 774 1492 m 22 Y s 819 1492 m 22 Y s 864 1492 m 22 Y s 908 1471 m 43 Y s 953 1492 m 22 Y s 998 1492 m 22 Y s
 1042 1492 m 22 Y s 1087 1492 m 22 Y s 1132 1471 m 43 Y s 1177 1492 m 22 Y s 1221 1492 m 22 Y s 1266 1492 m 22 Y s 1311 1492 m 22 Y s 1355 1471 m 43 Y s 1400 1492 m 22 Y s 1445 1492 m 22 Y s 1489 1492 m 22 Y s 1534 1492 m 22 Y s 1579 1471 m 43 Y s
 1623 1492 m 22 Y s 1668 1492 m 22 Y s 1713 1492 m 22 Y s 1757 1492 m 22 Y s 1802 1471 m 43 Y s 1847 1492 m 22 Y s 1891 1492 m 22 Y s 1936 1492 m 22 Y s 1981 1492 m 22 Y s 2026 1471 m 43 Y s 2026 1471 m 43 Y s 2070 1492 m 22 Y s 2115 1492 m 22 Y s
 238 202 m 1312 Y s 291 202 m -53 X s 265 256 m -27 X s 265 311 m -27 X s 265 366 m -27 X s 291 420 m -53 X s 265 475 m -27 X s 265 529 m -27 X s 265 584 m -27 X s 291 639 m -53 X s 265 693 m -27 X s 265 748 m -27 X s 265 802 m -27 X s 291 857 m -53
 X s 265 912 m -27 X s 265 966 m -27 X s 265 1021 m -27 X s 291 1075 m -53 X s 265 1130 m -27 X s 265 1184 m -27 X s 265 1239 m -27 X s 291 1294 m -53 X s 265 1348 m -27 X s 265 1403 m -27 X s 265 1457 m -27 X s 291 1512 m -53 X s 291 1512 m -53 X s
 2154 202 m 1312 Y s 2101 202 m 53 X s 2128 256 m 26 X s 2128 311 m 26 X s 2128 366 m 26 X s 2101 420 m 53 X s 2128 475 m 26 X s 2128 529 m 26 X s 2128 584 m 26 X s 2101 639 m 53 X s 2128 693 m 26 X s 2128 748 m 26 X s 2128 802 m 26 X s 2101 857 m 53
 X s 2128 912 m 26 X s 2128 966 m 26 X s 2128 1021 m 26 X s 2101 1075 m 53 X s 2128 1130 m 26 X s 2128 1184 m 26 X s 2128 1239 m 26 X s 2101 1294 m 53 X s 2128 1348 m 26 X s 2128 1403 m 26 X s 2128 1457 m 26 X s 2101 1512 m 53 X s 2101 1512 m 53 X s
 gsave  2268 1682 0 0 C 2211.02 193.403 t 90 r /Helvetica-Bold findfont 45.6587 sf 0 0 m (U/O\255flow \(S,B\): \(0.0, 0.0\)% / \(0.0, 0.0\)%) show NC gr  0.490196 0.545098 0.615686 c 0.364706 0.419608 0.490196 c 1587 96 23 1577 bf 0.490196 0.545098
 0.615686 c 23 1577 m 1587 X s 1610 1577 m 96 Y s 1610 1673 m -1587 X s 23 1673 m -96 Y s 1 1 1 c black 1 1 1 c
 gsave  2268 1682 0 0 C 79.9028 1605.67 t 0 r /Helvetica-Bold findfont 68.4881 sf 0 0 m (TMVA response for classifier: BoostedFisher) show NC gr 
 gr  gr showpage
end
%%EOF
