%!PS-Adobe-2.0 EPSF-2.0
%%BoundingBox:  0 0 567 420
%%Title: plots/mva_BDTD.eps: TMVA response BDTD
%%Creator: ROOT Version 5.34/09
%%CreationDate: Sun Jan  5 00:02:29 2014
%%EndComments
%%BeginProlog
80 dict begin
/s {stroke} def /l {lineto} def /m {moveto} def /t {translate} def
/r {rotate} def /rl {roll}  def /R {repeat} def
/d {rlineto} def /rm {rmoveto} def /gr {grestore} def /f {eofill} def
/c {setrgbcolor} def /black {0 setgray} def /sd {setdash} def
/cl {closepath} def /sf {scalefont setfont} def /lw {setlinewidth} def
/box {m dup 0 exch d exch 0 d 0 exch neg d cl} def
/NC{systemdict begin initclip end}def/C{NC box clip newpath}def
/bl {box s} def /bf {box f} def /Y { 0 exch d} def /X { 0 d} def 
/K {{pop pop 0 moveto} exch kshow} bind def
/ita {/ang 15 def gsave [1 0 ang dup sin exch cos div 1 0 0] concat} def 
/mp {newpath /y exch def /x exch def} def
/side {[w .77 mul w .23 mul] .385 w mul sd w 0 l currentpoint t -144 r} def
/mr {mp x y w2 0 360 arc} def /m24 {mr s} def /m20 {mr f} def
/mb {mp x y w2 add m w2 neg 0 d 0 w neg d w 0 d 0 w d cl} def
/mt {mp x y w2 add m w2 neg w neg d w 0 d cl} def
/m21 {mb f} def /m25 {mb s} def /m22 {mt f} def /m26{mt s} def
/m23 {mp x y w2 sub m w2 w d w neg 0 d cl f} def
/m27 {mp x y w2 add m w3 neg w2 neg d w3 w2 neg d w3 w2 d cl s} def
/m28 {mp x w2 sub y w2 sub w3 add m w3 0 d  0 w3 neg d w3 0 d 0 w3 d w3 0 d  0 w3 d w3 neg 0 d 0 w3 d w3 neg 0 d 0 w3 neg d w3 neg 0 d cl s } def
/m29 {mp gsave x w2 sub y w2 add w3 sub m currentpoint t 4 {side} repeat cl fill gr} def
/m30 {mp gsave x w2 sub y w2 add w3 sub m currentpoint t 4 {side} repeat cl s gr} def
/m31 {mp x y w2 sub m 0 w d x w2 sub y m w 0 d x w2 sub y w2 add m w w neg d x w2 sub y w2 sub m w w d s} def
/m32 {mp x y w2 sub m w2 w d w neg 0 d cl s} def
/m33 {mp x y w2 add m w3 neg w2 neg d w3 w2 neg d w3 w2 d cl f} def
/m34 {mp x w2 sub y w2 sub w3 add m w3 0 d  0 w3 neg d w3 0 d 0 w3 d w3 0 d  0 w3 d w3 neg 0 d 0 w3 d w3 neg 0 d 0 w3 neg d w3 neg 0 d cl f } def
/m2 {mp x y w2 sub m 0 w d x w2 sub y m w 0 d s} def
/m5 {mp x w2 sub y w2 sub m w w d x w2 sub y w2 add m w w neg d s} def
/reEncode {exch findfont dup length dict begin {1 index /FID eq  {pop pop} {def} ifelse } forall /Encoding exch def currentdict end dup /FontName get exch definefont pop } def [/Times-Bold /Times-Italic /Times-BoldItalic /Helvetica /Helvetica-Oblique
 /Helvetica-Bold /Helvetica-BoldOblique /Courier /Courier-Oblique /Courier-Bold /Courier-BoldOblique /Times-Roman /AvantGarde-Book /AvantGarde-BookOblique /AvantGarde-Demi /AvantGarde-DemiOblique /Bookman-Demi /Bookman-DemiItalic /Bookman-Light
 /Bookman-LightItalic /Helvetica-Narrow /Helvetica-Narrow-Bold /Helvetica-Narrow-BoldOblique /Helvetica-Narrow-Oblique /NewCenturySchlbk-Roman /NewCenturySchlbk-Bold /NewCenturySchlbk-BoldItalic /NewCenturySchlbk-Italic /Palatino-Bold
 /Palatino-BoldItalic /Palatino-Italic /Palatino-Roman ] {ISOLatin1Encoding reEncode } forall
%%EndProlog
%%BeginSetup
%%EndSetup
newpath  gsave  .25 .25 scale  gsave  0 0 t 0.490196 0.545098 0.615686 c[  ] 0 sd 3 lw 0.941176 0.941176 0.941176 c 2268 1682 0 0 bf black 1 1 0.992157 c 1916 1312 238 202 bf black 1916 1312 238 202 bl 1 1 0.992157 c 1916 1312 238 202 bf black 1916
 1312 238 202 bl 238 202 m 1916 X s
 gsave  2268 1682 0 0 C 1609.47 34.244 t 0 r /Helvetica-Bold findfont 72.293 sf 0 0 m (BDTD response) show NC gr  517 244 m -42 Y s 589 223 m -21 Y s 660 223 m -21 Y s 732 223 m -21 Y s 803 223 m -21 Y s 875 244 m -42 Y s 946 223 m -21 Y s 1018 223 m
 -21 Y s 1089 223 m -21 Y s 1161 223 m -21 Y s 1232 244 m -42 Y s 1304 223 m -21 Y s 1375 223 m -21 Y s 1447 223 m -21 Y s 1518 223 m -21 Y s 1590 244 m -42 Y s 1661 223 m -21 Y s 1733 223 m -21 Y s 1804 223 m -21 Y s 1876 223 m -21 Y s 1947 244 m
 -42 Y s 517 244 m -42 Y s 446 223 m -21 Y s 374 223 m -21 Y s 302 223 m -21 Y s 1947 244 m -42 Y s 2019 223 m -21 Y s 2091 223 m -21 Y s
 gsave  2268 1682 0 0 C 456.587 129.366 t 0 r /Helvetica-Bold findfont 64.6832 sf 0 0 m (\2550.2) show NC gr 
 gsave  2268 1682 0 0 C 818.052 129.366 t 0 r /Helvetica-Bold findfont 64.6832 sf 0 0 m (\2550.1) show NC gr 
 gsave  2268 1682 0 0 C 1209.96 129.366 t 0 r /Helvetica-Bold findfont 64.6832 sf 0 0 m (0) show NC gr 
 gsave  2268 1682 0 0 C 1544.79 129.366 t 0 r /Helvetica-Bold findfont 64.6832 sf 0 0 m (0.1) show NC gr 
 gsave  2268 1682 0 0 C 1898.64 129.366 t 0 r /Helvetica-Bold findfont 64.6832 sf 0 0 m (0.2) show NC gr  238 1514 m 1916 X s 517 1471 m 43 Y s 589 1492 m 22 Y s 660 1492 m 22 Y s 732 1492 m 22 Y s 803 1492 m 22 Y s 875 1471 m 43 Y s 946 1492 m 22 Y
 s 1018 1492 m 22 Y s 1089 1492 m 22 Y s 1161 1492 m 22 Y s 1232 1471 m 43 Y s 1304 1492 m 22 Y s 1375 1492 m 22 Y s 1447 1492 m 22 Y s 1518 1492 m 22 Y s 1590 1471 m 43 Y s 1661 1492 m 22 Y s 1733 1492 m 22 Y s 1804 1492 m 22 Y s 1876 1492 m 22 Y s
 1947 1471 m 43 Y s 517 1471 m 43 Y s 446 1492 m 22 Y s 374 1492 m 22 Y s 302 1492 m 22 Y s 1947 1471 m 43 Y s 2019 1492 m 22 Y s 2091 1492 m 22 Y s 238 202 m 1312 Y s
 gsave  2268 1682 0 0 C 64.6832 1430.64 t 90 r /Helvetica-Bold findfont 72.293 sf 0 0 m (dx) show NC gr 
 gsave  2268 1682 0 0 C 30.4391 1411.62 t 90 r /Helvetica-Bold findfont 45.6587 sf 0 0 m ( ) show NC gr 
 gsave  2268 1682 0 0 C 64.6832 1388.79 t 90 r /Helvetica-Bold findfont 72.293 sf 0 0 m (/) show NC gr 
 gsave  2268 1682 0 0 C 30.4391 1369.76 t 90 r /Helvetica-Bold findfont 45.6587 sf 0 0 m ( ) show NC gr 
 gsave  2268 1682 0 0 C 60.8783 1095.81 t 90 r /Helvetica-Bold findfont 72.293 sf 0 0 m (\(1/N\) dN) show NC gr  291 202 m -53 X s 265 233 m -27 X s 265 265 m -27 X s 265 296 m -27 X s 265 328 m -27 X s 291 359 m -53 X s 265 391 m -27 X s 265 422 m
 -27 X s 265 454 m -27 X s 265 485 m -27 X s 291 517 m -53 X s 265 548 m -27 X s 265 580 m -27 X s 265 611 m -27 X s 265 642 m -27 X s 291 674 m -53 X s 265 705 m -27 X s 265 737 m -27 X s 265 768 m -27 X s 265 800 m -27 X s 291 831 m -53 X s 265 863
 m -27 X s 265 894 m -27 X s 265 926 m -27 X s 265 957 m -27 X s 291 989 m -53 X s 265 1020 m -27 X s 265 1052 m -27 X s 265 1083 m -27 X s 265 1115 m -27 X s 291 1146 m -53 X s 265 1178 m -27 X s 265 1209 m -27 X s 265 1240 m -27 X s 265 1272 m -27
 X s 291 1303 m -53 X s 265 1335 m -27 X s 265 1366 m -27 X s 265 1398 m -27 X s 265 1429 m -27 X s 291 1461 m -53 X s 291 1461 m -53 X s 265 1492 m -27 X s
 gsave  2268 1682 0 0 C 175.025 178.83 t 0 r /Helvetica-Bold findfont 64.6832 sf 0 0 m (0) show NC gr 
 gsave  2268 1682 0 0 C 182.635 334.831 t 0 r /Helvetica-Bold findfont 64.6832 sf 0 0 m (1) show NC gr 
 gsave  2268 1682 0 0 C 175.025 490.831 t 0 r /Helvetica-Bold findfont 64.6832 sf 0 0 m (2) show NC gr 
 gsave  2268 1682 0 0 C 175.025 650.637 t 0 r /Helvetica-Bold findfont 64.6832 sf 0 0 m (3) show NC gr 
 gsave  2268 1682 0 0 C 175.025 806.637 t 0 r /Helvetica-Bold findfont 64.6832 sf 0 0 m (4) show NC gr 
 gsave  2268 1682 0 0 C 175.025 962.638 t 0 r /Helvetica-Bold findfont 64.6832 sf 0 0 m (5) show NC gr 
 gsave  2268 1682 0 0 C 175.025 1122.44 t 0 r /Helvetica-Bold findfont 64.6832 sf 0 0 m (6) show NC gr 
 gsave  2268 1682 0 0 C 175.025 1278.44 t 0 r /Helvetica-Bold findfont 64.6832 sf 0 0 m (7) show NC gr 
 gsave  2268 1682 0 0 C 175.025 1434.44 t 0 r /Helvetica-Bold findfont 64.6832 sf 0 0 m (8) show NC gr  2154 202 m 1312 Y s 2101 202 m 53 X s 2128 233 m 26 X s 2128 265 m 26 X s 2128 296 m 26 X s 2128 328 m 26 X s 2101 359 m 53 X s 2128 391 m 26 X s
 2128 422 m 26 X s 2128 454 m 26 X s 2128 485 m 26 X s 2101 517 m 53 X s 2128 548 m 26 X s 2128 580 m 26 X s 2128 611 m 26 X s 2128 642 m 26 X s 2101 674 m 53 X s 2128 705 m 26 X s 2128 737 m 26 X s 2128 768 m 26 X s 2128 800 m 26 X s 2101 831 m 53 X
 s 2128 863 m 26 X s 2128 894 m 26 X s 2128 926 m 26 X s 2128 957 m 26 X s 2101 989 m 53 X s 2128 1020 m 26 X s 2128 1052 m 26 X s 2128 1083 m 26 X s 2128 1115 m 26 X s 2101 1146 m 53 X s 2128 1178 m 26 X s 2128 1209 m 26 X s 2128 1240 m 26 X s 2128
 1272 m 26 X s 2101 1303 m 53 X s 2128 1335 m 26 X s 2128 1366 m 26 X s 2128 1398 m 26 X s 2128 1429 m 26 X s 2101 1461 m 53 X s 2101 1461 m 53 X s 2128 1492 m 26 X s 0.490196 0.545098 0.615686 c 0.95 0.95 0.95 c 0.490196 0.545098 0.615686 c 680 202
 238 1312 bl 238 1312 m 680 X s 918 1312 m 202 Y s 918 1514 m -680 X s 238 1514 m -202 Y s black
 gsave  2268 1682 0 0 C 442.205 1431.17 t 0 r /Times-Italic findfont 76.0979 sf 0 0 m (Signal) show NC gr  0.49 0.6 0.82 c 269 1428 m 143 X 70 Y -143 X f 0 0 0.933333 c 6 lw 269 1498 m 143 X s 269 1428 m 143 X s 412 1428 m 70 Y s 269 1428 m 70 Y s
 black
 gsave  2268 1682 0 0 C 442.205 1330.27 t 0 r /Times-Italic findfont 76.0979 sf 0 0 m (Background) show NC gr  1 0 0 c 3 lw 412 1374 m -47 -47 d s 387 1398 m -70 -71 d s 339 1398 m -70 -71 d s 291 1398 m -22 -23 d s 6 lw 0 0 0.933333 c 1 0 0 c 269
 1398 m 143 X s 269 1327 m 143 X s 412 1327 m 71 Y s 269 1327 m 71 Y s 0 0 0.933333 c 0.49 0.6 0.82 c black 3 lw 0.49 0.6 0.82 c 238 202 m 216 Y 48 X -216 Y 96 X 443 Y 48 X -443 Y 48 X 646 Y 48 X -215 Y 47 X 1 Y 48 X -432 Y 48 X 214 Y 48 X 2 Y 48 X
 -1 Y 48 X -3 Y 48 X 217 Y 48 X 228 Y 48 X 436 Y 48 X -428 Y 48 X -449 Y 47 X 224 Y 48 X 417 Y 48 X -431 Y 48 X 9 Y 48 X -221 Y 48 X -214 Y 48 X 216 Y 48 X 648 Y 48 X -401 Y 48 X 199 Y 47 X -448 Y 48 X 1 Y 48 X 8 Y 48 X 204 Y 48 X -427 Y 383 X f 6 lw
 0 0 0.933333 c 0.49 0.6 0.82 c 0 0 0.933333 c 238 418 m 48 X -216 Y 96 X 443 Y 48 X -443 Y 48 X 646 Y 48 X -215 Y 47 X 1 Y 48 X -432 Y 48 X 214 Y 48 X 2 Y 48 X -1 Y 48 X -3 Y 48 X 217 Y 48 X 228 Y 48 X 436 Y 48 X -428 Y 48 X -449 Y 47 X 224 Y 48 X
 417 Y 48 X -431 Y 48 X 9 Y 48 X -221 Y 48 X -214 Y 48 X 216 Y 48 X 648 Y 48 X -401 Y 48 X 199 Y 47 X -448 Y 48 X 1 Y 48 X 8 Y 48 X 204 Y 48 X -427 Y 383 X s 1 0 0 c black 3 lw 1 0 0 c 2154 230 m -28 -28 d s 2154 278 m -76 -76 d s 2154 326 m -95 -95
 d s 2030 202 m s 2154 374 m -95 -95 d s 2011 231 m -29 -29 d s 2112 381 m -53 -54 d s 2011 279 m -48 -48 d s 1934 202 m cl s 2063 379 m -4 -4 d s 2011 327 m -48 -48 d s 1886 202 m s 2011 375 m -48 -48 d s 1867 231 m -30 -29 d s 2011 423 m -48 -48 d
 s 1867 279 m -78 -77 d s 2011 471 m -48 -48 d s 1867 328 m -126 -126 d s 2011 519 m -48 -48 d s 1867 376 m -144 -144 d s 1693 202 m s 2004 561 m -41 -41 d s 1867 424 m -144 -144 d s 1675 232 m -30 -30 d s 1867 472 m -144 -144 d s 1675 280 m -48 -48
 d s 1597 202 m cl s 1867 520 m -96 -96 d s 1728 381 m -5 -5 d s 1675 328 m -48 -48 d s 1579 233 m -30 -31 d s 1867 568 m -96 -96 d s 1675 376 m -48 -47 d s 1579 281 m -78 -79 d s 1867 616 m -48 -48 d s 1811 560 m -40 -40 d s 1675 425 m -48 -48 d s
 1579 329 m -126 -127 d s 1867 664 m -48 -48 d s 1675 473 m -48 -48 d s 1579 377 m -175 -175 d s 1867 712 m -48 -48 d s 1675 521 m -48 -48 d s 1579 425 m -223 -223 d s 1838 732 m -19 -19 d s 1666 559 m -39 -38 d s 1579 473 m -47 -48 d s 1486 379 m
 -178 -177 d s 1579 521 m -47 -48 d s 1438 380 m -178 -178 d s 1566 556 m -34 -35 d s 1436 426 m -224 -224 d s 1436 474 m -272 -272 d s 1436 522 m -320 -320 d s 1436 570 m -368 -368 d s 1436 618 m -416 -416 d s 1436 666 m -96 -96 d s 1324 555 m -352
 -353 d s 1436 714 m -96 -96 d s 1292 570 m -369 -368 d s 1405 731 m -65 -65 d s 1292 619 m -48 -48 d s 1230 556 m -355 -354 d s 1388 762 m -48 -47 d s 1292 667 m -48 -48 d s 1196 571 m -191 -192 d s 1003 378 m -176 -176 d s 1388 811 m -48 -48 d s
 1292 715 m -48 -48 d s 1196 619 m -191 -192 d s 957 379 m -178 -177 d s 1388 859 m -48 -48 d s 1292 763 m -48 -48 d s 1196 667 m -191 -192 d s 957 428 m -226 -226 d s 1388 907 m -48 -48 d s 1292 811 m -48 -48 d s 1196 715 m -143 -144 d s 1045 564 m
 -40 -40 d s 957 476 m -240 -240 d s 683 202 m s 1388 955 m -48 -48 d s 1292 859 m -48 -48 d s 1166 733 m -113 -113 d s 957 524 m -240 -240 d s 635 202 m s 1388 1003 m -48 -48 d s 1292 907 m -48 -48 d s 1148 763 m -95 -95 d s 942 557 m -225 -225 d s
 587 202 m s 1388 1051 m -48 -48 d s 1292 955 m -48 -48 d s 1148 812 m -95 -96 d s 895 558 m -178 -178 d s 573 237 m -34 -35 d s 1378 1089 m -38 -38 d s 1292 1003 m -48 -48 d s 1148 860 m -95 -96 d s 861 572 m -144 -143 d s 573 285 m -83 -83 d s 1292
 1052 m -48 -48 d s 1148 908 m -95 -96 d s 861 620 m -48 -48 d s 801 561 m -84 -84 d s 573 333 m -95 -96 d s 442 202 m s 1278 1085 m -34 -33 d s 1148 956 m -95 -96 d s 861 668 m -48 -47 d s 761 569 m -44 -44 d s 573 381 m -95 -96 d s 430 237 m -36
 -35 d s 1148 1004 m -48 -48 d s 1065 920 m -12 -12 d s 861 717 m -48 -48 d s 526 382 m -1 Y s 524 380 m -46 -47 d s 430 285 m -48 -47 d s 346 202 m s 1148 1052 m -48 -48 d s 861 765 m -48 -48 d s 430 334 m -48 -48 d s 298 202 m cl s 1148 1100 m -48
 -48 d s 861 813 m -48 -48 d s 430 382 m -48 -48 d s 250 202 m cl s 1148 1148 m -48 -48 d s 861 861 m -48 -48 d s 430 430 m -48 -48 d s 1148 1196 m -48 -47 d s 861 909 m -48 -48 d s 430 478 m -48 -48 d s 1148 1245 m -48 -48 d s 814 910 m -1 -1 d s
 430 526 m -48 -48 d s 1119 1263 m -19 -18 d s 430 574 m -48 -48 d s 430 622 m -48 -48 d s 430 670 m -48 -48 d s 430 718 m -48 -48 d s 402 739 m -20 -20 d s 6 lw 238 202 m 144 X 537 Y 48 X -537 Y 48 X 178 Y 48 X 2 Y 47 X -180 Y 144 X 367 Y 48 X -8 Y
 48 X 349 Y 48 X -352 Y 48 X -1 Y 48 X -179 Y 48 X 186 Y 48 X 356 Y 47 X 343 Y 48 X -530 Y 48 X -177 Y 48 X 529 Y 48 X -530 Y 48 X 534 Y 48 X -358 Y 48 X -351 Y 48 X -1 Y 48 X 177 Y 47 X -354 Y 48 X 357 Y 48 X -357 Y 48 X 179 Y 48 X 179 Y 48 X 172 Y
 48 X -530 Y 96 X 359 Y 48 X -359 Y 48 X 177 Y 47 X 2 Y 48 X -179 Y s black 3 lw 238 202 m 1916 X s 517 244 m -42 Y s 589 223 m -21 Y s 660 223 m -21 Y s 732 223 m -21 Y s 803 223 m -21 Y s 875 244 m -42 Y s 946 223 m -21 Y s 1018 223 m -21 Y s 1089
 223 m -21 Y s 1161 223 m -21 Y s 1232 244 m -42 Y s 1304 223 m -21 Y s 1375 223 m -21 Y s 1447 223 m -21 Y s 1518 223 m -21 Y s 1590 244 m -42 Y s 1661 223 m -21 Y s 1733 223 m -21 Y s 1804 223 m -21 Y s 1876 223 m -21 Y s 1947 244 m -42 Y s 517 244
 m -42 Y s 446 223 m -21 Y s 374 223 m -21 Y s 302 223 m -21 Y s 1947 244 m -42 Y s 2019 223 m -21 Y s 2091 223 m -21 Y s 238 1514 m 1916 X s 517 1471 m 43 Y s 589 1492 m 22 Y s 660 1492 m 22 Y s 732 1492 m 22 Y s 803 1492 m 22 Y s 875 1471 m 43 Y s
 946 1492 m 22 Y s 1018 1492 m 22 Y s 1089 1492 m 22 Y s 1161 1492 m 22 Y s 1232 1471 m 43 Y s 1304 1492 m 22 Y s 1375 1492 m 22 Y s 1447 1492 m 22 Y s 1518 1492 m 22 Y s 1590 1471 m 43 Y s 1661 1492 m 22 Y s 1733 1492 m 22 Y s 1804 1492 m 22 Y s
 1876 1492 m 22 Y s 1947 1471 m 43 Y s 517 1471 m 43 Y s 446 1492 m 22 Y s 374 1492 m 22 Y s 302 1492 m 22 Y s 1947 1471 m 43 Y s 2019 1492 m 22 Y s 2091 1492 m 22 Y s 238 202 m 1312 Y s 291 202 m -53 X s 265 233 m -27 X s 265 265 m -27 X s 265 296 m
 -27 X s 265 328 m -27 X s 291 359 m -53 X s 265 391 m -27 X s 265 422 m -27 X s 265 454 m -27 X s 265 485 m -27 X s 291 517 m -53 X s 265 548 m -27 X s 265 580 m -27 X s 265 611 m -27 X s 265 642 m -27 X s 291 674 m -53 X s 265 705 m -27 X s 265 737
 m -27 X s 265 768 m -27 X s 265 800 m -27 X s 291 831 m -53 X s 265 863 m -27 X s 265 894 m -27 X s 265 926 m -27 X s 265 957 m -27 X s 291 989 m -53 X s 265 1020 m -27 X s 265 1052 m -27 X s 265 1083 m -27 X s 265 1115 m -27 X s 291 1146 m -53 X s
 265 1178 m -27 X s 265 1209 m -27 X s 265 1240 m -27 X s 265 1272 m -27 X s 291 1303 m -53 X s 265 1335 m -27 X s 265 1366 m -27 X s 265 1398 m -27 X s 265 1429 m -27 X s 291 1461 m -53 X s 291 1461 m -53 X s 265 1492 m -27 X s 2154 202 m 1312 Y s
 2101 202 m 53 X s 2128 233 m 26 X s 2128 265 m 26 X s 2128 296 m 26 X s 2128 328 m 26 X s 2101 359 m 53 X s 2128 391 m 26 X s 2128 422 m 26 X s 2128 454 m 26 X s 2128 485 m 26 X s 2101 517 m 53 X s 2128 548 m 26 X s 2128 580 m 26 X s 2128 611 m 26 X
 s 2128 642 m 26 X s 2101 674 m 53 X s 2128 705 m 26 X s 2128 737 m 26 X s 2128 768 m 26 X s 2128 800 m 26 X s 2101 831 m 53 X s 2128 863 m 26 X s 2128 894 m 26 X s 2128 926 m 26 X s 2128 957 m 26 X s 2101 989 m 53 X s 2128 1020 m 26 X s 2128 1052 m
 26 X s 2128 1083 m 26 X s 2128 1115 m 26 X s 2101 1146 m 53 X s 2128 1178 m 26 X s 2128 1209 m 26 X s 2128 1240 m 26 X s 2128 1272 m 26 X s 2101 1303 m 53 X s 2128 1335 m 26 X s 2128 1366 m 26 X s 2128 1398 m 26 X s 2128 1429 m 26 X s 2101 1461 m 53
 X s 2101 1461 m 53 X s 2128 1492 m 26 X s
 gsave  2268 1682 0 0 C 2211.02 193.403 t 90 r /Helvetica-Bold findfont 45.6587 sf 0 0 m (U/O\255flow \(S,B\): \(0.0, 0.0\)% / \(0.0, 0.0\)%) show NC gr  0.490196 0.545098 0.615686 c 0.364706 0.419608 0.490196 c 1415 96 23 1577 bf 0.490196 0.545098
 0.615686 c 23 1577 m 1415 X s 1438 1577 m 96 Y s 1438 1673 m -1415 X s 23 1673 m -96 Y s 1 1 1 c black 1 1 1 c
 gsave  2268 1682 0 0 C 72.293 1605.67 t 0 r /Helvetica-Bold findfont 76.0979 sf 0 0 m (TMVA response for classifier: BDTD) show NC gr 
 gr  gr showpage
end
%%EOF
