%!PS-Adobe-2.0 EPSF-2.0
%%BoundingBox:  0 0 567 420
%%Title: plots/mva_LD.eps: TMVA response LD
%%Creator: ROOT Version 5.34/09
%%CreationDate: Sun Jan  5 00:02:28 2014
%%EndComments
%%BeginProlog
80 dict begin
/s {stroke} def /l {lineto} def /m {moveto} def /t {translate} def
/r {rotate} def /rl {roll}  def /R {repeat} def
/d {rlineto} def /rm {rmoveto} def /gr {grestore} def /f {eofill} def
/c {setrgbcolor} def /black {0 setgray} def /sd {setdash} def
/cl {closepath} def /sf {scalefont setfont} def /lw {setlinewidth} def
/box {m dup 0 exch d exch 0 d 0 exch neg d cl} def
/NC{systemdict begin initclip end}def/C{NC box clip newpath}def
/bl {box s} def /bf {box f} def /Y { 0 exch d} def /X { 0 d} def 
/K {{pop pop 0 moveto} exch kshow} bind def
/ita {/ang 15 def gsave [1 0 ang dup sin exch cos div 1 0 0] concat} def 
/mp {newpath /y exch def /x exch def} def
/side {[w .77 mul w .23 mul] .385 w mul sd w 0 l currentpoint t -144 r} def
/mr {mp x y w2 0 360 arc} def /m24 {mr s} def /m20 {mr f} def
/mb {mp x y w2 add m w2 neg 0 d 0 w neg d w 0 d 0 w d cl} def
/mt {mp x y w2 add m w2 neg w neg d w 0 d cl} def
/m21 {mb f} def /m25 {mb s} def /m22 {mt f} def /m26{mt s} def
/m23 {mp x y w2 sub m w2 w d w neg 0 d cl f} def
/m27 {mp x y w2 add m w3 neg w2 neg d w3 w2 neg d w3 w2 d cl s} def
/m28 {mp x w2 sub y w2 sub w3 add m w3 0 d  0 w3 neg d w3 0 d 0 w3 d w3 0 d  0 w3 d w3 neg 0 d 0 w3 d w3 neg 0 d 0 w3 neg d w3 neg 0 d cl s } def
/m29 {mp gsave x w2 sub y w2 add w3 sub m currentpoint t 4 {side} repeat cl fill gr} def
/m30 {mp gsave x w2 sub y w2 add w3 sub m currentpoint t 4 {side} repeat cl s gr} def
/m31 {mp x y w2 sub m 0 w d x w2 sub y m w 0 d x w2 sub y w2 add m w w neg d x w2 sub y w2 sub m w w d s} def
/m32 {mp x y w2 sub m w2 w d w neg 0 d cl s} def
/m33 {mp x y w2 add m w3 neg w2 neg d w3 w2 neg d w3 w2 d cl f} def
/m34 {mp x w2 sub y w2 sub w3 add m w3 0 d  0 w3 neg d w3 0 d 0 w3 d w3 0 d  0 w3 d w3 neg 0 d 0 w3 d w3 neg 0 d 0 w3 neg d w3 neg 0 d cl f } def
/m2 {mp x y w2 sub m 0 w d x w2 sub y m w 0 d s} def
/m5 {mp x w2 sub y w2 sub m w w d x w2 sub y w2 add m w w neg d s} def
/reEncode {exch findfont dup length dict begin {1 index /FID eq  {pop pop} {def} ifelse } forall /Encoding exch def currentdict end dup /FontName get exch definefont pop } def [/Times-Bold /Times-Italic /Times-BoldItalic /Helvetica /Helvetica-Oblique
 /Helvetica-Bold /Helvetica-BoldOblique /Courier /Courier-Oblique /Courier-Bold /Courier-BoldOblique /Times-Roman /AvantGarde-Book /AvantGarde-BookOblique /AvantGarde-Demi /AvantGarde-DemiOblique /Bookman-Demi /Bookman-DemiItalic /Bookman-Light
 /Bookman-LightItalic /Helvetica-Narrow /Helvetica-Narrow-Bold /Helvetica-Narrow-BoldOblique /Helvetica-Narrow-Oblique /NewCenturySchlbk-Roman /NewCenturySchlbk-Bold /NewCenturySchlbk-BoldItalic /NewCenturySchlbk-Italic /Palatino-Bold
 /Palatino-BoldItalic /Palatino-Italic /Palatino-Roman ] {ISOLatin1Encoding reEncode } forall
%%EndProlog
%%BeginSetup
%%EndSetup
newpath  gsave  .25 .25 scale  gsave  0 0 t 0.490196 0.545098 0.615686 c[  ] 0 sd 3 lw 0.941176 0.941176 0.941176 c 2268 1682 0 0 bf black 1 1 0.992157 c 1916 1312 238 202 bf black 1916 1312 238 202 bl 1 1 0.992157 c 1916 1312 238 202 bf black 1916
 1312 238 202 bl 238 202 m 1916 X s
 gsave  2268 1682 0 0 C 1716.01 34.244 t 0 r /Helvetica-Bold findfont 72.293 sf 0 0 m (LD response) show NC gr  292 244 m -42 Y s 332 223 m -21 Y s 372 223 m -21 Y s 412 223 m -21 Y s 451 223 m -21 Y s 491 244 m -42 Y s 531 223 m -21 Y s 571 223 m
 -21 Y s 611 223 m -21 Y s 651 223 m -21 Y s 690 244 m -42 Y s 730 223 m -21 Y s 770 223 m -21 Y s 810 223 m -21 Y s 850 223 m -21 Y s 890 244 m -42 Y s 929 223 m -21 Y s 969 223 m -21 Y s 1009 223 m -21 Y s 1049 223 m -21 Y s 1089 244 m -42 Y s 1129
 223 m -21 Y s 1168 223 m -21 Y s 1208 223 m -21 Y s 1248 223 m -21 Y s 1288 244 m -42 Y s 1328 223 m -21 Y s 1368 223 m -21 Y s 1407 223 m -21 Y s 1447 223 m -21 Y s 1487 244 m -42 Y s 1527 223 m -21 Y s 1567 223 m -21 Y s 1607 223 m -21 Y s 1646
 223 m -21 Y s 1686 244 m -42 Y s 1726 223 m -21 Y s 1766 223 m -21 Y s 1806 223 m -21 Y s 1846 223 m -21 Y s 1885 244 m -42 Y s 1925 223 m -21 Y s 1965 223 m -21 Y s 2005 223 m -21 Y s 2045 223 m -21 Y s 2085 244 m -42 Y s 292 244 m -42 Y s 252 223
 m -21 Y s 2085 244 m -42 Y s 2124 223 m -21 Y s
 gsave  2268 1682 0 0 C 232.099 129.366 t 0 r /Helvetica-Bold findfont 64.6832 sf 0 0 m (\2550.5) show NC gr 
 gsave  2268 1682 0 0 C 433.758 129.366 t 0 r /Helvetica-Bold findfont 64.6832 sf 0 0 m (\2550.4) show NC gr 
 gsave  2268 1682 0 0 C 631.612 129.366 t 0 r /Helvetica-Bold findfont 64.6832 sf 0 0 m (\2550.3) show NC gr 
 gsave  2268 1682 0 0 C 829.467 129.366 t 0 r /Helvetica-Bold findfont 64.6832 sf 0 0 m (\2550.2) show NC gr 
 gsave  2268 1682 0 0 C 1034.93 129.366 t 0 r /Helvetica-Bold findfont 64.6832 sf 0 0 m (\2550.1) show NC gr 
 gsave  2268 1682 0 0 C 1267.03 129.366 t 0 r /Helvetica-Bold findfont 64.6832 sf 0 0 m (0) show NC gr 
 gsave  2268 1682 0 0 C 1442.05 129.366 t 0 r /Helvetica-Bold findfont 64.6832 sf 0 0 m (0.1) show NC gr 
 gsave  2268 1682 0 0 C 1639.91 129.366 t 0 r /Helvetica-Bold findfont 64.6832 sf 0 0 m (0.2) show NC gr 
 gsave  2268 1682 0 0 C 1837.76 129.366 t 0 r /Helvetica-Bold findfont 64.6832 sf 0 0 m (0.3) show NC gr 
 gsave  2268 1682 0 0 C 2035.62 129.366 t 0 r /Helvetica-Bold findfont 64.6832 sf 0 0 m (0.4) show NC gr  238 1514 m 1916 X s 292 1471 m 43 Y s 332 1492 m 22 Y s 372 1492 m 22 Y s 412 1492 m 22 Y s 451 1492 m 22 Y s 491 1471 m 43 Y s 531 1492 m 22 Y
 s 571 1492 m 22 Y s 611 1492 m 22 Y s 651 1492 m 22 Y s 690 1471 m 43 Y s 730 1492 m 22 Y s 770 1492 m 22 Y s 810 1492 m 22 Y s 850 1492 m 22 Y s 890 1471 m 43 Y s 929 1492 m 22 Y s 969 1492 m 22 Y s 1009 1492 m 22 Y s 1049 1492 m 22 Y s 1089 1471 m
 43 Y s 1129 1492 m 22 Y s 1168 1492 m 22 Y s 1208 1492 m 22 Y s 1248 1492 m 22 Y s 1288 1471 m 43 Y s 1328 1492 m 22 Y s 1368 1492 m 22 Y s 1407 1492 m 22 Y s 1447 1492 m 22 Y s 1487 1471 m 43 Y s 1527 1492 m 22 Y s 1567 1492 m 22 Y s 1607 1492 m 22
 Y s 1646 1492 m 22 Y s 1686 1471 m 43 Y s 1726 1492 m 22 Y s 1766 1492 m 22 Y s 1806 1492 m 22 Y s 1846 1492 m 22 Y s 1885 1471 m 43 Y s 1925 1492 m 22 Y s 1965 1492 m 22 Y s 2005 1492 m 22 Y s 2045 1492 m 22 Y s 2085 1471 m 43 Y s 292 1471 m 43 Y s
 252 1492 m 22 Y s 2085 1471 m 43 Y s 2124 1492 m 22 Y s 238 202 m 1312 Y s
 gsave  2268 1682 0 0 C 64.6832 1430.64 t 90 r /Helvetica-Bold findfont 72.293 sf 0 0 m (dx) show NC gr 
 gsave  2268 1682 0 0 C 30.4391 1411.62 t 90 r /Helvetica-Bold findfont 45.6587 sf 0 0 m ( ) show NC gr 
 gsave  2268 1682 0 0 C 64.6832 1388.79 t 90 r /Helvetica-Bold findfont 72.293 sf 0 0 m (/) show NC gr 
 gsave  2268 1682 0 0 C 30.4391 1369.76 t 90 r /Helvetica-Bold findfont 45.6587 sf 0 0 m ( ) show NC gr 
 gsave  2268 1682 0 0 C 60.8783 1095.81 t 90 r /Helvetica-Bold findfont 72.293 sf 0 0 m (\(1/N\) dN) show NC gr  291 202 m -53 X s 265 237 m -27 X s 265 271 m -27 X s 265 306 m -27 X s 265 341 m -27 X s 291 376 m -53 X s 265 411 m -27 X s 265 445 m
 -27 X s 265 480 m -27 X s 265 515 m -27 X s 291 550 m -53 X s 265 585 m -27 X s 265 619 m -27 X s 265 654 m -27 X s 265 689 m -27 X s 291 724 m -53 X s 265 759 m -27 X s 265 793 m -27 X s 265 828 m -27 X s 265 863 m -27 X s 291 898 m -53 X s 265 933
 m -27 X s 265 968 m -27 X s 265 1002 m -27 X s 265 1037 m -27 X s 291 1072 m -53 X s 265 1107 m -27 X s 265 1142 m -27 X s 265 1176 m -27 X s 265 1211 m -27 X s 291 1246 m -53 X s 265 1281 m -27 X s 265 1316 m -27 X s 265 1350 m -27 X s 265 1385 m
 -27 X s 291 1420 m -53 X s 291 1420 m -53 X s 265 1455 m -27 X s 265 1490 m -27 X s
 gsave  2268 1682 0 0 C 175.025 178.83 t 0 r /Helvetica-Bold findfont 64.6832 sf 0 0 m (0) show NC gr 
 gsave  2268 1682 0 0 C 182.635 350.05 t 0 r /Helvetica-Bold findfont 64.6832 sf 0 0 m (1) show NC gr 
 gsave  2268 1682 0 0 C 175.025 525.075 t 0 r /Helvetica-Bold findfont 64.6832 sf 0 0 m (2) show NC gr 
 gsave  2268 1682 0 0 C 175.025 700.1 t 0 r /Helvetica-Bold findfont 64.6832 sf 0 0 m (3) show NC gr 
 gsave  2268 1682 0 0 C 175.025 871.321 t 0 r /Helvetica-Bold findfont 64.6832 sf 0 0 m (4) show NC gr 
 gsave  2268 1682 0 0 C 175.025 1046.35 t 0 r /Helvetica-Bold findfont 64.6832 sf 0 0 m (5) show NC gr 
 gsave  2268 1682 0 0 C 175.025 1221.37 t 0 r /Helvetica-Bold findfont 64.6832 sf 0 0 m (6) show NC gr 
 gsave  2268 1682 0 0 C 175.025 1396.4 t 0 r /Helvetica-Bold findfont 64.6832 sf 0 0 m (7) show NC gr  2154 202 m 1312 Y s 2101 202 m 53 X s 2128 237 m 26 X s 2128 271 m 26 X s 2128 306 m 26 X s 2128 341 m 26 X s 2101 376 m 53 X s 2128 411 m 26 X s
 2128 445 m 26 X s 2128 480 m 26 X s 2128 515 m 26 X s 2101 550 m 53 X s 2128 585 m 26 X s 2128 619 m 26 X s 2128 654 m 26 X s 2128 689 m 26 X s 2101 724 m 53 X s 2128 759 m 26 X s 2128 793 m 26 X s 2128 828 m 26 X s 2128 863 m 26 X s 2101 898 m 53 X
 s 2128 933 m 26 X s 2128 968 m 26 X s 2128 1002 m 26 X s 2128 1037 m 26 X s 2101 1072 m 53 X s 2128 1107 m 26 X s 2128 1142 m 26 X s 2128 1176 m 26 X s 2128 1211 m 26 X s 2101 1246 m 53 X s 2128 1281 m 26 X s 2128 1316 m 26 X s 2128 1350 m 26 X s
 2128 1385 m 26 X s 2101 1420 m 53 X s 2101 1420 m 53 X s 2128 1455 m 26 X s 2128 1490 m 26 X s 0.490196 0.545098 0.615686 c 0.95 0.95 0.95 c 0.490196 0.545098 0.615686 c 680 202 238 1312 bl 238 1312 m 680 X s 918 1312 m 202 Y s 918 1514 m -680 X s
 238 1514 m -202 Y s black
 gsave  2268 1682 0 0 C 442.205 1431.17 t 0 r /Times-Italic findfont 76.0979 sf 0 0 m (Signal) show NC gr  0.49 0.6 0.82 c 269 1428 m 143 X 70 Y -143 X f 0 0 0.933333 c 6 lw 269 1498 m 143 X s 269 1428 m 143 X s 412 1428 m 70 Y s 269 1428 m 70 Y s
 black
 gsave  2268 1682 0 0 C 442.205 1330.27 t 0 r /Times-Italic findfont 76.0979 sf 0 0 m (Background) show NC gr  1 0 0 c 3 lw 412 1374 m -47 -47 d s 387 1398 m -70 -71 d s 339 1398 m -70 -71 d s 291 1398 m -22 -23 d s 6 lw 0 0 0.933333 c 1 0 0 c 269
 1398 m 143 X s 269 1327 m 143 X s 412 1327 m 71 Y s 269 1327 m 71 Y s 0 0 0.933333 c 0.49 0.6 0.82 c black 3 lw 0.49 0.6 0.82 c 238 202 m 133 Y 48 X -133 Y 240 X 140 Y 47 X -140 Y 48 X 134 Y 48 X -134 Y 96 X 130 Y 48 X -130 Y 144 X 132 Y 48 X 135 Y
 48 X -3 Y 47 X 401 Y 48 X -402 Y 48 X 273 Y 48 X 539 Y 48 X -544 Y 48 X 260 Y 48 X -124 Y 48 X -265 Y 48 X -2 Y 48 X -400 Y 47 X 277 Y 48 X -124 Y 48 X -153 Y 96 X 136 Y 48 X -136 Y 287 X 133 Y 48 X -133 Y f 6 lw 0 0 0.933333 c 0.49 0.6 0.82 c 0 0
 0.933333 c 238 335 m 48 X -133 Y 240 X 140 Y 47 X -140 Y 48 X 134 Y 48 X -134 Y 96 X 130 Y 48 X -130 Y 144 X 132 Y 48 X 135 Y 48 X -3 Y 47 X 401 Y 48 X -402 Y 48 X 273 Y 48 X 539 Y 48 X -544 Y 48 X 260 Y 48 X -124 Y 48 X -265 Y 48 X -2 Y 48 X -400 Y
 47 X 277 Y 48 X -124 Y 48 X -153 Y 96 X 136 Y 48 X -136 Y 287 X 133 Y 48 X -133 Y s 1 0 0 c black 3 lw 1 0 0 c 2126 202 m s 2078 202 m s 2030 202 m s 1982 202 m s 1934 202 m s 1886 202 m s 1867 231 m -30 -29 d s 1867 279 m -48 -47 d s 1789 202 m s
 1851 312 m -32 -32 d s 1741 202 m s 1693 202 m s 1645 202 m s 1627 232 m -30 -30 d s 1627 280 m -48 -47 d s 1549 202 m s 1610 312 m -31 -31 d s 1532 233 m -31 -31 d s 1532 281 m -79 -79 d s 1532 329 m -128 -127 d s 1532 377 m -176 -175 d s 1532 425
 m -224 -223 d s 1532 473 m -48 -48 d s 1479 421 m -219 -219 d s 1532 521 m -48 -48 d s 1436 426 m -224 -224 d s 1492 530 m -8 -8 d s 1436 474 m -272 -272 d s 1436 522 m -320 -320 d s 1436 570 m -368 -368 d s 1436 618 m -48 -48 d s 1350 532 m -330
 -330 d s 1436 666 m -48 -48 d s 1340 570 m -368 -368 d s 1436 714 m -48 -48 d s 1340 618 m -417 -416 d s 1420 747 m -32 -33 d s 1340 666 m -465 -464 d s 1340 715 m -513 -513 d s 1340 763 m -431 -431 d s 888 311 m -75 -75 d s 779 202 m s 1340 811 m
 -383 -383 d s 955 426 m -46 -46 d s 841 311 m -28 -27 d s 731 202 m cl s 1340 859 m -287 -288 d s 1014 533 m -57 -57 d s 717 236 m -34 -34 d s 1340 907 m -144 -144 d s 1178 745 m -78 -78 d s 1078 645 m -25 -25 d s 970 537 m -13 -13 d s 717 284 m -48
 -48 d s 635 202 m s 1340 955 m -96 -96 d s 1239 854 m -43 -43 d s 1148 763 m -48 -47 d s 697 312 m -28 -28 d s 587 202 m cl s 1340 1003 m -96 -96 d s 1148 812 m -48 -48 d s 539 202 m s 1340 1051 m -96 -96 d s 1148 860 m -48 -48 d s 490 202 m cl s
 1340 1099 m -96 -95 d s 1103 862 m -3 -2 d s 442 202 m s 1340 1148 m -96 -96 d s 394 202 m s 1340 1196 m -96 -96 d s 346 202 m cl s 1340 1244 m -48 -48 d s 1280 1184 m -36 -36 d s 298 202 m cl s 1340 1292 m -48 -48 d s 250 202 m cl s 1295 1295 m -3
 -3 d s 6 lw 238 202 m 431 X 110 Y 48 X -110 Y 96 X 109 Y 96 X 115 Y 48 X 111 Y 48 X -4 Y 48 X 112 Y 47 X 217 Y 48 X -117 Y 48 X 109 Y 48 X 330 Y 48 X 111 Y 48 X -763 Y 48 X 215 Y 48 X -326 Y 48 X 109 Y 48 X -328 Y 47 X 110 Y 48 X -110 Y 192 X 110 Y
 48 X -110 Y 287 X s black 3 lw 238 202 m 1916 X s 292 244 m -42 Y s 332 223 m -21 Y s 372 223 m -21 Y s 412 223 m -21 Y s 451 223 m -21 Y s 491 244 m -42 Y s 531 223 m -21 Y s 571 223 m -21 Y s 611 223 m -21 Y s 651 223 m -21 Y s 690 244 m -42 Y s
 730 223 m -21 Y s 770 223 m -21 Y s 810 223 m -21 Y s 850 223 m -21 Y s 890 244 m -42 Y s 929 223 m -21 Y s 969 223 m -21 Y s 1009 223 m -21 Y s 1049 223 m -21 Y s 1089 244 m -42 Y s 1129 223 m -21 Y s 1168 223 m -21 Y s 1208 223 m -21 Y s 1248 223
 m -21 Y s 1288 244 m -42 Y s 1328 223 m -21 Y s 1368 223 m -21 Y s 1407 223 m -21 Y s 1447 223 m -21 Y s 1487 244 m -42 Y s 1527 223 m -21 Y s 1567 223 m -21 Y s 1607 223 m -21 Y s 1646 223 m -21 Y s 1686 244 m -42 Y s 1726 223 m -21 Y s 1766 223 m
 -21 Y s 1806 223 m -21 Y s 1846 223 m -21 Y s 1885 244 m -42 Y s 1925 223 m -21 Y s 1965 223 m -21 Y s 2005 223 m -21 Y s 2045 223 m -21 Y s 2085 244 m -42 Y s 292 244 m -42 Y s 252 223 m -21 Y s 2085 244 m -42 Y s 2124 223 m -21 Y s 238 1514 m 1916
 X s 292 1471 m 43 Y s 332 1492 m 22 Y s 372 1492 m 22 Y s 412 1492 m 22 Y s 451 1492 m 22 Y s 491 1471 m 43 Y s 531 1492 m 22 Y s 571 1492 m 22 Y s 611 1492 m 22 Y s 651 1492 m 22 Y s 690 1471 m 43 Y s 730 1492 m 22 Y s 770 1492 m 22 Y s 810 1492 m
 22 Y s 850 1492 m 22 Y s 890 1471 m 43 Y s 929 1492 m 22 Y s 969 1492 m 22 Y s 1009 1492 m 22 Y s 1049 1492 m 22 Y s 1089 1471 m 43 Y s 1129 1492 m 22 Y s 1168 1492 m 22 Y s 1208 1492 m 22 Y s 1248 1492 m 22 Y s 1288 1471 m 43 Y s 1328 1492 m 22 Y s
 1368 1492 m 22 Y s 1407 1492 m 22 Y s 1447 1492 m 22 Y s 1487 1471 m 43 Y s 1527 1492 m 22 Y s 1567 1492 m 22 Y s 1607 1492 m 22 Y s 1646 1492 m 22 Y s 1686 1471 m 43 Y s 1726 1492 m 22 Y s 1766 1492 m 22 Y s 1806 1492 m 22 Y s 1846 1492 m 22 Y s
 1885 1471 m 43 Y s 1925 1492 m 22 Y s 1965 1492 m 22 Y s 2005 1492 m 22 Y s 2045 1492 m 22 Y s 2085 1471 m 43 Y s 292 1471 m 43 Y s 252 1492 m 22 Y s 2085 1471 m 43 Y s 2124 1492 m 22 Y s 238 202 m 1312 Y s 291 202 m -53 X s 265 237 m -27 X s 265
 271 m -27 X s 265 306 m -27 X s 265 341 m -27 X s 291 376 m -53 X s 265 411 m -27 X s 265 445 m -27 X s 265 480 m -27 X s 265 515 m -27 X s 291 550 m -53 X s 265 585 m -27 X s 265 619 m -27 X s 265 654 m -27 X s 265 689 m -27 X s 291 724 m -53 X s
 265 759 m -27 X s 265 793 m -27 X s 265 828 m -27 X s 265 863 m -27 X s 291 898 m -53 X s 265 933 m -27 X s 265 968 m -27 X s 265 1002 m -27 X s 265 1037 m -27 X s 291 1072 m -53 X s 265 1107 m -27 X s 265 1142 m -27 X s 265 1176 m -27 X s 265 1211
 m -27 X s 291 1246 m -53 X s 265 1281 m -27 X s 265 1316 m -27 X s 265 1350 m -27 X s 265 1385 m -27 X s 291 1420 m -53 X s 291 1420 m -53 X s 265 1455 m -27 X s 265 1490 m -27 X s 2154 202 m 1312 Y s 2101 202 m 53 X s 2128 237 m 26 X s 2128 271 m
 26 X s 2128 306 m 26 X s 2128 341 m 26 X s 2101 376 m 53 X s 2128 411 m 26 X s 2128 445 m 26 X s 2128 480 m 26 X s 2128 515 m 26 X s 2101 550 m 53 X s 2128 585 m 26 X s 2128 619 m 26 X s 2128 654 m 26 X s 2128 689 m 26 X s 2101 724 m 53 X s 2128 759
 m 26 X s 2128 793 m 26 X s 2128 828 m 26 X s 2128 863 m 26 X s 2101 898 m 53 X s 2128 933 m 26 X s 2128 968 m 26 X s 2128 1002 m 26 X s 2128 1037 m 26 X s 2101 1072 m 53 X s 2128 1107 m 26 X s 2128 1142 m 26 X s 2128 1176 m 26 X s 2128 1211 m 26 X s
 2101 1246 m 53 X s 2128 1281 m 26 X s 2128 1316 m 26 X s 2128 1350 m 26 X s 2128 1385 m 26 X s 2101 1420 m 53 X s 2101 1420 m 53 X s 2128 1455 m 26 X s 2128 1490 m 26 X s
 gsave  2268 1682 0 0 C 2211.02 193.403 t 90 r /Helvetica-Bold findfont 45.6587 sf 0 0 m (U/O\255flow \(S,B\): \(0.0, 0.0\)% / \(0.0, 0.0\)%) show NC gr  0.490196 0.545098 0.615686 c 0.364706 0.419608 0.490196 c 1301 96 23 1577 bf 0.490196 0.545098
 0.615686 c 23 1577 m 1301 X s 1324 1577 m 96 Y s 1324 1673 m -1301 X s 23 1673 m -96 Y s 1 1 1 c black 1 1 1 c
 gsave  2268 1682 0 0 C 72.293 1605.67 t 0 r /Helvetica-Bold findfont 76.0979 sf 0 0 m (TMVA response for classifier: LD) show NC gr 
 gr  gr showpage
end
%%EOF
