%!PS-Adobe-2.0 EPSF-2.0
%%BoundingBox:  0 0 567 420
%%Title: plots/mva_BDT.eps: TMVA response BDT
%%Creator: ROOT Version 5.34/09
%%CreationDate: Sun Jan  5 00:02:29 2014
%%EndComments
%%BeginProlog
80 dict begin
/s {stroke} def /l {lineto} def /m {moveto} def /t {translate} def
/r {rotate} def /rl {roll}  def /R {repeat} def
/d {rlineto} def /rm {rmoveto} def /gr {grestore} def /f {eofill} def
/c {setrgbcolor} def /black {0 setgray} def /sd {setdash} def
/cl {closepath} def /sf {scalefont setfont} def /lw {setlinewidth} def
/box {m dup 0 exch d exch 0 d 0 exch neg d cl} def
/NC{systemdict begin initclip end}def/C{NC box clip newpath}def
/bl {box s} def /bf {box f} def /Y { 0 exch d} def /X { 0 d} def 
/K {{pop pop 0 moveto} exch kshow} bind def
/ita {/ang 15 def gsave [1 0 ang dup sin exch cos div 1 0 0] concat} def 
/mp {newpath /y exch def /x exch def} def
/side {[w .77 mul w .23 mul] .385 w mul sd w 0 l currentpoint t -144 r} def
/mr {mp x y w2 0 360 arc} def /m24 {mr s} def /m20 {mr f} def
/mb {mp x y w2 add m w2 neg 0 d 0 w neg d w 0 d 0 w d cl} def
/mt {mp x y w2 add m w2 neg w neg d w 0 d cl} def
/m21 {mb f} def /m25 {mb s} def /m22 {mt f} def /m26{mt s} def
/m23 {mp x y w2 sub m w2 w d w neg 0 d cl f} def
/m27 {mp x y w2 add m w3 neg w2 neg d w3 w2 neg d w3 w2 d cl s} def
/m28 {mp x w2 sub y w2 sub w3 add m w3 0 d  0 w3 neg d w3 0 d 0 w3 d w3 0 d  0 w3 d w3 neg 0 d 0 w3 d w3 neg 0 d 0 w3 neg d w3 neg 0 d cl s } def
/m29 {mp gsave x w2 sub y w2 add w3 sub m currentpoint t 4 {side} repeat cl fill gr} def
/m30 {mp gsave x w2 sub y w2 add w3 sub m currentpoint t 4 {side} repeat cl s gr} def
/m31 {mp x y w2 sub m 0 w d x w2 sub y m w 0 d x w2 sub y w2 add m w w neg d x w2 sub y w2 sub m w w d s} def
/m32 {mp x y w2 sub m w2 w d w neg 0 d cl s} def
/m33 {mp x y w2 add m w3 neg w2 neg d w3 w2 neg d w3 w2 d cl f} def
/m34 {mp x w2 sub y w2 sub w3 add m w3 0 d  0 w3 neg d w3 0 d 0 w3 d w3 0 d  0 w3 d w3 neg 0 d 0 w3 d w3 neg 0 d 0 w3 neg d w3 neg 0 d cl f } def
/m2 {mp x y w2 sub m 0 w d x w2 sub y m w 0 d s} def
/m5 {mp x w2 sub y w2 sub m w w d x w2 sub y w2 add m w w neg d s} def
/reEncode {exch findfont dup length dict begin {1 index /FID eq  {pop pop} {def} ifelse } forall /Encoding exch def currentdict end dup /FontName get exch definefont pop } def [/Times-Bold /Times-Italic /Times-BoldItalic /Helvetica /Helvetica-Oblique
 /Helvetica-Bold /Helvetica-BoldOblique /Courier /Courier-Oblique /Courier-Bold /Courier-BoldOblique /Times-Roman /AvantGarde-Book /AvantGarde-BookOblique /AvantGarde-Demi /AvantGarde-DemiOblique /Bookman-Demi /Bookman-DemiItalic /Bookman-Light
 /Bookman-LightItalic /Helvetica-Narrow /Helvetica-Narrow-Bold /Helvetica-Narrow-BoldOblique /Helvetica-Narrow-Oblique /NewCenturySchlbk-Roman /NewCenturySchlbk-Bold /NewCenturySchlbk-BoldItalic /NewCenturySchlbk-Italic /Palatino-Bold
 /Palatino-BoldItalic /Palatino-Italic /Palatino-Roman ] {ISOLatin1Encoding reEncode } forall
%%EndProlog
%%BeginSetup
%%EndSetup
newpath  gsave  .25 .25 scale  gsave  0 0 t 0.490196 0.545098 0.615686 c[  ] 0 sd 3 lw 0.941176 0.941176 0.941176 c 2268 1682 0 0 bf black 1 1 0.992157 c 1916 1312 238 202 bf black 1916 1312 238 202 bl 1 1 0.992157 c 1916 1312 238 202 bf black 1916
 1312 238 202 bl 238 202 m 1916 X s
 gsave  2268 1682 0 0 C 1662.74 34.244 t 0 r /Helvetica-Bold findfont 72.293 sf 0 0 m (BDT response) show NC gr  360 244 m -42 Y s 425 223 m -21 Y s 490 223 m -21 Y s 555 223 m -21 Y s 620 223 m -21 Y s 684 244 m -42 Y s 749 223 m -21 Y s 814 223 m
 -21 Y s 879 223 m -21 Y s 944 223 m -21 Y s 1008 244 m -42 Y s 1073 223 m -21 Y s 1138 223 m -21 Y s 1203 223 m -21 Y s 1268 223 m -21 Y s 1333 244 m -42 Y s 1397 223 m -21 Y s 1462 223 m -21 Y s 1527 223 m -21 Y s 1592 223 m -21 Y s 1657 244 m -42
 Y s 1722 223 m -21 Y s 1786 223 m -21 Y s 1851 223 m -21 Y s 1916 223 m -21 Y s 1981 244 m -42 Y s 360 244 m -42 Y s 295 223 m -21 Y s 1981 244 m -42 Y s 2046 223 m -21 Y s 2111 223 m -21 Y s
 gsave  2268 1682 0 0 C 300.587 129.366 t 0 r /Helvetica-Bold findfont 64.6832 sf 0 0 m (\2550.3) show NC gr 
 gsave  2268 1682 0 0 C 624.003 129.366 t 0 r /Helvetica-Bold findfont 64.6832 sf 0 0 m (\2550.2) show NC gr 
 gsave  2268 1682 0 0 C 955.028 129.366 t 0 r /Helvetica-Bold findfont 64.6832 sf 0 0 m (\2550.1) show NC gr 
 gsave  2268 1682 0 0 C 1312.69 129.366 t 0 r /Helvetica-Bold findfont 64.6832 sf 0 0 m (0) show NC gr 
 gsave  2268 1682 0 0 C 1613.27 129.366 t 0 r /Helvetica-Bold findfont 64.6832 sf 0 0 m (0.1) show NC gr 
 gsave  2268 1682 0 0 C 1932.89 129.366 t 0 r /Helvetica-Bold findfont 64.6832 sf 0 0 m (0.2) show NC gr  238 1514 m 1916 X s 360 1471 m 43 Y s 425 1492 m 22 Y s 490 1492 m 22 Y s 555 1492 m 22 Y s 620 1492 m 22 Y s 684 1471 m 43 Y s 749 1492 m 22 Y
 s 814 1492 m 22 Y s 879 1492 m 22 Y s 944 1492 m 22 Y s 1008 1471 m 43 Y s 1073 1492 m 22 Y s 1138 1492 m 22 Y s 1203 1492 m 22 Y s 1268 1492 m 22 Y s 1333 1471 m 43 Y s 1397 1492 m 22 Y s 1462 1492 m 22 Y s 1527 1492 m 22 Y s 1592 1492 m 22 Y s
 1657 1471 m 43 Y s 1722 1492 m 22 Y s 1786 1492 m 22 Y s 1851 1492 m 22 Y s 1916 1492 m 22 Y s 1981 1471 m 43 Y s 360 1471 m 43 Y s 295 1492 m 22 Y s 1981 1471 m 43 Y s 2046 1492 m 22 Y s 2111 1492 m 22 Y s 238 202 m 1312 Y s
 gsave  2268 1682 0 0 C 64.6832 1430.64 t 90 r /Helvetica-Bold findfont 72.293 sf 0 0 m (dx) show NC gr 
 gsave  2268 1682 0 0 C 30.4391 1411.62 t 90 r /Helvetica-Bold findfont 45.6587 sf 0 0 m ( ) show NC gr 
 gsave  2268 1682 0 0 C 64.6832 1388.79 t 90 r /Helvetica-Bold findfont 72.293 sf 0 0 m (/) show NC gr 
 gsave  2268 1682 0 0 C 30.4391 1369.76 t 90 r /Helvetica-Bold findfont 45.6587 sf 0 0 m ( ) show NC gr 
 gsave  2268 1682 0 0 C 60.8783 1095.81 t 90 r /Helvetica-Bold findfont 72.293 sf 0 0 m (\(1/N\) dN) show NC gr  291 202 m -53 X s 265 237 m -27 X s 265 272 m -27 X s 265 307 m -27 X s 265 342 m -27 X s 291 377 m -53 X s 265 413 m -27 X s 265 448 m
 -27 X s 265 483 m -27 X s 265 518 m -27 X s 291 553 m -53 X s 265 588 m -27 X s 265 623 m -27 X s 265 658 m -27 X s 265 693 m -27 X s 291 729 m -53 X s 265 764 m -27 X s 265 799 m -27 X s 265 834 m -27 X s 265 869 m -27 X s 291 904 m -53 X s 265 939
 m -27 X s 265 974 m -27 X s 265 1010 m -27 X s 265 1045 m -27 X s 291 1080 m -53 X s 265 1115 m -27 X s 265 1150 m -27 X s 265 1185 m -27 X s 265 1220 m -27 X s 291 1255 m -53 X s 265 1290 m -27 X s 265 1326 m -27 X s 265 1361 m -27 X s 265 1396 m
 -27 X s 291 1431 m -53 X s 291 1431 m -53 X s 265 1466 m -27 X s 265 1501 m -27 X s
 gsave  2268 1682 0 0 C 175.025 178.83 t 0 r /Helvetica-Bold findfont 64.6832 sf 0 0 m (0) show NC gr 
 gsave  2268 1682 0 0 C 182.635 353.855 t 0 r /Helvetica-Bold findfont 64.6832 sf 0 0 m (1) show NC gr 
 gsave  2268 1682 0 0 C 175.025 528.88 t 0 r /Helvetica-Bold findfont 64.6832 sf 0 0 m (2) show NC gr 
 gsave  2268 1682 0 0 C 175.025 703.905 t 0 r /Helvetica-Bold findfont 64.6832 sf 0 0 m (3) show NC gr 
 gsave  2268 1682 0 0 C 175.025 878.93 t 0 r /Helvetica-Bold findfont 64.6832 sf 0 0 m (4) show NC gr 
 gsave  2268 1682 0 0 C 175.025 1053.96 t 0 r /Helvetica-Bold findfont 64.6832 sf 0 0 m (5) show NC gr 
 gsave  2268 1682 0 0 C 175.025 1228.98 t 0 r /Helvetica-Bold findfont 64.6832 sf 0 0 m (6) show NC gr 
 gsave  2268 1682 0 0 C 175.025 1407.81 t 0 r /Helvetica-Bold findfont 64.6832 sf 0 0 m (7) show NC gr  2154 202 m 1312 Y s 2101 202 m 53 X s 2128 237 m 26 X s 2128 272 m 26 X s 2128 307 m 26 X s 2128 342 m 26 X s 2101 377 m 53 X s 2128 413 m 26 X s
 2128 448 m 26 X s 2128 483 m 26 X s 2128 518 m 26 X s 2101 553 m 53 X s 2128 588 m 26 X s 2128 623 m 26 X s 2128 658 m 26 X s 2128 693 m 26 X s 2101 729 m 53 X s 2128 764 m 26 X s 2128 799 m 26 X s 2128 834 m 26 X s 2128 869 m 26 X s 2101 904 m 53 X
 s 2128 939 m 26 X s 2128 974 m 26 X s 2128 1010 m 26 X s 2128 1045 m 26 X s 2101 1080 m 53 X s 2128 1115 m 26 X s 2128 1150 m 26 X s 2128 1185 m 26 X s 2128 1220 m 26 X s 2101 1255 m 53 X s 2128 1290 m 26 X s 2128 1326 m 26 X s 2128 1361 m 26 X s
 2128 1396 m 26 X s 2101 1431 m 53 X s 2101 1431 m 53 X s 2128 1466 m 26 X s 2128 1501 m 26 X s 0.490196 0.545098 0.615686 c 0.95 0.95 0.95 c 0.490196 0.545098 0.615686 c 680 202 238 1312 bl 238 1312 m 680 X s 918 1312 m 202 Y s 918 1514 m -680 X s
 238 1514 m -202 Y s black
 gsave  2268 1682 0 0 C 442.205 1431.17 t 0 r /Times-Italic findfont 76.0979 sf 0 0 m (Signal) show NC gr  0.49 0.6 0.82 c 269 1428 m 143 X 70 Y -143 X f 0 0 0.933333 c 6 lw 269 1498 m 143 X s 269 1428 m 143 X s 412 1428 m 70 Y s 269 1428 m 70 Y s
 black
 gsave  2268 1682 0 0 C 442.205 1330.27 t 0 r /Times-Italic findfont 76.0979 sf 0 0 m (Background) show NC gr  1 0 0 c 3 lw 412 1374 m -47 -47 d s 387 1398 m -70 -71 d s 339 1398 m -70 -71 d s 291 1398 m -22 -23 d s 6 lw 0 0 0.933333 c 1 0 0 c 269
 1398 m 143 X s 269 1327 m 143 X s 412 1327 m 71 Y s 269 1327 m 71 Y s 0 0 0.933333 c 0.49 0.6 0.82 c black 3 lw 0.49 0.6 0.82 c 238 202 m 431 Y 48 X -431 Y 192 X 216 Y 48 X 7 Y 47 X -223 Y 48 X 218 Y 48 X -218 Y 96 X 438 Y 48 X 444 Y 48 X -658 Y 48
 X 869 Y 48 X -872 Y 48 X 663 Y 48 X -670 Y 47 X -214 Y 48 X 673 Y 48 X 413 Y 48 X 5 Y 48 X -180 Y 48 X -471 Y 48 X 8 Y 48 X -448 Y 143 X 438 Y 48 X -222 Y 48 X -216 Y 48 X 437 Y 48 X -221 Y 48 X 2 Y 48 X -218 Y 96 X 225 Y 48 X 208 Y 48 X -433 Y 95 X
 f 6 lw 0 0 0.933333 c 0.49 0.6 0.82 c 0 0 0.933333 c 238 633 m 48 X -431 Y 192 X 216 Y 48 X 7 Y 47 X -223 Y 48 X 218 Y 48 X -218 Y 96 X 438 Y 48 X 444 Y 48 X -658 Y 48 X 869 Y 48 X -872 Y 48 X 663 Y 48 X -670 Y 47 X -214 Y 48 X 673 Y 48 X 413 Y 48 X
 5 Y 48 X -180 Y 48 X -471 Y 48 X 8 Y 48 X -448 Y 143 X 438 Y 48 X -222 Y 48 X -216 Y 48 X 437 Y 48 X -221 Y 48 X 2 Y 48 X -218 Y 96 X 225 Y 48 X 208 Y 48 X -433 Y 95 X s 1 0 0 c black 3 lw 1 0 0 c 2154 230 m -28 -28 d s 2154 278 m -48 -48 d s 2078
 202 m s 2154 326 m -48 -48 d s 2059 231 m -29 -29 d s 2154 374 m -48 -47 d s 2059 279 m -77 -77 d s 2114 382 m -8 -7 d s 2059 327 m -96 -96 d s 1934 202 m cl s 2059 375 m -96 -96 d s 1915 231 m -29 -29 d s 2015 380 m -52 -53 d s 1915 279 m -48 -48 d
 s 1837 202 m cl s 1970 382 m -7 -7 d s 1915 327 m -48 -48 d s 1819 232 m -30 -30 d s 1915 375 m -48 -47 d s 1819 280 m -78 -78 d s 1872 381 m -5 -5 d s 1819 328 m -96 -96 d s 1693 202 m s 1819 376 m -96 -96 d s 1675 232 m -30 -30 d s 1819 424 m -96
 -96 d s 1675 280 m -78 -78 d s 1819 472 m -48 -48 d s 1728 381 m -5 -5 d s 1675 328 m -126 -126 d s 1819 520 m -48 -48 d s 1675 376 m -174 -174 d s 1810 559 m -39 -39 d s 1675 425 m -222 -223 d s 1675 473 m -271 -271 d s 1675 521 m -319 -319 d s
 1675 569 m -367 -367 d s 1675 617 m -415 -415 d s 1675 665 m -96 -96 d s 1576 565 m -364 -363 d s 1675 713 m -96 -96 d s 1523 561 m -359 -359 d s 1675 761 m -96 -96 d s 1484 570 m -144 -144 d s 1295 381 m -179 -179 d s 1675 809 m -48 -48 d s 1605
 739 m -26 -25 d s 1484 618 m -144 -144 d s 1292 426 m -224 -224 d s 1675 857 m -48 -47 d s 1484 666 m -144 -144 d s 1292 474 m -272 -272 d s 1675 906 m -48 -48 d s 1484 714 m -144 -144 d s 1292 522 m -320 -320 d s 1675 954 m -48 -48 d s 1484 762 m
 -144 -144 d s 1292 570 m -369 -368 d s 1675 1002 m -48 -48 d s 1484 810 m -144 -144 d s 1292 619 m -383 -384 d s 875 202 m s 1675 1050 m -48 -48 d s 1484 858 m -96 -96 d s 1366 741 m -26 -26 d s 1292 667 m -383 -384 d s 827 202 m s 1675 1098 m -48
 -48 d s 1484 906 m -96 -95 d s 1292 715 m -144 -144 d s 1138 560 m -133 -133 d s 960 383 m -51 -51 d s 813 236 m -34 -34 d s 1630 1101 m -3 -3 d s 1446 917 m -58 -58 d s 1292 763 m -144 -144 d s 1100 571 m -95 -96 d s 957 428 m -48 -48 d s 813 284 m
 -82 -82 d s 1420 938 m -32 -31 d s 1292 811 m -144 -144 d s 1100 619 m -95 -95 d s 957 476 m -48 -48 d s 813 332 m -130 -130 d s 1292 859 m -96 -96 d s 1182 749 m -34 -34 d s 1100 667 m -95 -95 d s 957 524 m -48 -48 d s 813 380 m -144 -144 d s 635
 202 m cl s 1292 907 m -96 -96 d s 1100 716 m -95 -96 d s 957 572 m -48 -48 d s 813 428 m -144 -144 d s 621 237 m -34 -35 d s 1249 913 m -53 -54 d s 1100 764 m -95 -96 d s 957 620 m -48 -48 d s 813 476 m -144 -143 d s 621 285 m -48 -48 d s 539 202 m
 s 1212 924 m -16 -16 d s 1100 812 m -47 -48 d s 1026 737 m -21 -21 d s 957 668 m -48 -48 d s 813 524 m -144 -143 d s 621 333 m -48 -48 d s 526 237 m -36 -35 d s 1100 860 m -47 -48 d s 957 716 m -48 -48 d s 800 560 m -131 -131 d s 621 381 m -48 -48 d
 s 526 285 m -48 -48 d s 442 202 m cl s 1100 908 m -47 -48 d s 942 750 m -33 -34 d s 751 559 m -82 -82 d s 621 429 m -48 -48 d s 526 333 m -48 -48 d s 394 202 m s 1066 922 m -13 -14 d s 717 573 m -48 -48 d s 621 477 m -48 -48 d s 524 380 m -46 -47 d
 s 346 202 m cl s 717 621 m -48 -48 d s 621 525 m -48 -48 d s 298 202 m cl s 717 669 m -48 -48 d s 610 562 m -37 -37 d s 250 202 m cl s 717 717 m -48 -48 d s 717 765 m -48 -48 d s 717 813 m -48 -48 d s 717 861 m -48 -47 d s 717 910 m -48 -48 d s 683
 923 m -14 -13 d s 6 lw 238 202 m 240 X 178 Y 48 X -178 Y 47 X 360 Y 48 X -360 Y 48 X 721 Y 48 X -364 Y 48 X 1 Y 48 X -358 Y 96 X 548 Y 48 X -367 Y 48 X 354 Y 48 X 185 Y 47 X -362 Y 48 X 189 Y 48 X 175 Y 48 X -11 Y 48 X -532 Y 48 X 360 Y 48 X 197 Y
 48 X -21 Y 48 X -356 Y 48 X 4 Y 47 X 174 Y 48 X 362 Y 48 X -899 Y 48 X 179 Y 48 X 178 Y 48 X -357 Y 48 X 179 Y 48 X -179 Y 48 X 180 Y 48 X -2 Y 48 X -178 Y 47 X 180 Y 48 X -180 Y s black 3 lw 238 202 m 1916 X s 360 244 m -42 Y s 425 223 m -21 Y s
 490 223 m -21 Y s 555 223 m -21 Y s 620 223 m -21 Y s 684 244 m -42 Y s 749 223 m -21 Y s 814 223 m -21 Y s 879 223 m -21 Y s 944 223 m -21 Y s 1008 244 m -42 Y s 1073 223 m -21 Y s 1138 223 m -21 Y s 1203 223 m -21 Y s 1268 223 m -21 Y s 1333 244 m
 -42 Y s 1397 223 m -21 Y s 1462 223 m -21 Y s 1527 223 m -21 Y s 1592 223 m -21 Y s 1657 244 m -42 Y s 1722 223 m -21 Y s 1786 223 m -21 Y s 1851 223 m -21 Y s 1916 223 m -21 Y s 1981 244 m -42 Y s 360 244 m -42 Y s 295 223 m -21 Y s 1981 244 m -42
 Y s 2046 223 m -21 Y s 2111 223 m -21 Y s 238 1514 m 1916 X s 360 1471 m 43 Y s 425 1492 m 22 Y s 490 1492 m 22 Y s 555 1492 m 22 Y s 620 1492 m 22 Y s 684 1471 m 43 Y s 749 1492 m 22 Y s 814 1492 m 22 Y s 879 1492 m 22 Y s 944 1492 m 22 Y s 1008
 1471 m 43 Y s 1073 1492 m 22 Y s 1138 1492 m 22 Y s 1203 1492 m 22 Y s 1268 1492 m 22 Y s 1333 1471 m 43 Y s 1397 1492 m 22 Y s 1462 1492 m 22 Y s 1527 1492 m 22 Y s 1592 1492 m 22 Y s 1657 1471 m 43 Y s 1722 1492 m 22 Y s 1786 1492 m 22 Y s 1851
 1492 m 22 Y s 1916 1492 m 22 Y s 1981 1471 m 43 Y s 360 1471 m 43 Y s 295 1492 m 22 Y s 1981 1471 m 43 Y s 2046 1492 m 22 Y s 2111 1492 m 22 Y s 238 202 m 1312 Y s 291 202 m -53 X s 265 237 m -27 X s 265 272 m -27 X s 265 307 m -27 X s 265 342 m -27
 X s 291 377 m -53 X s 265 413 m -27 X s 265 448 m -27 X s 265 483 m -27 X s 265 518 m -27 X s 291 553 m -53 X s 265 588 m -27 X s 265 623 m -27 X s 265 658 m -27 X s 265 693 m -27 X s 291 729 m -53 X s 265 764 m -27 X s 265 799 m -27 X s 265 834 m
 -27 X s 265 869 m -27 X s 291 904 m -53 X s 265 939 m -27 X s 265 974 m -27 X s 265 1010 m -27 X s 265 1045 m -27 X s 291 1080 m -53 X s 265 1115 m -27 X s 265 1150 m -27 X s 265 1185 m -27 X s 265 1220 m -27 X s 291 1255 m -53 X s 265 1290 m -27 X
 s 265 1326 m -27 X s 265 1361 m -27 X s 265 1396 m -27 X s 291 1431 m -53 X s 291 1431 m -53 X s 265 1466 m -27 X s 265 1501 m -27 X s 2154 202 m 1312 Y s 2101 202 m 53 X s 2128 237 m 26 X s 2128 272 m 26 X s 2128 307 m 26 X s 2128 342 m 26 X s 2101
 377 m 53 X s 2128 413 m 26 X s 2128 448 m 26 X s 2128 483 m 26 X s 2128 518 m 26 X s 2101 553 m 53 X s 2128 588 m 26 X s 2128 623 m 26 X s 2128 658 m 26 X s 2128 693 m 26 X s 2101 729 m 53 X s 2128 764 m 26 X s 2128 799 m 26 X s 2128 834 m 26 X s
 2128 869 m 26 X s 2101 904 m 53 X s 2128 939 m 26 X s 2128 974 m 26 X s 2128 1010 m 26 X s 2128 1045 m 26 X s 2101 1080 m 53 X s 2128 1115 m 26 X s 2128 1150 m 26 X s 2128 1185 m 26 X s 2128 1220 m 26 X s 2101 1255 m 53 X s 2128 1290 m 26 X s 2128
 1326 m 26 X s 2128 1361 m 26 X s 2128 1396 m 26 X s 2101 1431 m 53 X s 2101 1431 m 53 X s 2128 1466 m 26 X s 2128 1501 m 26 X s
 gsave  2268 1682 0 0 C 2211.02 193.403 t 90 r /Helvetica-Bold findfont 45.6587 sf 0 0 m (U/O\255flow \(S,B\): \(0.0, 0.0\)% / \(0.0, 0.0\)%) show NC gr  0.490196 0.545098 0.615686 c 0.364706 0.419608 0.490196 c 1362 96 23 1577 bf 0.490196 0.545098
 0.615686 c 23 1577 m 1362 X s 1385 1577 m 96 Y s 1385 1673 m -1362 X s 23 1673 m -96 Y s 1 1 1 c black 1 1 1 c
 gsave  2268 1682 0 0 C 72.293 1605.67 t 0 r /Helvetica-Bold findfont 76.0979 sf 0 0 m (TMVA response for classifier: BDT) show NC gr 
 gr  gr showpage
end
%%EOF
