%!PS-Adobe-2.0 EPSF-2.0
%%BoundingBox:  0 0 567 420
%%Title: plots/mva_CFMlpANN.eps: TMVA response CFMlpANN
%%Creator: ROOT Version 5.34/09
%%CreationDate: Sun Jan  5 00:02:30 2014
%%EndComments
%%BeginProlog
80 dict begin
/s {stroke} def /l {lineto} def /m {moveto} def /t {translate} def
/r {rotate} def /rl {roll}  def /R {repeat} def
/d {rlineto} def /rm {rmoveto} def /gr {grestore} def /f {eofill} def
/c {setrgbcolor} def /black {0 setgray} def /sd {setdash} def
/cl {closepath} def /sf {scalefont setfont} def /lw {setlinewidth} def
/box {m dup 0 exch d exch 0 d 0 exch neg d cl} def
/NC{systemdict begin initclip end}def/C{NC box clip newpath}def
/bl {box s} def /bf {box f} def /Y { 0 exch d} def /X { 0 d} def 
/K {{pop pop 0 moveto} exch kshow} bind def
/ita {/ang 15 def gsave [1 0 ang dup sin exch cos div 1 0 0] concat} def 
/mp {newpath /y exch def /x exch def} def
/side {[w .77 mul w .23 mul] .385 w mul sd w 0 l currentpoint t -144 r} def
/mr {mp x y w2 0 360 arc} def /m24 {mr s} def /m20 {mr f} def
/mb {mp x y w2 add m w2 neg 0 d 0 w neg d w 0 d 0 w d cl} def
/mt {mp x y w2 add m w2 neg w neg d w 0 d cl} def
/m21 {mb f} def /m25 {mb s} def /m22 {mt f} def /m26{mt s} def
/m23 {mp x y w2 sub m w2 w d w neg 0 d cl f} def
/m27 {mp x y w2 add m w3 neg w2 neg d w3 w2 neg d w3 w2 d cl s} def
/m28 {mp x w2 sub y w2 sub w3 add m w3 0 d  0 w3 neg d w3 0 d 0 w3 d w3 0 d  0 w3 d w3 neg 0 d 0 w3 d w3 neg 0 d 0 w3 neg d w3 neg 0 d cl s } def
/m29 {mp gsave x w2 sub y w2 add w3 sub m currentpoint t 4 {side} repeat cl fill gr} def
/m30 {mp gsave x w2 sub y w2 add w3 sub m currentpoint t 4 {side} repeat cl s gr} def
/m31 {mp x y w2 sub m 0 w d x w2 sub y m w 0 d x w2 sub y w2 add m w w neg d x w2 sub y w2 sub m w w d s} def
/m32 {mp x y w2 sub m w2 w d w neg 0 d cl s} def
/m33 {mp x y w2 add m w3 neg w2 neg d w3 w2 neg d w3 w2 d cl f} def
/m34 {mp x w2 sub y w2 sub w3 add m w3 0 d  0 w3 neg d w3 0 d 0 w3 d w3 0 d  0 w3 d w3 neg 0 d 0 w3 d w3 neg 0 d 0 w3 neg d w3 neg 0 d cl f } def
/m2 {mp x y w2 sub m 0 w d x w2 sub y m w 0 d s} def
/m5 {mp x w2 sub y w2 sub m w w d x w2 sub y w2 add m w w neg d s} def
/reEncode {exch findfont dup length dict begin {1 index /FID eq  {pop pop} {def} ifelse } forall /Encoding exch def currentdict end dup /FontName get exch definefont pop } def [/Times-Bold /Times-Italic /Times-BoldItalic /Helvetica /Helvetica-Oblique
 /Helvetica-Bold /Helvetica-BoldOblique /Courier /Courier-Oblique /Courier-Bold /Courier-BoldOblique /Times-Roman /AvantGarde-Book /AvantGarde-BookOblique /AvantGarde-Demi /AvantGarde-DemiOblique /Bookman-Demi /Bookman-DemiItalic /Bookman-Light
 /Bookman-LightItalic /Helvetica-Narrow /Helvetica-Narrow-Bold /Helvetica-Narrow-BoldOblique /Helvetica-Narrow-Oblique /NewCenturySchlbk-Roman /NewCenturySchlbk-Bold /NewCenturySchlbk-BoldItalic /NewCenturySchlbk-Italic /Palatino-Bold
 /Palatino-BoldItalic /Palatino-Italic /Palatino-Roman ] {ISOLatin1Encoding reEncode } forall
%%EndProlog
%%BeginSetup
%%EndSetup
newpath  gsave  .25 .25 scale  gsave  0 0 t 0.490196 0.545098 0.615686 c[  ] 0 sd 3 lw 0.941176 0.941176 0.941176 c 2268 1682 0 0 bf black 1 1 0.992157 c 1916 1312 238 202 bf black 1916 1312 238 202 bl 1 1 0.992157 c 1916 1312 238 202 bf black 1916
 1312 238 202 bl 238 202 m 1916 X s
 gsave  2268 1682 0 0 C 1434.44 30.4391 t 0 r /Helvetica-Bold findfont 72.293 sf 0 0 m (CFMlpANN response) show NC gr  308 244 m -42 Y s 354 223 m -21 Y s 400 223 m -21 Y s 446 223 m -21 Y s 492 244 m -42 Y s 538 223 m -21 Y s 584 223 m -21 Y s 630
 223 m -21 Y s 677 244 m -42 Y s 723 223 m -21 Y s 769 223 m -21 Y s 815 223 m -21 Y s 861 244 m -42 Y s 907 223 m -21 Y s 953 223 m -21 Y s 999 223 m -21 Y s 1045 244 m -42 Y s 1091 223 m -21 Y s 1137 223 m -21 Y s 1183 223 m -21 Y s 1229 244 m -42
 Y s 1276 223 m -21 Y s 1322 223 m -21 Y s 1368 223 m -21 Y s 1414 244 m -42 Y s 1460 223 m -21 Y s 1506 223 m -21 Y s 1552 223 m -21 Y s 1598 244 m -42 Y s 1644 223 m -21 Y s 1690 223 m -21 Y s 1736 223 m -21 Y s 1782 244 m -42 Y s 1828 223 m -21 Y
 s 1875 223 m -21 Y s 1921 223 m -21 Y s 1967 244 m -42 Y s 2013 223 m -21 Y s 2059 223 m -21 Y s 2105 223 m -21 Y s 2151 244 m -42 Y s 308 244 m -42 Y s 262 223 m -21 Y s 2151 244 m -42 Y s
 gsave  2268 1682 0 0 C 205.464 129.366 t 0 r /Helvetica-Bold findfont 64.6832 sf 0 0 m (0.4958) show NC gr 
 gsave  2268 1682 0 0 C 410.928 129.366 t 0 r /Helvetica-Bold findfont 64.6832 sf 0 0 m (0.496) show NC gr 
 gsave  2268 1682 0 0 C 574.539 129.366 t 0 r /Helvetica-Bold findfont 64.6832 sf 0 0 m (0.4962) show NC gr 
 gsave  2268 1682 0 0 C 760.979 129.366 t 0 r /Helvetica-Bold findfont 64.6832 sf 0 0 m (0.4964) show NC gr 
 gsave  2268 1682 0 0 C 943.614 129.366 t 0 r /Helvetica-Bold findfont 64.6832 sf 0 0 m (0.4966) show NC gr 
 gsave  2268 1682 0 0 C 1130.05 129.366 t 0 r /Helvetica-Bold findfont 64.6832 sf 0 0 m (0.4968) show NC gr 
 gsave  2268 1682 0 0 C 1327.91 129.366 t 0 r /Helvetica-Bold findfont 64.6832 sf 0 0 m (0.497) show NC gr 
 gsave  2268 1682 0 0 C 1495.32 129.366 t 0 r /Helvetica-Bold findfont 64.6832 sf 0 0 m (0.4972) show NC gr 
 gsave  2268 1682 0 0 C 1681.76 129.366 t 0 r /Helvetica-Bold findfont 64.6832 sf 0 0 m (0.4974) show NC gr 
 gsave  2268 1682 0 0 C 1864.4 129.366 t 0 r /Helvetica-Bold findfont 64.6832 sf 0 0 m (0.4976) show NC gr 
 gsave  2268 1682 0 0 C 2050.84 129.366 t 0 r /Helvetica-Bold findfont 64.6832 sf 0 0 m (0.4978) show NC gr  238 1514 m 1916 X s 308 1471 m 43 Y s 354 1492 m 22 Y s 400 1492 m 22 Y s 446 1492 m 22 Y s 492 1471 m 43 Y s 538 1492 m 22 Y s 584 1492 m 22
 Y s 630 1492 m 22 Y s 677 1471 m 43 Y s 723 1492 m 22 Y s 769 1492 m 22 Y s 815 1492 m 22 Y s 861 1471 m 43 Y s 907 1492 m 22 Y s 953 1492 m 22 Y s 999 1492 m 22 Y s 1045 1471 m 43 Y s 1091 1492 m 22 Y s 1137 1492 m 22 Y s 1183 1492 m 22 Y s 1229
 1471 m 43 Y s 1276 1492 m 22 Y s 1322 1492 m 22 Y s 1368 1492 m 22 Y s 1414 1471 m 43 Y s 1460 1492 m 22 Y s 1506 1492 m 22 Y s 1552 1492 m 22 Y s 1598 1471 m 43 Y s 1644 1492 m 22 Y s 1690 1492 m 22 Y s 1736 1492 m 22 Y s 1782 1471 m 43 Y s 1828
 1492 m 22 Y s 1875 1492 m 22 Y s 1921 1492 m 22 Y s 1967 1471 m 43 Y s 2013 1492 m 22 Y s 2059 1492 m 22 Y s 2105 1492 m 22 Y s 2151 1471 m 43 Y s 308 1471 m 43 Y s 262 1492 m 22 Y s 2151 1471 m 43 Y s 238 202 m 1312 Y s
 gsave  2268 1682 0 0 C 64.6832 1430.64 t 90 r /Helvetica-Bold findfont 72.293 sf 0 0 m (dx) show NC gr 
 gsave  2268 1682 0 0 C 30.4391 1411.62 t 90 r /Helvetica-Bold findfont 45.6587 sf 0 0 m ( ) show NC gr 
 gsave  2268 1682 0 0 C 64.6832 1388.79 t 90 r /Helvetica-Bold findfont 72.293 sf 0 0 m (/) show NC gr 
 gsave  2268 1682 0 0 C 30.4391 1369.76 t 90 r /Helvetica-Bold findfont 45.6587 sf 0 0 m ( ) show NC gr 
 gsave  2268 1682 0 0 C 60.8783 1095.81 t 90 r /Helvetica-Bold findfont 72.293 sf 0 0 m (\(1/N\) dN) show NC gr  291 202 m -53 X s 265 229 m -27 X s 265 256 m -27 X s 265 283 m -27 X s 291 310 m -53 X s 265 336 m -27 X s 265 363 m -27 X s 265 390 m
 -27 X s 291 417 m -53 X s 265 444 m -27 X s 265 471 m -27 X s 265 498 m -27 X s 291 525 m -53 X s 265 552 m -27 X s 265 579 m -27 X s 265 606 m -27 X s 291 633 m -53 X s 265 660 m -27 X s 265 686 m -27 X s 265 713 m -27 X s 291 740 m -53 X s 265 767
 m -27 X s 265 794 m -27 X s 265 821 m -27 X s 291 848 m -53 X s 265 875 m -27 X s 265 902 m -27 X s 265 929 m -27 X s 291 956 m -53 X s 265 983 m -27 X s 265 1010 m -27 X s 265 1036 m -27 X s 291 1063 m -53 X s 265 1090 m -27 X s 265 1117 m -27 X s
 265 1144 m -27 X s 291 1171 m -53 X s 265 1198 m -27 X s 265 1225 m -27 X s 265 1252 m -27 X s 291 1279 m -53 X s 265 1306 m -27 X s 265 1333 m -27 X s 265 1360 m -27 X s 291 1386 m -53 X s 265 1413 m -27 X s 265 1440 m -27 X s 265 1467 m -27 X s
 291 1494 m -53 X s 291 1494 m -53 X s
 gsave  2268 1682 0 0 C 175.025 178.83 t 0 r /Helvetica-Bold findfont 64.6832 sf 0 0 m (0) show NC gr 
 gsave  2268 1682 0 0 C 102.732 285.367 t 0 r /Helvetica-Bold findfont 64.6832 sf 0 0 m (200) show NC gr 
 gsave  2268 1682 0 0 C 102.732 391.904 t 0 r /Helvetica-Bold findfont 64.6832 sf 0 0 m (400) show NC gr 
 gsave  2268 1682 0 0 C 102.732 498.441 t 0 r /Helvetica-Bold findfont 64.6832 sf 0 0 m (600) show NC gr 
 gsave  2268 1682 0 0 C 102.732 608.783 t 0 r /Helvetica-Bold findfont 64.6832 sf 0 0 m (800) show NC gr 
 gsave  2268 1682 0 0 C 64.6832 715.32 t 0 r /Helvetica-Bold findfont 64.6832 sf 0 0 m (1000) show NC gr 
 gsave  2268 1682 0 0 C 64.6832 821.857 t 0 r /Helvetica-Bold findfont 64.6832 sf 0 0 m (1200) show NC gr 
 gsave  2268 1682 0 0 C 64.6832 932.199 t 0 r /Helvetica-Bold findfont 64.6832 sf 0 0 m (1400) show NC gr 
 gsave  2268 1682 0 0 C 64.6832 1038.74 t 0 r /Helvetica-Bold findfont 64.6832 sf 0 0 m (1600) show NC gr 
 gsave  2268 1682 0 0 C 64.6832 1145.27 t 0 r /Helvetica-Bold findfont 64.6832 sf 0 0 m (1800) show NC gr 
 gsave  2268 1682 0 0 C 64.6832 1255.61 t 0 r /Helvetica-Bold findfont 64.6832 sf 0 0 m (2000) show NC gr 
 gsave  2268 1682 0 0 C 64.6832 1362.15 t 0 r /Helvetica-Bold findfont 64.6832 sf 0 0 m (2200) show NC gr 
 gsave  2268 1682 0 0 C 64.6832 1468.69 t 0 r /Helvetica-Bold findfont 64.6832 sf 0 0 m (2400) show NC gr  2154 202 m 1312 Y s 2101 202 m 53 X s 2128 229 m 26 X s 2128 256 m 26 X s 2128 283 m 26 X s 2101 310 m 53 X s 2128 336 m 26 X s 2128 363 m 26 X
 s 2128 390 m 26 X s 2101 417 m 53 X s 2128 444 m 26 X s 2128 471 m 26 X s 2128 498 m 26 X s 2101 525 m 53 X s 2128 552 m 26 X s 2128 579 m 26 X s 2128 606 m 26 X s 2101 633 m 53 X s 2128 660 m 26 X s 2128 686 m 26 X s 2128 713 m 26 X s 2101 740 m 53
 X s 2128 767 m 26 X s 2128 794 m 26 X s 2128 821 m 26 X s 2101 848 m 53 X s 2128 875 m 26 X s 2128 902 m 26 X s 2128 929 m 26 X s 2101 956 m 53 X s 2128 983 m 26 X s 2128 1010 m 26 X s 2128 1036 m 26 X s 2101 1063 m 53 X s 2128 1090 m 26 X s 2128
 1117 m 26 X s 2128 1144 m 26 X s 2101 1171 m 53 X s 2128 1198 m 26 X s 2128 1225 m 26 X s 2128 1252 m 26 X s 2101 1279 m 53 X s 2128 1306 m 26 X s 2128 1333 m 26 X s 2128 1360 m 26 X s 2101 1386 m 53 X s 2128 1413 m 26 X s 2128 1440 m 26 X s 2128
 1467 m 26 X s 2101 1494 m 53 X s 2101 1494 m 53 X s 0.490196 0.545098 0.615686 c 0.95 0.95 0.95 c 0.490196 0.545098 0.615686 c 680 202 238 1312 bl 238 1312 m 680 X s 918 1312 m 202 Y s 918 1514 m -680 X s 238 1514 m -202 Y s black
 gsave  2268 1682 0 0 C 442.205 1431.17 t 0 r /Times-Italic findfont 76.0979 sf 0 0 m (Signal) show NC gr  0.49 0.6 0.82 c 269 1428 m 143 X 70 Y -143 X f 0 0 0.933333 c 6 lw 269 1498 m 143 X s 269 1428 m 143 X s 412 1428 m 70 Y s 269 1428 m 70 Y s
 black
 gsave  2268 1682 0 0 C 442.205 1330.27 t 0 r /Times-Italic findfont 76.0979 sf 0 0 m (Background) show NC gr  1 0 0 c 3 lw 412 1374 m -47 -47 d s 387 1398 m -70 -71 d s 339 1398 m -70 -71 d s 291 1398 m -22 -23 d s 6 lw 0 0 0.933333 c 1 0 0 c 269
 1398 m 143 X s 269 1327 m 143 X s 412 1327 m 71 Y s 269 1327 m 71 Y s 0 0 0.933333 c 0.49 0.6 0.82 c black 3 lw 0.49 0.6 0.82 c 238 202 m 190 Y 48 X -190 Y 335 X 197 Y 48 X -197 Y 48 X 196 Y 48 X -1 Y 48 X -195 Y 48 X 190 Y 48 X -1 Y 48 X 376 Y 48 X
 188 Y 47 X -374 Y 48 X -191 Y 48 X 578 Y 48 X -390 Y 48 X 581 Y 48 X -379 Y 48 X 191 Y 48 X -389 Y 48 X -1 Y 48 X -2 Y 48 X 591 Y 47 X -778 Y 96 X -2 Y 48 X -188 Y 48 X 383 Y 48 X -193 Y 48 X 30 Y 48 X -220 Y 96 X 196 Y 48 X 8 Y 47 X -204 Y 48 X f 6
 lw 0 0 0.933333 c 0.49 0.6 0.82 c 0 0 0.933333 c 238 392 m 48 X -190 Y 335 X 197 Y 48 X -197 Y 48 X 196 Y 48 X -1 Y 48 X -195 Y 48 X 190 Y 48 X -1 Y 48 X 376 Y 48 X 188 Y 47 X -374 Y 48 X -191 Y 48 X 578 Y 48 X -390 Y 48 X 581 Y 48 X -379 Y 48 X 191
 Y 48 X -389 Y 48 X -1 Y 48 X -2 Y 48 X 591 Y 47 X -778 Y 96 X -2 Y 48 X -188 Y 48 X 383 Y 48 X -193 Y 48 X 30 Y 48 X -220 Y 96 X 196 Y 48 X 8 Y 47 X -204 Y 48 X s 1 0 0 c black 3 lw 1 0 0 c 2154 230 m -28 -28 d s 2154 278 m -48 -48 d s 2078 202 m cl
 s 2154 326 m -48 -48 d s 2030 202 m cl s 2138 358 m -32 -31 d s 1982 202 m cl s 1963 231 m -29 -29 d s 1963 279 m -48 -48 d s 1886 202 m cl s 1963 327 m -48 -48 d s 1867 231 m -30 -29 d s 1946 358 m -31 -31 d s 1867 279 m -78 -77 d s 1867 328 m -126
 -126 d s 1850 358 m -157 -156 d s 1819 376 m -174 -174 d s 1819 424 m -48 -48 d s 1754 358 m -157 -156 d s 1819 472 m -48 -48 d s 1723 376 m -174 -174 d s 1819 520 m -48 -48 d s 1723 424 m -48 -48 d s 1656 357 m -124 -124 d s 1501 202 m cl s 1819
 568 m -48 -48 d s 1723 472 m -48 -47 d s 1627 377 m -95 -96 d s 1484 233 m -31 -31 d s 1819 616 m -48 -48 d s 1723 521 m -48 -48 d s 1627 425 m -95 -96 d s 1484 281 m -80 -79 d s 1819 664 m -48 -47 d s 1723 569 m -48 -48 d s 1627 473 m -95 -96 d s
 1484 329 m -128 -127 d s 1778 671 m -7 -6 d s 1723 617 m -48 -48 d s 1620 513 m -88 -88 d s 1484 377 m -176 -175 d s 1723 665 m -48 -48 d s 1575 516 m -43 -43 d s 1484 425 m -48 -48 d s 1416 358 m -156 -156 d s 1681 671 m -6 -6 d s 1484 473 m -48
 -47 d s 1388 378 m -176 -176 d s 1478 516 m -42 -42 d s 1388 426 m -224 -224 d s 1388 474 m -240 -240 d s 1116 202 m cl s 1388 522 m -240 -240 d s 1100 235 m -32 -33 d s 1388 570 m -240 -239 d s 1100 283 m -80 -81 d s 1388 618 m -240 -239 d s 1100
 331 m -128 -129 d s 1388 666 m -240 -239 d s 1100 379 m -177 -177 d s 1388 714 m -240 -239 d s 1100 427 m -225 -225 d s 1388 762 m -240 -239 d s 1100 475 m -273 -273 d s 1388 811 m -96 -96 d s 1248 671 m -100 -100 d s 1100 523 m -321 -321 d s 1388
 859 m -96 -96 d s 1244 715 m -96 -96 d s 1100 571 m -369 -369 d s 1388 907 m -48 -48 d s 1314 833 m -22 -22 d s 1244 763 m -48 -48 d s 1151 670 m -3 -3 d s 1100 619 m -417 -417 d s 1388 955 m -48 -48 d s 1244 811 m -48 -48 d s 1100 667 m -431 -431 d
 s 635 202 m cl s 1367 983 m -27 -28 d s 1244 859 m -48 -48 d s 1052 668 m -143 -144 d s 901 516 m -232 -232 d s 587 202 m cl s 1244 907 m -48 -48 d s 1052 716 m -143 -144 d s 853 516 m -184 -183 d s 539 202 m cl s 1244 955 m -48 -47 d s 1052 764 m
 -143 -144 d s 813 524 m -144 -143 d s 490 202 m cl s 1244 1004 m -48 -48 d s 1052 812 m -95 -96 d s 910 669 m -1 -1 d s 813 572 m -48 -47 d s 759 519 m -90 -90 d s 442 202 m cl s 1244 1052 m -48 -48 d s 1052 860 m -95 -96 d s 813 621 m -48 -48 d s
 710 518 m -41 -41 d s 394 202 m cl s 1244 1100 m -48 -48 d s 1052 908 m -47 -48 d s 975 831 m -18 -19 d s 813 669 m -48 -48 d s 346 202 m cl s 1244 1148 m -48 -48 d s 1052 956 m -47 -48 d s 775 679 m -10 -10 d s 298 202 m cl s 1244 1196 m -48 -48 d
 s 1050 1002 m -45 -46 d s 250 202 m cl s 1244 1244 m -48 -48 d s 1244 1292 m -48 -48 d s 1199 1295 m -3 -3 d s 6 lw 238 202 m 431 X 316 Y 48 X 1 Y 48 X 160 Y 48 X -163 Y 96 X 153 Y 48 X 162 Y 48 X 171 Y 47 X -335 Y 48 X -465 Y 48 X 468 Y 48 X 625 Y
 48 X -624 Y 48 X 162 Y 48 X 150 Y 48 X -625 Y 48 X 158 Y 48 X -314 Y 48 X 314 Y 47 X -3 Y 48 X -156 Y 48 X 314 Y 48 X -313 Y 48 X 313 Y 48 X -313 Y 48 X -156 Y 48 X 156 Y 48 X -156 Y 143 X 156 Y 48 X -156 Y s black 3 lw 238 202 m 1916 X s 308 244 m
 -42 Y s 354 223 m -21 Y s 400 223 m -21 Y s 446 223 m -21 Y s 492 244 m -42 Y s 538 223 m -21 Y s 584 223 m -21 Y s 630 223 m -21 Y s 677 244 m -42 Y s 723 223 m -21 Y s 769 223 m -21 Y s 815 223 m -21 Y s 861 244 m -42 Y s 907 223 m -21 Y s 953 223
 m -21 Y s 999 223 m -21 Y s 1045 244 m -42 Y s 1091 223 m -21 Y s 1137 223 m -21 Y s 1183 223 m -21 Y s 1229 244 m -42 Y s 1276 223 m -21 Y s 1322 223 m -21 Y s 1368 223 m -21 Y s 1414 244 m -42 Y s 1460 223 m -21 Y s 1506 223 m -21 Y s 1552 223 m
 -21 Y s 1598 244 m -42 Y s 1644 223 m -21 Y s 1690 223 m -21 Y s 1736 223 m -21 Y s 1782 244 m -42 Y s 1828 223 m -21 Y s 1875 223 m -21 Y s 1921 223 m -21 Y s 1967 244 m -42 Y s 2013 223 m -21 Y s 2059 223 m -21 Y s 2105 223 m -21 Y s 2151 244 m
 -42 Y s 308 244 m -42 Y s 262 223 m -21 Y s 2151 244 m -42 Y s 238 1514 m 1916 X s 308 1471 m 43 Y s 354 1492 m 22 Y s 400 1492 m 22 Y s 446 1492 m 22 Y s 492 1471 m 43 Y s 538 1492 m 22 Y s 584 1492 m 22 Y s 630 1492 m 22 Y s 677 1471 m 43 Y s 723
 1492 m 22 Y s 769 1492 m 22 Y s 815 1492 m 22 Y s 861 1471 m 43 Y s 907 1492 m 22 Y s 953 1492 m 22 Y s 999 1492 m 22 Y s 1045 1471 m 43 Y s 1091 1492 m 22 Y s 1137 1492 m 22 Y s 1183 1492 m 22 Y s 1229 1471 m 43 Y s 1276 1492 m 22 Y s 1322 1492 m
 22 Y s 1368 1492 m 22 Y s 1414 1471 m 43 Y s 1460 1492 m 22 Y s 1506 1492 m 22 Y s 1552 1492 m 22 Y s 1598 1471 m 43 Y s 1644 1492 m 22 Y s 1690 1492 m 22 Y s 1736 1492 m 22 Y s 1782 1471 m 43 Y s 1828 1492 m 22 Y s 1875 1492 m 22 Y s 1921 1492 m 22
 Y s 1967 1471 m 43 Y s 2013 1492 m 22 Y s 2059 1492 m 22 Y s 2105 1492 m 22 Y s 2151 1471 m 43 Y s 308 1471 m 43 Y s 262 1492 m 22 Y s 2151 1471 m 43 Y s 238 202 m 1312 Y s 291 202 m -53 X s 265 229 m -27 X s 265 256 m -27 X s 265 283 m -27 X s 291
 310 m -53 X s 265 336 m -27 X s 265 363 m -27 X s 265 390 m -27 X s 291 417 m -53 X s 265 444 m -27 X s 265 471 m -27 X s 265 498 m -27 X s 291 525 m -53 X s 265 552 m -27 X s 265 579 m -27 X s 265 606 m -27 X s 291 633 m -53 X s 265 660 m -27 X s
 265 686 m -27 X s 265 713 m -27 X s 291 740 m -53 X s 265 767 m -27 X s 265 794 m -27 X s 265 821 m -27 X s 291 848 m -53 X s 265 875 m -27 X s 265 902 m -27 X s 265 929 m -27 X s 291 956 m -53 X s 265 983 m -27 X s 265 1010 m -27 X s 265 1036 m -27
 X s 291 1063 m -53 X s 265 1090 m -27 X s 265 1117 m -27 X s 265 1144 m -27 X s 291 1171 m -53 X s 265 1198 m -27 X s 265 1225 m -27 X s 265 1252 m -27 X s 291 1279 m -53 X s 265 1306 m -27 X s 265 1333 m -27 X s 265 1360 m -27 X s 291 1386 m -53 X
 s 265 1413 m -27 X s 265 1440 m -27 X s 265 1467 m -27 X s 291 1494 m -53 X s 291 1494 m -53 X s 2154 202 m 1312 Y s 2101 202 m 53 X s 2128 229 m 26 X s 2128 256 m 26 X s 2128 283 m 26 X s 2101 310 m 53 X s 2128 336 m 26 X s 2128 363 m 26 X s 2128
 390 m 26 X s 2101 417 m 53 X s 2128 444 m 26 X s 2128 471 m 26 X s 2128 498 m 26 X s 2101 525 m 53 X s 2128 552 m 26 X s 2128 579 m 26 X s 2128 606 m 26 X s 2101 633 m 53 X s 2128 660 m 26 X s 2128 686 m 26 X s 2128 713 m 26 X s 2101 740 m 53 X s
 2128 767 m 26 X s 2128 794 m 26 X s 2128 821 m 26 X s 2101 848 m 53 X s 2128 875 m 26 X s 2128 902 m 26 X s 2128 929 m 26 X s 2101 956 m 53 X s 2128 983 m 26 X s 2128 1010 m 26 X s 2128 1036 m 26 X s 2101 1063 m 53 X s 2128 1090 m 26 X s 2128 1117 m
 26 X s 2128 1144 m 26 X s 2101 1171 m 53 X s 2128 1198 m 26 X s 2128 1225 m 26 X s 2128 1252 m 26 X s 2101 1279 m 53 X s 2128 1306 m 26 X s 2128 1333 m 26 X s 2128 1360 m 26 X s 2101 1386 m 53 X s 2128 1413 m 26 X s 2128 1440 m 26 X s 2128 1467 m 26
 X s 2101 1494 m 53 X s 2101 1494 m 53 X s
 gsave  2268 1682 0 0 C 2211.02 193.403 t 90 r /Helvetica-Bold findfont 45.6587 sf 0 0 m (U/O\255flow \(S,B\): \(0.0, 0.0\)% / \(0.0, 0.0\)%) show NC gr  0.490196 0.545098 0.615686 c 0.364706 0.419608 0.490196 c 1587 96 23 1577 bf 0.490196 0.545098
 0.615686 c 23 1577 m 1587 X s 1610 1577 m 96 Y s 1610 1673 m -1587 X s 23 1673 m -96 Y s 1 1 1 c black 1 1 1 c
 gsave  2268 1682 0 0 C 68.4881 1605.67 t 0 r /Helvetica-Bold findfont 76.0979 sf 0 0 m (TMVA response for classifier: CFMlpANN) show NC gr 
 gr  gr showpage
end
%%EOF
