%!PS-Adobe-2.0 EPSF-2.0
%%BoundingBox:  0 0 567 420
%%Title: plots/mva_TMlpANN.eps: TMVA response TMlpANN
%%Creator: ROOT Version 5.34/09
%%CreationDate: Sun Jan  5 00:02:30 2014
%%EndComments
%%BeginProlog
80 dict begin
/s {stroke} def /l {lineto} def /m {moveto} def /t {translate} def
/r {rotate} def /rl {roll}  def /R {repeat} def
/d {rlineto} def /rm {rmoveto} def /gr {grestore} def /f {eofill} def
/c {setrgbcolor} def /black {0 setgray} def /sd {setdash} def
/cl {closepath} def /sf {scalefont setfont} def /lw {setlinewidth} def
/box {m dup 0 exch d exch 0 d 0 exch neg d cl} def
/NC{systemdict begin initclip end}def/C{NC box clip newpath}def
/bl {box s} def /bf {box f} def /Y { 0 exch d} def /X { 0 d} def 
/K {{pop pop 0 moveto} exch kshow} bind def
/ita {/ang 15 def gsave [1 0 ang dup sin exch cos div 1 0 0] concat} def 
/mp {newpath /y exch def /x exch def} def
/side {[w .77 mul w .23 mul] .385 w mul sd w 0 l currentpoint t -144 r} def
/mr {mp x y w2 0 360 arc} def /m24 {mr s} def /m20 {mr f} def
/mb {mp x y w2 add m w2 neg 0 d 0 w neg d w 0 d 0 w d cl} def
/mt {mp x y w2 add m w2 neg w neg d w 0 d cl} def
/m21 {mb f} def /m25 {mb s} def /m22 {mt f} def /m26{mt s} def
/m23 {mp x y w2 sub m w2 w d w neg 0 d cl f} def
/m27 {mp x y w2 add m w3 neg w2 neg d w3 w2 neg d w3 w2 d cl s} def
/m28 {mp x w2 sub y w2 sub w3 add m w3 0 d  0 w3 neg d w3 0 d 0 w3 d w3 0 d  0 w3 d w3 neg 0 d 0 w3 d w3 neg 0 d 0 w3 neg d w3 neg 0 d cl s } def
/m29 {mp gsave x w2 sub y w2 add w3 sub m currentpoint t 4 {side} repeat cl fill gr} def
/m30 {mp gsave x w2 sub y w2 add w3 sub m currentpoint t 4 {side} repeat cl s gr} def
/m31 {mp x y w2 sub m 0 w d x w2 sub y m w 0 d x w2 sub y w2 add m w w neg d x w2 sub y w2 sub m w w d s} def
/m32 {mp x y w2 sub m w2 w d w neg 0 d cl s} def
/m33 {mp x y w2 add m w3 neg w2 neg d w3 w2 neg d w3 w2 d cl f} def
/m34 {mp x w2 sub y w2 sub w3 add m w3 0 d  0 w3 neg d w3 0 d 0 w3 d w3 0 d  0 w3 d w3 neg 0 d 0 w3 d w3 neg 0 d 0 w3 neg d w3 neg 0 d cl f } def
/m2 {mp x y w2 sub m 0 w d x w2 sub y m w 0 d s} def
/m5 {mp x w2 sub y w2 sub m w w d x w2 sub y w2 add m w w neg d s} def
/reEncode {exch findfont dup length dict begin {1 index /FID eq  {pop pop} {def} ifelse } forall /Encoding exch def currentdict end dup /FontName get exch definefont pop } def [/Times-Bold /Times-Italic /Times-BoldItalic /Helvetica /Helvetica-Oblique
 /Helvetica-Bold /Helvetica-BoldOblique /Courier /Courier-Oblique /Courier-Bold /Courier-BoldOblique /Times-Roman /AvantGarde-Book /AvantGarde-BookOblique /AvantGarde-Demi /AvantGarde-DemiOblique /Bookman-Demi /Bookman-DemiItalic /Bookman-Light
 /Bookman-LightItalic /Helvetica-Narrow /Helvetica-Narrow-Bold /Helvetica-Narrow-BoldOblique /Helvetica-Narrow-Oblique /NewCenturySchlbk-Roman /NewCenturySchlbk-Bold /NewCenturySchlbk-BoldItalic /NewCenturySchlbk-Italic /Palatino-Bold
 /Palatino-BoldItalic /Palatino-Italic /Palatino-Roman ] {ISOLatin1Encoding reEncode } forall
%%EndProlog
%%BeginSetup
%%EndSetup
newpath  gsave  .25 .25 scale  gsave  0 0 t 0.490196 0.545098 0.615686 c[  ] 0 sd 3 lw 0.941176 0.941176 0.941176 c 2268 1682 0 0 bf black 1 1 0.992157 c 1916 1312 238 202 bf black 1916 1312 238 202 bl 1 1 0.992157 c 1916 1312 238 202 bf black 1916
 1312 238 202 bl 238 202 m 1916 X s
 gsave  2268 1682 0 0 C 1487.71 34.244 t 0 r /Helvetica-Bold findfont 72.293 sf 0 0 m (TMlpANN response) show NC gr  264 244 m -42 Y s 309 223 m -21 Y s 354 223 m -21 Y s 399 223 m -21 Y s 444 223 m -21 Y s 489 244 m -42 Y s 534 223 m -21 Y s 579 223
 m -21 Y s 624 223 m -21 Y s 669 223 m -21 Y s 715 244 m -42 Y s 760 223 m -21 Y s 805 223 m -21 Y s 850 223 m -21 Y s 895 223 m -21 Y s 940 244 m -42 Y s 985 223 m -21 Y s 1030 223 m -21 Y s 1075 223 m -21 Y s 1120 223 m -21 Y s 1166 244 m -42 Y s
 1211 223 m -21 Y s 1256 223 m -21 Y s 1301 223 m -21 Y s 1346 223 m -21 Y s 1391 244 m -42 Y s 1436 223 m -21 Y s 1481 223 m -21 Y s 1526 223 m -21 Y s 1571 223 m -21 Y s 1617 244 m -42 Y s 1662 223 m -21 Y s 1707 223 m -21 Y s 1752 223 m -21 Y s
 1797 223 m -21 Y s 1842 244 m -42 Y s 1887 223 m -21 Y s 1932 223 m -21 Y s 1977 223 m -21 Y s 2022 223 m -21 Y s 2067 244 m -42 Y s 264 244 m -42 Y s 2067 244 m -42 Y s 2113 223 m -21 Y s
 gsave  2268 1682 0 0 C 235.903 129.366 t 0 r /Helvetica-Bold findfont 64.6832 sf 0 0 m (\2551) show NC gr 
 gsave  2268 1682 0 0 C 429.953 129.366 t 0 r /Helvetica-Bold findfont 64.6832 sf 0 0 m (\2550.5) show NC gr 
 gsave  2268 1682 0 0 C 692.491 129.366 t 0 r /Helvetica-Bold findfont 64.6832 sf 0 0 m (0) show NC gr 
 gsave  2268 1682 0 0 C 894.15 129.366 t 0 r /Helvetica-Bold findfont 64.6832 sf 0 0 m (0.5) show NC gr 
 gsave  2268 1682 0 0 C 1149.08 129.366 t 0 r /Helvetica-Bold findfont 64.6832 sf 0 0 m (1) show NC gr 
 gsave  2268 1682 0 0 C 1343.13 129.366 t 0 r /Helvetica-Bold findfont 64.6832 sf 0 0 m (1.5) show NC gr 
 gsave  2268 1682 0 0 C 1594.25 129.366 t 0 r /Helvetica-Bold findfont 64.6832 sf 0 0 m (2) show NC gr 
 gsave  2268 1682 0 0 C 1795.91 129.366 t 0 r /Helvetica-Bold findfont 64.6832 sf 0 0 m (2.5) show NC gr 
 gsave  2268 1682 0 0 C 2047.03 129.366 t 0 r /Helvetica-Bold findfont 64.6832 sf 0 0 m (3) show NC gr  238 1514 m 1916 X s 264 1471 m 43 Y s 309 1492 m 22 Y s 354 1492 m 22 Y s 399 1492 m 22 Y s 444 1492 m 22 Y s 489 1471 m 43 Y s 534 1492 m 22 Y s
 579 1492 m 22 Y s 624 1492 m 22 Y s 669 1492 m 22 Y s 715 1471 m 43 Y s 760 1492 m 22 Y s 805 1492 m 22 Y s 850 1492 m 22 Y s 895 1492 m 22 Y s 940 1471 m 43 Y s 985 1492 m 22 Y s 1030 1492 m 22 Y s 1075 1492 m 22 Y s 1120 1492 m 22 Y s 1166 1471 m
 43 Y s 1211 1492 m 22 Y s 1256 1492 m 22 Y s 1301 1492 m 22 Y s 1346 1492 m 22 Y s 1391 1471 m 43 Y s 1436 1492 m 22 Y s 1481 1492 m 22 Y s 1526 1492 m 22 Y s 1571 1492 m 22 Y s 1617 1471 m 43 Y s 1662 1492 m 22 Y s 1707 1492 m 22 Y s 1752 1492 m 22
 Y s 1797 1492 m 22 Y s 1842 1471 m 43 Y s 1887 1492 m 22 Y s 1932 1492 m 22 Y s 1977 1492 m 22 Y s 2022 1492 m 22 Y s 2067 1471 m 43 Y s 264 1471 m 43 Y s 2067 1471 m 43 Y s 2113 1492 m 22 Y s 238 202 m 1312 Y s
 gsave  2268 1682 0 0 C 64.6832 1430.64 t 90 r /Helvetica-Bold findfont 72.293 sf 0 0 m (dx) show NC gr 
 gsave  2268 1682 0 0 C 30.4391 1411.62 t 90 r /Helvetica-Bold findfont 45.6587 sf 0 0 m ( ) show NC gr 
 gsave  2268 1682 0 0 C 64.6832 1388.79 t 90 r /Helvetica-Bold findfont 72.293 sf 0 0 m (/) show NC gr 
 gsave  2268 1682 0 0 C 30.4391 1369.76 t 90 r /Helvetica-Bold findfont 45.6587 sf 0 0 m ( ) show NC gr 
 gsave  2268 1682 0 0 C 60.8783 1095.81 t 90 r /Helvetica-Bold findfont 72.293 sf 0 0 m (\(1/N\) dN) show NC gr  291 202 m -53 X s 265 254 m -27 X s 265 306 m -27 X s 265 358 m -27 X s 291 410 m -53 X s 265 462 m -27 X s 265 514 m -27 X s 265 566 m
 -27 X s 291 618 m -53 X s 265 670 m -27 X s 265 722 m -27 X s 265 774 m -27 X s 291 826 m -53 X s 265 878 m -27 X s 265 930 m -27 X s 265 982 m -27 X s 291 1034 m -53 X s 265 1086 m -27 X s 265 1138 m -27 X s 265 1190 m -27 X s 291 1242 m -53 X s
 265 1294 m -27 X s 265 1346 m -27 X s 265 1398 m -27 X s 291 1450 m -53 X s 291 1450 m -53 X s 265 1502 m -27 X s
 gsave  2268 1682 0 0 C 175.025 178.83 t 0 r /Helvetica-Bold findfont 64.6832 sf 0 0 m (0) show NC gr 
 gsave  2268 1682 0 0 C 121.757 384.294 t 0 r /Helvetica-Bold findfont 64.6832 sf 0 0 m (0.2) show NC gr 
 gsave  2268 1682 0 0 C 117.952 593.563 t 0 r /Helvetica-Bold findfont 64.6832 sf 0 0 m (0.4) show NC gr 
 gsave  2268 1682 0 0 C 121.757 802.833 t 0 r /Helvetica-Bold findfont 64.6832 sf 0 0 m (0.6) show NC gr 
 gsave  2268 1682 0 0 C 117.952 1008.3 t 0 r /Helvetica-Bold findfont 64.6832 sf 0 0 m (0.8) show NC gr 
 gsave  2268 1682 0 0 C 182.635 1217.57 t 0 r /Helvetica-Bold findfont 64.6832 sf 0 0 m (1) show NC gr 
 gsave  2268 1682 0 0 C 121.757 1426.84 t 0 r /Helvetica-Bold findfont 64.6832 sf 0 0 m (1.2) show NC gr  2154 202 m 1312 Y s 2101 202 m 53 X s 2128 254 m 26 X s 2128 306 m 26 X s 2128 358 m 26 X s 2101 410 m 53 X s 2128 462 m 26 X s 2128 514 m 26 X
 s 2128 566 m 26 X s 2101 618 m 53 X s 2128 670 m 26 X s 2128 722 m 26 X s 2128 774 m 26 X s 2101 826 m 53 X s 2128 878 m 26 X s 2128 930 m 26 X s 2128 982 m 26 X s 2101 1034 m 53 X s 2128 1086 m 26 X s 2128 1138 m 26 X s 2128 1190 m 26 X s 2101 1242
 m 53 X s 2128 1294 m 26 X s 2128 1346 m 26 X s 2128 1398 m 26 X s 2101 1450 m 53 X s 2101 1450 m 53 X s 2128 1502 m 26 X s 0.490196 0.545098 0.615686 c 0.95 0.95 0.95 c 0.490196 0.545098 0.615686 c 680 202 238 1312 bl 238 1312 m 680 X s 918 1312 m
 202 Y s 918 1514 m -680 X s 238 1514 m -202 Y s black
 gsave  2268 1682 0 0 C 442.205 1431.17 t 0 r /Times-Italic findfont 76.0979 sf 0 0 m (Signal) show NC gr  0.49 0.6 0.82 c 269 1428 m 143 X 70 Y -143 X f 0 0 0.933333 c 6 lw 269 1498 m 143 X s 269 1428 m 143 X s 412 1428 m 70 Y s 269 1428 m 70 Y s
 black
 gsave  2268 1682 0 0 C 442.205 1330.27 t 0 r /Times-Italic findfont 76.0979 sf 0 0 m (Background) show NC gr  1 0 0 c 3 lw 412 1374 m -47 -47 d s 387 1398 m -70 -71 d s 339 1398 m -70 -71 d s 291 1398 m -22 -23 d s 6 lw 0 0 0.933333 c 1 0 0 c 269
 1398 m 143 X s 269 1327 m 143 X s 412 1327 m 71 Y s 269 1327 m 71 Y s 0 0 0.933333 c 0.49 0.6 0.82 c black 3 lw 0.49 0.6 0.82 c 238 202 m 48 X 367 Y 48 X -367 Y 48 X 186 Y 48 X -186 Y 96 X 179 Y 47 X -179 Y 48 X 357 Y 48 X 537 Y 48 X -173 Y 48 X
 -172 Y 48 X 347 Y 48 X 197 Y 48 X -551 Y 48 X 191 Y 48 X -194 Y 48 X -147 Y 47 X 149 Y 48 X -359 Y 48 X 176 Y 48 X -179 Y 48 X -179 Y 144 X 177 Y 48 X -177 Y 95 X 357 Y 48 X -357 Y 48 X 180 Y 48 X -180 Y 96 X 369 Y 48 X -369 Y 287 X f 6 lw 0 0
 0.933333 c 0.49 0.6 0.82 c 0 0 0.933333 c 238 202 m 48 X 367 Y 48 X -367 Y 48 X 186 Y 48 X -186 Y 96 X 179 Y 47 X -179 Y 48 X 357 Y 48 X 537 Y 48 X -173 Y 48 X -172 Y 48 X 347 Y 48 X 197 Y 48 X -551 Y 48 X 191 Y 48 X -194 Y 48 X -147 Y 47 X 149 Y 48
 X -359 Y 48 X 176 Y 48 X -179 Y 48 X -179 Y 144 X 177 Y 48 X -177 Y 95 X 357 Y 48 X -357 Y 48 X 180 Y 48 X -180 Y 96 X 369 Y 48 X -369 Y 287 X s 1 0 0 c black 3 lw 1 0 0 c 2154 230 m -28 -28 d s 2154 278 m -48 -48 d s 2078 202 m cl s 2154 326 m -48
 -48 d s 2059 231 m -29 -29 d s 2130 350 m -24 -23 d s 2059 279 m -48 -48 d s 1982 202 m cl s 2059 327 m -48 -48 d s 1934 202 m s 2034 350 m -23 -23 d s 1886 202 m s 1837 202 m s 1789 202 m s 1771 232 m -30 -30 d s 1771 280 m -78 -78 d s 1771 328 m
 -96 -96 d s 1645 202 m cl s 1771 376 m -96 -96 d s 1597 202 m s 1771 424 m -48 -48 d s 1697 350 m -22 -22 d s 1549 202 m s 1771 472 m -48 -48 d s 1532 233 m -31 -31 d s 1747 496 m -24 -24 d s 1532 281 m -79 -79 d s 1532 329 m -128 -127 d s 1504 349
 m -148 -147 d s 1484 377 m -144 -143 d s 1308 202 m s 1484 425 m -144 -143 d s 1292 234 m -32 -32 d s 1484 473 m -96 -95 d s 1368 357 m -28 -27 d s 1292 282 m -80 -80 d s 1460 498 m -72 -72 d s 1292 330 m -128 -128 d s 1411 497 m -23 -23 d s 1292
 378 m -176 -176 d s 1292 426 m -224 -224 d s 1292 474 m -272 -272 d s 1292 522 m -320 -320 d s 1292 570 m -48 -47 d s 1220 498 m -263 -263 d s 923 202 m s 1292 619 m -48 -48 d s 1196 523 m -239 -240 d s 909 235 m -34 -33 d s 1292 667 m -48 -48 d s
 1196 571 m -239 -240 d s 909 283 m -82 -81 d s 1292 715 m -48 -48 d s 1196 619 m -239 -240 d s 909 332 m -130 -130 d s 1292 763 m -48 -48 d s 1196 667 m -239 -239 d s 909 380 m -178 -178 d s 1292 811 m -48 -48 d s 1196 715 m -191 -191 d s 979 498 m
 -22 -22 d s 909 428 m -226 -226 d s 1292 859 m -48 -48 d s 1196 763 m -191 -191 d s 909 476 m -274 -274 d s 1292 907 m -48 -48 d s 1196 811 m -191 -191 d s 909 524 m -322 -322 d s 1278 941 m -34 -34 d s 1196 859 m -191 -191 d s 909 572 m -48 -48 d s
 835 498 m -262 -261 d s 539 202 m s 1196 908 m -96 -96 d s 1094 805 m -89 -89 d s 909 620 m -48 -48 d s 785 496 m -212 -211 d s 490 202 m s 1196 956 m -96 -96 d s 1033 793 m -28 -29 d s 909 668 m -48 -48 d s 765 525 m -144 -144 d s 590 350 m -17 -17
 d s 478 237 m -36 -35 d s 1196 1004 m -48 -48 d s 1139 946 m -39 -38 d s 909 716 m -48 -48 d s 765 573 m -144 -144 d s 478 285 m -84 -83 d s 1196 1052 m -48 -48 d s 909 764 m -48 -47 d s 765 621 m -144 -144 d s 478 333 m -96 -95 d s 346 202 m cl s
 1182 1085 m -34 -33 d s 909 813 m -48 -48 d s 765 669 m -144 -144 d s 446 349 m -64 -63 d s 298 202 m s 909 861 m -48 -48 d s 765 717 m -144 -144 d s 397 349 m -15 -15 d s 286 238 m -36 -36 d s 909 909 m -48 -48 d s 765 765 m -144 -144 d s 286 286 m
 -48 -48 d s 909 957 m -48 -48 d s 748 797 m -127 -128 d s 286 334 m -48 -48 d s 909 1005 m -48 -48 d s 697 793 m -76 -75 d s 286 382 m -48 -48 d s 909 1053 m -48 -48 d s 654 798 m -33 -32 d s 286 430 m -48 -48 d s 903 1096 m -42 -43 d s 286 478 m
 -48 -47 d s 259 499 m -21 -20 d s 6 lw 238 499 m 48 X -297 Y 96 X 147 Y 96 X -147 Y 95 X 148 Y 48 X 448 Y 48 X -5 Y 48 X 4 Y 48 X -301 Y 48 X 2 Y 48 X 598 Y 48 X -894 Y 48 X 296 Y 48 X 295 Y 48 X 12 Y 47 X 141 Y 48 X 139 Y 48 X -587 Y 48 X 443 Y 48
 X -739 Y 48 X 155 Y 48 X 140 Y 48 X 1 Y 48 X -149 Y 48 X -147 Y 143 X 148 Y 48 X 146 Y 48 X -294 Y 240 X 148 Y 48 X -148 Y 47 X 148 Y 48 X -148 Y s black 3 lw 238 202 m 1916 X s 264 244 m -42 Y s 309 223 m -21 Y s 354 223 m -21 Y s 399 223 m -21 Y s
 444 223 m -21 Y s 489 244 m -42 Y s 534 223 m -21 Y s 579 223 m -21 Y s 624 223 m -21 Y s 669 223 m -21 Y s 715 244 m -42 Y s 760 223 m -21 Y s 805 223 m -21 Y s 850 223 m -21 Y s 895 223 m -21 Y s 940 244 m -42 Y s 985 223 m -21 Y s 1030 223 m -21
 Y s 1075 223 m -21 Y s 1120 223 m -21 Y s 1166 244 m -42 Y s 1211 223 m -21 Y s 1256 223 m -21 Y s 1301 223 m -21 Y s 1346 223 m -21 Y s 1391 244 m -42 Y s 1436 223 m -21 Y s 1481 223 m -21 Y s 1526 223 m -21 Y s 1571 223 m -21 Y s 1617 244 m -42 Y
 s 1662 223 m -21 Y s 1707 223 m -21 Y s 1752 223 m -21 Y s 1797 223 m -21 Y s 1842 244 m -42 Y s 1887 223 m -21 Y s 1932 223 m -21 Y s 1977 223 m -21 Y s 2022 223 m -21 Y s 2067 244 m -42 Y s 264 244 m -42 Y s 2067 244 m -42 Y s 2113 223 m -21 Y s
 238 1514 m 1916 X s 264 1471 m 43 Y s 309 1492 m 22 Y s 354 1492 m 22 Y s 399 1492 m 22 Y s 444 1492 m 22 Y s 489 1471 m 43 Y s 534 1492 m 22 Y s 579 1492 m 22 Y s 624 1492 m 22 Y s 669 1492 m 22 Y s 715 1471 m 43 Y s 760 1492 m 22 Y s 805 1492 m 22
 Y s 850 1492 m 22 Y s 895 1492 m 22 Y s 940 1471 m 43 Y s 985 1492 m 22 Y s 1030 1492 m 22 Y s 1075 1492 m 22 Y s 1120 1492 m 22 Y s 1166 1471 m 43 Y s 1211 1492 m 22 Y s 1256 1492 m 22 Y s 1301 1492 m 22 Y s 1346 1492 m 22 Y s 1391 1471 m 43 Y s
 1436 1492 m 22 Y s 1481 1492 m 22 Y s 1526 1492 m 22 Y s 1571 1492 m 22 Y s 1617 1471 m 43 Y s 1662 1492 m 22 Y s 1707 1492 m 22 Y s 1752 1492 m 22 Y s 1797 1492 m 22 Y s 1842 1471 m 43 Y s 1887 1492 m 22 Y s 1932 1492 m 22 Y s 1977 1492 m 22 Y s
 2022 1492 m 22 Y s 2067 1471 m 43 Y s 264 1471 m 43 Y s 2067 1471 m 43 Y s 2113 1492 m 22 Y s 238 202 m 1312 Y s 291 202 m -53 X s 265 254 m -27 X s 265 306 m -27 X s 265 358 m -27 X s 291 410 m -53 X s 265 462 m -27 X s 265 514 m -27 X s 265 566 m
 -27 X s 291 618 m -53 X s 265 670 m -27 X s 265 722 m -27 X s 265 774 m -27 X s 291 826 m -53 X s 265 878 m -27 X s 265 930 m -27 X s 265 982 m -27 X s 291 1034 m -53 X s 265 1086 m -27 X s 265 1138 m -27 X s 265 1190 m -27 X s 291 1242 m -53 X s
 265 1294 m -27 X s 265 1346 m -27 X s 265 1398 m -27 X s 291 1450 m -53 X s 291 1450 m -53 X s 265 1502 m -27 X s 2154 202 m 1312 Y s 2101 202 m 53 X s 2128 254 m 26 X s 2128 306 m 26 X s 2128 358 m 26 X s 2101 410 m 53 X s 2128 462 m 26 X s 2128
 514 m 26 X s 2128 566 m 26 X s 2101 618 m 53 X s 2128 670 m 26 X s 2128 722 m 26 X s 2128 774 m 26 X s 2101 826 m 53 X s 2128 878 m 26 X s 2128 930 m 26 X s 2128 982 m 26 X s 2101 1034 m 53 X s 2128 1086 m 26 X s 2128 1138 m 26 X s 2128 1190 m 26 X
 s 2101 1242 m 53 X s 2128 1294 m 26 X s 2128 1346 m 26 X s 2128 1398 m 26 X s 2101 1450 m 53 X s 2101 1450 m 53 X s 2128 1502 m 26 X s
 gsave  2268 1682 0 0 C 2211.02 193.403 t 90 r /Helvetica-Bold findfont 45.6587 sf 0 0 m (U/O\255flow \(S,B\): \(0.0, 0.0\)% / \(0.0, 0.0\)%) show NC gr  0.490196 0.545098 0.615686 c 0.364706 0.419608 0.490196 c 1552 96 23 1577 bf 0.490196 0.545098
 0.615686 c 23 1577 m 1552 X s 1575 1577 m 96 Y s 1575 1673 m -1552 X s 23 1673 m -96 Y s 1 1 1 c black 1 1 1 c
 gsave  2268 1682 0 0 C 76.0979 1605.67 t 0 r /Helvetica-Bold findfont 76.0979 sf 0 0 m (TMVA response for classifier: TMlpANN) show NC gr 
 gr  gr showpage
end
%%EOF
