%!PS-Adobe-2.0 EPSF-2.0
%%BoundingBox:  0 0 567 420
%%Title: plots/mva_SVM.eps: TMVA response SVM
%%Creator: ROOT Version 5.34/09
%%CreationDate: Sun Jan  5 00:02:28 2014
%%EndComments
%%BeginProlog
80 dict begin
/s {stroke} def /l {lineto} def /m {moveto} def /t {translate} def
/r {rotate} def /rl {roll}  def /R {repeat} def
/d {rlineto} def /rm {rmoveto} def /gr {grestore} def /f {eofill} def
/c {setrgbcolor} def /black {0 setgray} def /sd {setdash} def
/cl {closepath} def /sf {scalefont setfont} def /lw {setlinewidth} def
/box {m dup 0 exch d exch 0 d 0 exch neg d cl} def
/NC{systemdict begin initclip end}def/C{NC box clip newpath}def
/bl {box s} def /bf {box f} def /Y { 0 exch d} def /X { 0 d} def 
/K {{pop pop 0 moveto} exch kshow} bind def
/ita {/ang 15 def gsave [1 0 ang dup sin exch cos div 1 0 0] concat} def 
/mp {newpath /y exch def /x exch def} def
/side {[w .77 mul w .23 mul] .385 w mul sd w 0 l currentpoint t -144 r} def
/mr {mp x y w2 0 360 arc} def /m24 {mr s} def /m20 {mr f} def
/mb {mp x y w2 add m w2 neg 0 d 0 w neg d w 0 d 0 w d cl} def
/mt {mp x y w2 add m w2 neg w neg d w 0 d cl} def
/m21 {mb f} def /m25 {mb s} def /m22 {mt f} def /m26{mt s} def
/m23 {mp x y w2 sub m w2 w d w neg 0 d cl f} def
/m27 {mp x y w2 add m w3 neg w2 neg d w3 w2 neg d w3 w2 d cl s} def
/m28 {mp x w2 sub y w2 sub w3 add m w3 0 d  0 w3 neg d w3 0 d 0 w3 d w3 0 d  0 w3 d w3 neg 0 d 0 w3 d w3 neg 0 d 0 w3 neg d w3 neg 0 d cl s } def
/m29 {mp gsave x w2 sub y w2 add w3 sub m currentpoint t 4 {side} repeat cl fill gr} def
/m30 {mp gsave x w2 sub y w2 add w3 sub m currentpoint t 4 {side} repeat cl s gr} def
/m31 {mp x y w2 sub m 0 w d x w2 sub y m w 0 d x w2 sub y w2 add m w w neg d x w2 sub y w2 sub m w w d s} def
/m32 {mp x y w2 sub m w2 w d w neg 0 d cl s} def
/m33 {mp x y w2 add m w3 neg w2 neg d w3 w2 neg d w3 w2 d cl f} def
/m34 {mp x w2 sub y w2 sub w3 add m w3 0 d  0 w3 neg d w3 0 d 0 w3 d w3 0 d  0 w3 d w3 neg 0 d 0 w3 d w3 neg 0 d 0 w3 neg d w3 neg 0 d cl f } def
/m2 {mp x y w2 sub m 0 w d x w2 sub y m w 0 d s} def
/m5 {mp x w2 sub y w2 sub m w w d x w2 sub y w2 add m w w neg d s} def
/reEncode {exch findfont dup length dict begin {1 index /FID eq  {pop pop} {def} ifelse } forall /Encoding exch def currentdict end dup /FontName get exch definefont pop } def [/Times-Bold /Times-Italic /Times-BoldItalic /Helvetica /Helvetica-Oblique
 /Helvetica-Bold /Helvetica-BoldOblique /Courier /Courier-Oblique /Courier-Bold /Courier-BoldOblique /Times-Roman /AvantGarde-Book /AvantGarde-BookOblique /AvantGarde-Demi /AvantGarde-DemiOblique /Bookman-Demi /Bookman-DemiItalic /Bookman-Light
 /Bookman-LightItalic /Helvetica-Narrow /Helvetica-Narrow-Bold /Helvetica-Narrow-BoldOblique /Helvetica-Narrow-Oblique /NewCenturySchlbk-Roman /NewCenturySchlbk-Bold /NewCenturySchlbk-BoldItalic /NewCenturySchlbk-Italic /Palatino-Bold
 /Palatino-BoldItalic /Palatino-Italic /Palatino-Roman ] {ISOLatin1Encoding reEncode } forall
%%EndProlog
%%BeginSetup
%%EndSetup
newpath  gsave  .25 .25 scale  gsave  0 0 t 0.490196 0.545098 0.615686 c[  ] 0 sd 3 lw 0.941176 0.941176 0.941176 c 2268 1682 0 0 bf black 1 1 0.992157 c 1916 1312 238 202 bf black 1916 1312 238 202 bl 1 1 0.992157 c 1916 1312 238 202 bf black 1916
 1312 238 202 bl 238 202 m 1916 X s
 gsave  2268 1682 0 0 C 1655.13 30.4391 t 0 r /Helvetica-Bold findfont 72.293 sf 0 0 m (SVM response) show NC gr  467 244 m -42 Y s 536 223 m -21 Y s 604 223 m -21 Y s 673 223 m -21 Y s 742 223 m -21 Y s 811 244 m -42 Y s 880 223 m -21 Y s 949 223 m
 -21 Y s 1018 223 m -21 Y s 1087 223 m -21 Y s 1156 244 m -42 Y s 1225 223 m -21 Y s 1294 223 m -21 Y s 1363 223 m -21 Y s 1432 223 m -21 Y s 1501 244 m -42 Y s 1569 223 m -21 Y s 1638 223 m -21 Y s 1707 223 m -21 Y s 1776 223 m -21 Y s 1845 244 m
 -42 Y s 467 244 m -42 Y s 398 223 m -21 Y s 329 223 m -21 Y s 260 223 m -21 Y s 1845 244 m -42 Y s 1914 223 m -21 Y s 1983 223 m -21 Y s 2052 223 m -21 Y s 2121 223 m -21 Y s
 gsave  2268 1682 0 0 C 418.538 129.366 t 0 r /Helvetica-Bold findfont 64.6832 sf 0 0 m (0.4) show NC gr 
 gsave  2268 1682 0 0 C 745.759 129.366 t 0 r /Helvetica-Bold findfont 64.6832 sf 0 0 m (0.45) show NC gr 
 gsave  2268 1682 0 0 C 1107.22 129.366 t 0 r /Helvetica-Bold findfont 64.6832 sf 0 0 m (0.5) show NC gr 
 gsave  2268 1682 0 0 C 1434.44 129.366 t 0 r /Helvetica-Bold findfont 64.6832 sf 0 0 m (0.55) show NC gr 
 gsave  2268 1682 0 0 C 1795.91 129.366 t 0 r /Helvetica-Bold findfont 64.6832 sf 0 0 m (0.6) show NC gr  238 1514 m 1916 X s 467 1471 m 43 Y s 536 1492 m 22 Y s 604 1492 m 22 Y s 673 1492 m 22 Y s 742 1492 m 22 Y s 811 1471 m 43 Y s 880 1492 m 22 Y
 s 949 1492 m 22 Y s 1018 1492 m 22 Y s 1087 1492 m 22 Y s 1156 1471 m 43 Y s 1225 1492 m 22 Y s 1294 1492 m 22 Y s 1363 1492 m 22 Y s 1432 1492 m 22 Y s 1501 1471 m 43 Y s 1569 1492 m 22 Y s 1638 1492 m 22 Y s 1707 1492 m 22 Y s 1776 1492 m 22 Y s
 1845 1471 m 43 Y s 467 1471 m 43 Y s 398 1492 m 22 Y s 329 1492 m 22 Y s 260 1492 m 22 Y s 1845 1471 m 43 Y s 1914 1492 m 22 Y s 1983 1492 m 22 Y s 2052 1492 m 22 Y s 2121 1492 m 22 Y s 238 202 m 1312 Y s
 gsave  2268 1682 0 0 C 64.6832 1430.64 t 90 r /Helvetica-Bold findfont 72.293 sf 0 0 m (dx) show NC gr 
 gsave  2268 1682 0 0 C 30.4391 1411.62 t 90 r /Helvetica-Bold findfont 45.6587 sf 0 0 m ( ) show NC gr 
 gsave  2268 1682 0 0 C 64.6832 1388.79 t 90 r /Helvetica-Bold findfont 72.293 sf 0 0 m (/) show NC gr 
 gsave  2268 1682 0 0 C 30.4391 1369.76 t 90 r /Helvetica-Bold findfont 45.6587 sf 0 0 m ( ) show NC gr 
 gsave  2268 1682 0 0 C 60.8783 1095.81 t 90 r /Helvetica-Bold findfont 72.293 sf 0 0 m (\(1/N\) dN) show NC gr  291 202 m -53 X s 265 231 m -27 X s 265 261 m -27 X s 265 290 m -27 X s 291 320 m -53 X s 265 349 m -27 X s 265 379 m -27 X s 265 408 m
 -27 X s 291 438 m -53 X s 265 467 m -27 X s 265 497 m -27 X s 265 526 m -27 X s 291 556 m -53 X s 265 585 m -27 X s 265 615 m -27 X s 265 644 m -27 X s 291 674 m -53 X s 265 704 m -27 X s 265 733 m -27 X s 265 763 m -27 X s 291 792 m -53 X s 265 822
 m -27 X s 265 851 m -27 X s 265 881 m -27 X s 291 910 m -53 X s 265 940 m -27 X s 265 969 m -27 X s 265 999 m -27 X s 291 1028 m -53 X s 265 1058 m -27 X s 265 1087 m -27 X s 265 1117 m -27 X s 291 1146 m -53 X s 265 1176 m -27 X s 265 1205 m -27 X
 s 265 1235 m -27 X s 291 1264 m -53 X s 265 1294 m -27 X s 265 1323 m -27 X s 265 1353 m -27 X s 291 1382 m -53 X s 265 1412 m -27 X s 265 1441 m -27 X s 265 1471 m -27 X s 291 1500 m -53 X s 291 1500 m -53 X s
 gsave  2268 1682 0 0 C 175.025 178.83 t 0 r /Helvetica-Bold findfont 64.6832 sf 0 0 m (0) show NC gr 
 gsave  2268 1682 0 0 C 175.025 296.782 t 0 r /Helvetica-Bold findfont 64.6832 sf 0 0 m (2) show NC gr 
 gsave  2268 1682 0 0 C 175.025 414.733 t 0 r /Helvetica-Bold findfont 64.6832 sf 0 0 m (4) show NC gr 
 gsave  2268 1682 0 0 C 175.025 532.685 t 0 r /Helvetica-Bold findfont 64.6832 sf 0 0 m (6) show NC gr 
 gsave  2268 1682 0 0 C 175.025 650.637 t 0 r /Helvetica-Bold findfont 64.6832 sf 0 0 m (8) show NC gr 
 gsave  2268 1682 0 0 C 136.976 768.588 t 0 r /Helvetica-Bold findfont 64.6832 sf 0 0 m (10) show NC gr 
 gsave  2268 1682 0 0 C 136.976 886.54 t 0 r /Helvetica-Bold findfont 64.6832 sf 0 0 m (12) show NC gr 
 gsave  2268 1682 0 0 C 136.976 1004.49 t 0 r /Helvetica-Bold findfont 64.6832 sf 0 0 m (14) show NC gr 
 gsave  2268 1682 0 0 C 136.976 1122.44 t 0 r /Helvetica-Bold findfont 64.6832 sf 0 0 m (16) show NC gr 
 gsave  2268 1682 0 0 C 136.976 1240.4 t 0 r /Helvetica-Bold findfont 64.6832 sf 0 0 m (18) show NC gr 
 gsave  2268 1682 0 0 C 136.976 1358.35 t 0 r /Helvetica-Bold findfont 64.6832 sf 0 0 m (20) show NC gr 
 gsave  2268 1682 0 0 C 136.976 1476.3 t 0 r /Helvetica-Bold findfont 64.6832 sf 0 0 m (22) show NC gr  2154 202 m 1312 Y s 2101 202 m 53 X s 2128 231 m 26 X s 2128 261 m 26 X s 2128 290 m 26 X s 2101 320 m 53 X s 2128 349 m 26 X s 2128 379 m 26 X s
 2128 408 m 26 X s 2101 438 m 53 X s 2128 467 m 26 X s 2128 497 m 26 X s 2128 526 m 26 X s 2101 556 m 53 X s 2128 585 m 26 X s 2128 615 m 26 X s 2128 644 m 26 X s 2101 674 m 53 X s 2128 704 m 26 X s 2128 733 m 26 X s 2128 763 m 26 X s 2101 792 m 53 X
 s 2128 822 m 26 X s 2128 851 m 26 X s 2128 881 m 26 X s 2101 910 m 53 X s 2128 940 m 26 X s 2128 969 m 26 X s 2128 999 m 26 X s 2101 1028 m 53 X s 2128 1058 m 26 X s 2128 1087 m 26 X s 2128 1117 m 26 X s 2101 1146 m 53 X s 2128 1176 m 26 X s 2128
 1205 m 26 X s 2128 1235 m 26 X s 2101 1264 m 53 X s 2128 1294 m 26 X s 2128 1323 m 26 X s 2128 1353 m 26 X s 2101 1382 m 53 X s 2128 1412 m 26 X s 2128 1441 m 26 X s 2128 1471 m 26 X s 2101 1500 m 53 X s 2101 1500 m 53 X s 0.490196 0.545098 0.615686
 c 0.95 0.95 0.95 c 0.490196 0.545098 0.615686 c 680 202 238 1312 bl 238 1312 m 680 X s 918 1312 m 202 Y s 918 1514 m -680 X s 238 1514 m -202 Y s black
 gsave  2268 1682 0 0 C 442.205 1431.17 t 0 r /Times-Italic findfont 76.0979 sf 0 0 m (Signal) show NC gr  0.49 0.6 0.82 c 269 1428 m 143 X 70 Y -143 X f 0 0 0.933333 c 6 lw 269 1498 m 143 X s 269 1428 m 143 X s 412 1428 m 70 Y s 269 1428 m 70 Y s
 black
 gsave  2268 1682 0 0 C 442.205 1330.27 t 0 r /Times-Italic findfont 76.0979 sf 0 0 m (Background) show NC gr  1 0 0 c 3 lw 412 1374 m -47 -47 d s 387 1398 m -70 -71 d s 339 1398 m -70 -71 d s 291 1398 m -22 -23 d s 6 lw 0 0 0.933333 c 1 0 0 c 269
 1398 m 143 X s 269 1327 m 143 X s 412 1327 m 71 Y s 269 1327 m 71 Y s 0 0 0.933333 c 0.49 0.6 0.82 c black 3 lw 0.49 0.6 0.82 c 238 202 m 156 Y 48 X -156 Y 431 X 165 Y 48 X -7 Y 48 X -158 Y 48 X 155 Y 48 X 160 Y 48 X 150 Y 48 X 160 Y 48 X -469 Y 47
 X 3 Y 48 X -4 Y 96 X 464 Y 48 X 474 Y 48 X -144 Y 48 X -319 Y 48 X 142 Y 48 X -144 Y 48 X -318 Y 47 X -143 Y 48 X -167 Y 48 X 160 Y 48 X 180 Y 48 X -182 Y 48 X -158 Y 335 X f 6 lw 0 0 0.933333 c 0.49 0.6 0.82 c 0 0 0.933333 c 238 358 m 48 X -156 Y
 431 X 165 Y 48 X -7 Y 48 X -158 Y 48 X 155 Y 48 X 160 Y 48 X 150 Y 48 X 160 Y 48 X -469 Y 47 X 3 Y 48 X -4 Y 96 X 464 Y 48 X 474 Y 48 X -144 Y 48 X -319 Y 48 X 142 Y 48 X -144 Y 48 X -318 Y 47 X -143 Y 48 X -167 Y 48 X 160 Y 48 X 180 Y 48 X -182 Y
 48 X -158 Y 335 X s 1 0 0 c black 3 lw 1 0 0 c 2126 202 m s 2078 202 m s 2030 202 m s 1982 202 m s 1934 202 m s 1886 202 m s 1837 202 m s 1789 202 m s 1741 202 m s 1693 202 m s 1675 232 m -30 -30 d s 1675 280 m -78 -78 d s 1675 328 m -126 -126 d s
 1675 376 m -174 -174 d s 1675 425 m -222 -223 d s 1661 459 m -82 -82 d s 1534 331 m -130 -129 d s 1627 473 m -48 -48 d s 1532 377 m -176 -175 d s 1627 521 m -48 -48 d s 1532 425 m -224 -223 d s 1627 569 m -48 -48 d s 1532 473 m -272 -271 d s 1598
 588 m -19 -19 d s 1532 521 m -320 -319 d s 1532 569 m -368 -367 d s 1502 588 m -386 -386 d s 1452 587 m -384 -385 d s 1406 588 m -386 -386 d s 1388 618 m -416 -416 d s 1388 666 m -465 -464 d s 1388 714 m -513 -512 d s 1388 762 m -561 -560 d s 1388
 811 m -431 -432 d s 909 332 m -96 -96 d s 779 202 m s 1388 859 m -431 -431 d s 861 332 m -48 -48 d s 765 236 m -34 -34 d s 1388 907 m -192 -192 d s 1193 712 m -93 -93 d s 1069 588 m -112 -112 d s 861 380 m -48 -48 d s 765 284 m -48 -48 d s 683 202 m
 s 1388 955 m -192 -192 d s 1148 715 m -48 -48 d s 1018 585 m -61 -61 d s 861 428 m -48 -48 d s 763 330 m -46 -46 d s 635 202 m s 1354 969 m -158 -158 d s 1108 724 m -8 -8 d s 1005 620 m -48 -48 d s 852 468 m -39 -40 d s 621 237 m -34 -35 d s 1340
 1003 m -144 -144 d s 1005 668 m -48 -48 d s 621 285 m -48 -48 d s 539 202 m cl s 1340 1051 m -144 -143 d s 1005 716 m -48 -48 d s 620 331 m -47 -46 d s 490 202 m cl s 1340 1099 m -96 -95 d s 1215 974 m -19 -18 d s 965 724 m -8 -8 d s 442 202 m cl s
 1340 1148 m -48 -48 d s 1289 1097 m -45 -45 d s 394 202 m cl s 1340 1196 m -48 -48 d s 346 202 m cl s 1319 1223 m -27 -27 d s 298 202 m cl s 250 202 m cl s 6 lw 238 202 m 335 X 129 Y 48 X -129 Y 96 X 128 Y 48 X -128 Y 48 X 266 Y 48 X -136 Y 48 X -1
 Y 48 X 393 Y 48 X -139 Y 48 X 3 Y 47 X 136 Y 48 X -12 Y 48 X 262 Y 48 X 123 Y 48 X 126 Y 48 X -254 Y 48 X -381 Y 48 X -1 Y 48 X 1 Y 48 X -257 Y 47 X 257 Y 48 X -129 Y 48 X -257 Y 479 X s black 3 lw 238 202 m 1916 X s 467 244 m -42 Y s 536 223 m -21
 Y s 604 223 m -21 Y s 673 223 m -21 Y s 742 223 m -21 Y s 811 244 m -42 Y s 880 223 m -21 Y s 949 223 m -21 Y s 1018 223 m -21 Y s 1087 223 m -21 Y s 1156 244 m -42 Y s 1225 223 m -21 Y s 1294 223 m -21 Y s 1363 223 m -21 Y s 1432 223 m -21 Y s 1501
 244 m -42 Y s 1569 223 m -21 Y s 1638 223 m -21 Y s 1707 223 m -21 Y s 1776 223 m -21 Y s 1845 244 m -42 Y s 467 244 m -42 Y s 398 223 m -21 Y s 329 223 m -21 Y s 260 223 m -21 Y s 1845 244 m -42 Y s 1914 223 m -21 Y s 1983 223 m -21 Y s 2052 223 m
 -21 Y s 2121 223 m -21 Y s 238 1514 m 1916 X s 467 1471 m 43 Y s 536 1492 m 22 Y s 604 1492 m 22 Y s 673 1492 m 22 Y s 742 1492 m 22 Y s 811 1471 m 43 Y s 880 1492 m 22 Y s 949 1492 m 22 Y s 1018 1492 m 22 Y s 1087 1492 m 22 Y s 1156 1471 m 43 Y s
 1225 1492 m 22 Y s 1294 1492 m 22 Y s 1363 1492 m 22 Y s 1432 1492 m 22 Y s 1501 1471 m 43 Y s 1569 1492 m 22 Y s 1638 1492 m 22 Y s 1707 1492 m 22 Y s 1776 1492 m 22 Y s 1845 1471 m 43 Y s 467 1471 m 43 Y s 398 1492 m 22 Y s 329 1492 m 22 Y s 260
 1492 m 22 Y s 1845 1471 m 43 Y s 1914 1492 m 22 Y s 1983 1492 m 22 Y s 2052 1492 m 22 Y s 2121 1492 m 22 Y s 238 202 m 1312 Y s 291 202 m -53 X s 265 231 m -27 X s 265 261 m -27 X s 265 290 m -27 X s 291 320 m -53 X s 265 349 m -27 X s 265 379 m -27
 X s 265 408 m -27 X s 291 438 m -53 X s 265 467 m -27 X s 265 497 m -27 X s 265 526 m -27 X s 291 556 m -53 X s 265 585 m -27 X s 265 615 m -27 X s 265 644 m -27 X s 291 674 m -53 X s 265 704 m -27 X s 265 733 m -27 X s 265 763 m -27 X s 291 792 m
 -53 X s 265 822 m -27 X s 265 851 m -27 X s 265 881 m -27 X s 291 910 m -53 X s 265 940 m -27 X s 265 969 m -27 X s 265 999 m -27 X s 291 1028 m -53 X s 265 1058 m -27 X s 265 1087 m -27 X s 265 1117 m -27 X s 291 1146 m -53 X s 265 1176 m -27 X s
 265 1205 m -27 X s 265 1235 m -27 X s 291 1264 m -53 X s 265 1294 m -27 X s 265 1323 m -27 X s 265 1353 m -27 X s 291 1382 m -53 X s 265 1412 m -27 X s 265 1441 m -27 X s 265 1471 m -27 X s 291 1500 m -53 X s 291 1500 m -53 X s 2154 202 m 1312 Y s
 2101 202 m 53 X s 2128 231 m 26 X s 2128 261 m 26 X s 2128 290 m 26 X s 2101 320 m 53 X s 2128 349 m 26 X s 2128 379 m 26 X s 2128 408 m 26 X s 2101 438 m 53 X s 2128 467 m 26 X s 2128 497 m 26 X s 2128 526 m 26 X s 2101 556 m 53 X s 2128 585 m 26 X
 s 2128 615 m 26 X s 2128 644 m 26 X s 2101 674 m 53 X s 2128 704 m 26 X s 2128 733 m 26 X s 2128 763 m 26 X s 2101 792 m 53 X s 2128 822 m 26 X s 2128 851 m 26 X s 2128 881 m 26 X s 2101 910 m 53 X s 2128 940 m 26 X s 2128 969 m 26 X s 2128 999 m 26
 X s 2101 1028 m 53 X s 2128 1058 m 26 X s 2128 1087 m 26 X s 2128 1117 m 26 X s 2101 1146 m 53 X s 2128 1176 m 26 X s 2128 1205 m 26 X s 2128 1235 m 26 X s 2101 1264 m 53 X s 2128 1294 m 26 X s 2128 1323 m 26 X s 2128 1353 m 26 X s 2101 1382 m 53 X
 s 2128 1412 m 26 X s 2128 1441 m 26 X s 2128 1471 m 26 X s 2101 1500 m 53 X s 2101 1500 m 53 X s
 gsave  2268 1682 0 0 C 2211.02 193.403 t 90 r /Helvetica-Bold findfont 45.6587 sf 0 0 m (U/O\255flow \(S,B\): \(0.0, 0.0\)% / \(0.0, 0.0\)%) show NC gr  0.490196 0.545098 0.615686 c 0.364706 0.419608 0.490196 c 1365 96 23 1577 bf 0.490196 0.545098
 0.615686 c 23 1577 m 1365 X s 1388 1577 m 96 Y s 1388 1673 m -1365 X s 23 1673 m -96 Y s 1 1 1 c black 1 1 1 c
 gsave  2268 1682 0 0 C 72.293 1605.67 t 0 r /Helvetica-Bold findfont 76.0979 sf 0 0 m (TMVA response for classifier: SVM) show NC gr 
 gr  gr showpage
end
%%EOF
