%!PS-Adobe-2.0 EPSF-2.0
%%BoundingBox:  0 0 567 420
%%Title: plots/mva_BDTB.eps: TMVA response BDTB
%%Creator: ROOT Version 5.34/09
%%CreationDate: Sun Jan  5 00:02:29 2014
%%EndComments
%%BeginProlog
80 dict begin
/s {stroke} def /l {lineto} def /m {moveto} def /t {translate} def
/r {rotate} def /rl {roll}  def /R {repeat} def
/d {rlineto} def /rm {rmoveto} def /gr {grestore} def /f {eofill} def
/c {setrgbcolor} def /black {0 setgray} def /sd {setdash} def
/cl {closepath} def /sf {scalefont setfont} def /lw {setlinewidth} def
/box {m dup 0 exch d exch 0 d 0 exch neg d cl} def
/NC{systemdict begin initclip end}def/C{NC box clip newpath}def
/bl {box s} def /bf {box f} def /Y { 0 exch d} def /X { 0 d} def 
/K {{pop pop 0 moveto} exch kshow} bind def
/ita {/ang 15 def gsave [1 0 ang dup sin exch cos div 1 0 0] concat} def 
/mp {newpath /y exch def /x exch def} def
/side {[w .77 mul w .23 mul] .385 w mul sd w 0 l currentpoint t -144 r} def
/mr {mp x y w2 0 360 arc} def /m24 {mr s} def /m20 {mr f} def
/mb {mp x y w2 add m w2 neg 0 d 0 w neg d w 0 d 0 w d cl} def
/mt {mp x y w2 add m w2 neg w neg d w 0 d cl} def
/m21 {mb f} def /m25 {mb s} def /m22 {mt f} def /m26{mt s} def
/m23 {mp x y w2 sub m w2 w d w neg 0 d cl f} def
/m27 {mp x y w2 add m w3 neg w2 neg d w3 w2 neg d w3 w2 d cl s} def
/m28 {mp x w2 sub y w2 sub w3 add m w3 0 d  0 w3 neg d w3 0 d 0 w3 d w3 0 d  0 w3 d w3 neg 0 d 0 w3 d w3 neg 0 d 0 w3 neg d w3 neg 0 d cl s } def
/m29 {mp gsave x w2 sub y w2 add w3 sub m currentpoint t 4 {side} repeat cl fill gr} def
/m30 {mp gsave x w2 sub y w2 add w3 sub m currentpoint t 4 {side} repeat cl s gr} def
/m31 {mp x y w2 sub m 0 w d x w2 sub y m w 0 d x w2 sub y w2 add m w w neg d x w2 sub y w2 sub m w w d s} def
/m32 {mp x y w2 sub m w2 w d w neg 0 d cl s} def
/m33 {mp x y w2 add m w3 neg w2 neg d w3 w2 neg d w3 w2 d cl f} def
/m34 {mp x w2 sub y w2 sub w3 add m w3 0 d  0 w3 neg d w3 0 d 0 w3 d w3 0 d  0 w3 d w3 neg 0 d 0 w3 d w3 neg 0 d 0 w3 neg d w3 neg 0 d cl f } def
/m2 {mp x y w2 sub m 0 w d x w2 sub y m w 0 d s} def
/m5 {mp x w2 sub y w2 sub m w w d x w2 sub y w2 add m w w neg d s} def
/reEncode {exch findfont dup length dict begin {1 index /FID eq  {pop pop} {def} ifelse } forall /Encoding exch def currentdict end dup /FontName get exch definefont pop } def [/Times-Bold /Times-Italic /Times-BoldItalic /Helvetica /Helvetica-Oblique
 /Helvetica-Bold /Helvetica-BoldOblique /Courier /Courier-Oblique /Courier-Bold /Courier-BoldOblique /Times-Roman /AvantGarde-Book /AvantGarde-BookOblique /AvantGarde-Demi /AvantGarde-DemiOblique /Bookman-Demi /Bookman-DemiItalic /Bookman-Light
 /Bookman-LightItalic /Helvetica-Narrow /Helvetica-Narrow-Bold /Helvetica-Narrow-BoldOblique /Helvetica-Narrow-Oblique /NewCenturySchlbk-Roman /NewCenturySchlbk-Bold /NewCenturySchlbk-BoldItalic /NewCenturySchlbk-Italic /Palatino-Bold
 /Palatino-BoldItalic /Palatino-Italic /Palatino-Roman ] {ISOLatin1Encoding reEncode } forall
%%EndProlog
%%BeginSetup
%%EndSetup
newpath  gsave  .25 .25 scale  gsave  0 0 t 0.490196 0.545098 0.615686 c[  ] 0 sd 3 lw 0.941176 0.941176 0.941176 c 2268 1682 0 0 bf black 1 1 0.992157 c 1916 1312 238 202 bf black 1916 1312 238 202 bl 1 1 0.992157 c 1916 1312 238 202 bf black 1916
 1312 238 202 bl 238 202 m 1916 X s
 gsave  2268 1682 0 0 C 1609.47 34.244 t 0 r /Helvetica-Bold findfont 72.293 sf 0 0 m (BDTB response) show NC gr  442 244 m -42 Y s 505 223 m -21 Y s 569 223 m -21 Y s 633 223 m -21 Y s 696 244 m -42 Y s 760 223 m -21 Y s 824 223 m -21 Y s 887 223 m
 -21 Y s 951 244 m -42 Y s 1015 223 m -21 Y s 1078 223 m -21 Y s 1142 223 m -21 Y s 1206 244 m -42 Y s 1269 223 m -21 Y s 1333 223 m -21 Y s 1397 223 m -21 Y s 1460 244 m -42 Y s 1524 223 m -21 Y s 1588 223 m -21 Y s 1651 223 m -21 Y s 1715 244 m -42
 Y s 1779 223 m -21 Y s 1842 223 m -21 Y s 1906 223 m -21 Y s 1970 244 m -42 Y s 442 244 m -42 Y s 378 223 m -21 Y s 315 223 m -21 Y s 251 223 m -21 Y s 1970 244 m -42 Y s 2033 223 m -21 Y s 2097 223 m -21 Y s
 gsave  2268 1682 0 0 C 384.294 129.366 t 0 r /Helvetica-Bold findfont 64.6832 sf 0 0 m (\2550.6) show NC gr 
 gsave  2268 1682 0 0 C 639.222 129.366 t 0 r /Helvetica-Bold findfont 64.6832 sf 0 0 m (\2550.4) show NC gr 
 gsave  2268 1682 0 0 C 890.345 129.366 t 0 r /Helvetica-Bold findfont 64.6832 sf 0 0 m (\2550.2) show NC gr 
 gsave  2268 1682 0 0 C 1183.32 129.366 t 0 r /Helvetica-Bold findfont 64.6832 sf 0 0 m (0) show NC gr 
 gsave  2268 1682 0 0 C 1411.62 129.366 t 0 r /Helvetica-Bold findfont 64.6832 sf 0 0 m (0.2) show NC gr 
 gsave  2268 1682 0 0 C 1666.54 129.366 t 0 r /Helvetica-Bold findfont 64.6832 sf 0 0 m (0.4) show NC gr 
 gsave  2268 1682 0 0 C 1921.47 129.366 t 0 r /Helvetica-Bold findfont 64.6832 sf 0 0 m (0.6) show NC gr  238 1514 m 1916 X s 442 1471 m 43 Y s 505 1492 m 22 Y s 569 1492 m 22 Y s 633 1492 m 22 Y s 696 1471 m 43 Y s 760 1492 m 22 Y s 824 1492 m 22 Y
 s 887 1492 m 22 Y s 951 1471 m 43 Y s 1015 1492 m 22 Y s 1078 1492 m 22 Y s 1142 1492 m 22 Y s 1206 1471 m 43 Y s 1269 1492 m 22 Y s 1333 1492 m 22 Y s 1397 1492 m 22 Y s 1460 1471 m 43 Y s 1524 1492 m 22 Y s 1588 1492 m 22 Y s 1651 1492 m 22 Y s
 1715 1471 m 43 Y s 1779 1492 m 22 Y s 1842 1492 m 22 Y s 1906 1492 m 22 Y s 1970 1471 m 43 Y s 442 1471 m 43 Y s 378 1492 m 22 Y s 315 1492 m 22 Y s 251 1492 m 22 Y s 1970 1471 m 43 Y s 2033 1492 m 22 Y s 2097 1492 m 22 Y s 238 202 m 1312 Y s
 gsave  2268 1682 0 0 C 64.6832 1430.64 t 90 r /Helvetica-Bold findfont 72.293 sf 0 0 m (dx) show NC gr 
 gsave  2268 1682 0 0 C 30.4391 1411.62 t 90 r /Helvetica-Bold findfont 45.6587 sf 0 0 m ( ) show NC gr 
 gsave  2268 1682 0 0 C 64.6832 1388.79 t 90 r /Helvetica-Bold findfont 72.293 sf 0 0 m (/) show NC gr 
 gsave  2268 1682 0 0 C 30.4391 1369.76 t 90 r /Helvetica-Bold findfont 45.6587 sf 0 0 m ( ) show NC gr 
 gsave  2268 1682 0 0 C 60.8783 1095.81 t 90 r /Helvetica-Bold findfont 72.293 sf 0 0 m (\(1/N\) dN) show NC gr  291 202 m -53 X s 265 246 m -27 X s 265 291 m -27 X s 265 335 m -27 X s 265 380 m -27 X s 291 424 m -53 X s 265 469 m -27 X s 265 513 m
 -27 X s 265 557 m -27 X s 265 602 m -27 X s 291 646 m -53 X s 265 691 m -27 X s 265 735 m -27 X s 265 780 m -27 X s 265 824 m -27 X s 291 869 m -53 X s 265 913 m -27 X s 265 958 m -27 X s 265 1002 m -27 X s 265 1047 m -27 X s 291 1091 m -53 X s 265
 1135 m -27 X s 265 1180 m -27 X s 265 1224 m -27 X s 265 1269 m -27 X s 291 1313 m -53 X s 291 1313 m -53 X s 265 1358 m -27 X s 265 1402 m -27 X s 265 1447 m -27 X s 265 1491 m -27 X s
 gsave  2268 1682 0 0 C 175.025 178.83 t 0 r /Helvetica-Bold findfont 64.6832 sf 0 0 m (0) show NC gr 
 gsave  2268 1682 0 0 C 121.757 399.514 t 0 r /Helvetica-Bold findfont 64.6832 sf 0 0 m (0.5) show NC gr 
 gsave  2268 1682 0 0 C 182.635 620.198 t 0 r /Helvetica-Bold findfont 64.6832 sf 0 0 m (1) show NC gr 
 gsave  2268 1682 0 0 C 121.757 844.686 t 0 r /Helvetica-Bold findfont 64.6832 sf 0 0 m (1.5) show NC gr 
 gsave  2268 1682 0 0 C 175.025 1065.37 t 0 r /Helvetica-Bold findfont 64.6832 sf 0 0 m (2) show NC gr 
 gsave  2268 1682 0 0 C 121.757 1289.86 t 0 r /Helvetica-Bold findfont 64.6832 sf 0 0 m (2.5) show NC gr  2154 202 m 1312 Y s 2101 202 m 53 X s 2128 246 m 26 X s 2128 291 m 26 X s 2128 335 m 26 X s 2128 380 m 26 X s 2101 424 m 53 X s 2128 469 m 26 X
 s 2128 513 m 26 X s 2128 557 m 26 X s 2128 602 m 26 X s 2101 646 m 53 X s 2128 691 m 26 X s 2128 735 m 26 X s 2128 780 m 26 X s 2128 824 m 26 X s 2101 869 m 53 X s 2128 913 m 26 X s 2128 958 m 26 X s 2128 1002 m 26 X s 2128 1047 m 26 X s 2101 1091 m
 53 X s 2128 1135 m 26 X s 2128 1180 m 26 X s 2128 1224 m 26 X s 2128 1269 m 26 X s 2101 1313 m 53 X s 2101 1313 m 53 X s 2128 1358 m 26 X s 2128 1402 m 26 X s 2128 1447 m 26 X s 2128 1491 m 26 X s 0.490196 0.545098 0.615686 c 0.95 0.95 0.95 c
 0.490196 0.545098 0.615686 c 680 202 238 1312 bl 238 1312 m 680 X s 918 1312 m 202 Y s 918 1514 m -680 X s 238 1514 m -202 Y s black
 gsave  2268 1682 0 0 C 442.205 1431.17 t 0 r /Times-Italic findfont 76.0979 sf 0 0 m (Signal) show NC gr  0.49 0.6 0.82 c 269 1428 m 143 X 70 Y -143 X f 0 0 0.933333 c 6 lw 269 1498 m 143 X s 269 1428 m 143 X s 412 1428 m 70 Y s 269 1428 m 70 Y s
 black
 gsave  2268 1682 0 0 C 442.205 1330.27 t 0 r /Times-Italic findfont 76.0979 sf 0 0 m (Background) show NC gr  1 0 0 c 3 lw 412 1374 m -47 -47 d s 387 1398 m -70 -71 d s 339 1398 m -70 -71 d s 291 1398 m -22 -23 d s 6 lw 0 0 0.933333 c 1 0 0 c 269
 1398 m 143 X s 269 1327 m 143 X s 412 1327 m 71 Y s 269 1327 m 71 Y s 0 0 0.933333 c 0.49 0.6 0.82 c black 3 lw 0.49 0.6 0.82 c 238 202 m 48 X 213 Y 48 X 645 Y 48 X -424 Y 48 X -219 Y 48 X 1 Y 48 X -216 Y 95 X 218 Y 48 X 875 Y 48 X -879 Y 48 X 440 Y
 48 X 3 Y 48 X -657 Y 96 X 217 Y 48 X -217 Y 48 X 223 Y 47 X 227 Y 48 X -229 Y 48 X 217 Y 48 X -215 Y 48 X 209 Y 48 X -217 Y 48 X 867 Y 48 X -615 Y 48 X -238 Y 48 X 859 Y 47 X -1088 Y 48 X 220 Y 48 X 3 Y 48 X -223 Y 96 X 655 Y 48 X -215 Y 48 X -440 Y
 191 X 215 Y 48 X -215 Y f 6 lw 0 0 0.933333 c 0.49 0.6 0.82 c 0 0 0.933333 c 238 202 m 48 X 213 Y 48 X 645 Y 48 X -424 Y 48 X -219 Y 48 X 1 Y 48 X -216 Y 95 X 218 Y 48 X 875 Y 48 X -879 Y 48 X 440 Y 48 X 3 Y 48 X -657 Y 96 X 217 Y 48 X -217 Y 48 X
 223 Y 47 X 227 Y 48 X -229 Y 48 X 217 Y 48 X -215 Y 48 X 209 Y 48 X -217 Y 48 X 867 Y 48 X -615 Y 48 X -238 Y 48 X 859 Y 47 X -1088 Y 48 X 220 Y 48 X 3 Y 48 X -223 Y 96 X 655 Y 48 X -215 Y 48 X -440 Y 191 X 215 Y 48 X -215 Y s 1 0 0 c black 3 lw 1 0
 0 c 2126 202 m s 2078 202 m s 2030 202 m s 1982 202 m s 1934 202 m s 1886 202 m s 1837 202 m s 1789 202 m s 1741 202 m s 1693 202 m s 1675 232 m -30 -30 d s 1675 280 m -48 -48 d s 1597 202 m s 1675 328 m -48 -48 d s 1579 233 m -30 -31 d s 1675 376 m
 -48 -47 d s 1579 281 m -78 -79 d s 1675 425 m -48 -48 d s 1579 329 m -126 -127 d s 1675 473 m -48 -48 d s 1579 377 m -175 -175 d s 1675 521 m -48 -48 d s 1579 425 m -223 -223 d s 1665 559 m -38 -38 d s 1579 473 m -271 -271 d s 1579 521 m -319 -319 d
 s 1570 560 m -358 -358 d s 1532 569 m -368 -367 d s 1532 618 m -192 -192 d s 1293 379 m -177 -177 d s 1532 666 m -192 -192 d s 1292 426 m -224 -224 d s 1532 714 m -192 -192 d s 1292 474 m -48 -48 d s 1201 383 m -181 -181 d s 1503 733 m -163 -163 d s
 1292 522 m -48 -48 d s 1149 379 m -177 -177 d s 1484 762 m -144 -144 d s 1292 570 m -48 -47 d s 1104 382 m -147 -147 d s 923 202 m s 1484 810 m -144 -144 d s 1292 619 m -48 -48 d s 1100 427 m -143 -144 d s 909 235 m -34 -33 d s 1484 858 m -96 -96 d
 s 1360 734 m -20 -19 d s 1292 667 m -48 -48 d s 1100 475 m -143 -144 d s 909 283 m -82 -81 d s 1484 906 m -96 -95 d s 1292 715 m -48 -48 d s 1100 523 m -143 -144 d s 909 332 m -130 -130 d s 1445 916 m -57 -57 d s 1266 737 m -22 -22 d s 1093 564 m
 -136 -136 d s 909 380 m -178 -178 d s 1436 955 m -48 -48 d s 1053 571 m -96 -95 d s 909 428 m -226 -226 d s 1436 1003 m -48 -48 d s 1053 620 m -48 -48 d s 1002 569 m -45 -45 d s 909 476 m -274 -274 d s 1436 1051 m -48 -48 d s 1053 668 m -48 -48 d s
 909 524 m -144 -144 d s 765 380 m -178 -178 d s 1436 1099 m -48 -48 d s 1053 716 m -48 -48 d s 909 572 m -144 -144 d s 717 380 m -178 -178 d s 1436 1147 m -48 -48 d s 1027 738 m -22 -22 d s 909 620 m -144 -144 d s 717 429 m -227 -227 d s 1436 1195 m
 -48 -48 d s 909 668 m -144 -143 d s 717 477 m -96 -96 d s 621 380 m -179 -178 d s 1436 1243 m -48 -48 d s 909 716 m -144 -143 d s 717 525 m -96 -96 d s 573 381 m -179 -179 d s 1417 1272 m -29 -28 d s 909 764 m -144 -143 d s 717 573 m -96 -96 d s 524
 380 m -178 -178 d s 909 813 m -144 -144 d s 717 621 m -96 -96 d s 478 381 m -180 -179 d s 909 861 m -144 -144 d s 717 669 m -96 -96 d s 431 383 m -181 -181 d s 909 909 m -144 -144 d s 717 717 m -96 -96 d s 384 384 m -2 -2 d s 379 379 m -141 -141 d s
 909 957 m -144 -144 d s 717 765 m -96 -96 d s 334 382 m -96 -96 d s 909 1005 m -144 -144 d s 717 813 m -48 -48 d s 651 747 m -30 -29 d s 286 382 m -48 -48 d s 909 1053 m -96 -96 d s 777 921 m -12 -12 d s 717 861 m -48 -47 d s 286 430 m -48 -48 d s
 909 1101 m -96 -96 d s 717 910 m -48 -48 d s 286 478 m -48 -47 d s 909 1149 m -48 -48 d s 852 1093 m -39 -39 d s 674 914 m -5 -4 d s 286 527 m -48 -48 d s 909 1197 m -48 -47 d s 275 564 m -37 -37 d s 909 1246 m -48 -48 d s 890 1275 m -29 -29 d s 6
 lw 238 564 m 48 X -182 Y 48 X -3 Y 48 X 5 Y 48 X -1 Y 48 X -3 Y 48 X 1 Y 47 X -1 Y 48 X 367 Y 48 X 167 Y 48 X -534 Y 48 X 541 Y 48 X 172 Y 48 X 182 Y 48 X -1073 Y 48 X 367 Y 48 X 169 Y 48 X -174 Y 47 X -182 Y 48 X -3 Y 48 X 4 Y 48 X 354 Y 48 X -358
 Y 48 X 355 Y 48 X 538 Y 48 X -356 Y 48 X -183 Y 48 X -173 Y 47 X -358 Y 48 X 357 Y 48 X -357 Y 479 X s black 3 lw 238 202 m 1916 X s 442 244 m -42 Y s 505 223 m -21 Y s 569 223 m -21 Y s 633 223 m -21 Y s 696 244 m -42 Y s 760 223 m -21 Y s 824 223
 m -21 Y s 887 223 m -21 Y s 951 244 m -42 Y s 1015 223 m -21 Y s 1078 223 m -21 Y s 1142 223 m -21 Y s 1206 244 m -42 Y s 1269 223 m -21 Y s 1333 223 m -21 Y s 1397 223 m -21 Y s 1460 244 m -42 Y s 1524 223 m -21 Y s 1588 223 m -21 Y s 1651 223 m
 -21 Y s 1715 244 m -42 Y s 1779 223 m -21 Y s 1842 223 m -21 Y s 1906 223 m -21 Y s 1970 244 m -42 Y s 442 244 m -42 Y s 378 223 m -21 Y s 315 223 m -21 Y s 251 223 m -21 Y s 1970 244 m -42 Y s 2033 223 m -21 Y s 2097 223 m -21 Y s 238 1514 m 1916 X
 s 442 1471 m 43 Y s 505 1492 m 22 Y s 569 1492 m 22 Y s 633 1492 m 22 Y s 696 1471 m 43 Y s 760 1492 m 22 Y s 824 1492 m 22 Y s 887 1492 m 22 Y s 951 1471 m 43 Y s 1015 1492 m 22 Y s 1078 1492 m 22 Y s 1142 1492 m 22 Y s 1206 1471 m 43 Y s 1269 1492
 m 22 Y s 1333 1492 m 22 Y s 1397 1492 m 22 Y s 1460 1471 m 43 Y s 1524 1492 m 22 Y s 1588 1492 m 22 Y s 1651 1492 m 22 Y s 1715 1471 m 43 Y s 1779 1492 m 22 Y s 1842 1492 m 22 Y s 1906 1492 m 22 Y s 1970 1471 m 43 Y s 442 1471 m 43 Y s 378 1492 m 22
 Y s 315 1492 m 22 Y s 251 1492 m 22 Y s 1970 1471 m 43 Y s 2033 1492 m 22 Y s 2097 1492 m 22 Y s 238 202 m 1312 Y s 291 202 m -53 X s 265 246 m -27 X s 265 291 m -27 X s 265 335 m -27 X s 265 380 m -27 X s 291 424 m -53 X s 265 469 m -27 X s 265 513
 m -27 X s 265 557 m -27 X s 265 602 m -27 X s 291 646 m -53 X s 265 691 m -27 X s 265 735 m -27 X s 265 780 m -27 X s 265 824 m -27 X s 291 869 m -53 X s 265 913 m -27 X s 265 958 m -27 X s 265 1002 m -27 X s 265 1047 m -27 X s 291 1091 m -53 X s
 265 1135 m -27 X s 265 1180 m -27 X s 265 1224 m -27 X s 265 1269 m -27 X s 291 1313 m -53 X s 291 1313 m -53 X s 265 1358 m -27 X s 265 1402 m -27 X s 265 1447 m -27 X s 265 1491 m -27 X s 2154 202 m 1312 Y s 2101 202 m 53 X s 2128 246 m 26 X s
 2128 291 m 26 X s 2128 335 m 26 X s 2128 380 m 26 X s 2101 424 m 53 X s 2128 469 m 26 X s 2128 513 m 26 X s 2128 557 m 26 X s 2128 602 m 26 X s 2101 646 m 53 X s 2128 691 m 26 X s 2128 735 m 26 X s 2128 780 m 26 X s 2128 824 m 26 X s 2101 869 m 53 X
 s 2128 913 m 26 X s 2128 958 m 26 X s 2128 1002 m 26 X s 2128 1047 m 26 X s 2101 1091 m 53 X s 2128 1135 m 26 X s 2128 1180 m 26 X s 2128 1224 m 26 X s 2128 1269 m 26 X s 2101 1313 m 53 X s 2101 1313 m 53 X s 2128 1358 m 26 X s 2128 1402 m 26 X s
 2128 1447 m 26 X s 2128 1491 m 26 X s
 gsave  2268 1682 0 0 C 2211.02 193.403 t 90 r /Helvetica-Bold findfont 45.6587 sf 0 0 m (U/O\255flow \(S,B\): \(0.0, 0.0\)% / \(0.0, 0.0\)%) show NC gr  0.490196 0.545098 0.615686 c 0.364706 0.419608 0.490196 c 1415 96 23 1577 bf 0.490196 0.545098
 0.615686 c 23 1577 m 1415 X s 1438 1577 m 96 Y s 1438 1673 m -1415 X s 23 1673 m -96 Y s 1 1 1 c black 1 1 1 c
 gsave  2268 1682 0 0 C 72.293 1605.67 t 0 r /Helvetica-Bold findfont 76.0979 sf 0 0 m (TMVA response for classifier: BDTB) show NC gr 
 gr  gr showpage
end
%%EOF
