%!PS-Adobe-2.0 EPSF-2.0
%%BoundingBox:  0 0 567 420
%%Title: plots/mva_MLP.eps: TMVA response MLP
%%Creator: ROOT Version 5.34/09
%%CreationDate: Sun Jan  5 00:02:29 2014
%%EndComments
%%BeginProlog
80 dict begin
/s {stroke} def /l {lineto} def /m {moveto} def /t {translate} def
/r {rotate} def /rl {roll}  def /R {repeat} def
/d {rlineto} def /rm {rmoveto} def /gr {grestore} def /f {eofill} def
/c {setrgbcolor} def /black {0 setgray} def /sd {setdash} def
/cl {closepath} def /sf {scalefont setfont} def /lw {setlinewidth} def
/box {m dup 0 exch d exch 0 d 0 exch neg d cl} def
/NC{systemdict begin initclip end}def/C{NC box clip newpath}def
/bl {box s} def /bf {box f} def /Y { 0 exch d} def /X { 0 d} def 
/K {{pop pop 0 moveto} exch kshow} bind def
/ita {/ang 15 def gsave [1 0 ang dup sin exch cos div 1 0 0] concat} def 
/mp {newpath /y exch def /x exch def} def
/side {[w .77 mul w .23 mul] .385 w mul sd w 0 l currentpoint t -144 r} def
/mr {mp x y w2 0 360 arc} def /m24 {mr s} def /m20 {mr f} def
/mb {mp x y w2 add m w2 neg 0 d 0 w neg d w 0 d 0 w d cl} def
/mt {mp x y w2 add m w2 neg w neg d w 0 d cl} def
/m21 {mb f} def /m25 {mb s} def /m22 {mt f} def /m26{mt s} def
/m23 {mp x y w2 sub m w2 w d w neg 0 d cl f} def
/m27 {mp x y w2 add m w3 neg w2 neg d w3 w2 neg d w3 w2 d cl s} def
/m28 {mp x w2 sub y w2 sub w3 add m w3 0 d  0 w3 neg d w3 0 d 0 w3 d w3 0 d  0 w3 d w3 neg 0 d 0 w3 d w3 neg 0 d 0 w3 neg d w3 neg 0 d cl s } def
/m29 {mp gsave x w2 sub y w2 add w3 sub m currentpoint t 4 {side} repeat cl fill gr} def
/m30 {mp gsave x w2 sub y w2 add w3 sub m currentpoint t 4 {side} repeat cl s gr} def
/m31 {mp x y w2 sub m 0 w d x w2 sub y m w 0 d x w2 sub y w2 add m w w neg d x w2 sub y w2 sub m w w d s} def
/m32 {mp x y w2 sub m w2 w d w neg 0 d cl s} def
/m33 {mp x y w2 add m w3 neg w2 neg d w3 w2 neg d w3 w2 d cl f} def
/m34 {mp x w2 sub y w2 sub w3 add m w3 0 d  0 w3 neg d w3 0 d 0 w3 d w3 0 d  0 w3 d w3 neg 0 d 0 w3 d w3 neg 0 d 0 w3 neg d w3 neg 0 d cl f } def
/m2 {mp x y w2 sub m 0 w d x w2 sub y m w 0 d s} def
/m5 {mp x w2 sub y w2 sub m w w d x w2 sub y w2 add m w w neg d s} def
/reEncode {exch findfont dup length dict begin {1 index /FID eq  {pop pop} {def} ifelse } forall /Encoding exch def currentdict end dup /FontName get exch definefont pop } def [/Times-Bold /Times-Italic /Times-BoldItalic /Helvetica /Helvetica-Oblique
 /Helvetica-Bold /Helvetica-BoldOblique /Courier /Courier-Oblique /Courier-Bold /Courier-BoldOblique /Times-Roman /AvantGarde-Book /AvantGarde-BookOblique /AvantGarde-Demi /AvantGarde-DemiOblique /Bookman-Demi /Bookman-DemiItalic /Bookman-Light
 /Bookman-LightItalic /Helvetica-Narrow /Helvetica-Narrow-Bold /Helvetica-Narrow-BoldOblique /Helvetica-Narrow-Oblique /NewCenturySchlbk-Roman /NewCenturySchlbk-Bold /NewCenturySchlbk-BoldItalic /NewCenturySchlbk-Italic /Palatino-Bold
 /Palatino-BoldItalic /Palatino-Italic /Palatino-Roman ] {ISOLatin1Encoding reEncode } forall
%%EndProlog
%%BeginSetup
%%EndSetup
newpath  gsave  .25 .25 scale  gsave  0 0 t 0.490196 0.545098 0.615686 c[  ] 0 sd 3 lw 0.941176 0.941176 0.941176 c 2268 1682 0 0 bf black 1 1 0.992157 c 1916 1312 238 202 bf black 1916 1312 238 202 bl 1 1 0.992157 c 1916 1312 238 202 bf black 1916
 1312 238 202 bl 238 202 m 1916 X s
 gsave  2268 1682 0 0 C 1658.93 34.244 t 0 r /Helvetica-Bold findfont 72.293 sf 0 0 m (MLP response) show NC gr  324 244 m -42 Y s 366 223 m -21 Y s 408 223 m -21 Y s 449 223 m -21 Y s 491 244 m -42 Y s 533 223 m -21 Y s 575 223 m -21 Y s 617 223 m
 -21 Y s 659 244 m -42 Y s 700 223 m -21 Y s 742 223 m -21 Y s 784 223 m -21 Y s 826 244 m -42 Y s 868 223 m -21 Y s 909 223 m -21 Y s 951 223 m -21 Y s 993 244 m -42 Y s 1035 223 m -21 Y s 1077 223 m -21 Y s 1118 223 m -21 Y s 1160 244 m -42 Y s
 1202 223 m -21 Y s 1244 223 m -21 Y s 1286 223 m -21 Y s 1327 244 m -42 Y s 1369 223 m -21 Y s 1411 223 m -21 Y s 1453 223 m -21 Y s 1495 244 m -42 Y s 1537 223 m -21 Y s 1578 223 m -21 Y s 1620 223 m -21 Y s 1662 244 m -42 Y s 1704 223 m -21 Y s
 1746 223 m -21 Y s 1787 223 m -21 Y s 1829 244 m -42 Y s 1871 223 m -21 Y s 1913 223 m -21 Y s 1955 223 m -21 Y s 1996 244 m -42 Y s 324 244 m -42 Y s 282 223 m -21 Y s 240 223 m -21 Y s 1996 244 m -42 Y s 2038 223 m -21 Y s 2080 223 m -21 Y s 2122
 223 m -21 Y s
 gsave  2268 1682 0 0 C 266.343 129.366 t 0 r /Helvetica-Bold findfont 64.6832 sf 0 0 m (\2550.2) show NC gr 
 gsave  2268 1682 0 0 C 471.807 129.366 t 0 r /Helvetica-Bold findfont 64.6832 sf 0 0 m (0) show NC gr 
 gsave  2268 1682 0 0 C 612.588 129.366 t 0 r /Helvetica-Bold findfont 64.6832 sf 0 0 m (0.2) show NC gr 
 gsave  2268 1682 0 0 C 780.003 129.366 t 0 r /Helvetica-Bold findfont 64.6832 sf 0 0 m (0.4) show NC gr 
 gsave  2268 1682 0 0 C 943.614 129.366 t 0 r /Helvetica-Bold findfont 64.6832 sf 0 0 m (0.6) show NC gr 
 gsave  2268 1682 0 0 C 1111.03 129.366 t 0 r /Helvetica-Bold findfont 64.6832 sf 0 0 m (0.8) show NC gr 
 gsave  2268 1682 0 0 C 1308.88 129.366 t 0 r /Helvetica-Bold findfont 64.6832 sf 0 0 m (1) show NC gr 
 gsave  2268 1682 0 0 C 1445.86 129.366 t 0 r /Helvetica-Bold findfont 64.6832 sf 0 0 m (1.2) show NC gr 
 gsave  2268 1682 0 0 C 1613.27 129.366 t 0 r /Helvetica-Bold findfont 64.6832 sf 0 0 m (1.4) show NC gr 
 gsave  2268 1682 0 0 C 1780.69 129.366 t 0 r /Helvetica-Bold findfont 64.6832 sf 0 0 m (1.6) show NC gr 
 gsave  2268 1682 0 0 C 1948.11 129.366 t 0 r /Helvetica-Bold findfont 64.6832 sf 0 0 m (1.8) show NC gr  238 1514 m 1916 X s 324 1471 m 43 Y s 366 1492 m 22 Y s 408 1492 m 22 Y s 449 1492 m 22 Y s 491 1471 m 43 Y s 533 1492 m 22 Y s 575 1492 m 22 Y
 s 617 1492 m 22 Y s 659 1471 m 43 Y s 700 1492 m 22 Y s 742 1492 m 22 Y s 784 1492 m 22 Y s 826 1471 m 43 Y s 868 1492 m 22 Y s 909 1492 m 22 Y s 951 1492 m 22 Y s 993 1471 m 43 Y s 1035 1492 m 22 Y s 1077 1492 m 22 Y s 1118 1492 m 22 Y s 1160 1471
 m 43 Y s 1202 1492 m 22 Y s 1244 1492 m 22 Y s 1286 1492 m 22 Y s 1327 1471 m 43 Y s 1369 1492 m 22 Y s 1411 1492 m 22 Y s 1453 1492 m 22 Y s 1495 1471 m 43 Y s 1537 1492 m 22 Y s 1578 1492 m 22 Y s 1620 1492 m 22 Y s 1662 1471 m 43 Y s 1704 1492 m
 22 Y s 1746 1492 m 22 Y s 1787 1492 m 22 Y s 1829 1471 m 43 Y s 1871 1492 m 22 Y s 1913 1492 m 22 Y s 1955 1492 m 22 Y s 1996 1471 m 43 Y s 324 1471 m 43 Y s 282 1492 m 22 Y s 240 1492 m 22 Y s 1996 1471 m 43 Y s 2038 1492 m 22 Y s 2080 1492 m 22 Y
 s 2122 1492 m 22 Y s 238 202 m 1312 Y s
 gsave  2268 1682 0 0 C 64.6832 1430.64 t 90 r /Helvetica-Bold findfont 72.293 sf 0 0 m (dx) show NC gr 
 gsave  2268 1682 0 0 C 30.4391 1411.62 t 90 r /Helvetica-Bold findfont 45.6587 sf 0 0 m ( ) show NC gr 
 gsave  2268 1682 0 0 C 64.6832 1388.79 t 90 r /Helvetica-Bold findfont 72.293 sf 0 0 m (/) show NC gr 
 gsave  2268 1682 0 0 C 30.4391 1369.76 t 90 r /Helvetica-Bold findfont 45.6587 sf 0 0 m ( ) show NC gr 
 gsave  2268 1682 0 0 C 60.8783 1095.81 t 90 r /Helvetica-Bold findfont 72.293 sf 0 0 m (\(1/N\) dN) show NC gr  291 202 m -53 X s 265 230 m -27 X s 265 258 m -27 X s 265 286 m -27 X s 291 315 m -53 X s 265 343 m -27 X s 265 371 m -27 X s 265 399 m
 -27 X s 291 427 m -53 X s 265 455 m -27 X s 265 484 m -27 X s 265 512 m -27 X s 291 540 m -53 X s 265 568 m -27 X s 265 596 m -27 X s 265 624 m -27 X s 291 653 m -53 X s 265 681 m -27 X s 265 709 m -27 X s 265 737 m -27 X s 291 765 m -53 X s 265 793
 m -27 X s 265 822 m -27 X s 265 850 m -27 X s 291 878 m -53 X s 265 906 m -27 X s 265 934 m -27 X s 265 963 m -27 X s 291 991 m -53 X s 265 1019 m -27 X s 265 1047 m -27 X s 265 1075 m -27 X s 291 1103 m -53 X s 265 1132 m -27 X s 265 1160 m -27 X s
 265 1188 m -27 X s 291 1216 m -53 X s 265 1244 m -27 X s 265 1272 m -27 X s 265 1301 m -27 X s 291 1329 m -53 X s 265 1357 m -27 X s 265 1385 m -27 X s 265 1413 m -27 X s 291 1441 m -53 X s 291 1441 m -53 X s 265 1470 m -27 X s 265 1498 m -27 X s
 gsave  2268 1682 0 0 C 175.025 178.83 t 0 r /Helvetica-Bold findfont 64.6832 sf 0 0 m (0) show NC gr 
 gsave  2268 1682 0 0 C 121.757 289.172 t 0 r /Helvetica-Bold findfont 64.6832 sf 0 0 m (0.2) show NC gr 
 gsave  2268 1682 0 0 C 117.952 403.319 t 0 r /Helvetica-Bold findfont 64.6832 sf 0 0 m (0.4) show NC gr 
 gsave  2268 1682 0 0 C 121.757 513.661 t 0 r /Helvetica-Bold findfont 64.6832 sf 0 0 m (0.6) show NC gr 
 gsave  2268 1682 0 0 C 117.952 627.807 t 0 r /Helvetica-Bold findfont 64.6832 sf 0 0 m (0.8) show NC gr 
 gsave  2268 1682 0 0 C 182.635 741.954 t 0 r /Helvetica-Bold findfont 64.6832 sf 0 0 m (1) show NC gr 
 gsave  2268 1682 0 0 C 121.757 852.296 t 0 r /Helvetica-Bold findfont 64.6832 sf 0 0 m (1.2) show NC gr 
 gsave  2268 1682 0 0 C 117.952 966.443 t 0 r /Helvetica-Bold findfont 64.6832 sf 0 0 m (1.4) show NC gr 
 gsave  2268 1682 0 0 C 121.757 1076.78 t 0 r /Helvetica-Bold findfont 64.6832 sf 0 0 m (1.6) show NC gr 
 gsave  2268 1682 0 0 C 117.952 1190.93 t 0 r /Helvetica-Bold findfont 64.6832 sf 0 0 m (1.8) show NC gr 
 gsave  2268 1682 0 0 C 175.025 1305.08 t 0 r /Helvetica-Bold findfont 64.6832 sf 0 0 m (2) show NC gr 
 gsave  2268 1682 0 0 C 121.757 1415.42 t 0 r /Helvetica-Bold findfont 64.6832 sf 0 0 m (2.2) show NC gr  2154 202 m 1312 Y s 2101 202 m 53 X s 2128 230 m 26 X s 2128 258 m 26 X s 2128 286 m 26 X s 2101 315 m 53 X s 2128 343 m 26 X s 2128 371 m 26 X
 s 2128 399 m 26 X s 2101 427 m 53 X s 2128 455 m 26 X s 2128 484 m 26 X s 2128 512 m 26 X s 2101 540 m 53 X s 2128 568 m 26 X s 2128 596 m 26 X s 2128 624 m 26 X s 2101 653 m 53 X s 2128 681 m 26 X s 2128 709 m 26 X s 2128 737 m 26 X s 2101 765 m 53
 X s 2128 793 m 26 X s 2128 822 m 26 X s 2128 850 m 26 X s 2101 878 m 53 X s 2128 906 m 26 X s 2128 934 m 26 X s 2128 963 m 26 X s 2101 991 m 53 X s 2128 1019 m 26 X s 2128 1047 m 26 X s 2128 1075 m 26 X s 2101 1103 m 53 X s 2128 1132 m 26 X s 2128
 1160 m 26 X s 2128 1188 m 26 X s 2101 1216 m 53 X s 2128 1244 m 26 X s 2128 1272 m 26 X s 2128 1301 m 26 X s 2101 1329 m 53 X s 2128 1357 m 26 X s 2128 1385 m 26 X s 2128 1413 m 26 X s 2101 1441 m 53 X s 2101 1441 m 53 X s 2128 1470 m 26 X s 2128
 1498 m 26 X s 0.490196 0.545098 0.615686 c 0.95 0.95 0.95 c 0.490196 0.545098 0.615686 c 680 202 238 1312 bl 238 1312 m 680 X s 918 1312 m 202 Y s 918 1514 m -680 X s 238 1514 m -202 Y s black
 gsave  2268 1682 0 0 C 442.205 1431.17 t 0 r /Times-Italic findfont 76.0979 sf 0 0 m (Signal) show NC gr  0.49 0.6 0.82 c 269 1428 m 143 X 70 Y -143 X f 0 0 0.933333 c 6 lw 269 1498 m 143 X s 269 1428 m 143 X s 412 1428 m 70 Y s 269 1428 m 70 Y s
 black
 gsave  2268 1682 0 0 C 442.205 1330.27 t 0 r /Times-Italic findfont 76.0979 sf 0 0 m (Background) show NC gr  1 0 0 c 3 lw 412 1374 m -47 -47 d s 387 1398 m -70 -71 d s 339 1398 m -70 -71 d s 291 1398 m -22 -23 d s 6 lw 0 0 0.933333 c 1 0 0 c 269
 1398 m 143 X s 269 1327 m 143 X s 412 1327 m 71 Y s 269 1327 m 71 Y s 0 0 0.933333 c 0.49 0.6 0.82 c black 3 lw 0.49 0.6 0.82 c 238 202 m 144 X 177 Y 48 X 557 Y 48 X -368 Y 48 X -366 Y 47 X 900 Y 48 X -169 Y 48 X -372 Y 48 X 734 Y 48 X -376 Y 48 X
 -539 Y 48 X 189 Y 48 X -186 Y 48 X 179 Y 48 X 3 Y 48 X 360 Y 47 X 185 Y 48 X -535 Y 48 X -193 Y 48 X -1 Y 48 X -179 Y 48 X 367 Y 48 X -367 Y 191 X 368 Y 48 X -368 Y 48 X 209 Y 48 X -209 Y 431 X f 6 lw 0 0 0.933333 c 0.49 0.6 0.82 c 0 0 0.933333 c
 238 202 m 144 X 177 Y 48 X 557 Y 48 X -368 Y 48 X -366 Y 47 X 900 Y 48 X -169 Y 48 X -372 Y 48 X 734 Y 48 X -376 Y 48 X -539 Y 48 X 189 Y 48 X -186 Y 48 X 179 Y 48 X 3 Y 48 X 360 Y 47 X 185 Y 48 X -535 Y 48 X -193 Y 48 X -1 Y 48 X -179 Y 48 X 367 Y
 48 X -367 Y 191 X 368 Y 48 X -368 Y 48 X 209 Y 48 X -209 Y 431 X s 1 0 0 c black 3 lw 1 0 0 c 2154 230 m -28 -28 d s 2154 278 m -48 -48 d s 2078 202 m s 2154 326 m -48 -48 d s 2030 202 m s 2131 351 m -25 -24 d s 1982 202 m s 1934 202 m s 1886 202 m
 s 1867 231 m -30 -29 d s 1867 279 m -48 -47 d s 1789 202 m s 1867 328 m -48 -48 d s 1741 202 m s 1842 351 m -23 -23 d s 1693 202 m s 1645 202 m s 1597 202 m s 1579 233 m -30 -31 d s 1579 281 m -78 -79 d s 1579 329 m -95 -96 d s 1453 202 m s 1553 350
 m -69 -69 d s 1404 202 m s 1505 350 m -21 -21 d s 1388 233 m -32 -31 d s 1388 281 m -80 -79 d s 1388 330 m -128 -128 d s 1388 378 m -144 -144 d s 1212 202 m s 1388 426 m -48 -48 d s 1312 350 m -68 -68 d s 1196 234 m -32 -32 d s 1388 474 m -48 -48 d
 s 1292 378 m -48 -48 d s 1196 282 m -80 -80 d s 1371 505 m -31 -31 d s 1292 426 m -48 -48 d s 1196 330 m -128 -128 d s 1292 474 m -48 -48 d s 1196 378 m -176 -176 d s 1270 500 m -26 -26 d s 1196 427 m -48 -48 d s 1120 350 m -148 -148 d s 1196 475 m
 -48 -48 d s 1100 379 m -177 -177 d s 1196 523 m -48 -48 d s 1100 427 m -225 -225 d s 1196 571 m -48 -48 d s 1100 475 m -273 -273 d s 1196 619 m -48 -48 d s 1100 523 m -321 -321 d s 1178 649 m -30 -30 d s 1100 571 m -369 -369 d s 1100 619 m -95 -95 d
 s 979 498 m -296 -296 d s 1100 667 m -95 -95 d s 957 524 m -322 -322 d s 1100 716 m -95 -96 d s 957 572 m -370 -370 d s 1100 764 m -95 -96 d s 957 620 m -418 -418 d s 1100 812 m -95 -96 d s 957 668 m -144 -144 d s 785 496 m -295 -294 d s 1100 860 m
 -95 -96 d s 957 716 m -144 -144 d s 765 525 m -323 -323 d s 1100 908 m -95 -96 d s 957 764 m -144 -143 d s 765 573 m -192 -192 d s 543 350 m -149 -148 d s 1095 951 m -90 -91 d s 939 794 m -126 -125 d s 765 621 m -192 -192 d s 526 381 m -180 -179 d s
 1053 956 m -48 -48 d s 892 795 m -79 -78 d s 765 669 m -192 -192 d s 526 429 m -228 -227 d s 1053 1004 m -48 -48 d s 861 813 m -48 -48 d s 765 717 m -192 -192 d s 526 477 m -96 -95 d s 401 353 m -151 -151 d s 1053 1053 m -48 -48 d s 861 861 m -48
 -48 d s 765 765 m -96 -96 d s 644 644 m -71 -71 d s 501 501 m -71 -71 d s 352 352 m -114 -114 d s 1045 1094 m -40 -41 d s 861 909 m -48 -48 d s 747 795 m -78 -78 d s 621 669 m -48 -47 d s 453 501 m -23 -23 d s 304 352 m -66 -66 d s 856 952 m -43 -43
 d s 698 794 m -29 -29 d s 621 718 m -48 -48 d s 257 353 m -19 -19 d s 621 766 m -48 -48 d s 621 814 m -48 -48 d s 621 862 m -48 -48 d s 621 910 m -48 -48 d s 613 950 m -40 -40 d s 6 lw 238 353 m 48 X -1 Y 96 X 1 Y 48 X 148 Y 96 X -151 Y 47 X 600 Y
 48 X -306 Y 48 X 150 Y 48 X 1 Y 48 X -299 Y 48 X 456 Y 48 X -157 Y 48 X -1 Y 48 X -296 Y 48 X 596 Y 48 X -143 Y 47 X -601 Y 48 X 299 Y 48 X -447 Y 48 X 298 Y 48 X -150 Y 48 X 155 Y 48 X -303 Y 96 X 148 Y 95 X -148 Y 240 X 149 Y 48 X -149 Y 239 X 149
 Y 48 X -149 Y s black 3 lw 238 202 m 1916 X s 324 244 m -42 Y s 366 223 m -21 Y s 408 223 m -21 Y s 449 223 m -21 Y s 491 244 m -42 Y s 533 223 m -21 Y s 575 223 m -21 Y s 617 223 m -21 Y s 659 244 m -42 Y s 700 223 m -21 Y s 742 223 m -21 Y s 784
 223 m -21 Y s 826 244 m -42 Y s 868 223 m -21 Y s 909 223 m -21 Y s 951 223 m -21 Y s 993 244 m -42 Y s 1035 223 m -21 Y s 1077 223 m -21 Y s 1118 223 m -21 Y s 1160 244 m -42 Y s 1202 223 m -21 Y s 1244 223 m -21 Y s 1286 223 m -21 Y s 1327 244 m
 -42 Y s 1369 223 m -21 Y s 1411 223 m -21 Y s 1453 223 m -21 Y s 1495 244 m -42 Y s 1537 223 m -21 Y s 1578 223 m -21 Y s 1620 223 m -21 Y s 1662 244 m -42 Y s 1704 223 m -21 Y s 1746 223 m -21 Y s 1787 223 m -21 Y s 1829 244 m -42 Y s 1871 223 m
 -21 Y s 1913 223 m -21 Y s 1955 223 m -21 Y s 1996 244 m -42 Y s 324 244 m -42 Y s 282 223 m -21 Y s 240 223 m -21 Y s 1996 244 m -42 Y s 2038 223 m -21 Y s 2080 223 m -21 Y s 2122 223 m -21 Y s 238 1514 m 1916 X s 324 1471 m 43 Y s 366 1492 m 22 Y
 s 408 1492 m 22 Y s 449 1492 m 22 Y s 491 1471 m 43 Y s 533 1492 m 22 Y s 575 1492 m 22 Y s 617 1492 m 22 Y s 659 1471 m 43 Y s 700 1492 m 22 Y s 742 1492 m 22 Y s 784 1492 m 22 Y s 826 1471 m 43 Y s 868 1492 m 22 Y s 909 1492 m 22 Y s 951 1492 m 22
 Y s 993 1471 m 43 Y s 1035 1492 m 22 Y s 1077 1492 m 22 Y s 1118 1492 m 22 Y s 1160 1471 m 43 Y s 1202 1492 m 22 Y s 1244 1492 m 22 Y s 1286 1492 m 22 Y s 1327 1471 m 43 Y s 1369 1492 m 22 Y s 1411 1492 m 22 Y s 1453 1492 m 22 Y s 1495 1471 m 43 Y s
 1537 1492 m 22 Y s 1578 1492 m 22 Y s 1620 1492 m 22 Y s 1662 1471 m 43 Y s 1704 1492 m 22 Y s 1746 1492 m 22 Y s 1787 1492 m 22 Y s 1829 1471 m 43 Y s 1871 1492 m 22 Y s 1913 1492 m 22 Y s 1955 1492 m 22 Y s 1996 1471 m 43 Y s 324 1471 m 43 Y s 282
 1492 m 22 Y s 240 1492 m 22 Y s 1996 1471 m 43 Y s 2038 1492 m 22 Y s 2080 1492 m 22 Y s 2122 1492 m 22 Y s 238 202 m 1312 Y s 291 202 m -53 X s 265 230 m -27 X s 265 258 m -27 X s 265 286 m -27 X s 291 315 m -53 X s 265 343 m -27 X s 265 371 m -27
 X s 265 399 m -27 X s 291 427 m -53 X s 265 455 m -27 X s 265 484 m -27 X s 265 512 m -27 X s 291 540 m -53 X s 265 568 m -27 X s 265 596 m -27 X s 265 624 m -27 X s 291 653 m -53 X s 265 681 m -27 X s 265 709 m -27 X s 265 737 m -27 X s 291 765 m
 -53 X s 265 793 m -27 X s 265 822 m -27 X s 265 850 m -27 X s 291 878 m -53 X s 265 906 m -27 X s 265 934 m -27 X s 265 963 m -27 X s 291 991 m -53 X s 265 1019 m -27 X s 265 1047 m -27 X s 265 1075 m -27 X s 291 1103 m -53 X s 265 1132 m -27 X s
 265 1160 m -27 X s 265 1188 m -27 X s 291 1216 m -53 X s 265 1244 m -27 X s 265 1272 m -27 X s 265 1301 m -27 X s 291 1329 m -53 X s 265 1357 m -27 X s 265 1385 m -27 X s 265 1413 m -27 X s 291 1441 m -53 X s 291 1441 m -53 X s 265 1470 m -27 X s
 265 1498 m -27 X s 2154 202 m 1312 Y s 2101 202 m 53 X s 2128 230 m 26 X s 2128 258 m 26 X s 2128 286 m 26 X s 2101 315 m 53 X s 2128 343 m 26 X s 2128 371 m 26 X s 2128 399 m 26 X s 2101 427 m 53 X s 2128 455 m 26 X s 2128 484 m 26 X s 2128 512 m
 26 X s 2101 540 m 53 X s 2128 568 m 26 X s 2128 596 m 26 X s 2128 624 m 26 X s 2101 653 m 53 X s 2128 681 m 26 X s 2128 709 m 26 X s 2128 737 m 26 X s 2101 765 m 53 X s 2128 793 m 26 X s 2128 822 m 26 X s 2128 850 m 26 X s 2101 878 m 53 X s 2128 906
 m 26 X s 2128 934 m 26 X s 2128 963 m 26 X s 2101 991 m 53 X s 2128 1019 m 26 X s 2128 1047 m 26 X s 2128 1075 m 26 X s 2101 1103 m 53 X s 2128 1132 m 26 X s 2128 1160 m 26 X s 2128 1188 m 26 X s 2101 1216 m 53 X s 2128 1244 m 26 X s 2128 1272 m 26
 X s 2128 1301 m 26 X s 2101 1329 m 53 X s 2128 1357 m 26 X s 2128 1385 m 26 X s 2128 1413 m 26 X s 2101 1441 m 53 X s 2101 1441 m 53 X s 2128 1470 m 26 X s 2128 1498 m 26 X s
 gsave  2268 1682 0 0 C 2211.02 193.403 t 90 r /Helvetica-Bold findfont 45.6587 sf 0 0 m (U/O\255flow \(S,B\): \(0.0, 0.0\)% / \(0.0, 0.0\)%) show NC gr  0.490196 0.545098 0.615686 c 0.364706 0.419608 0.490196 c 1362 96 23 1577 bf 0.490196 0.545098
 0.615686 c 23 1577 m 1362 X s 1385 1577 m 96 Y s 1385 1673 m -1362 X s 23 1673 m -96 Y s 1 1 1 c black 1 1 1 c
 gsave  2268 1682 0 0 C 72.293 1605.67 t 0 r /Helvetica-Bold findfont 76.0979 sf 0 0 m (TMVA response for classifier: MLP) show NC gr 
 gr  gr showpage
end
%%EOF
