%!PS-Adobe-2.0 EPSF-2.0
%%BoundingBox:  0 0 567 420
%%Title: plots/overtrain_SVM.eps: TMVA comparison SVM
%%Creator: ROOT Version 5.34/09
%%CreationDate: Sat Jan  4 23:56:04 2014
%%EndComments
%%BeginProlog
80 dict begin
/s {stroke} def /l {lineto} def /m {moveto} def /t {translate} def
/r {rotate} def /rl {roll}  def /R {repeat} def
/d {rlineto} def /rm {rmoveto} def /gr {grestore} def /f {eofill} def
/c {setrgbcolor} def /black {0 setgray} def /sd {setdash} def
/cl {closepath} def /sf {scalefont setfont} def /lw {setlinewidth} def
/box {m dup 0 exch d exch 0 d 0 exch neg d cl} def
/NC{systemdict begin initclip end}def/C{NC box clip newpath}def
/bl {box s} def /bf {box f} def /Y { 0 exch d} def /X { 0 d} def 
/K {{pop pop 0 moveto} exch kshow} bind def
/ita {/ang 15 def gsave [1 0 ang dup sin exch cos div 1 0 0] concat} def 
/mp {newpath /y exch def /x exch def} def
/side {[w .77 mul w .23 mul] .385 w mul sd w 0 l currentpoint t -144 r} def
/mr {mp x y w2 0 360 arc} def /m24 {mr s} def /m20 {mr f} def
/mb {mp x y w2 add m w2 neg 0 d 0 w neg d w 0 d 0 w d cl} def
/mt {mp x y w2 add m w2 neg w neg d w 0 d cl} def
/m21 {mb f} def /m25 {mb s} def /m22 {mt f} def /m26{mt s} def
/m23 {mp x y w2 sub m w2 w d w neg 0 d cl f} def
/m27 {mp x y w2 add m w3 neg w2 neg d w3 w2 neg d w3 w2 d cl s} def
/m28 {mp x w2 sub y w2 sub w3 add m w3 0 d  0 w3 neg d w3 0 d 0 w3 d w3 0 d  0 w3 d w3 neg 0 d 0 w3 d w3 neg 0 d 0 w3 neg d w3 neg 0 d cl s } def
/m29 {mp gsave x w2 sub y w2 add w3 sub m currentpoint t 4 {side} repeat cl fill gr} def
/m30 {mp gsave x w2 sub y w2 add w3 sub m currentpoint t 4 {side} repeat cl s gr} def
/m31 {mp x y w2 sub m 0 w d x w2 sub y m w 0 d x w2 sub y w2 add m w w neg d x w2 sub y w2 sub m w w d s} def
/m32 {mp x y w2 sub m w2 w d w neg 0 d cl s} def
/m33 {mp x y w2 add m w3 neg w2 neg d w3 w2 neg d w3 w2 d cl f} def
/m34 {mp x w2 sub y w2 sub w3 add m w3 0 d  0 w3 neg d w3 0 d 0 w3 d w3 0 d  0 w3 d w3 neg 0 d 0 w3 d w3 neg 0 d 0 w3 neg d w3 neg 0 d cl f } def
/m2 {mp x y w2 sub m 0 w d x w2 sub y m w 0 d s} def
/m5 {mp x w2 sub y w2 sub m w w d x w2 sub y w2 add m w w neg d s} def
/reEncode {exch findfont dup length dict begin {1 index /FID eq  {pop pop} {def} ifelse } forall /Encoding exch def currentdict end dup /FontName get exch definefont pop } def [/Times-Bold /Times-Italic /Times-BoldItalic /Helvetica /Helvetica-Oblique
 /Helvetica-Bold /Helvetica-BoldOblique /Courier /Courier-Oblique /Courier-Bold /Courier-BoldOblique /Times-Roman /AvantGarde-Book /AvantGarde-BookOblique /AvantGarde-Demi /AvantGarde-DemiOblique /Bookman-Demi /Bookman-DemiItalic /Bookman-Light
 /Bookman-LightItalic /Helvetica-Narrow /Helvetica-Narrow-Bold /Helvetica-Narrow-BoldOblique /Helvetica-Narrow-Oblique /NewCenturySchlbk-Roman /NewCenturySchlbk-Bold /NewCenturySchlbk-BoldItalic /NewCenturySchlbk-Italic /Palatino-Bold
 /Palatino-BoldItalic /Palatino-Italic /Palatino-Roman ] {ISOLatin1Encoding reEncode } forall
%%EndProlog
%%BeginSetup
%%EndSetup
newpath  gsave  .25 .25 scale  gsave  0 0 t 0.490196 0.545098 0.615686 c[  ] 0 sd 3 lw 0.941176 0.941176 0.941176 c 2268 1682 0 0 bf black 1 1 0.992157 c 1916 1312 238 202 bf black 1916 1312 238 202 bl 1 1 0.992157 c 1916 1312 238 202 bf black 1916
 1312 238 202 bl 238 202 m 1916 X s
 gsave  2268 1682 0 0 C 1655.13 30.4391 t 0 r /Helvetica-Bold findfont 72.293 sf 0 0 m (SVM response) show NC gr  467 244 m -42 Y s 536 223 m -21 Y s 604 223 m -21 Y s 673 223 m -21 Y s 742 223 m -21 Y s 811 244 m -42 Y s 880 223 m -21 Y s 949 223 m
 -21 Y s 1018 223 m -21 Y s 1087 223 m -21 Y s 1156 244 m -42 Y s 1225 223 m -21 Y s 1294 223 m -21 Y s 1363 223 m -21 Y s 1432 223 m -21 Y s 1501 244 m -42 Y s 1569 223 m -21 Y s 1638 223 m -21 Y s 1707 223 m -21 Y s 1776 223 m -21 Y s 1845 244 m
 -42 Y s 467 244 m -42 Y s 398 223 m -21 Y s 329 223 m -21 Y s 260 223 m -21 Y s 1845 244 m -42 Y s 1914 223 m -21 Y s 1983 223 m -21 Y s 2052 223 m -21 Y s 2121 223 m -21 Y s
 gsave  2268 1682 0 0 C 418.538 129.366 t 0 r /Helvetica-Bold findfont 64.6832 sf 0 0 m (0.4) show NC gr 
 gsave  2268 1682 0 0 C 745.759 129.366 t 0 r /Helvetica-Bold findfont 64.6832 sf 0 0 m (0.45) show NC gr 
 gsave  2268 1682 0 0 C 1107.22 129.366 t 0 r /Helvetica-Bold findfont 64.6832 sf 0 0 m (0.5) show NC gr 
 gsave  2268 1682 0 0 C 1434.44 129.366 t 0 r /Helvetica-Bold findfont 64.6832 sf 0 0 m (0.55) show NC gr 
 gsave  2268 1682 0 0 C 1795.91 129.366 t 0 r /Helvetica-Bold findfont 64.6832 sf 0 0 m (0.6) show NC gr  238 1514 m 1916 X s 467 1471 m 43 Y s 536 1492 m 22 Y s 604 1492 m 22 Y s 673 1492 m 22 Y s 742 1492 m 22 Y s 811 1471 m 43 Y s 880 1492 m 22 Y
 s 949 1492 m 22 Y s 1018 1492 m 22 Y s 1087 1492 m 22 Y s 1156 1471 m 43 Y s 1225 1492 m 22 Y s 1294 1492 m 22 Y s 1363 1492 m 22 Y s 1432 1492 m 22 Y s 1501 1471 m 43 Y s 1569 1492 m 22 Y s 1638 1492 m 22 Y s 1707 1492 m 22 Y s 1776 1492 m 22 Y s
 1845 1471 m 43 Y s 467 1471 m 43 Y s 398 1492 m 22 Y s 329 1492 m 22 Y s 260 1492 m 22 Y s 1845 1471 m 43 Y s 1914 1492 m 22 Y s 1983 1492 m 22 Y s 2052 1492 m 22 Y s 2121 1492 m 22 Y s 238 202 m 1312 Y s
 gsave  2268 1682 0 0 C 64.6832 1430.64 t 90 r /Helvetica-Bold findfont 72.293 sf 0 0 m (dx) show NC gr 
 gsave  2268 1682 0 0 C 30.4391 1411.62 t 90 r /Helvetica-Bold findfont 45.6587 sf 0 0 m ( ) show NC gr 
 gsave  2268 1682 0 0 C 64.6832 1388.79 t 90 r /Helvetica-Bold findfont 72.293 sf 0 0 m (/) show NC gr 
 gsave  2268 1682 0 0 C 30.4391 1369.76 t 90 r /Helvetica-Bold findfont 45.6587 sf 0 0 m ( ) show NC gr 
 gsave  2268 1682 0 0 C 60.8783 1095.81 t 90 r /Helvetica-Bold findfont 72.293 sf 0 0 m (\(1/N\) dN) show NC gr  291 202 m -53 X s 265 229 m -27 X s 265 256 m -27 X s 265 284 m -27 X s 291 311 m -53 X s 265 338 m -27 X s 265 365 m -27 X s 265 393 m
 -27 X s 291 420 m -53 X s 265 447 m -27 X s 265 474 m -27 X s 265 501 m -27 X s 291 529 m -53 X s 265 556 m -27 X s 265 583 m -27 X s 265 610 m -27 X s 291 638 m -53 X s 265 665 m -27 X s 265 692 m -27 X s 265 719 m -27 X s 291 747 m -53 X s 265 774
 m -27 X s 265 801 m -27 X s 265 828 m -27 X s 291 856 m -53 X s 265 883 m -27 X s 265 910 m -27 X s 265 937 m -27 X s 291 965 m -53 X s 265 992 m -27 X s 265 1019 m -27 X s 265 1046 m -27 X s 291 1074 m -53 X s 265 1101 m -27 X s 265 1128 m -27 X s
 265 1155 m -27 X s 291 1183 m -53 X s 265 1210 m -27 X s 265 1237 m -27 X s 265 1264 m -27 X s 291 1291 m -53 X s 265 1319 m -27 X s 265 1346 m -27 X s 265 1373 m -27 X s 291 1400 m -53 X s 265 1428 m -27 X s 265 1455 m -27 X s 265 1482 m -27 X s
 291 1509 m -53 X s 291 1509 m -53 X s
 gsave  2268 1682 0 0 C 175.025 178.83 t 0 r /Helvetica-Bold findfont 64.6832 sf 0 0 m (0) show NC gr 
 gsave  2268 1682 0 0 C 175.025 285.367 t 0 r /Helvetica-Bold findfont 64.6832 sf 0 0 m (2) show NC gr 
 gsave  2268 1682 0 0 C 175.025 395.709 t 0 r /Helvetica-Bold findfont 64.6832 sf 0 0 m (4) show NC gr 
 gsave  2268 1682 0 0 C 175.025 502.246 t 0 r /Helvetica-Bold findfont 64.6832 sf 0 0 m (6) show NC gr 
 gsave  2268 1682 0 0 C 175.025 612.588 t 0 r /Helvetica-Bold findfont 64.6832 sf 0 0 m (8) show NC gr 
 gsave  2268 1682 0 0 C 136.976 722.93 t 0 r /Helvetica-Bold findfont 64.6832 sf 0 0 m (10) show NC gr 
 gsave  2268 1682 0 0 C 136.976 829.467 t 0 r /Helvetica-Bold findfont 64.6832 sf 0 0 m (12) show NC gr 
 gsave  2268 1682 0 0 C 136.976 939.809 t 0 r /Helvetica-Bold findfont 64.6832 sf 0 0 m (14) show NC gr 
 gsave  2268 1682 0 0 C 136.976 1050.15 t 0 r /Helvetica-Bold findfont 64.6832 sf 0 0 m (16) show NC gr 
 gsave  2268 1682 0 0 C 136.976 1156.69 t 0 r /Helvetica-Bold findfont 64.6832 sf 0 0 m (18) show NC gr 
 gsave  2268 1682 0 0 C 136.976 1267.03 t 0 r /Helvetica-Bold findfont 64.6832 sf 0 0 m (20) show NC gr 
 gsave  2268 1682 0 0 C 136.976 1377.37 t 0 r /Helvetica-Bold findfont 64.6832 sf 0 0 m (22) show NC gr 
 gsave  2268 1682 0 0 C 136.976 1483.91 t 0 r /Helvetica-Bold findfont 64.6832 sf 0 0 m (24) show NC gr  2154 202 m 1312 Y s 2101 202 m 53 X s 2128 229 m 26 X s 2128 256 m 26 X s 2128 284 m 26 X s 2101 311 m 53 X s 2128 338 m 26 X s 2128 365 m 26 X s
 2128 393 m 26 X s 2101 420 m 53 X s 2128 447 m 26 X s 2128 474 m 26 X s 2128 501 m 26 X s 2101 529 m 53 X s 2128 556 m 26 X s 2128 583 m 26 X s 2128 610 m 26 X s 2101 638 m 53 X s 2128 665 m 26 X s 2128 692 m 26 X s 2128 719 m 26 X s 2101 747 m 53 X
 s 2128 774 m 26 X s 2128 801 m 26 X s 2128 828 m 26 X s 2101 856 m 53 X s 2128 883 m 26 X s 2128 910 m 26 X s 2128 937 m 26 X s 2101 965 m 53 X s 2128 992 m 26 X s 2128 1019 m 26 X s 2128 1046 m 26 X s 2101 1074 m 53 X s 2128 1101 m 26 X s 2128 1128
 m 26 X s 2128 1155 m 26 X s 2101 1183 m 53 X s 2128 1210 m 26 X s 2128 1237 m 26 X s 2128 1264 m 26 X s 2101 1291 m 53 X s 2128 1319 m 26 X s 2128 1346 m 26 X s 2128 1373 m 26 X s 2101 1400 m 53 X s 2128 1428 m 26 X s 2128 1455 m 26 X s 2128 1482 m
 26 X s 2101 1509 m 53 X s 2101 1509 m 53 X s 0.490196 0.545098 0.615686 c 0.95 0.95 0.95 c 0.490196 0.545098 0.615686 c 907 202 238 1312 bl 238 1312 m 907 X s 1145 1312 m 202 Y s 1145 1514 m -907 X s 238 1514 m -202 Y s black
 gsave  2268 1682 0 0 C 418.538 1445.86 t 0 r /Times-Italic findfont 57.0734 sf 0 0 m (Signal \(test sample\)) show NC gr  0.49 0.6 0.82 c 265 1428 m 127 X 70 Y -127 X f 0 0 0.933333 c 265 1498 m 127 X s 265 1428 m 127 X s 392 1428 m 70 Y s 265 1428
 m 70 Y s black
 gsave  2268 1682 0 0 C 418.538 1350.74 t 0 r /Times-Italic findfont 57.0734 sf 0 0 m (Background \(test sample\)) show NC gr  1 0 0 c 392 1354 m -27 -27 d s 387 1398 m -70 -71 d s 339 1398 m -70 -71 d s 291 1398 m -26 -26 d s 0 lw 0 0 0.933333 c 1 0
 0 c 3 lw 265 1398 m 127 X s 265 1327 m 127 X s 392 1327 m 71 Y s 265 1327 m 71 Y s 0 0 0.933333 c 0.49 0.6 0.82 c black 0.49 0.6 0.82 c 238 202 m 144 Y 48 X -144 Y 431 X 152 Y 48 X -6 Y 48 X -146 Y 48 X 143 Y 48 X 148 Y 48 X 138 Y 48 X 148 Y 48 X
 -433 Y 47 X 3 Y 48 X -4 Y 96 X 428 Y 48 X 438 Y 48 X -133 Y 48 X -294 Y 48 X 130 Y 48 X -133 Y 48 X -293 Y 47 X -132 Y 48 X -154 Y 48 X 148 Y 48 X 166 Y 48 X -168 Y 48 X -146 Y 335 X f 0 0 0.933333 c 0.49 0.6 0.82 c 0 0 0.933333 c 238 346 m 48 X
 -144 Y 431 X 152 Y 48 X -6 Y 48 X -146 Y 48 X 143 Y 48 X 148 Y 48 X 138 Y 48 X 148 Y 48 X -433 Y 47 X 3 Y 48 X -4 Y 96 X 428 Y 48 X 438 Y 48 X -133 Y 48 X -294 Y 48 X 130 Y 48 X -133 Y 48 X -293 Y 47 X -132 Y 48 X -154 Y 48 X 148 Y 48 X 166 Y 48 X
 -168 Y 48 X -146 Y 335 X s 1 0 0 c black 1 0 0 c 2126 202 m s 2078 202 m s 2030 202 m s 1982 202 m s 1934 202 m s 1886 202 m s 1837 202 m s 1789 202 m s 1741 202 m s 1693 202 m s 1675 232 m -30 -30 d s 1675 280 m -78 -78 d s 1675 328 m -126 -126 d s
 1675 376 m -174 -174 d s 1675 425 m -96 -96 d s 1572 321 m -119 -119 d s 1642 439 m -63 -62 d s 1532 329 m -128 -127 d s 1627 473 m -48 -48 d s 1532 377 m -176 -175 d s 1627 521 m -48 -48 d s 1532 425 m -224 -223 d s 1616 558 m -37 -37 d s 1532 473
 m -272 -271 d s 1532 521 m -320 -319 d s 1521 559 m -357 -357 d s 1471 557 m -355 -355 d s 1424 558 m -356 -356 d s 1388 570 m -368 -368 d s 1388 618 m -416 -416 d s 1388 666 m -465 -464 d s 1388 714 m -513 -512 d s 1388 762 m -431 -431 d s 947 321
 m -120 -119 d s 1388 811 m -431 -432 d s 899 322 m -86 -86 d s 779 202 m cl s 1388 859 m -288 -288 d s 1087 558 m -130 -130 d s 861 332 m -48 -48 d s 765 236 m -34 -34 d s 1388 907 m -192 -192 d s 1154 673 m -54 -54 d s 1037 556 m -80 -80 d s 861
 380 m -48 -48 d s 765 284 m -48 -48 d s 683 202 m s 1343 910 m -147 -147 d s 1116 684 m -16 -17 d s 1005 572 m -48 -48 d s 861 428 m -48 -48 d s 753 320 m -36 -36 d s 635 202 m s 1340 955 m -144 -144 d s 1005 620 m -48 -48 d s 832 447 m -19 -19 d s
 621 237 m -34 -35 d s 1340 1003 m -144 -144 d s 1005 668 m -48 -48 d s 621 285 m -48 -48 d s 539 202 m cl s 1340 1051 m -96 -96 d s 1204 915 m -8 -7 d s 973 684 m -16 -16 d s 610 321 m -37 -36 d s 490 202 m cl s 1340 1099 m -48 -47 d s 1269 1028 m
 -25 -24 d s 442 202 m cl s 1337 1144 m -45 -44 d s 394 202 m cl s 346 202 m cl s 298 202 m cl s 250 202 m cl s 0 lw 3 lw 238 202 m 335 X 119 Y 48 X -119 Y 96 X 118 Y 48 X -118 Y 48 X 245 Y 48 X -125 Y 48 X -1 Y 48 X 363 Y 48 X -128 Y 48 X 2 Y 47 X
 126 Y 48 X -11 Y 48 X 242 Y 48 X 113 Y 48 X 116 Y 48 X -234 Y 48 X -352 Y 48 X -1 Y 48 X 2 Y 48 X -238 Y 47 X 237 Y 48 X -119 Y 48 X -237 Y 479 X s 0.490196 0.545098 0.615686 c 0.95 0.95 0.95 c 0.490196 0.545098 0.615686 c 952 202 1202 1312 bl 1202
 1312 m 952 X s 2154 1312 m 202 Y s 2154 1514 m -952 X s 1202 1514 m -202 Y s black
 gsave  2268 1682 0 0 C 1293.66 1445.86 t 0 r /Times-Italic findfont 57.0734 sf 0 0 m (Signal \(training sample\)) show NC gr  0 0 0.933333 c /w 21 def /w2 {w 2 div} def /w3 {w 3 div} def 1250 1463 m20 black
 gsave  2268 1682 0 0 C 1293.66 1350.74 t 0 r /Times-Italic findfont 57.0734 sf 0 0 m (Background \(training sample\)) show NC gr  1 0 0 c 1250 1362 m20 0 0 0.933333 c 1 1 1 c 0 0 0.933333 c 837 202 m 129 Y s 837 347 m 129 Y s 813 339 m 16 X s 845
 339 m 16 X s 829 202 m 16 X s 829 476 m 16 X s 813 331 m 16 Y s 861 331 m 16 Y s 837 339 m20 885 202 m 129 Y s 885 346 m 130 Y s 861 339 m 16 X s 892 339 m 17 X s 877 202 m 15 X s 877 476 m 15 X s 861 331 m 15 Y s 909 331 m 15 Y s 885 339 m20 981
 202 m 154 Y s 981 371 m 155 Y s 957 364 m 16 X s 988 364 m 17 X s 973 202 m 15 X s 973 526 m 15 X s 957 356 m 15 Y s 1005 356 m 15 Y s 981 364 m20 1076 378 m 234 Y s 1076 627 m 234 Y s 1053 620 m 16 X s 1084 620 m 16 X s 1069 378 m 15 X s 1069 861 m
 15 X s 1053 612 m 15 Y s 1100 612 m 15 Y s 1076 620 m20 1124 283 m 187 Y s 1124 485 m 187 Y s 1100 478 m 17 X s 1132 478 m 16 X s 1117 283 m 15 X s 1117 672 m 15 X s 1100 470 m 15 Y s 1148 470 m 15 Y s 1124 478 m20 1172 378 m 232 Y s 1172 626 m 232
 Y s 1148 618 m 17 X s 1180 618 m 16 X s 1165 378 m 15 X s 1165 858 m 15 X s 1148 610 m 16 Y s 1196 610 m 16 Y s 1172 618 m20 1220 285 m 193 Y s 1220 493 m 193 Y s 1196 485 m 17 X s 1228 485 m 16 X s 1213 285 m 15 X s 1213 686 m 15 X s 1196 478 m 15
 Y s 1244 478 m 15 Y s 1220 485 m20 1268 478 m 269 Y s 1268 763 m 269 Y s 1244 755 m 16 X s 1276 755 m 16 X s 1260 478 m 16 X s 1260 1032 m 16 X s 1244 747 m 16 Y s 1292 747 m 16 Y s 1268 755 m20 1316 695 m 332 Y s 1316 1042 m 333 Y s 1292 1035 m 16
 X s 1324 1035 m 16 X s 1308 695 m 16 X s 1308 1375 m 16 X s 1292 1027 m 15 Y s 1340 1027 m 15 Y s 1316 1035 m20 1364 701 m 337 Y s 1364 1053 m 337 Y s 1340 1046 m 16 X s 1371 1046 m 17 X s 1356 701 m 15 X s 1356 1390 m 15 X s 1340 1038 m 15 Y s 1388
 1038 m 15 Y s 1364 1046 m20 1412 698 m 335 Y s 1412 1048 m 335 Y s 1388 1041 m 16 X s 1419 1041 m 17 X s 1404 698 m 15 X s 1404 1383 m 15 X s 1388 1033 m 15 Y s 1436 1033 m 15 Y s 1412 1041 m20 1460 591 m 307 Y s 1460 913 m 307 Y s 1436 906 m 16 X s
 1467 906 m 17 X s 1452 591 m 15 X s 1452 1220 m 15 X s 1436 898 m 15 Y s 1484 898 m 15 Y s 1460 906 m20 1508 586 m 303 Y s 1508 904 m 304 Y s 1484 897 m 16 X s 1515 897 m 17 X s 1500 586 m 15 X s 1500 1208 m 15 X s 1484 889 m 15 Y s 1532 889 m 15 Y
 s 1508 897 m20 1556 586 m 303 Y s 1556 904 m 303 Y s 1532 896 m 16 X s 1563 896 m 16 X s 1548 586 m 15 X s 1548 1207 m 15 X s 1532 889 m 15 Y s 1579 889 m 15 Y s 1556 896 m20 1603 283 m 189 Y s 1603 487 m 189 Y s 1579 480 m 17 X s 1611 480 m 16 X s
 1596 283 m 15 X s 1596 676 m 15 X s 1579 472 m 15 Y s 1627 472 m 15 Y s 1603 480 m20 1651 202 m 132 Y s 1651 349 m 132 Y s 1627 341 m 17 X s 1659 341 m 16 X s 1644 202 m 15 X s 1644 481 m 15 X s 1627 334 m 15 Y s 1675 334 m 15 Y s 1651 341 m20 1699
 202 m 130 Y s 1699 347 m 130 Y s 1675 340 m 17 X s 1707 340 m 16 X s 1692 202 m 15 X s 1692 477 m 15 X s 1675 332 m 15 Y s 1723 332 m 15 Y s 1699 340 m20 1891 202 m 133 Y s 1891 350 m 134 Y s 1867 343 m 16 X s 1898 343 m 17 X s 1883 202 m 15 X s
 1883 484 m 15 X s 1867 335 m 15 Y s 1915 335 m 15 Y s 1891 343 m20 2130 202 m 144 Y s 2130 361 m 144 Y s 2106 353 m 17 X s 2138 353 m 16 X s 2123 202 m 15 X s 2123 505 m 15 X s 2106 346 m 15 Y s 2154 346 m 15 Y s 2130 353 m20 1 0 0 c 1 1 1 c 1 0 0 c
 454 202 m 93 Y s 454 310 m 93 Y s 430 302 m 16 X s 461 302 m 17 X s 446 202 m 15 X s 446 403 m 15 X s 430 295 m 15 Y s 478 295 m 15 Y s 454 302 m20 645 202 m 93 Y s 645 310 m 94 Y s 621 303 m 17 X s 653 303 m 16 X s 638 202 m 15 X s 638 404 m 15 X s
 621 295 m 15 Y s 669 295 m 15 Y s 645 303 m20 837 202 m 92 Y s 837 309 m 92 Y s 813 301 m 16 X s 845 301 m 16 X s 829 202 m 16 X s 829 401 m 16 X s 813 294 m 15 Y s 861 294 m 15 Y s 837 301 m20 885 262 m 139 Y s 885 416 m 139 Y s 861 409 m 16 X s
 892 409 m 17 X s 877 262 m 15 X s 877 555 m 15 X s 861 401 m 15 Y s 909 401 m 15 Y s 885 409 m20 933 202 m 92 Y s 933 310 m 92 Y s 909 302 m 16 X s 940 302 m 17 X s 925 202 m 15 X s 925 402 m 15 X s 909 294 m 16 Y s 957 294 m 16 Y s 933 302 m20 981
 331 m 168 Y s 981 514 m 169 Y s 957 507 m 16 X s 988 507 m 17 X s 973 331 m 15 X s 973 683 m 15 X s 957 499 m 15 Y s 1005 499 m 15 Y s 981 507 m20 1029 202 m 93 Y s 1029 310 m 93 Y s 1005 302 m 16 X s 1036 302 m 17 X s 1021 202 m 15 X s 1021 403 m
 15 X s 1005 295 m 15 Y s 1053 295 m 15 Y s 1029 302 m20 1076 642 m 260 Y s 1076 918 m 260 Y s 1053 910 m 16 X s 1084 910 m 16 X s 1069 642 m 15 X s 1069 1178 m 15 X s 1053 902 m 16 Y s 1100 902 m 16 Y s 1076 910 m20 1124 636 m 257 Y s 1124 908 m 257
 Y s 1100 901 m 17 X s 1132 901 m 16 X s 1117 636 m 15 X s 1117 1165 m 15 X s 1100 893 m 15 Y s 1148 893 m 15 Y s 1124 901 m20 1172 481 m 218 Y s 1172 715 m 218 Y s 1148 707 m 17 X s 1180 707 m 16 X s 1165 481 m 15 X s 1165 933 m 15 X s 1148 699 m 16
 Y s 1196 699 m 16 Y s 1172 707 m20 1220 640 m 258 Y s 1220 913 m 259 Y s 1196 906 m 17 X s 1228 906 m 16 X s 1213 640 m 15 X s 1213 1172 m 15 X s 1196 898 m 15 Y s 1244 898 m 15 Y s 1220 906 m20 1268 719 m 275 Y s 1268 1009 m 275 Y s 1244 1002 m 16
 X s 1276 1002 m 16 X s 1260 719 m 16 X s 1260 1284 m 16 X s 1244 994 m 15 Y s 1292 994 m 15 Y s 1268 1002 m20 1316 402 m 192 Y s 1316 609 m 192 Y s 1292 601 m 16 X s 1324 601 m 16 X s 1308 402 m 16 X s 1308 801 m 16 X s 1292 594 m 15 Y s 1340 594 m
 15 Y s 1316 601 m20 1364 479 m 217 Y s 1364 711 m 217 Y s 1340 703 m 16 X s 1371 703 m 17 X s 1356 479 m 15 X s 1356 928 m 15 X s 1340 696 m 15 Y s 1388 696 m 15 Y s 1364 703 m20 1412 718 m 275 Y s 1412 1008 m 275 Y s 1388 1000 m 16 X s 1419 1000 m
 17 X s 1404 718 m 15 X s 1404 1283 m 15 X s 1388 993 m 15 Y s 1436 993 m 15 Y s 1412 1000 m20 1460 480 m 218 Y s 1460 713 m 217 Y s 1436 705 m 16 X s 1467 705 m 17 X s 1452 480 m 15 X s 1452 930 m 15 X s 1436 698 m 15 Y s 1484 698 m 15 Y s 1460 705
 m20 1508 477 m 215 Y s 1508 707 m 216 Y s 1484 700 m 16 X s 1515 700 m 17 X s 1500 477 m 15 X s 1500 923 m 15 X s 1484 692 m 15 Y s 1532 692 m 15 Y s 1508 700 m20 1556 261 m 135 Y s 1556 411 m 135 Y s 1532 403 m 16 X s 1563 403 m 16 X s 1548 261 m
 15 X s 1548 546 m 15 X s 1532 396 m 15 Y s 1579 396 m 15 Y s 1556 403 m20 1603 202 m 97 Y s 1603 315 m 97 Y s 1579 307 m 17 X s 1611 307 m 16 X s 1596 202 m 15 X s 1596 412 m 15 X s 1579 299 m 16 Y s 1627 299 m 16 Y s 1603 307 m20 1651 329 m 167 Y s
 1651 511 m 167 Y s 1627 504 m 17 X s 1659 504 m 16 X s 1644 329 m 15 X s 1644 678 m 15 X s 1627 496 m 15 Y s 1675 496 m 15 Y s 1651 504 m20 1699 202 m 92 Y s 1699 309 m 93 Y s 1675 302 m 17 X s 1707 302 m 16 X s 1692 202 m 15 X s 1692 402 m 15 X s
 1675 294 m 15 Y s 1723 294 m 15 Y s 1699 302 m20 black
 gsave  2268 1682 0 0 C 272.126 1244.5 t 0 r /Helvetica-Bold findfont 49.4636 sf 0 0 m (Kolmogorov\255Smirnov test: signal \(background\) probability = 0.307 \(0.918\)) show NC gr  238 202 m 1916 X s 467 244 m -42 Y s 536 223 m -21 Y s 604 223 m -21
 Y s 673 223 m -21 Y s 742 223 m -21 Y s 811 244 m -42 Y s 880 223 m -21 Y s 949 223 m -21 Y s 1018 223 m -21 Y s 1087 223 m -21 Y s 1156 244 m -42 Y s 1225 223 m -21 Y s 1294 223 m -21 Y s 1363 223 m -21 Y s 1432 223 m -21 Y s 1501 244 m -42 Y s
 1569 223 m -21 Y s 1638 223 m -21 Y s 1707 223 m -21 Y s 1776 223 m -21 Y s 1845 244 m -42 Y s 467 244 m -42 Y s 398 223 m -21 Y s 329 223 m -21 Y s 260 223 m -21 Y s 1845 244 m -42 Y s 1914 223 m -21 Y s 1983 223 m -21 Y s 2052 223 m -21 Y s 2121
 223 m -21 Y s 238 1514 m 1916 X s 467 1471 m 43 Y s 536 1492 m 22 Y s 604 1492 m 22 Y s 673 1492 m 22 Y s 742 1492 m 22 Y s 811 1471 m 43 Y s 880 1492 m 22 Y s 949 1492 m 22 Y s 1018 1492 m 22 Y s 1087 1492 m 22 Y s 1156 1471 m 43 Y s 1225 1492 m 22
 Y s 1294 1492 m 22 Y s 1363 1492 m 22 Y s 1432 1492 m 22 Y s 1501 1471 m 43 Y s 1569 1492 m 22 Y s 1638 1492 m 22 Y s 1707 1492 m 22 Y s 1776 1492 m 22 Y s 1845 1471 m 43 Y s 467 1471 m 43 Y s 398 1492 m 22 Y s 329 1492 m 22 Y s 260 1492 m 22 Y s
 1845 1471 m 43 Y s 1914 1492 m 22 Y s 1983 1492 m 22 Y s 2052 1492 m 22 Y s 2121 1492 m 22 Y s 238 202 m 1312 Y s 291 202 m -53 X s 265 229 m -27 X s 265 256 m -27 X s 265 284 m -27 X s 291 311 m -53 X s 265 338 m -27 X s 265 365 m -27 X s 265 393 m
 -27 X s 291 420 m -53 X s 265 447 m -27 X s 265 474 m -27 X s 265 501 m -27 X s 291 529 m -53 X s 265 556 m -27 X s 265 583 m -27 X s 265 610 m -27 X s 291 638 m -53 X s 265 665 m -27 X s 265 692 m -27 X s 265 719 m -27 X s 291 747 m -53 X s 265 774
 m -27 X s 265 801 m -27 X s 265 828 m -27 X s 291 856 m -53 X s 265 883 m -27 X s 265 910 m -27 X s 265 937 m -27 X s 291 965 m -53 X s 265 992 m -27 X s 265 1019 m -27 X s 265 1046 m -27 X s 291 1074 m -53 X s 265 1101 m -27 X s 265 1128 m -27 X s
 265 1155 m -27 X s 291 1183 m -53 X s 265 1210 m -27 X s 265 1237 m -27 X s 265 1264 m -27 X s 291 1291 m -53 X s 265 1319 m -27 X s 265 1346 m -27 X s 265 1373 m -27 X s 291 1400 m -53 X s 265 1428 m -27 X s 265 1455 m -27 X s 265 1482 m -27 X s
 291 1509 m -53 X s 291 1509 m -53 X s 2154 202 m 1312 Y s 2101 202 m 53 X s 2128 229 m 26 X s 2128 256 m 26 X s 2128 284 m 26 X s 2101 311 m 53 X s 2128 338 m 26 X s 2128 365 m 26 X s 2128 393 m 26 X s 2101 420 m 53 X s 2128 447 m 26 X s 2128 474 m
 26 X s 2128 501 m 26 X s 2101 529 m 53 X s 2128 556 m 26 X s 2128 583 m 26 X s 2128 610 m 26 X s 2101 638 m 53 X s 2128 665 m 26 X s 2128 692 m 26 X s 2128 719 m 26 X s 2101 747 m 53 X s 2128 774 m 26 X s 2128 801 m 26 X s 2128 828 m 26 X s 2101 856
 m 53 X s 2128 883 m 26 X s 2128 910 m 26 X s 2128 937 m 26 X s 2101 965 m 53 X s 2128 992 m 26 X s 2128 1019 m 26 X s 2128 1046 m 26 X s 2101 1074 m 53 X s 2128 1101 m 26 X s 2128 1128 m 26 X s 2128 1155 m 26 X s 2101 1183 m 53 X s 2128 1210 m 26 X
 s 2128 1237 m 26 X s 2128 1264 m 26 X s 2101 1291 m 53 X s 2128 1319 m 26 X s 2128 1346 m 26 X s 2128 1373 m 26 X s 2101 1400 m 53 X s 2128 1428 m 26 X s 2128 1455 m 26 X s 2128 1482 m 26 X s 2101 1509 m 53 X s 2101 1509 m 53 X s
 gsave  2268 1682 0 0 C 2211.02 193.403 t 90 r /Helvetica-Bold findfont 45.6587 sf 0 0 m (U/O\255flow \(S,B\): \(0.0, 0.0\)% / \(0.0, 0.0\)%) show NC gr  0.490196 0.545098 0.615686 c 0.364706 0.419608 0.490196 c 1587 96 23 1577 bf 0.490196 0.545098
 0.615686 c 23 1577 m 1587 X s 1610 1577 m 96 Y s 1610 1673 m -1587 X s 23 1673 m -96 Y s 1 1 1 c black 1 1 1 c
 gsave  2268 1682 0 0 C 95.1223 1605.67 t 0 r /Helvetica-Bold findfont 68.4881 sf 0 0 m (TMVA overtraining check for classifier: SVM) show NC gr 
 gr  gr showpage
end
%%EOF
