%!PS-Adobe-2.0 EPSF-2.0
%%BoundingBox:  0 0 567 420
%%Title: plots/overtrain_BoostedFisher.eps: TMVA comparison BoostedFisher
%%Creator: ROOT Version 5.34/09
%%CreationDate: Sat Jan  4 23:56:05 2014
%%EndComments
%%BeginProlog
80 dict begin
/s {stroke} def /l {lineto} def /m {moveto} def /t {translate} def
/r {rotate} def /rl {roll}  def /R {repeat} def
/d {rlineto} def /rm {rmoveto} def /gr {grestore} def /f {eofill} def
/c {setrgbcolor} def /black {0 setgray} def /sd {setdash} def
/cl {closepath} def /sf {scalefont setfont} def /lw {setlinewidth} def
/box {m dup 0 exch d exch 0 d 0 exch neg d cl} def
/NC{systemdict begin initclip end}def/C{NC box clip newpath}def
/bl {box s} def /bf {box f} def /Y { 0 exch d} def /X { 0 d} def 
/K {{pop pop 0 moveto} exch kshow} bind def
/ita {/ang 15 def gsave [1 0 ang dup sin exch cos div 1 0 0] concat} def 
/mp {newpath /y exch def /x exch def} def
/side {[w .77 mul w .23 mul] .385 w mul sd w 0 l currentpoint t -144 r} def
/mr {mp x y w2 0 360 arc} def /m24 {mr s} def /m20 {mr f} def
/mb {mp x y w2 add m w2 neg 0 d 0 w neg d w 0 d 0 w d cl} def
/mt {mp x y w2 add m w2 neg w neg d w 0 d cl} def
/m21 {mb f} def /m25 {mb s} def /m22 {mt f} def /m26{mt s} def
/m23 {mp x y w2 sub m w2 w d w neg 0 d cl f} def
/m27 {mp x y w2 add m w3 neg w2 neg d w3 w2 neg d w3 w2 d cl s} def
/m28 {mp x w2 sub y w2 sub w3 add m w3 0 d  0 w3 neg d w3 0 d 0 w3 d w3 0 d  0 w3 d w3 neg 0 d 0 w3 d w3 neg 0 d 0 w3 neg d w3 neg 0 d cl s } def
/m29 {mp gsave x w2 sub y w2 add w3 sub m currentpoint t 4 {side} repeat cl fill gr} def
/m30 {mp gsave x w2 sub y w2 add w3 sub m currentpoint t 4 {side} repeat cl s gr} def
/m31 {mp x y w2 sub m 0 w d x w2 sub y m w 0 d x w2 sub y w2 add m w w neg d x w2 sub y w2 sub m w w d s} def
/m32 {mp x y w2 sub m w2 w d w neg 0 d cl s} def
/m33 {mp x y w2 add m w3 neg w2 neg d w3 w2 neg d w3 w2 d cl f} def
/m34 {mp x w2 sub y w2 sub w3 add m w3 0 d  0 w3 neg d w3 0 d 0 w3 d w3 0 d  0 w3 d w3 neg 0 d 0 w3 d w3 neg 0 d 0 w3 neg d w3 neg 0 d cl f } def
/m2 {mp x y w2 sub m 0 w d x w2 sub y m w 0 d s} def
/m5 {mp x w2 sub y w2 sub m w w d x w2 sub y w2 add m w w neg d s} def
/reEncode {exch findfont dup length dict begin {1 index /FID eq  {pop pop} {def} ifelse } forall /Encoding exch def currentdict end dup /FontName get exch definefont pop } def [/Times-Bold /Times-Italic /Times-BoldItalic /Helvetica /Helvetica-Oblique
 /Helvetica-Bold /Helvetica-BoldOblique /Courier /Courier-Oblique /Courier-Bold /Courier-BoldOblique /Times-Roman /AvantGarde-Book /AvantGarde-BookOblique /AvantGarde-Demi /AvantGarde-DemiOblique /Bookman-Demi /Bookman-DemiItalic /Bookman-Light
 /Bookman-LightItalic /Helvetica-Narrow /Helvetica-Narrow-Bold /Helvetica-Narrow-BoldOblique /Helvetica-Narrow-Oblique /NewCenturySchlbk-Roman /NewCenturySchlbk-Bold /NewCenturySchlbk-BoldItalic /NewCenturySchlbk-Italic /Palatino-Bold
 /Palatino-BoldItalic /Palatino-Italic /Palatino-Roman ] {ISOLatin1Encoding reEncode } forall
%%EndProlog
%%BeginSetup
%%EndSetup
newpath  gsave  .25 .25 scale  gsave  0 0 t 0.490196 0.545098 0.615686 c[  ] 0 sd 3 lw 0.941176 0.941176 0.941176 c 2268 1682 0 0 bf black 1 1 0.992157 c 1916 1312 238 202 bf black 1916 1312 238 202 bl 1 1 0.992157 c 1916 1312 238 202 bf black 1916
 1312 238 202 bl 238 202 m 1916 X s
 gsave  2268 1682 0 0 C 1305.08 34.244 t 0 r /Helvetica-Bold findfont 72.293 sf 0 0 m (BoostedFisher response) show NC gr  238 244 m -42 Y s 283 223 m -21 Y s 327 223 m -21 Y s 372 223 m -21 Y s 417 223 m -21 Y s 462 244 m -42 Y s 506 223 m -21 Y s
 551 223 m -21 Y s 596 223 m -21 Y s 640 223 m -21 Y s 685 244 m -42 Y s 730 223 m -21 Y s 774 223 m -21 Y s 819 223 m -21 Y s 864 223 m -21 Y s 908 244 m -42 Y s 953 223 m -21 Y s 998 223 m -21 Y s 1042 223 m -21 Y s 1087 223 m -21 Y s 1132 244 m
 -42 Y s 1177 223 m -21 Y s 1221 223 m -21 Y s 1266 223 m -21 Y s 1311 223 m -21 Y s 1355 244 m -42 Y s 1400 223 m -21 Y s 1445 223 m -21 Y s 1489 223 m -21 Y s 1534 223 m -21 Y s 1579 244 m -42 Y s 1623 223 m -21 Y s 1668 223 m -21 Y s 1713 223 m
 -21 Y s 1757 223 m -21 Y s 1802 244 m -42 Y s 1847 223 m -21 Y s 1891 223 m -21 Y s 1936 223 m -21 Y s 1981 223 m -21 Y s 2026 244 m -42 Y s 2026 244 m -42 Y s 2070 223 m -21 Y s 2115 223 m -21 Y s
 gsave  2268 1682 0 0 C 209.269 129.366 t 0 r /Helvetica-Bold findfont 64.6832 sf 0 0 m (\2551) show NC gr 
 gsave  2268 1682 0 0 C 403.319 129.366 t 0 r /Helvetica-Bold findfont 64.6832 sf 0 0 m (\2550.9) show NC gr 
 gsave  2268 1682 0 0 C 627.807 129.366 t 0 r /Helvetica-Bold findfont 64.6832 sf 0 0 m (\2550.8) show NC gr 
 gsave  2268 1682 0 0 C 848.491 129.366 t 0 r /Helvetica-Bold findfont 64.6832 sf 0 0 m (\2550.7) show NC gr 
 gsave  2268 1682 0 0 C 1072.98 129.366 t 0 r /Helvetica-Bold findfont 64.6832 sf 0 0 m (\2550.6) show NC gr 
 gsave  2268 1682 0 0 C 1297.47 129.366 t 0 r /Helvetica-Bold findfont 64.6832 sf 0 0 m (\2550.5) show NC gr 
 gsave  2268 1682 0 0 C 1518.15 129.366 t 0 r /Helvetica-Bold findfont 64.6832 sf 0 0 m (\2550.4) show NC gr 
 gsave  2268 1682 0 0 C 1742.64 129.366 t 0 r /Helvetica-Bold findfont 64.6832 sf 0 0 m (\2550.3) show NC gr 
 gsave  2268 1682 0 0 C 1967.13 129.366 t 0 r /Helvetica-Bold findfont 64.6832 sf 0 0 m (\2550.2) show NC gr  238 1514 m 1916 X s 238 1471 m 43 Y s 283 1492 m 22 Y s 327 1492 m 22 Y s 372 1492 m 22 Y s 417 1492 m 22 Y s 462 1471 m 43 Y s 506 1492 m
 22 Y s 551 1492 m 22 Y s 596 1492 m 22 Y s 640 1492 m 22 Y s 685 1471 m 43 Y s 730 1492 m 22 Y s 774 1492 m 22 Y s 819 1492 m 22 Y s 864 1492 m 22 Y s 908 1471 m 43 Y s 953 1492 m 22 Y s 998 1492 m 22 Y s 1042 1492 m 22 Y s 1087 1492 m 22 Y s 1132
 1471 m 43 Y s 1177 1492 m 22 Y s 1221 1492 m 22 Y s 1266 1492 m 22 Y s 1311 1492 m 22 Y s 1355 1471 m 43 Y s 1400 1492 m 22 Y s 1445 1492 m 22 Y s 1489 1492 m 22 Y s 1534 1492 m 22 Y s 1579 1471 m 43 Y s 1623 1492 m 22 Y s 1668 1492 m 22 Y s 1713
 1492 m 22 Y s 1757 1492 m 22 Y s 1802 1471 m 43 Y s 1847 1492 m 22 Y s 1891 1492 m 22 Y s 1936 1492 m 22 Y s 1981 1492 m 22 Y s 2026 1471 m 43 Y s 2026 1471 m 43 Y s 2070 1492 m 22 Y s 2115 1492 m 22 Y s 238 202 m 1312 Y s
 gsave  2268 1682 0 0 C 64.6832 1430.64 t 90 r /Helvetica-Bold findfont 72.293 sf 0 0 m (dx) show NC gr 
 gsave  2268 1682 0 0 C 30.4391 1411.62 t 90 r /Helvetica-Bold findfont 45.6587 sf 0 0 m ( ) show NC gr 
 gsave  2268 1682 0 0 C 64.6832 1388.79 t 90 r /Helvetica-Bold findfont 72.293 sf 0 0 m (/) show NC gr 
 gsave  2268 1682 0 0 C 30.4391 1369.76 t 90 r /Helvetica-Bold findfont 45.6587 sf 0 0 m ( ) show NC gr 
 gsave  2268 1682 0 0 C 60.8783 1095.81 t 90 r /Helvetica-Bold findfont 72.293 sf 0 0 m (\(1/N\) dN) show NC gr  291 202 m -53 X s 265 252 m -27 X s 265 303 m -27 X s 265 353 m -27 X s 291 403 m -53 X s 265 454 m -27 X s 265 504 m -27 X s 265 555 m
 -27 X s 291 605 m -53 X s 265 655 m -27 X s 265 706 m -27 X s 265 756 m -27 X s 291 807 m -53 X s 265 857 m -27 X s 265 907 m -27 X s 265 958 m -27 X s 291 1008 m -53 X s 265 1058 m -27 X s 265 1109 m -27 X s 265 1159 m -27 X s 291 1210 m -53 X s
 265 1260 m -27 X s 265 1310 m -27 X s 265 1361 m -27 X s 291 1411 m -53 X s 291 1411 m -53 X s 265 1462 m -27 X s 265 1512 m -27 X s
 gsave  2268 1682 0 0 C 175.025 178.83 t 0 r /Helvetica-Bold findfont 64.6832 sf 0 0 m (0) show NC gr 
 gsave  2268 1682 0 0 C 175.025 380.489 t 0 r /Helvetica-Bold findfont 64.6832 sf 0 0 m (2) show NC gr 
 gsave  2268 1682 0 0 C 175.025 578.344 t 0 r /Helvetica-Bold findfont 64.6832 sf 0 0 m (4) show NC gr 
 gsave  2268 1682 0 0 C 175.025 780.003 t 0 r /Helvetica-Bold findfont 64.6832 sf 0 0 m (6) show NC gr 
 gsave  2268 1682 0 0 C 175.025 981.662 t 0 r /Helvetica-Bold findfont 64.6832 sf 0 0 m (8) show NC gr 
 gsave  2268 1682 0 0 C 136.976 1183.32 t 0 r /Helvetica-Bold findfont 64.6832 sf 0 0 m (10) show NC gr 
 gsave  2268 1682 0 0 C 136.976 1384.98 t 0 r /Helvetica-Bold findfont 64.6832 sf 0 0 m (12) show NC gr  2154 202 m 1312 Y s 2101 202 m 53 X s 2128 252 m 26 X s 2128 303 m 26 X s 2128 353 m 26 X s 2101 403 m 53 X s 2128 454 m 26 X s 2128 504 m 26 X s
 2128 555 m 26 X s 2101 605 m 53 X s 2128 655 m 26 X s 2128 706 m 26 X s 2128 756 m 26 X s 2101 807 m 53 X s 2128 857 m 26 X s 2128 907 m 26 X s 2128 958 m 26 X s 2101 1008 m 53 X s 2128 1058 m 26 X s 2128 1109 m 26 X s 2128 1159 m 26 X s 2101 1210 m
 53 X s 2128 1260 m 26 X s 2128 1310 m 26 X s 2128 1361 m 26 X s 2101 1411 m 53 X s 2101 1411 m 53 X s 2128 1462 m 26 X s 2128 1512 m 26 X s 0.490196 0.545098 0.615686 c 0.95 0.95 0.95 c 0.490196 0.545098 0.615686 c 907 202 238 1312 bl 238 1312 m 907
 X s 1145 1312 m 202 Y s 1145 1514 m -907 X s 238 1514 m -202 Y s black
 gsave  2268 1682 0 0 C 418.538 1445.86 t 0 r /Times-Italic findfont 57.0734 sf 0 0 m (Signal \(test sample\)) show NC gr  0.49 0.6 0.82 c 265 1428 m 127 X 70 Y -127 X f 0 0 0.933333 c 265 1498 m 127 X s 265 1428 m 127 X s 392 1428 m 70 Y s 265 1428
 m 70 Y s black
 gsave  2268 1682 0 0 C 418.538 1350.74 t 0 r /Times-Italic findfont 57.0734 sf 0 0 m (Background \(test sample\)) show NC gr  1 0 0 c 392 1354 m -27 -27 d s 387 1398 m -70 -71 d s 339 1398 m -70 -71 d s 291 1398 m -26 -26 d s 0 lw 0 0 0.933333 c 1 0
 0 c 3 lw 265 1398 m 127 X s 265 1327 m 127 X s 392 1327 m 71 Y s 265 1327 m 71 Y s 0 0 0.933333 c 0.49 0.6 0.82 c black 0.49 0.6 0.82 c 2154 202 m -1916 X 781 Y 48 X -349 Y 48 X -347 Y 48 X 91 Y 48 X -2 Y 48 X -89 Y 48 X 438 Y 47 X -89 Y 48 X -348 Y
 48 X 258 Y 48 X 87 Y 48 X -169 Y 48 X -91 Y 96 X -83 Y 48 X -88 Y 191 X 180 Y 48 X -180 Y 144 X 100 Y 48 X -100 Y 191 X 89 Y 48 X -89 Y 479 X 86 Y 48 X f 0 0 0.933333 c 0.49 0.6 0.82 c 0 0 0.933333 c 238 983 m 48 X -349 Y 48 X -347 Y 48 X 91 Y 48 X
 -2 Y 48 X -89 Y 48 X 438 Y 47 X -89 Y 48 X -348 Y 48 X 258 Y 48 X 87 Y 48 X -169 Y 48 X -91 Y 96 X -83 Y 48 X -88 Y 191 X 180 Y 48 X -180 Y 144 X 100 Y 48 X -100 Y 191 X 89 Y 48 X -89 Y 479 X 86 Y 48 X s 1 0 0 c black 1 0 0 c 2126 202 m s 2078 202 m
 s 2030 202 m s 1982 202 m s 1934 202 m cl s 1886 202 m s 1837 202 m s 1789 202 m s 1741 202 m s 1693 202 m s 1645 202 m s 1597 202 m s 1579 233 m -30 -31 d s 1572 273 m -40 -40 d s 1501 202 m s 1453 202 m s 1404 202 m s 1356 202 m cl s 1308 202 m s
 1260 202 m s 1212 202 m s 1164 202 m s 1116 202 m s 1100 235 m -32 -33 d s 1100 283 m -47 -48 d s 1020 202 m cl s 1100 331 m -47 -48 d s 972 202 m s 1066 344 m -13 -13 d s 923 202 m s 909 235 m -34 -33 d s 909 283 m -82 -81 d s 909 332 m -130 -130 d
 s 909 380 m -178 -178 d s 896 415 m -35 -35 d s 825 344 m -142 -142 d s 813 380 m -178 -178 d s 799 414 m -34 -34 d s 729 344 m -142 -142 d s 683 346 m -144 -144 d s 669 381 m -179 -179 d s 669 429 m -227 -227 d s 669 477 m -275 -275 d s 669 525 m
 -96 -96 d s 559 415 m -213 -213 d s 669 573 m -96 -96 d s 526 429 m -228 -227 d s 669 621 m -96 -96 d s 526 477 m -276 -275 d s 627 627 m -54 -54 d s 486 486 m -56 -56 d s 414 414 m -176 -176 d s 578 626 m -5 -4 d s 478 526 m -48 -48 d s 382 430 m
 -144 -144 d s 458 554 m -28 -28 d s 382 478 m -144 -144 d s 382 526 m -144 -144 d s 382 574 m -48 -48 d s 295 487 m -57 -56 d s 382 622 m -48 -48 d s 286 527 m -48 -48 d s 341 629 m -7 -6 d s 286 575 m -48 -48 d s 286 623 m -48 -48 d s 286 671 m -48
 -48 d s 286 719 m -48 -48 d s 286 767 m -48 -48 d s 286 815 m -48 -48 d s 286 863 m -48 -48 d s 286 911 m -48 -48 d s 286 959 m -48 -47 d s 286 1008 m -48 -48 d s 286 1056 m -48 -48 d s 286 1104 m -48 -48 d s 286 1152 m -48 -48 d s 286 1200 m -48
 -48 d s 249 1211 m -11 -11 d s 0 lw 3 lw 238 1211 m 48 X -724 Y 48 X 142 Y 48 X -215 Y 48 X 140 Y 48 X -68 Y 48 X -71 Y 47 X 211 Y 48 X 1 Y 48 X -281 Y 48 X -2 Y 48 X 70 Y 48 X -70 Y 48 X 71 Y 48 X -213 Y 144 X 142 Y 47 X -142 Y 432 X 71 Y 47 X -71
 Y 575 X s 0.490196 0.545098 0.615686 c 0.95 0.95 0.95 c 0.490196 0.545098 0.615686 c 952 202 1202 1312 bl 1202 1312 m 952 X s 2154 1312 m 202 Y s 2154 1514 m -952 X s 1202 1514 m -202 Y s black
 gsave  2268 1682 0 0 C 1293.66 1445.86 t 0 r /Times-Italic findfont 57.0734 sf 0 0 m (Signal \(training sample\)) show NC gr  0 0 0.933333 c /w 21 def /w2 {w 2 div} def /w3 {w 3 div} def 1250 1463 m20 black
 gsave  2268 1682 0 0 C 1293.66 1350.74 t 0 r /Times-Italic findfont 57.0734 sf 0 0 m (Background \(training sample\)) show NC gr  1 0 0 c 1250 1362 m20 0 0 0.933333 c 1 1 1 c 0 0 0.933333 c 262 306 m 136 Y s 262 457 m 135 Y s 238 449 m 16 X s 270
 449 m 16 X s 254 306 m 16 X s 254 592 m 16 X s 238 442 m 15 Y s 286 442 m 15 Y s 262 449 m20 310 312 m 144 Y s 310 471 m 144 Y s 286 464 m 16 X s 318 464 m 16 X s 302 312 m 16 X s 302 615 m 16 X s 286 456 m 15 Y s 334 456 m 15 Y s 310 464 m20 358
 307 m 135 Y s 358 457 m 136 Y s 334 450 m 16 X s 365 450 m 17 X s 350 307 m 15 X s 350 593 m 15 X s 334 442 m 15 Y s 382 442 m 15 Y s 358 450 m20 406 202 m 76 Y s 406 293 m 76 Y s 382 286 m 16 X s 413 286 m 17 X s 398 202 m 15 X s 398 369 m 15 X s
 382 278 m 15 Y s 430 278 m 15 Y s 406 286 m20 454 569 m 215 Y s 454 800 m 215 Y s 430 792 m 16 X s 461 792 m 17 X s 446 569 m 15 X s 446 1015 m 15 X s 430 784 m 16 Y s 478 784 m 16 Y s 454 792 m20 502 308 m 137 Y s 502 460 m 137 Y s 478 452 m 16 X s
 509 452 m 17 X s 494 308 m 15 X s 494 597 m 15 X s 478 445 m 15 Y s 526 445 m 15 Y s 502 452 m20 549 369 m 159 Y s 549 543 m 160 Y s 526 536 m 16 X s 557 536 m 16 X s 542 369 m 15 X s 542 703 m 15 X s 526 528 m 15 Y s 573 528 m 15 Y s 549 536 m20
 597 563 m 213 Y s 597 791 m 212 Y s 573 783 m 17 X s 605 783 m 16 X s 590 563 m 15 X s 590 1003 m 15 X s 573 776 m 15 Y s 621 776 m 15 Y s 597 783 m20 645 308 m 138 Y s 645 461 m 138 Y s 621 454 m 17 X s 653 454 m 16 X s 638 308 m 15 X s 638 599 m
 15 X s 621 446 m 15 Y s 669 446 m 15 Y s 645 454 m20 693 308 m 137 Y s 693 460 m 137 Y s 669 453 m 17 X s 701 453 m 16 X s 686 308 m 15 X s 686 597 m 15 X s 669 445 m 15 Y s 717 445 m 15 Y s 693 453 m20 741 202 m 78 Y s 741 295 m 77 Y s 717 287 m 17
 X s 749 287 m 16 X s 734 202 m 15 X s 734 372 m 15 X s 717 280 m 15 Y s 765 280 m 15 Y s 741 287 m20 789 370 m 160 Y s 789 546 m 160 Y s 765 538 m 16 X s 797 538 m 16 X s 781 370 m 16 X s 781 706 m 16 X s 765 530 m 16 Y s 813 530 m 16 Y s 789 538
 m20 837 251 m 110 Y s 837 376 m 110 Y s 813 368 m 16 X s 845 368 m 16 X s 829 251 m 16 X s 829 486 m 16 X s 813 361 m 15 Y s 861 361 m 15 Y s 837 368 m20 885 309 m 139 Y s 885 464 m 139 Y s 861 456 m 16 X s 892 456 m 17 X s 877 309 m 15 X s 877 603
 m 15 X s 861 448 m 16 Y s 909 448 m 16 Y s 885 456 m20 1029 308 m 137 Y s 1029 460 m 137 Y s 1005 452 m 16 X s 1036 452 m 17 X s 1021 308 m 15 X s 1021 597 m 15 X s 1005 445 m 15 Y s 1053 445 m 15 Y s 1029 452 m20 1076 202 m 75 Y s 1076 292 m 75 Y s
 1053 285 m 16 X s 1084 285 m 16 X s 1069 202 m 15 X s 1069 367 m 15 X s 1053 277 m 15 Y s 1100 277 m 15 Y s 1076 285 m20 1172 202 m 75 Y s 1172 292 m 75 Y s 1148 284 m 17 X s 1180 284 m 16 X s 1165 202 m 15 X s 1165 367 m 15 X s 1148 277 m 15 Y s
 1196 277 m 15 Y s 1172 284 m20 1268 202 m 76 Y s 1268 293 m 76 Y s 1244 286 m 16 X s 1276 286 m 16 X s 1260 202 m 16 X s 1260 369 m 16 X s 1244 278 m 15 Y s 1292 278 m 15 Y s 1268 286 m20 1460 251 m 111 Y s 1460 378 m 111 Y s 1436 370 m 16 X s 1467
 370 m 17 X s 1452 251 m 15 X s 1452 489 m 15 X s 1436 362 m 16 Y s 1484 362 m 16 Y s 1460 370 m20 1939 202 m 83 Y s 1939 300 m 83 Y s 1915 293 m 16 X s 1946 293 m 17 X s 1931 202 m 15 X s 1931 383 m 15 X s 1915 285 m 15 Y s 1963 285 m 15 Y s 1939
 293 m20 1 0 0 c 1 1 1 c 1 0 0 c 262 878 m 228 Y s 262 1121 m 228 Y s 238 1114 m 16 X s 270 1114 m 16 X s 254 878 m 16 X s 254 1349 m 16 X s 238 1106 m 15 Y s 286 1106 m 15 Y s 262 1114 m20 310 367 m 125 Y s 310 507 m 126 Y s 286 500 m 16 X s 318 500
 m 16 X s 302 367 m 16 X s 302 633 m 16 X s 286 492 m 15 Y s 334 492 m 15 Y s 310 500 m20 358 369 m 128 Y s 358 512 m 127 Y s 334 504 m 16 X s 365 504 m 17 X s 350 369 m 15 X s 350 639 m 15 X s 334 497 m 15 Y s 382 497 m 15 Y s 358 504 m20 406 278 m
 96 Y s 406 389 m 97 Y s 382 382 m 16 X s 413 382 m 17 X s 398 278 m 15 X s 398 486 m 15 X s 382 374 m 15 Y s 430 374 m 15 Y s 406 382 m20 454 415 m 139 Y s 454 569 m 139 Y s 430 561 m 16 X s 461 561 m 17 X s 446 415 m 15 X s 446 708 m 15 X s 430 554
 m 15 Y s 478 554 m 15 Y s 454 561 m20 502 465 m 153 Y s 502 633 m 153 Y s 478 626 m 16 X s 509 626 m 17 X s 494 465 m 15 X s 494 786 m 15 X s 478 618 m 15 Y s 526 618 m 15 Y s 502 626 m20 549 238 m 78 Y s 549 331 m 79 Y s 526 324 m 16 X s 557 324 m
 16 X s 542 238 m 15 X s 542 410 m 15 X s 526 316 m 15 Y s 573 316 m 15 Y s 549 324 m20 597 368 m 127 Y s 597 510 m 127 Y s 573 502 m 17 X s 605 502 m 16 X s 590 368 m 15 X s 590 637 m 15 X s 573 495 m 15 Y s 621 495 m 15 Y s 597 502 m20 645 367 m
 126 Y s 645 508 m 127 Y s 621 501 m 17 X s 653 501 m 16 X s 638 367 m 15 X s 638 635 m 15 X s 621 493 m 15 Y s 669 493 m 15 Y s 645 501 m20 693 368 m 127 Y s 693 511 m 127 Y s 669 503 m 17 X s 701 503 m 16 X s 686 368 m 15 X s 686 638 m 15 X s 669
 495 m 16 Y s 717 495 m 16 Y s 693 503 m20 741 237 m 76 Y s 741 328 m 76 Y s 717 320 m 17 X s 749 320 m 16 X s 734 237 m 15 X s 734 404 m 15 X s 717 313 m 15 Y s 765 313 m 15 Y s 741 320 m20 789 278 m 96 Y s 789 390 m 96 Y s 765 382 m 16 X s 797 382
 m 16 X s 781 278 m 16 X s 781 486 m 16 X s 765 374 m 16 Y s 813 374 m 16 Y s 789 382 m20 837 277 m 96 Y s 837 388 m 96 Y s 813 381 m 16 X s 845 381 m 16 X s 829 277 m 16 X s 829 484 m 16 X s 813 373 m 15 Y s 861 373 m 15 Y s 837 381 m20 885 368 m
 126 Y s 885 509 m 127 Y s 861 502 m 16 X s 892 502 m 17 X s 877 368 m 15 X s 877 636 m 15 X s 861 494 m 15 Y s 909 494 m 15 Y s 885 502 m20 933 278 m 97 Y s 933 390 m 97 Y s 909 382 m 16 X s 940 382 m 17 X s 925 278 m 15 X s 925 487 m 15 X s 909 375
 m 15 Y s 957 375 m 15 Y s 933 382 m20 981 237 m 79 Y s 981 331 m 78 Y s 957 323 m 16 X s 988 323 m 17 X s 973 237 m 15 X s 973 409 m 15 X s 957 316 m 15 Y s 1005 316 m 15 Y s 981 323 m20 1076 202 m 52 Y s 1076 269 m 53 Y s 1053 262 m 16 X s 1084 262
 m 16 X s 1069 202 m 15 X s 1069 322 m 15 X s 1053 254 m 15 Y s 1100 254 m 15 Y s 1076 262 m20 1939 202 m 55 Y s 1939 272 m 56 Y s 1915 265 m 16 X s 1946 265 m 17 X s 1931 202 m 15 X s 1931 328 m 15 X s 1915 257 m 15 Y s 1963 257 m 15 Y s 1939 265
 m20 black
 gsave  2268 1682 0 0 C 272.126 1244.5 t 0 r /Helvetica-Bold findfont 49.4636 sf 0 0 m (Kolmogorov\255Smirnov test: signal \(background\) probability = 0.569 \(0.918\)) show NC gr  238 202 m 1916 X s 238 244 m -42 Y s 283 223 m -21 Y s 327 223 m -21
 Y s 372 223 m -21 Y s 417 223 m -21 Y s 462 244 m -42 Y s 506 223 m -21 Y s 551 223 m -21 Y s 596 223 m -21 Y s 640 223 m -21 Y s 685 244 m -42 Y s 730 223 m -21 Y s 774 223 m -21 Y s 819 223 m -21 Y s 864 223 m -21 Y s 908 244 m -42 Y s 953 223 m
 -21 Y s 998 223 m -21 Y s 1042 223 m -21 Y s 1087 223 m -21 Y s 1132 244 m -42 Y s 1177 223 m -21 Y s 1221 223 m -21 Y s 1266 223 m -21 Y s 1311 223 m -21 Y s 1355 244 m -42 Y s 1400 223 m -21 Y s 1445 223 m -21 Y s 1489 223 m -21 Y s 1534 223 m -21
 Y s 1579 244 m -42 Y s 1623 223 m -21 Y s 1668 223 m -21 Y s 1713 223 m -21 Y s 1757 223 m -21 Y s 1802 244 m -42 Y s 1847 223 m -21 Y s 1891 223 m -21 Y s 1936 223 m -21 Y s 1981 223 m -21 Y s 2026 244 m -42 Y s 2026 244 m -42 Y s 2070 223 m -21 Y
 s 2115 223 m -21 Y s 238 1514 m 1916 X s 238 1471 m 43 Y s 283 1492 m 22 Y s 327 1492 m 22 Y s 372 1492 m 22 Y s 417 1492 m 22 Y s 462 1471 m 43 Y s 506 1492 m 22 Y s 551 1492 m 22 Y s 596 1492 m 22 Y s 640 1492 m 22 Y s 685 1471 m 43 Y s 730 1492 m
 22 Y s 774 1492 m 22 Y s 819 1492 m 22 Y s 864 1492 m 22 Y s 908 1471 m 43 Y s 953 1492 m 22 Y s 998 1492 m 22 Y s 1042 1492 m 22 Y s 1087 1492 m 22 Y s 1132 1471 m 43 Y s 1177 1492 m 22 Y s 1221 1492 m 22 Y s 1266 1492 m 22 Y s 1311 1492 m 22 Y s
 1355 1471 m 43 Y s 1400 1492 m 22 Y s 1445 1492 m 22 Y s 1489 1492 m 22 Y s 1534 1492 m 22 Y s 1579 1471 m 43 Y s 1623 1492 m 22 Y s 1668 1492 m 22 Y s 1713 1492 m 22 Y s 1757 1492 m 22 Y s 1802 1471 m 43 Y s 1847 1492 m 22 Y s 1891 1492 m 22 Y s
 1936 1492 m 22 Y s 1981 1492 m 22 Y s 2026 1471 m 43 Y s 2026 1471 m 43 Y s 2070 1492 m 22 Y s 2115 1492 m 22 Y s 238 202 m 1312 Y s 291 202 m -53 X s 265 252 m -27 X s 265 303 m -27 X s 265 353 m -27 X s 291 403 m -53 X s 265 454 m -27 X s 265 504
 m -27 X s 265 555 m -27 X s 291 605 m -53 X s 265 655 m -27 X s 265 706 m -27 X s 265 756 m -27 X s 291 807 m -53 X s 265 857 m -27 X s 265 907 m -27 X s 265 958 m -27 X s 291 1008 m -53 X s 265 1058 m -27 X s 265 1109 m -27 X s 265 1159 m -27 X s
 291 1210 m -53 X s 265 1260 m -27 X s 265 1310 m -27 X s 265 1361 m -27 X s 291 1411 m -53 X s 291 1411 m -53 X s 265 1462 m -27 X s 265 1512 m -27 X s 2154 202 m 1312 Y s 2101 202 m 53 X s 2128 252 m 26 X s 2128 303 m 26 X s 2128 353 m 26 X s 2101
 403 m 53 X s 2128 454 m 26 X s 2128 504 m 26 X s 2128 555 m 26 X s 2101 605 m 53 X s 2128 655 m 26 X s 2128 706 m 26 X s 2128 756 m 26 X s 2101 807 m 53 X s 2128 857 m 26 X s 2128 907 m 26 X s 2128 958 m 26 X s 2101 1008 m 53 X s 2128 1058 m 26 X s
 2128 1109 m 26 X s 2128 1159 m 26 X s 2101 1210 m 53 X s 2128 1260 m 26 X s 2128 1310 m 26 X s 2128 1361 m 26 X s 2101 1411 m 53 X s 2101 1411 m 53 X s 2128 1462 m 26 X s 2128 1512 m 26 X s
 gsave  2268 1682 0 0 C 2211.02 193.403 t 90 r /Helvetica-Bold findfont 45.6587 sf 0 0 m (U/O\255flow \(S,B\): \(0.0, 0.0\)% / \(0.0, 0.0\)%) show NC gr  0.490196 0.545098 0.615686 c 0.364706 0.419608 0.490196 c 1587 96 23 1577 bf 0.490196 0.545098
 0.615686 c 23 1577 m 1587 X s 1610 1577 m 96 Y s 1610 1673 m -1587 X s 23 1673 m -96 Y s 1 1 1 c black 1 1 1 c
 gsave  2268 1682 0 0 C 76.0979 1613.27 t 0 r /Helvetica-Bold findfont 57.0734 sf 0 0 m (TMVA overtraining check for classifier: BoostedFisher) show NC gr 
 gr  gr showpage
end
%%EOF
