%!PS-Adobe-2.0 EPSF-2.0
%%BoundingBox:  0 0 567 420
%%Title: plots/overtrain_TMlpANN.eps: TMVA comparison TMlpANN
%%Creator: ROOT Version 5.34/09
%%CreationDate: Sat Jan  4 23:56:05 2014
%%EndComments
%%BeginProlog
80 dict begin
/s {stroke} def /l {lineto} def /m {moveto} def /t {translate} def
/r {rotate} def /rl {roll}  def /R {repeat} def
/d {rlineto} def /rm {rmoveto} def /gr {grestore} def /f {eofill} def
/c {setrgbcolor} def /black {0 setgray} def /sd {setdash} def
/cl {closepath} def /sf {scalefont setfont} def /lw {setlinewidth} def
/box {m dup 0 exch d exch 0 d 0 exch neg d cl} def
/NC{systemdict begin initclip end}def/C{NC box clip newpath}def
/bl {box s} def /bf {box f} def /Y { 0 exch d} def /X { 0 d} def 
/K {{pop pop 0 moveto} exch kshow} bind def
/ita {/ang 15 def gsave [1 0 ang dup sin exch cos div 1 0 0] concat} def 
/mp {newpath /y exch def /x exch def} def
/side {[w .77 mul w .23 mul] .385 w mul sd w 0 l currentpoint t -144 r} def
/mr {mp x y w2 0 360 arc} def /m24 {mr s} def /m20 {mr f} def
/mb {mp x y w2 add m w2 neg 0 d 0 w neg d w 0 d 0 w d cl} def
/mt {mp x y w2 add m w2 neg w neg d w 0 d cl} def
/m21 {mb f} def /m25 {mb s} def /m22 {mt f} def /m26{mt s} def
/m23 {mp x y w2 sub m w2 w d w neg 0 d cl f} def
/m27 {mp x y w2 add m w3 neg w2 neg d w3 w2 neg d w3 w2 d cl s} def
/m28 {mp x w2 sub y w2 sub w3 add m w3 0 d  0 w3 neg d w3 0 d 0 w3 d w3 0 d  0 w3 d w3 neg 0 d 0 w3 d w3 neg 0 d 0 w3 neg d w3 neg 0 d cl s } def
/m29 {mp gsave x w2 sub y w2 add w3 sub m currentpoint t 4 {side} repeat cl fill gr} def
/m30 {mp gsave x w2 sub y w2 add w3 sub m currentpoint t 4 {side} repeat cl s gr} def
/m31 {mp x y w2 sub m 0 w d x w2 sub y m w 0 d x w2 sub y w2 add m w w neg d x w2 sub y w2 sub m w w d s} def
/m32 {mp x y w2 sub m w2 w d w neg 0 d cl s} def
/m33 {mp x y w2 add m w3 neg w2 neg d w3 w2 neg d w3 w2 d cl f} def
/m34 {mp x w2 sub y w2 sub w3 add m w3 0 d  0 w3 neg d w3 0 d 0 w3 d w3 0 d  0 w3 d w3 neg 0 d 0 w3 d w3 neg 0 d 0 w3 neg d w3 neg 0 d cl f } def
/m2 {mp x y w2 sub m 0 w d x w2 sub y m w 0 d s} def
/m5 {mp x w2 sub y w2 sub m w w d x w2 sub y w2 add m w w neg d s} def
/reEncode {exch findfont dup length dict begin {1 index /FID eq  {pop pop} {def} ifelse } forall /Encoding exch def currentdict end dup /FontName get exch definefont pop } def [/Times-Bold /Times-Italic /Times-BoldItalic /Helvetica /Helvetica-Oblique
 /Helvetica-Bold /Helvetica-BoldOblique /Courier /Courier-Oblique /Courier-Bold /Courier-BoldOblique /Times-Roman /AvantGarde-Book /AvantGarde-BookOblique /AvantGarde-Demi /AvantGarde-DemiOblique /Bookman-Demi /Bookman-DemiItalic /Bookman-Light
 /Bookman-LightItalic /Helvetica-Narrow /Helvetica-Narrow-Bold /Helvetica-Narrow-BoldOblique /Helvetica-Narrow-Oblique /NewCenturySchlbk-Roman /NewCenturySchlbk-Bold /NewCenturySchlbk-BoldItalic /NewCenturySchlbk-Italic /Palatino-Bold
 /Palatino-BoldItalic /Palatino-Italic /Palatino-Roman ] {ISOLatin1Encoding reEncode } forall
%%EndProlog
%%BeginSetup
%%EndSetup
newpath  gsave  .25 .25 scale  gsave  0 0 t 0.490196 0.545098 0.615686 c[  ] 0 sd 3 lw 0.941176 0.941176 0.941176 c 2268 1682 0 0 bf black 1 1 0.992157 c 1916 1312 238 202 bf black 1916 1312 238 202 bl 1 1 0.992157 c 1916 1312 238 202 bf black 1916
 1312 238 202 bl 238 202 m 1916 X s
 gsave  2268 1682 0 0 C 1487.71 34.244 t 0 r /Helvetica-Bold findfont 72.293 sf 0 0 m (TMlpANN response) show NC gr  264 244 m -42 Y s 309 223 m -21 Y s 354 223 m -21 Y s 399 223 m -21 Y s 444 223 m -21 Y s 489 244 m -42 Y s 534 223 m -21 Y s 579 223
 m -21 Y s 624 223 m -21 Y s 669 223 m -21 Y s 715 244 m -42 Y s 760 223 m -21 Y s 805 223 m -21 Y s 850 223 m -21 Y s 895 223 m -21 Y s 940 244 m -42 Y s 985 223 m -21 Y s 1030 223 m -21 Y s 1075 223 m -21 Y s 1120 223 m -21 Y s 1166 244 m -42 Y s
 1211 223 m -21 Y s 1256 223 m -21 Y s 1301 223 m -21 Y s 1346 223 m -21 Y s 1391 244 m -42 Y s 1436 223 m -21 Y s 1481 223 m -21 Y s 1526 223 m -21 Y s 1571 223 m -21 Y s 1617 244 m -42 Y s 1662 223 m -21 Y s 1707 223 m -21 Y s 1752 223 m -21 Y s
 1797 223 m -21 Y s 1842 244 m -42 Y s 1887 223 m -21 Y s 1932 223 m -21 Y s 1977 223 m -21 Y s 2022 223 m -21 Y s 2067 244 m -42 Y s 264 244 m -42 Y s 2067 244 m -42 Y s 2113 223 m -21 Y s
 gsave  2268 1682 0 0 C 235.903 129.366 t 0 r /Helvetica-Bold findfont 64.6832 sf 0 0 m (\2551) show NC gr 
 gsave  2268 1682 0 0 C 429.953 129.366 t 0 r /Helvetica-Bold findfont 64.6832 sf 0 0 m (\2550.5) show NC gr 
 gsave  2268 1682 0 0 C 692.491 129.366 t 0 r /Helvetica-Bold findfont 64.6832 sf 0 0 m (0) show NC gr 
 gsave  2268 1682 0 0 C 894.15 129.366 t 0 r /Helvetica-Bold findfont 64.6832 sf 0 0 m (0.5) show NC gr 
 gsave  2268 1682 0 0 C 1149.08 129.366 t 0 r /Helvetica-Bold findfont 64.6832 sf 0 0 m (1) show NC gr 
 gsave  2268 1682 0 0 C 1343.13 129.366 t 0 r /Helvetica-Bold findfont 64.6832 sf 0 0 m (1.5) show NC gr 
 gsave  2268 1682 0 0 C 1594.25 129.366 t 0 r /Helvetica-Bold findfont 64.6832 sf 0 0 m (2) show NC gr 
 gsave  2268 1682 0 0 C 1795.91 129.366 t 0 r /Helvetica-Bold findfont 64.6832 sf 0 0 m (2.5) show NC gr 
 gsave  2268 1682 0 0 C 2047.03 129.366 t 0 r /Helvetica-Bold findfont 64.6832 sf 0 0 m (3) show NC gr  238 1514 m 1916 X s 264 1471 m 43 Y s 309 1492 m 22 Y s 354 1492 m 22 Y s 399 1492 m 22 Y s 444 1492 m 22 Y s 489 1471 m 43 Y s 534 1492 m 22 Y s
 579 1492 m 22 Y s 624 1492 m 22 Y s 669 1492 m 22 Y s 715 1471 m 43 Y s 760 1492 m 22 Y s 805 1492 m 22 Y s 850 1492 m 22 Y s 895 1492 m 22 Y s 940 1471 m 43 Y s 985 1492 m 22 Y s 1030 1492 m 22 Y s 1075 1492 m 22 Y s 1120 1492 m 22 Y s 1166 1471 m
 43 Y s 1211 1492 m 22 Y s 1256 1492 m 22 Y s 1301 1492 m 22 Y s 1346 1492 m 22 Y s 1391 1471 m 43 Y s 1436 1492 m 22 Y s 1481 1492 m 22 Y s 1526 1492 m 22 Y s 1571 1492 m 22 Y s 1617 1471 m 43 Y s 1662 1492 m 22 Y s 1707 1492 m 22 Y s 1752 1492 m 22
 Y s 1797 1492 m 22 Y s 1842 1471 m 43 Y s 1887 1492 m 22 Y s 1932 1492 m 22 Y s 1977 1492 m 22 Y s 2022 1492 m 22 Y s 2067 1471 m 43 Y s 264 1471 m 43 Y s 2067 1471 m 43 Y s 2113 1492 m 22 Y s 238 202 m 1312 Y s
 gsave  2268 1682 0 0 C 64.6832 1430.64 t 90 r /Helvetica-Bold findfont 72.293 sf 0 0 m (dx) show NC gr 
 gsave  2268 1682 0 0 C 30.4391 1411.62 t 90 r /Helvetica-Bold findfont 45.6587 sf 0 0 m ( ) show NC gr 
 gsave  2268 1682 0 0 C 64.6832 1388.79 t 90 r /Helvetica-Bold findfont 72.293 sf 0 0 m (/) show NC gr 
 gsave  2268 1682 0 0 C 30.4391 1369.76 t 90 r /Helvetica-Bold findfont 45.6587 sf 0 0 m ( ) show NC gr 
 gsave  2268 1682 0 0 C 60.8783 1095.81 t 90 r /Helvetica-Bold findfont 72.293 sf 0 0 m (\(1/N\) dN) show NC gr  291 202 m -53 X s 265 252 m -27 X s 265 301 m -27 X s 265 351 m -27 X s 265 401 m -27 X s 291 451 m -53 X s 265 500 m -27 X s 265 550 m
 -27 X s 265 600 m -27 X s 265 650 m -27 X s 291 699 m -53 X s 265 749 m -27 X s 265 799 m -27 X s 265 849 m -27 X s 265 898 m -27 X s 291 948 m -53 X s 265 998 m -27 X s 265 1048 m -27 X s 265 1097 m -27 X s 265 1147 m -27 X s 291 1197 m -53 X s 265
 1247 m -27 X s 265 1296 m -27 X s 265 1346 m -27 X s 265 1396 m -27 X s 291 1446 m -53 X s 291 1446 m -53 X s 265 1495 m -27 X s
 gsave  2268 1682 0 0 C 175.025 178.83 t 0 r /Helvetica-Bold findfont 64.6832 sf 0 0 m (0) show NC gr 
 gsave  2268 1682 0 0 C 182.635 426.148 t 0 r /Helvetica-Bold findfont 64.6832 sf 0 0 m (1) show NC gr 
 gsave  2268 1682 0 0 C 175.025 673.466 t 0 r /Helvetica-Bold findfont 64.6832 sf 0 0 m (2) show NC gr 
 gsave  2268 1682 0 0 C 175.025 924.589 t 0 r /Helvetica-Bold findfont 64.6832 sf 0 0 m (3) show NC gr 
 gsave  2268 1682 0 0 C 175.025 1171.91 t 0 r /Helvetica-Bold findfont 64.6832 sf 0 0 m (4) show NC gr 
 gsave  2268 1682 0 0 C 175.025 1419.23 t 0 r /Helvetica-Bold findfont 64.6832 sf 0 0 m (5) show NC gr  2154 202 m 1312 Y s 2101 202 m 53 X s 2128 252 m 26 X s 2128 301 m 26 X s 2128 351 m 26 X s 2128 401 m 26 X s 2101 451 m 53 X s 2128 500 m 26 X s
 2128 550 m 26 X s 2128 600 m 26 X s 2128 650 m 26 X s 2101 699 m 53 X s 2128 749 m 26 X s 2128 799 m 26 X s 2128 849 m 26 X s 2128 898 m 26 X s 2101 948 m 53 X s 2128 998 m 26 X s 2128 1048 m 26 X s 2128 1097 m 26 X s 2128 1147 m 26 X s 2101 1197 m
 53 X s 2128 1247 m 26 X s 2128 1296 m 26 X s 2128 1346 m 26 X s 2128 1396 m 26 X s 2101 1446 m 53 X s 2101 1446 m 53 X s 2128 1495 m 26 X s 0.490196 0.545098 0.615686 c 0.95 0.95 0.95 c 0.490196 0.545098 0.615686 c 907 202 238 1312 bl 238 1312 m 907
 X s 1145 1312 m 202 Y s 1145 1514 m -907 X s 238 1514 m -202 Y s black
 gsave  2268 1682 0 0 C 418.538 1445.86 t 0 r /Times-Italic findfont 57.0734 sf 0 0 m (Signal \(test sample\)) show NC gr  0.49 0.6 0.82 c 265 1428 m 127 X 70 Y -127 X f 0 0 0.933333 c 265 1498 m 127 X s 265 1428 m 127 X s 392 1428 m 70 Y s 265 1428
 m 70 Y s black
 gsave  2268 1682 0 0 C 418.538 1350.74 t 0 r /Times-Italic findfont 57.0734 sf 0 0 m (Background \(test sample\)) show NC gr  1 0 0 c 392 1354 m -27 -27 d s 387 1398 m -70 -71 d s 339 1398 m -70 -71 d s 291 1398 m -26 -26 d s 0 lw 0 0 0.933333 c 1 0
 0 c 3 lw 265 1398 m 127 X s 265 1327 m 127 X s 392 1327 m 71 Y s 265 1327 m 71 Y s 0 0 0.933333 c 0.49 0.6 0.82 c black 0.49 0.6 0.82 c 238 202 m 48 X 88 Y 48 X -88 Y 48 X 44 Y 48 X -44 Y 96 X 43 Y 47 X -43 Y 48 X 85 Y 48 X 129 Y 48 X -42 Y 48 X -41
 Y 48 X 83 Y 48 X 47 Y 48 X -132 Y 48 X 46 Y 48 X -46 Y 48 X -35 Y 47 X 35 Y 48 X -86 Y 48 X 42 Y 48 X -42 Y 48 X -43 Y 144 X 42 Y 48 X -42 Y 95 X 85 Y 48 X -85 Y 48 X 43 Y 48 X -43 Y 96 X 88 Y 48 X -88 Y 287 X f 0 0 0.933333 c 0.49 0.6 0.82 c 0 0
 0.933333 c 238 202 m 48 X 88 Y 48 X -88 Y 48 X 44 Y 48 X -44 Y 96 X 43 Y 47 X -43 Y 48 X 85 Y 48 X 129 Y 48 X -42 Y 48 X -41 Y 48 X 83 Y 48 X 47 Y 48 X -132 Y 48 X 46 Y 48 X -46 Y 48 X -35 Y 47 X 35 Y 48 X -86 Y 48 X 42 Y 48 X -42 Y 48 X -43 Y 144 X
 42 Y 48 X -42 Y 95 X 85 Y 48 X -85 Y 48 X 43 Y 48 X -43 Y 96 X 88 Y 48 X -88 Y 287 X s 1 0 0 c black 1 0 0 c 2154 230 m -28 -28 d s 2113 237 m -7 -7 d s 2078 202 m cl s 2059 231 m -29 -29 d s 2017 237 m -6 -6 d s 1982 202 m cl s 1934 202 m s 1886
 202 m s 1837 202 m s 1789 202 m s 1771 232 m -30 -30 d s 1763 272 m -70 -70 d s 1680 237 m -5 -5 d s 1645 202 m cl s 1597 202 m s 1549 202 m s 1532 233 m -31 -31 d s 1488 237 m -35 -35 d s 1475 273 m -71 -71 d s 1427 272 m -71 -70 d s 1345 239 m -5
 -5 d s 1308 202 m s 1292 234 m -32 -32 d s 1292 282 m -80 -80 d s 1292 330 m -48 -48 d s 1235 273 m -71 -71 d s 1292 378 m -48 -48 d s 1196 282 m -80 -80 d s 1244 379 m -1 Y s 1196 330 m -128 -128 d s 1196 378 m -176 -176 d s 1183 413 m -211 -211 d
 s 1101 380 m -1 -1 d s 1068 346 m -63 -63 d s 994 273 m -37 -38 d s 923 202 m s 1017 343 m -12 -12 d s 909 235 m -34 -33 d s 909 283 m -82 -81 d s 909 332 m -48 -48 d s 850 273 m -71 -71 d s 909 380 m -48 -48 d s 801 272 m -70 -70 d s 897 416 m -36
 -36 d s 765 284 m -82 -82 d s 765 332 m -130 -130 d s 729 344 m -142 -142 d s 680 343 m -59 -58 d s 574 237 m -1 X s 539 202 m s 633 344 m -12 -11 d s 490 202 m s 478 237 m -36 -35 d s 429 237 m -35 -35 d s 346 202 m cl s 298 202 m s 286 238 m -36
 -36 d s 273 273 m -35 -35 d s 0 lw 3 lw 238 273 m 48 X -71 Y 96 X 35 Y 96 X -35 Y 95 X 35 Y 48 X 107 Y 48 X -1 Y 48 X 1 Y 48 X -72 Y 48 X 1 Y 48 X 143 Y 48 X -214 Y 48 X 71 Y 48 X 70 Y 48 X 3 Y 47 X 34 Y 48 X 33 Y 48 X -140 Y 48 X 106 Y 48 X -177 Y
 48 X 37 Y 48 X 33 Y 48 X 1 Y 48 X -36 Y 48 X -35 Y 143 X 35 Y 48 X 35 Y 48 X -70 Y 240 X 35 Y 48 X -35 Y 47 X 35 Y 48 X -35 Y s 0.490196 0.545098 0.615686 c 0.95 0.95 0.95 c 0.490196 0.545098 0.615686 c 952 202 1202 1312 bl 1202 1312 m 952 X s 2154
 1312 m 202 Y s 2154 1514 m -952 X s 1202 1514 m -202 Y s black
 gsave  2268 1682 0 0 C 1293.66 1445.86 t 0 r /Times-Italic findfont 57.0734 sf 0 0 m (Signal \(training sample\)) show NC gr  0 0 0.933333 c /w 21 def /w2 {w 2 div} def /w3 {w 3 div} def 1250 1463 m20 black
 gsave  2268 1682 0 0 C 1293.66 1350.74 t 0 r /Times-Italic findfont 57.0734 sf 0 0 m (Background \(training sample\)) show NC gr  1 0 0 c 1250 1362 m20 0 0 0.933333 c 1 1 1 c 0 0 0.933333 c 262 202 m 34 Y s 262 251 m 34 Y s 238 244 m 16 X s 270 244
 m 16 X s 254 202 m 16 X s 254 285 m 16 X s 238 236 m 15 Y s 286 236 m 15 Y s 262 244 m20 310 202 m 34 Y s 310 251 m 34 Y s 286 243 m 16 X s 318 243 m 16 X s 302 202 m 16 X s 302 285 m 16 X s 286 236 m 15 Y s 334 236 m 15 Y s 310 243 m20 645 226 m 50
 Y s 645 291 m 51 Y s 621 284 m 17 X s 653 284 m 16 X s 638 226 m 15 X s 638 342 m 15 X s 621 276 m 15 Y s 669 276 m 15 Y s 645 284 m20 693 226 m 52 Y s 693 293 m 52 Y s 669 285 m 17 X s 701 285 m 16 X s 686 226 m 15 X s 686 345 m 15 X s 669 278 m 15
 Y s 717 278 m 15 Y s 693 285 m20 741 254 m 65 Y s 741 334 m 64 Y s 717 326 m 17 X s 749 326 m 16 X s 734 254 m 15 X s 734 398 m 15 X s 717 319 m 15 Y s 765 319 m 15 Y s 741 326 m20 789 202 m 34 Y s 789 251 m 35 Y s 765 244 m 16 X s 797 244 m 16 X s
 781 202 m 16 X s 781 286 m 16 X s 765 236 m 15 Y s 813 236 m 15 Y s 789 244 m20 837 202 m 33 Y s 837 250 m 34 Y s 813 243 m 16 X s 845 243 m 16 X s 829 202 m 16 X s 829 284 m 16 X s 813 235 m 15 Y s 861 235 m 15 Y s 837 243 m20 885 202 m 33 Y s 885
 250 m 34 Y s 861 243 m 16 X s 892 243 m 17 X s 877 202 m 15 X s 877 284 m 15 X s 861 235 m 15 Y s 909 235 m 15 Y s 885 243 m20 981 202 m 33 Y s 981 251 m 33 Y s 957 243 m 16 X s 988 243 m 17 X s 973 202 m 15 X s 973 284 m 15 X s 957 235 m 16 Y s
 1005 235 m 16 Y s 981 243 m20 1029 202 m 34 Y s 1029 252 m 34 Y s 1005 244 m 16 X s 1036 244 m 17 X s 1021 202 m 15 X s 1021 286 m 15 X s 1005 236 m 16 Y s 1053 236 m 16 Y s 1029 244 m20 1076 202 m 35 Y s 1076 253 m 35 Y s 1053 245 m 16 X s 1084 245
 m 16 X s 1069 202 m 15 X s 1069 288 m 15 X s 1053 237 m 16 Y s 1100 237 m 16 Y s 1076 245 m20 1124 559 m 137 Y s 1124 711 m 138 Y s 1100 704 m 17 X s 1132 704 m 16 X s 1117 559 m 15 X s 1117 849 m 15 X s 1100 696 m 15 Y s 1148 696 m 15 Y s 1124 704
 m20 1172 1005 m 198 Y s 1172 1218 m 199 Y s 1148 1211 m 17 X s 1180 1211 m 16 X s 1165 1005 m 15 X s 1165 1417 m 15 X s 1148 1203 m 15 Y s 1196 1203 m 15 Y s 1172 1211 m20 1220 254 m 64 Y s 1220 333 m 64 Y s 1196 326 m 17 X s 1228 326 m 16 X s 1213
 254 m 15 X s 1213 397 m 15 X s 1196 318 m 15 Y s 1244 318 m 15 Y s 1220 326 m20 1460 202 m 33 Y s 1460 251 m 33 Y s 1436 243 m 16 X s 1467 243 m 17 X s 1452 202 m 15 X s 1452 284 m 15 X s 1436 235 m 16 Y s 1484 235 m 16 Y s 1460 243 m20 1508 202 m
 34 Y s 1508 251 m 34 Y s 1484 243 m 16 X s 1515 243 m 17 X s 1500 202 m 15 X s 1500 285 m 15 X s 1484 236 m 15 Y s 1532 236 m 15 Y s 1508 243 m20 1 0 0 c 1 1 1 c 1 0 0 c 358 202 m 22 Y s 358 239 m 22 Y s 334 231 m 16 X s 365 231 m 17 X s 350 202 m
 15 X s 350 261 m 15 X s 334 224 m 15 Y s 382 224 m 15 Y s 358 231 m20 645 409 m 88 Y s 645 512 m 89 Y s 621 505 m 17 X s 653 505 m 16 X s 638 409 m 15 X s 638 601 m 15 X s 621 497 m 15 Y s 669 497 m 15 Y s 645 505 m20 693 746 m 136 Y s 693 897 m 136
 Y s 669 890 m 17 X s 701 890 m 16 X s 686 746 m 15 X s 686 1033 m 15 X s 669 882 m 15 Y s 717 882 m 15 Y s 693 890 m20 741 695 m 131 Y s 741 841 m 130 Y s 717 833 m 17 X s 749 833 m 16 X s 734 695 m 15 X s 734 971 m 15 X s 717 826 m 15 Y s 765 826 m
 15 Y s 741 833 m20 789 356 m 77 Y s 789 448 m 77 Y s 765 441 m 16 X s 797 441 m 16 X s 781 356 m 16 X s 781 525 m 16 X s 765 433 m 15 Y s 813 433 m 15 Y s 789 441 m20 837 219 m 35 Y s 837 269 m 35 Y s 813 262 m 16 X s 845 262 m 16 X s 829 219 m 16 X
 s 829 304 m 16 X s 813 254 m 15 Y s 861 254 m 15 Y s 837 262 m20 933 219 m 36 Y s 933 270 m 35 Y s 909 262 m 16 X s 940 262 m 17 X s 925 219 m 15 X s 925 305 m 15 X s 909 255 m 15 Y s 957 255 m 15 Y s 933 262 m20 981 202 m 22 Y s 981 239 m 23 Y s
 957 232 m 16 X s 988 232 m 17 X s 973 202 m 15 X s 973 262 m 15 X s 957 224 m 15 Y s 1005 224 m 15 Y s 981 232 m20 1029 202 m 22 Y s 1029 239 m 22 Y s 1005 232 m 16 X s 1036 232 m 17 X s 1021 202 m 15 X s 1021 261 m 15 X s 1005 224 m 15 Y s 1053 224
 m 15 Y s 1029 232 m20 1124 220 m 35 Y s 1124 270 m 36 Y s 1100 263 m 17 X s 1132 263 m 16 X s 1117 220 m 15 X s 1117 306 m 15 X s 1100 255 m 15 Y s 1148 255 m 15 Y s 1124 263 m20 1172 202 m 22 Y s 1172 239 m 22 Y s 1148 231 m 17 X s 1180 231 m 16 X
 s 1165 202 m 15 X s 1165 261 m 15 X s 1148 224 m 15 Y s 1196 224 m 15 Y s 1172 231 m20 1220 220 m 36 Y s 1220 271 m 36 Y s 1196 263 m 17 X s 1228 263 m 16 X s 1213 220 m 15 X s 1213 307 m 15 X s 1196 256 m 15 Y s 1244 256 m 15 Y s 1220 263 m20 1268
 219 m 35 Y s 1268 269 m 34 Y s 1244 261 m 16 X s 1276 261 m 16 X s 1260 219 m 16 X s 1260 303 m 16 X s 1244 254 m 15 Y s 1292 254 m 15 Y s 1268 261 m20 1364 202 m 22 Y s 1364 239 m 23 Y s 1340 232 m 16 X s 1371 232 m 17 X s 1356 202 m 15 X s 1356
 262 m 15 X s 1340 224 m 15 Y s 1388 224 m 15 Y s 1364 232 m20 1556 202 m 22 Y s 1556 239 m 22 Y s 1532 231 m 16 X s 1563 231 m 16 X s 1548 202 m 15 X s 1548 261 m 15 X s 1532 224 m 15 Y s 1579 224 m 15 Y s 1556 231 m20 black
 gsave  2268 1682 0 0 C 272.126 1244.5 t 0 r /Helvetica-Bold findfont 49.4636 sf 0 0 m (Kolmogorov\255Smirnov test: signal \(background\) probability = 2.98e\25506 \(8.16e\25509\)) show NC gr  238 202 m 1916 X s 264 244 m -42 Y s 309 223 m -21 Y s
 354 223 m -21 Y s 399 223 m -21 Y s 444 223 m -21 Y s 489 244 m -42 Y s 534 223 m -21 Y s 579 223 m -21 Y s 624 223 m -21 Y s 669 223 m -21 Y s 715 244 m -42 Y s 760 223 m -21 Y s 805 223 m -21 Y s 850 223 m -21 Y s 895 223 m -21 Y s 940 244 m -42 Y
 s 985 223 m -21 Y s 1030 223 m -21 Y s 1075 223 m -21 Y s 1120 223 m -21 Y s 1166 244 m -42 Y s 1211 223 m -21 Y s 1256 223 m -21 Y s 1301 223 m -21 Y s 1346 223 m -21 Y s 1391 244 m -42 Y s 1436 223 m -21 Y s 1481 223 m -21 Y s 1526 223 m -21 Y s
 1571 223 m -21 Y s 1617 244 m -42 Y s 1662 223 m -21 Y s 1707 223 m -21 Y s 1752 223 m -21 Y s 1797 223 m -21 Y s 1842 244 m -42 Y s 1887 223 m -21 Y s 1932 223 m -21 Y s 1977 223 m -21 Y s 2022 223 m -21 Y s 2067 244 m -42 Y s 264 244 m -42 Y s
 2067 244 m -42 Y s 2113 223 m -21 Y s 238 1514 m 1916 X s 264 1471 m 43 Y s 309 1492 m 22 Y s 354 1492 m 22 Y s 399 1492 m 22 Y s 444 1492 m 22 Y s 489 1471 m 43 Y s 534 1492 m 22 Y s 579 1492 m 22 Y s 624 1492 m 22 Y s 669 1492 m 22 Y s 715 1471 m
 43 Y s 760 1492 m 22 Y s 805 1492 m 22 Y s 850 1492 m 22 Y s 895 1492 m 22 Y s 940 1471 m 43 Y s 985 1492 m 22 Y s 1030 1492 m 22 Y s 1075 1492 m 22 Y s 1120 1492 m 22 Y s 1166 1471 m 43 Y s 1211 1492 m 22 Y s 1256 1492 m 22 Y s 1301 1492 m 22 Y s
 1346 1492 m 22 Y s 1391 1471 m 43 Y s 1436 1492 m 22 Y s 1481 1492 m 22 Y s 1526 1492 m 22 Y s 1571 1492 m 22 Y s 1617 1471 m 43 Y s 1662 1492 m 22 Y s 1707 1492 m 22 Y s 1752 1492 m 22 Y s 1797 1492 m 22 Y s 1842 1471 m 43 Y s 1887 1492 m 22 Y s
 1932 1492 m 22 Y s 1977 1492 m 22 Y s 2022 1492 m 22 Y s 2067 1471 m 43 Y s 264 1471 m 43 Y s 2067 1471 m 43 Y s 2113 1492 m 22 Y s 238 202 m 1312 Y s 291 202 m -53 X s 265 252 m -27 X s 265 301 m -27 X s 265 351 m -27 X s 265 401 m -27 X s 291 451
 m -53 X s 265 500 m -27 X s 265 550 m -27 X s 265 600 m -27 X s 265 650 m -27 X s 291 699 m -53 X s 265 749 m -27 X s 265 799 m -27 X s 265 849 m -27 X s 265 898 m -27 X s 291 948 m -53 X s 265 998 m -27 X s 265 1048 m -27 X s 265 1097 m -27 X s 265
 1147 m -27 X s 291 1197 m -53 X s 265 1247 m -27 X s 265 1296 m -27 X s 265 1346 m -27 X s 265 1396 m -27 X s 291 1446 m -53 X s 291 1446 m -53 X s 265 1495 m -27 X s 2154 202 m 1312 Y s 2101 202 m 53 X s 2128 252 m 26 X s 2128 301 m 26 X s 2128 351
 m 26 X s 2128 401 m 26 X s 2101 451 m 53 X s 2128 500 m 26 X s 2128 550 m 26 X s 2128 600 m 26 X s 2128 650 m 26 X s 2101 699 m 53 X s 2128 749 m 26 X s 2128 799 m 26 X s 2128 849 m 26 X s 2128 898 m 26 X s 2101 948 m 53 X s 2128 998 m 26 X s 2128
 1048 m 26 X s 2128 1097 m 26 X s 2128 1147 m 26 X s 2101 1197 m 53 X s 2128 1247 m 26 X s 2128 1296 m 26 X s 2128 1346 m 26 X s 2128 1396 m 26 X s 2101 1446 m 53 X s 2101 1446 m 53 X s 2128 1495 m 26 X s
 gsave  2268 1682 0 0 C 2211.02 193.403 t 90 r /Helvetica-Bold findfont 45.6587 sf 0 0 m (U/O\255flow \(S,B\): \(0.0, 0.0\)% / \(0.0, 0.0\)%) show NC gr  0.490196 0.545098 0.615686 c 0.364706 0.419608 0.490196 c 1587 96 23 1577 bf 0.490196 0.545098
 0.615686 c 23 1577 m 1587 X s 1610 1577 m 96 Y s 1610 1673 m -1587 X s 23 1673 m -96 Y s 1 1 1 c black 1 1 1 c
 gsave  2268 1682 0 0 C 102.732 1609.47 t 0 r /Helvetica-Bold findfont 60.8783 sf 0 0 m (TMVA overtraining check for classifier: TMlpANN) show NC gr 
 gr  gr showpage
end
%%EOF
