%!PS-Adobe-2.0 EPSF-2.0
%%BoundingBox:  0 0 567 420
%%Title: plots/overtrain_LD.eps: TMVA comparison LD
%%Creator: ROOT Version 5.34/09
%%CreationDate: Sat Jan  4 23:56:03 2014
%%EndComments
%%BeginProlog
80 dict begin
/s {stroke} def /l {lineto} def /m {moveto} def /t {translate} def
/r {rotate} def /rl {roll}  def /R {repeat} def
/d {rlineto} def /rm {rmoveto} def /gr {grestore} def /f {eofill} def
/c {setrgbcolor} def /black {0 setgray} def /sd {setdash} def
/cl {closepath} def /sf {scalefont setfont} def /lw {setlinewidth} def
/box {m dup 0 exch d exch 0 d 0 exch neg d cl} def
/NC{systemdict begin initclip end}def/C{NC box clip newpath}def
/bl {box s} def /bf {box f} def /Y { 0 exch d} def /X { 0 d} def 
/K {{pop pop 0 moveto} exch kshow} bind def
/ita {/ang 15 def gsave [1 0 ang dup sin exch cos div 1 0 0] concat} def 
/mp {newpath /y exch def /x exch def} def
/side {[w .77 mul w .23 mul] .385 w mul sd w 0 l currentpoint t -144 r} def
/mr {mp x y w2 0 360 arc} def /m24 {mr s} def /m20 {mr f} def
/mb {mp x y w2 add m w2 neg 0 d 0 w neg d w 0 d 0 w d cl} def
/mt {mp x y w2 add m w2 neg w neg d w 0 d cl} def
/m21 {mb f} def /m25 {mb s} def /m22 {mt f} def /m26{mt s} def
/m23 {mp x y w2 sub m w2 w d w neg 0 d cl f} def
/m27 {mp x y w2 add m w3 neg w2 neg d w3 w2 neg d w3 w2 d cl s} def
/m28 {mp x w2 sub y w2 sub w3 add m w3 0 d  0 w3 neg d w3 0 d 0 w3 d w3 0 d  0 w3 d w3 neg 0 d 0 w3 d w3 neg 0 d 0 w3 neg d w3 neg 0 d cl s } def
/m29 {mp gsave x w2 sub y w2 add w3 sub m currentpoint t 4 {side} repeat cl fill gr} def
/m30 {mp gsave x w2 sub y w2 add w3 sub m currentpoint t 4 {side} repeat cl s gr} def
/m31 {mp x y w2 sub m 0 w d x w2 sub y m w 0 d x w2 sub y w2 add m w w neg d x w2 sub y w2 sub m w w d s} def
/m32 {mp x y w2 sub m w2 w d w neg 0 d cl s} def
/m33 {mp x y w2 add m w3 neg w2 neg d w3 w2 neg d w3 w2 d cl f} def
/m34 {mp x w2 sub y w2 sub w3 add m w3 0 d  0 w3 neg d w3 0 d 0 w3 d w3 0 d  0 w3 d w3 neg 0 d 0 w3 d w3 neg 0 d 0 w3 neg d w3 neg 0 d cl f } def
/m2 {mp x y w2 sub m 0 w d x w2 sub y m w 0 d s} def
/m5 {mp x w2 sub y w2 sub m w w d x w2 sub y w2 add m w w neg d s} def
/reEncode {exch findfont dup length dict begin {1 index /FID eq  {pop pop} {def} ifelse } forall /Encoding exch def currentdict end dup /FontName get exch definefont pop } def [/Times-Bold /Times-Italic /Times-BoldItalic /Helvetica /Helvetica-Oblique
 /Helvetica-Bold /Helvetica-BoldOblique /Courier /Courier-Oblique /Courier-Bold /Courier-BoldOblique /Times-Roman /AvantGarde-Book /AvantGarde-BookOblique /AvantGarde-Demi /AvantGarde-DemiOblique /Bookman-Demi /Bookman-DemiItalic /Bookman-Light
 /Bookman-LightItalic /Helvetica-Narrow /Helvetica-Narrow-Bold /Helvetica-Narrow-BoldOblique /Helvetica-Narrow-Oblique /NewCenturySchlbk-Roman /NewCenturySchlbk-Bold /NewCenturySchlbk-BoldItalic /NewCenturySchlbk-Italic /Palatino-Bold
 /Palatino-BoldItalic /Palatino-Italic /Palatino-Roman ] {ISOLatin1Encoding reEncode } forall
%%EndProlog
%%BeginSetup
%%EndSetup
newpath  gsave  .25 .25 scale  gsave  0 0 t 0.490196 0.545098 0.615686 c[  ] 0 sd 3 lw 0.941176 0.941176 0.941176 c 2268 1682 0 0 bf black 1 1 0.992157 c 1916 1312 238 202 bf black 1916 1312 238 202 bl 1 1 0.992157 c 1916 1312 238 202 bf black 1916
 1312 238 202 bl 238 202 m 1916 X s
 gsave  2268 1682 0 0 C 1716.01 34.244 t 0 r /Helvetica-Bold findfont 72.293 sf 0 0 m (LD response) show NC gr  292 244 m -42 Y s 332 223 m -21 Y s 372 223 m -21 Y s 412 223 m -21 Y s 451 223 m -21 Y s 491 244 m -42 Y s 531 223 m -21 Y s 571 223 m
 -21 Y s 611 223 m -21 Y s 651 223 m -21 Y s 690 244 m -42 Y s 730 223 m -21 Y s 770 223 m -21 Y s 810 223 m -21 Y s 850 223 m -21 Y s 890 244 m -42 Y s 929 223 m -21 Y s 969 223 m -21 Y s 1009 223 m -21 Y s 1049 223 m -21 Y s 1089 244 m -42 Y s 1129
 223 m -21 Y s 1168 223 m -21 Y s 1208 223 m -21 Y s 1248 223 m -21 Y s 1288 244 m -42 Y s 1328 223 m -21 Y s 1368 223 m -21 Y s 1407 223 m -21 Y s 1447 223 m -21 Y s 1487 244 m -42 Y s 1527 223 m -21 Y s 1567 223 m -21 Y s 1607 223 m -21 Y s 1646
 223 m -21 Y s 1686 244 m -42 Y s 1726 223 m -21 Y s 1766 223 m -21 Y s 1806 223 m -21 Y s 1846 223 m -21 Y s 1885 244 m -42 Y s 1925 223 m -21 Y s 1965 223 m -21 Y s 2005 223 m -21 Y s 2045 223 m -21 Y s 2085 244 m -42 Y s 292 244 m -42 Y s 252 223
 m -21 Y s 2085 244 m -42 Y s 2124 223 m -21 Y s
 gsave  2268 1682 0 0 C 232.099 129.366 t 0 r /Helvetica-Bold findfont 64.6832 sf 0 0 m (\2550.5) show NC gr 
 gsave  2268 1682 0 0 C 433.758 129.366 t 0 r /Helvetica-Bold findfont 64.6832 sf 0 0 m (\2550.4) show NC gr 
 gsave  2268 1682 0 0 C 631.612 129.366 t 0 r /Helvetica-Bold findfont 64.6832 sf 0 0 m (\2550.3) show NC gr 
 gsave  2268 1682 0 0 C 829.467 129.366 t 0 r /Helvetica-Bold findfont 64.6832 sf 0 0 m (\2550.2) show NC gr 
 gsave  2268 1682 0 0 C 1034.93 129.366 t 0 r /Helvetica-Bold findfont 64.6832 sf 0 0 m (\2550.1) show NC gr 
 gsave  2268 1682 0 0 C 1267.03 129.366 t 0 r /Helvetica-Bold findfont 64.6832 sf 0 0 m (0) show NC gr 
 gsave  2268 1682 0 0 C 1442.05 129.366 t 0 r /Helvetica-Bold findfont 64.6832 sf 0 0 m (0.1) show NC gr 
 gsave  2268 1682 0 0 C 1639.91 129.366 t 0 r /Helvetica-Bold findfont 64.6832 sf 0 0 m (0.2) show NC gr 
 gsave  2268 1682 0 0 C 1837.76 129.366 t 0 r /Helvetica-Bold findfont 64.6832 sf 0 0 m (0.3) show NC gr 
 gsave  2268 1682 0 0 C 2035.62 129.366 t 0 r /Helvetica-Bold findfont 64.6832 sf 0 0 m (0.4) show NC gr  238 1514 m 1916 X s 292 1471 m 43 Y s 332 1492 m 22 Y s 372 1492 m 22 Y s 412 1492 m 22 Y s 451 1492 m 22 Y s 491 1471 m 43 Y s 531 1492 m 22 Y
 s 571 1492 m 22 Y s 611 1492 m 22 Y s 651 1492 m 22 Y s 690 1471 m 43 Y s 730 1492 m 22 Y s 770 1492 m 22 Y s 810 1492 m 22 Y s 850 1492 m 22 Y s 890 1471 m 43 Y s 929 1492 m 22 Y s 969 1492 m 22 Y s 1009 1492 m 22 Y s 1049 1492 m 22 Y s 1089 1471 m
 43 Y s 1129 1492 m 22 Y s 1168 1492 m 22 Y s 1208 1492 m 22 Y s 1248 1492 m 22 Y s 1288 1471 m 43 Y s 1328 1492 m 22 Y s 1368 1492 m 22 Y s 1407 1492 m 22 Y s 1447 1492 m 22 Y s 1487 1471 m 43 Y s 1527 1492 m 22 Y s 1567 1492 m 22 Y s 1607 1492 m 22
 Y s 1646 1492 m 22 Y s 1686 1471 m 43 Y s 1726 1492 m 22 Y s 1766 1492 m 22 Y s 1806 1492 m 22 Y s 1846 1492 m 22 Y s 1885 1471 m 43 Y s 1925 1492 m 22 Y s 1965 1492 m 22 Y s 2005 1492 m 22 Y s 2045 1492 m 22 Y s 2085 1471 m 43 Y s 292 1471 m 43 Y s
 252 1492 m 22 Y s 2085 1471 m 43 Y s 2124 1492 m 22 Y s 238 202 m 1312 Y s
 gsave  2268 1682 0 0 C 64.6832 1430.64 t 90 r /Helvetica-Bold findfont 72.293 sf 0 0 m (dx) show NC gr 
 gsave  2268 1682 0 0 C 30.4391 1411.62 t 90 r /Helvetica-Bold findfont 45.6587 sf 0 0 m ( ) show NC gr 
 gsave  2268 1682 0 0 C 64.6832 1388.79 t 90 r /Helvetica-Bold findfont 72.293 sf 0 0 m (/) show NC gr 
 gsave  2268 1682 0 0 C 30.4391 1369.76 t 90 r /Helvetica-Bold findfont 45.6587 sf 0 0 m ( ) show NC gr 
 gsave  2268 1682 0 0 C 60.8783 1095.81 t 90 r /Helvetica-Bold findfont 72.293 sf 0 0 m (\(1/N\) dN) show NC gr  291 202 m -53 X s 265 229 m -27 X s 265 256 m -27 X s 265 284 m -27 X s 265 311 m -27 X s 291 338 m -53 X s 265 366 m -27 X s 265 393 m
 -27 X s 265 420 m -27 X s 265 448 m -27 X s 291 475 m -53 X s 265 502 m -27 X s 265 530 m -27 X s 265 557 m -27 X s 265 584 m -27 X s 291 612 m -53 X s 265 639 m -27 X s 265 666 m -27 X s 265 694 m -27 X s 265 721 m -27 X s 291 748 m -53 X s 265 776
 m -27 X s 265 803 m -27 X s 265 830 m -27 X s 265 858 m -27 X s 291 885 m -53 X s 265 912 m -27 X s 265 940 m -27 X s 265 967 m -27 X s 265 994 m -27 X s 291 1022 m -53 X s 265 1049 m -27 X s 265 1076 m -27 X s 265 1104 m -27 X s 265 1131 m -27 X s
 291 1158 m -53 X s 265 1185 m -27 X s 265 1213 m -27 X s 265 1240 m -27 X s 265 1267 m -27 X s 291 1295 m -53 X s 265 1322 m -27 X s 265 1349 m -27 X s 265 1377 m -27 X s 265 1404 m -27 X s 291 1431 m -53 X s 291 1431 m -53 X s 265 1459 m -27 X s
 265 1486 m -27 X s 265 1513 m -27 X s
 gsave  2268 1682 0 0 C 175.025 178.83 t 0 r /Helvetica-Bold findfont 64.6832 sf 0 0 m (0) show NC gr 
 gsave  2268 1682 0 0 C 182.635 312.001 t 0 r /Helvetica-Bold findfont 64.6832 sf 0 0 m (1) show NC gr 
 gsave  2268 1682 0 0 C 175.025 448.977 t 0 r /Helvetica-Bold findfont 64.6832 sf 0 0 m (2) show NC gr 
 gsave  2268 1682 0 0 C 175.025 585.954 t 0 r /Helvetica-Bold findfont 64.6832 sf 0 0 m (3) show NC gr 
 gsave  2268 1682 0 0 C 175.025 722.93 t 0 r /Helvetica-Bold findfont 64.6832 sf 0 0 m (4) show NC gr 
 gsave  2268 1682 0 0 C 175.025 859.906 t 0 r /Helvetica-Bold findfont 64.6832 sf 0 0 m (5) show NC gr 
 gsave  2268 1682 0 0 C 175.025 996.882 t 0 r /Helvetica-Bold findfont 64.6832 sf 0 0 m (6) show NC gr 
 gsave  2268 1682 0 0 C 175.025 1133.86 t 0 r /Helvetica-Bold findfont 64.6832 sf 0 0 m (7) show NC gr 
 gsave  2268 1682 0 0 C 175.025 1270.83 t 0 r /Helvetica-Bold findfont 64.6832 sf 0 0 m (8) show NC gr 
 gsave  2268 1682 0 0 C 175.025 1407.81 t 0 r /Helvetica-Bold findfont 64.6832 sf 0 0 m (9) show NC gr  2154 202 m 1312 Y s 2101 202 m 53 X s 2128 229 m 26 X s 2128 256 m 26 X s 2128 284 m 26 X s 2128 311 m 26 X s 2101 338 m 53 X s 2128 366 m 26 X s
 2128 393 m 26 X s 2128 420 m 26 X s 2128 448 m 26 X s 2101 475 m 53 X s 2128 502 m 26 X s 2128 530 m 26 X s 2128 557 m 26 X s 2128 584 m 26 X s 2101 612 m 53 X s 2128 639 m 26 X s 2128 666 m 26 X s 2128 694 m 26 X s 2128 721 m 26 X s 2101 748 m 53 X
 s 2128 776 m 26 X s 2128 803 m 26 X s 2128 830 m 26 X s 2128 858 m 26 X s 2101 885 m 53 X s 2128 912 m 26 X s 2128 940 m 26 X s 2128 967 m 26 X s 2128 994 m 26 X s 2101 1022 m 53 X s 2128 1049 m 26 X s 2128 1076 m 26 X s 2128 1104 m 26 X s 2128 1131
 m 26 X s 2101 1158 m 53 X s 2128 1185 m 26 X s 2128 1213 m 26 X s 2128 1240 m 26 X s 2128 1267 m 26 X s 2101 1295 m 53 X s 2128 1322 m 26 X s 2128 1349 m 26 X s 2128 1377 m 26 X s 2128 1404 m 26 X s 2101 1431 m 53 X s 2101 1431 m 53 X s 2128 1459 m
 26 X s 2128 1486 m 26 X s 2128 1513 m 26 X s 0.490196 0.545098 0.615686 c 0.95 0.95 0.95 c 0.490196 0.545098 0.615686 c 907 202 238 1312 bl 238 1312 m 907 X s 1145 1312 m 202 Y s 1145 1514 m -907 X s 238 1514 m -202 Y s black
 gsave  2268 1682 0 0 C 418.538 1445.86 t 0 r /Times-Italic findfont 57.0734 sf 0 0 m (Signal \(test sample\)) show NC gr  0.49 0.6 0.82 c 265 1428 m 127 X 70 Y -127 X f 0 0 0.933333 c 265 1498 m 127 X s 265 1428 m 127 X s 392 1428 m 70 Y s 265 1428
 m 70 Y s black
 gsave  2268 1682 0 0 C 418.538 1350.74 t 0 r /Times-Italic findfont 57.0734 sf 0 0 m (Background \(test sample\)) show NC gr  1 0 0 c 392 1354 m -27 -27 d s 387 1398 m -70 -71 d s 339 1398 m -70 -71 d s 291 1398 m -26 -26 d s 0 lw 0 0 0.933333 c 1 0
 0 c 3 lw 265 1398 m 127 X s 265 1327 m 127 X s 392 1327 m 71 Y s 265 1327 m 71 Y s 0 0 0.933333 c 0.49 0.6 0.82 c black 0.49 0.6 0.82 c 238 202 m 104 Y 48 X -104 Y 240 X 110 Y 47 X -110 Y 48 X 105 Y 48 X -105 Y 96 X 102 Y 48 X -102 Y 144 X 104 Y 48
 X 106 Y 48 X -2 Y 47 X 314 Y 48 X -315 Y 48 X 214 Y 48 X 423 Y 48 X -427 Y 48 X 204 Y 48 X -97 Y 48 X -208 Y 48 X -2 Y 48 X -314 Y 47 X 218 Y 48 X -98 Y 48 X -120 Y 96 X 107 Y 48 X -107 Y 287 X 104 Y 48 X -104 Y f 0 0 0.933333 c 0.49 0.6 0.82 c 0 0
 0.933333 c 238 306 m 48 X -104 Y 240 X 110 Y 47 X -110 Y 48 X 105 Y 48 X -105 Y 96 X 102 Y 48 X -102 Y 144 X 104 Y 48 X 106 Y 48 X -2 Y 47 X 314 Y 48 X -315 Y 48 X 214 Y 48 X 423 Y 48 X -427 Y 48 X 204 Y 48 X -97 Y 48 X -208 Y 48 X -2 Y 48 X -314 Y
 47 X 218 Y 48 X -98 Y 48 X -120 Y 96 X 107 Y 48 X -107 Y 287 X 104 Y 48 X -104 Y s 1 0 0 c black 1 0 0 c 2126 202 m s 2078 202 m s 2030 202 m s 1982 202 m s 1934 202 m s 1886 202 m s 1867 231 m -30 -29 d s 1867 279 m -48 -47 d s 1789 202 m s 1828
 288 m -9 -8 d s 1741 202 m s 1693 202 m s 1645 202 m s 1627 232 m -30 -30 d s 1627 280 m -48 -47 d s 1549 202 m s 1587 288 m -8 -7 d s 1532 233 m -31 -31 d s 1532 281 m -79 -79 d s 1532 329 m -128 -127 d s 1532 377 m -176 -175 d s 1532 425 m -48 -48
 d s 1480 374 m -172 -172 d s 1517 459 m -33 -34 d s 1436 377 m -176 -175 d s 1436 426 m -224 -224 d s 1436 474 m -272 -272 d s 1436 522 m -48 -48 d s 1375 461 m -259 -259 d s 1436 570 m -48 -48 d s 1340 474 m -272 -272 d s 1436 618 m -48 -48 d s
 1340 522 m -320 -320 d s 1399 629 m -11 -11 d s 1340 570 m -368 -368 d s 1340 618 m -417 -416 d s 1340 666 m -465 -464 d s 1340 715 m -513 -513 d s 1340 763 m -287 -288 d s 1039 462 m -82 -83 d s 955 378 m -46 -46 d s 865 287 m -52 -51 d s 779 202 m
 cl s 1340 811 m -96 -96 d s 1243 714 m -47 -47 d s 1158 628 m -58 -57 d s 1079 550 m -26 -27 d s 994 465 m -37 -37 d s 817 288 m -4 -4 d s 731 202 m s 1340 859 m -96 -96 d s 1148 667 m -48 -48 d s 717 236 m -34 -34 d s 1340 907 m -96 -96 d s 1148
 715 m -48 -48 d s 717 284 m -48 -48 d s 635 202 m s 1340 955 m -96 -96 d s 1105 720 m -5 -4 d s 673 288 m -4 -4 d s 587 202 m s 1340 1003 m -96 -96 d s 539 202 m s 1340 1051 m -48 -48 d s 1261 973 m -17 -18 d s 490 202 m s 1301 1060 m -9 -8 d s 442
 202 m cl s 394 202 m cl s 346 202 m s 298 202 m s 250 202 m cl s 0 lw 3 lw 238 202 m 431 X 86 Y 48 X -86 Y 96 X 86 Y 48 X -1 Y 48 X 91 Y 48 X 87 Y 48 X -3 Y 48 X 88 Y 47 X 170 Y 48 X -92 Y 48 X 86 Y 48 X 259 Y 48 X 87 Y 48 X -599 Y 48 X 168 Y 48 X
 -255 Y 48 X 85 Y 48 X -257 Y 47 X 86 Y 48 X -86 Y 192 X 86 Y 48 X -86 Y 287 X s 0.490196 0.545098 0.615686 c 0.95 0.95 0.95 c 0.490196 0.545098 0.615686 c 952 202 1202 1312 bl 1202 1312 m 952 X s 2154 1312 m 202 Y s 2154 1514 m -952 X s 1202 1514 m
 -202 Y s black
 gsave  2268 1682 0 0 C 1293.66 1445.86 t 0 r /Times-Italic findfont 57.0734 sf 0 0 m (Signal \(training sample\)) show NC gr  0 0 0.933333 c /w 21 def /w2 {w 2 div} def /w3 {w 3 div} def 1250 1463 m20 black
 gsave  2268 1682 0 0 C 1293.66 1350.74 t 0 r /Times-Italic findfont 57.0734 sf 0 0 m (Background \(training sample\)) show NC gr  1 0 0 c 1250 1362 m20 0 0 0.933333 c 1 1 1 c 0 0 0.933333 c 789 202 m 92 Y s 789 309 m 92 Y s 765 301 m 16 X s 797 301
 m 16 X s 781 202 m 16 X s 781 401 m 16 X s 765 294 m 15 Y s 813 294 m 15 Y s 789 301 m20 1029 260 m 134 Y s 1029 409 m 134 Y s 1005 402 m 16 X s 1036 402 m 17 X s 1021 260 m 15 X s 1021 543 m 15 X s 1005 394 m 15 Y s 1053 394 m 15 Y s 1029 402 m20
 1124 409 m 201 Y s 1124 626 m 201 Y s 1100 618 m 17 X s 1132 618 m 16 X s 1117 409 m 15 X s 1117 827 m 15 X s 1100 610 m 16 Y s 1148 610 m 16 Y s 1124 618 m20 1172 329 m 166 Y s 1172 510 m 167 Y s 1148 503 m 17 X s 1180 503 m 16 X s 1165 329 m 15 X
 s 1165 677 m 15 X s 1148 495 m 15 Y s 1196 495 m 15 Y s 1172 503 m20 1220 727 m 280 Y s 1220 1022 m 280 Y s 1196 1014 m 17 X s 1228 1014 m 16 X s 1213 727 m 15 X s 1213 1302 m 15 X s 1196 1007 m 15 Y s 1244 1007 m 15 Y s 1220 1014 m20 1268 560 m 239
 Y s 1268 814 m 239 Y s 1244 806 m 16 X s 1276 806 m 16 X s 1260 560 m 16 X s 1260 1053 m 16 X s 1244 799 m 15 Y s 1292 799 m 15 Y s 1268 806 m20 1316 892 m 311 Y s 1316 1218 m 296 Y s 1292 1211 m 16 X s 1324 1211 m 16 X s 1308 892 m 16 X s 1308 1514
 m 16 X s 1292 1203 m 15 Y s 1340 1203 m 15 Y s 1316 1211 m20 1364 330 m 167 Y s 1364 512 m 168 Y s 1340 505 m 16 X s 1371 505 m 17 X s 1356 330 m 15 X s 1356 680 m 15 X s 1340 497 m 15 Y s 1388 497 m 15 Y s 1364 505 m20 1412 483 m 220 Y s 1412 719 m
 220 Y s 1388 711 m 16 X s 1419 711 m 17 X s 1404 483 m 15 X s 1404 939 m 15 X s 1388 703 m 16 Y s 1436 703 m 16 Y s 1412 711 m20 1460 261 m 134 Y s 1460 411 m 134 Y s 1436 403 m 16 X s 1467 403 m 17 X s 1452 261 m 15 X s 1452 545 m 15 X s 1436 395 m
 16 Y s 1484 395 m 16 Y s 1460 403 m20 1508 332 m 169 Y s 1508 517 m 169 Y s 1484 509 m 16 X s 1515 509 m 17 X s 1500 332 m 15 X s 1500 686 m 15 X s 1484 501 m 16 Y s 1532 501 m 16 Y s 1508 509 m20 1603 403 m 194 Y s 1603 612 m 194 Y s 1579 605 m 17
 X s 1611 605 m 16 X s 1596 403 m 15 X s 1596 806 m 15 X s 1579 597 m 15 Y s 1627 597 m 15 Y s 1603 605 m20 1651 261 m 134 Y s 1651 410 m 135 Y s 1627 403 m 17 X s 1659 403 m 16 X s 1644 261 m 15 X s 1644 545 m 15 X s 1627 395 m 15 Y s 1675 395 m 15
 Y s 1651 403 m20 1747 202 m 94 Y s 1747 312 m 94 Y s 1723 304 m 17 X s 1755 304 m 16 X s 1740 202 m 15 X s 1740 406 m 15 X s 1723 296 m 16 Y s 1771 296 m 16 Y s 1747 304 m20 1795 202 m 93 Y s 1795 311 m 93 Y s 1771 303 m 16 X s 1803 303 m 16 X s
 1787 202 m 16 X s 1787 404 m 16 X s 1771 295 m 16 Y s 1819 295 m 16 Y s 1795 303 m20 1939 202 m 102 Y s 1939 319 m 102 Y s 1915 311 m 16 X s 1946 311 m 17 X s 1931 202 m 15 X s 1931 421 m 15 X s 1915 304 m 15 Y s 1963 304 m 15 Y s 1939 311 m20 1 0 0
 c 1 1 1 c 1 0 0 c 789 202 m 65 Y s 789 282 m 65 Y s 765 275 m 16 X s 797 275 m 16 X s 781 202 m 16 X s 781 347 m 16 X s 765 267 m 15 Y s 813 267 m 15 Y s 789 275 m20 885 244 m 95 Y s 885 354 m 95 Y s 861 347 m 16 X s 892 347 m 17 X s 877 244 m 15 X
 s 877 449 m 15 X s 861 339 m 15 Y s 909 339 m 15 Y s 885 347 m20 933 296 m 122 Y s 933 433 m 122 Y s 909 426 m 16 X s 940 426 m 17 X s 925 296 m 15 X s 925 555 m 15 X s 909 418 m 15 Y s 957 418 m 15 Y s 933 426 m20 981 295 m 121 Y s 981 431 m 120 Y
 s 957 423 m 16 X s 988 423 m 17 X s 973 295 m 15 X s 973 551 m 15 X s 957 416 m 15 Y s 1005 416 m 15 Y s 981 423 m20 1029 404 m 156 Y s 1029 576 m 156 Y s 1005 568 m 16 X s 1036 568 m 17 X s 1021 404 m 15 X s 1021 732 m 15 X s 1005 560 m 16 Y s 1053
 560 m 16 Y s 1029 568 m20 1076 244 m 95 Y s 1076 354 m 95 Y s 1053 347 m 16 X s 1084 347 m 16 X s 1069 244 m 15 X s 1069 449 m 15 X s 1053 339 m 15 Y s 1100 339 m 15 Y s 1076 347 m20 1124 401 m 154 Y s 1124 570 m 154 Y s 1100 563 m 17 X s 1132 563 m
 16 X s 1117 401 m 15 X s 1117 724 m 15 X s 1100 555 m 15 Y s 1148 555 m 15 Y s 1124 563 m20 1172 519 m 185 Y s 1172 719 m 185 Y s 1148 712 m 17 X s 1180 712 m 16 X s 1165 519 m 15 X s 1165 904 m 15 X s 1148 704 m 15 Y s 1196 704 m 15 Y s 1172 712
 m20 1220 699 m 223 Y s 1220 937 m 222 Y s 1196 929 m 17 X s 1228 929 m 16 X s 1213 699 m 15 X s 1213 1159 m 15 X s 1196 922 m 15 Y s 1244 922 m 15 Y s 1220 929 m20 1268 520 m 185 Y s 1268 720 m 186 Y s 1244 713 m 16 X s 1276 713 m 16 X s 1260 520 m
 16 X s 1260 906 m 16 X s 1244 705 m 15 Y s 1292 705 m 15 Y s 1268 713 m20 1316 518 m 184 Y s 1316 717 m 184 Y s 1292 709 m 16 X s 1324 709 m 16 X s 1308 518 m 16 X s 1308 901 m 16 X s 1292 702 m 15 Y s 1340 702 m 15 Y s 1316 709 m20 1364 518 m 184 Y
 s 1364 717 m 184 Y s 1340 710 m 16 X s 1371 710 m 17 X s 1356 518 m 15 X s 1356 901 m 15 X s 1340 702 m 15 Y s 1388 702 m 15 Y s 1364 710 m20 1412 346 m 137 Y s 1412 499 m 137 Y s 1388 491 m 16 X s 1419 491 m 17 X s 1404 346 m 15 X s 1404 636 m 15 X
 s 1388 483 m 16 Y s 1436 483 m 16 Y s 1412 491 m20 1460 244 m 94 Y s 1460 353 m 94 Y s 1436 346 m 16 X s 1467 346 m 17 X s 1452 244 m 15 X s 1452 447 m 15 X s 1436 338 m 15 Y s 1484 338 m 15 Y s 1460 346 m20 1508 577 m 197 Y s 1508 790 m 197 Y s
 1484 782 m 16 X s 1515 782 m 17 X s 1500 577 m 15 X s 1500 987 m 15 X s 1484 774 m 16 Y s 1532 774 m 16 Y s 1508 782 m20 1556 295 m 119 Y s 1556 429 m 119 Y s 1532 422 m 16 X s 1563 422 m 16 X s 1548 295 m 15 X s 1548 548 m 15 X s 1532 414 m 15 Y s
 1579 414 m 15 Y s 1556 422 m20 1603 202 m 65 Y s 1603 282 m 65 Y s 1579 274 m 17 X s 1611 274 m 16 X s 1596 202 m 15 X s 1596 347 m 15 X s 1579 267 m 15 Y s 1627 267 m 15 Y s 1603 274 m20 1987 202 m 68 Y s 1987 286 m 68 Y s 1963 278 m 16 X s 1994
 278 m 17 X s 1979 202 m 15 X s 1979 354 m 15 X s 1963 270 m 16 Y s 2011 270 m 16 Y s 1987 278 m20 black
 gsave  2268 1682 0 0 C 272.126 1244.5 t 0 r /Helvetica-Bold findfont 49.4636 sf 0 0 m (Kolmogorov\255Smirnov test: signal \(background\) probability = 0.723 \(0.819\)) show NC gr  238 202 m 1916 X s 292 244 m -42 Y s 332 223 m -21 Y s 372 223 m -21
 Y s 412 223 m -21 Y s 451 223 m -21 Y s 491 244 m -42 Y s 531 223 m -21 Y s 571 223 m -21 Y s 611 223 m -21 Y s 651 223 m -21 Y s 690 244 m -42 Y s 730 223 m -21 Y s 770 223 m -21 Y s 810 223 m -21 Y s 850 223 m -21 Y s 890 244 m -42 Y s 929 223 m
 -21 Y s 969 223 m -21 Y s 1009 223 m -21 Y s 1049 223 m -21 Y s 1089 244 m -42 Y s 1129 223 m -21 Y s 1168 223 m -21 Y s 1208 223 m -21 Y s 1248 223 m -21 Y s 1288 244 m -42 Y s 1328 223 m -21 Y s 1368 223 m -21 Y s 1407 223 m -21 Y s 1447 223 m -21
 Y s 1487 244 m -42 Y s 1527 223 m -21 Y s 1567 223 m -21 Y s 1607 223 m -21 Y s 1646 223 m -21 Y s 1686 244 m -42 Y s 1726 223 m -21 Y s 1766 223 m -21 Y s 1806 223 m -21 Y s 1846 223 m -21 Y s 1885 244 m -42 Y s 1925 223 m -21 Y s 1965 223 m -21 Y
 s 2005 223 m -21 Y s 2045 223 m -21 Y s 2085 244 m -42 Y s 292 244 m -42 Y s 252 223 m -21 Y s 2085 244 m -42 Y s 2124 223 m -21 Y s 238 1514 m 1916 X s 292 1471 m 43 Y s 332 1492 m 22 Y s 372 1492 m 22 Y s 412 1492 m 22 Y s 451 1492 m 22 Y s 491
 1471 m 43 Y s 531 1492 m 22 Y s 571 1492 m 22 Y s 611 1492 m 22 Y s 651 1492 m 22 Y s 690 1471 m 43 Y s 730 1492 m 22 Y s 770 1492 m 22 Y s 810 1492 m 22 Y s 850 1492 m 22 Y s 890 1471 m 43 Y s 929 1492 m 22 Y s 969 1492 m 22 Y s 1009 1492 m 22 Y s
 1049 1492 m 22 Y s 1089 1471 m 43 Y s 1129 1492 m 22 Y s 1168 1492 m 22 Y s 1208 1492 m 22 Y s 1248 1492 m 22 Y s 1288 1471 m 43 Y s 1328 1492 m 22 Y s 1368 1492 m 22 Y s 1407 1492 m 22 Y s 1447 1492 m 22 Y s 1487 1471 m 43 Y s 1527 1492 m 22 Y s
 1567 1492 m 22 Y s 1607 1492 m 22 Y s 1646 1492 m 22 Y s 1686 1471 m 43 Y s 1726 1492 m 22 Y s 1766 1492 m 22 Y s 1806 1492 m 22 Y s 1846 1492 m 22 Y s 1885 1471 m 43 Y s 1925 1492 m 22 Y s 1965 1492 m 22 Y s 2005 1492 m 22 Y s 2045 1492 m 22 Y s
 2085 1471 m 43 Y s 292 1471 m 43 Y s 252 1492 m 22 Y s 2085 1471 m 43 Y s 2124 1492 m 22 Y s 238 202 m 1312 Y s 291 202 m -53 X s 265 229 m -27 X s 265 256 m -27 X s 265 284 m -27 X s 265 311 m -27 X s 291 338 m -53 X s 265 366 m -27 X s 265 393 m
 -27 X s 265 420 m -27 X s 265 448 m -27 X s 291 475 m -53 X s 265 502 m -27 X s 265 530 m -27 X s 265 557 m -27 X s 265 584 m -27 X s 291 612 m -53 X s 265 639 m -27 X s 265 666 m -27 X s 265 694 m -27 X s 265 721 m -27 X s 291 748 m -53 X s 265 776
 m -27 X s 265 803 m -27 X s 265 830 m -27 X s 265 858 m -27 X s 291 885 m -53 X s 265 912 m -27 X s 265 940 m -27 X s 265 967 m -27 X s 265 994 m -27 X s 291 1022 m -53 X s 265 1049 m -27 X s 265 1076 m -27 X s 265 1104 m -27 X s 265 1131 m -27 X s
 291 1158 m -53 X s 265 1185 m -27 X s 265 1213 m -27 X s 265 1240 m -27 X s 265 1267 m -27 X s 291 1295 m -53 X s 265 1322 m -27 X s 265 1349 m -27 X s 265 1377 m -27 X s 265 1404 m -27 X s 291 1431 m -53 X s 291 1431 m -53 X s 265 1459 m -27 X s
 265 1486 m -27 X s 265 1513 m -27 X s 2154 202 m 1312 Y s 2101 202 m 53 X s 2128 229 m 26 X s 2128 256 m 26 X s 2128 284 m 26 X s 2128 311 m 26 X s 2101 338 m 53 X s 2128 366 m 26 X s 2128 393 m 26 X s 2128 420 m 26 X s 2128 448 m 26 X s 2101 475 m
 53 X s 2128 502 m 26 X s 2128 530 m 26 X s 2128 557 m 26 X s 2128 584 m 26 X s 2101 612 m 53 X s 2128 639 m 26 X s 2128 666 m 26 X s 2128 694 m 26 X s 2128 721 m 26 X s 2101 748 m 53 X s 2128 776 m 26 X s 2128 803 m 26 X s 2128 830 m 26 X s 2128 858
 m 26 X s 2101 885 m 53 X s 2128 912 m 26 X s 2128 940 m 26 X s 2128 967 m 26 X s 2128 994 m 26 X s 2101 1022 m 53 X s 2128 1049 m 26 X s 2128 1076 m 26 X s 2128 1104 m 26 X s 2128 1131 m 26 X s 2101 1158 m 53 X s 2128 1185 m 26 X s 2128 1213 m 26 X
 s 2128 1240 m 26 X s 2128 1267 m 26 X s 2101 1295 m 53 X s 2128 1322 m 26 X s 2128 1349 m 26 X s 2128 1377 m 26 X s 2128 1404 m 26 X s 2101 1431 m 53 X s 2101 1431 m 53 X s 2128 1459 m 26 X s 2128 1486 m 26 X s 2128 1513 m 26 X s
 gsave  2268 1682 0 0 C 2211.02 193.403 t 90 r /Helvetica-Bold findfont 45.6587 sf 0 0 m (U/O\255flow \(S,B\): \(0.0, 0.0\)% / \(0.0, 0.0\)%) show NC gr  0.490196 0.545098 0.615686 c 0.364706 0.419608 0.490196 c 1587 96 23 1577 bf 0.490196 0.545098
 0.615686 c 23 1577 m 1587 X s 1610 1577 m 96 Y s 1610 1673 m -1587 X s 23 1673 m -96 Y s 1 1 1 c black 1 1 1 c
 gsave  2268 1682 0 0 C 83.7077 1609.47 t 0 r /Helvetica-Bold findfont 72.293 sf 0 0 m (TMVA overtraining check for classifier: LD) show NC gr 
 gr  gr showpage
end
%%EOF
