%!PS-Adobe-2.0 EPSF-2.0
%%BoundingBox:  0 0 567 420
%%Title: plots/overtrain_CFMlpANN.eps: TMVA comparison CFMlpANN
%%Creator: ROOT Version 5.34/09
%%CreationDate: Sat Jan  4 23:56:05 2014
%%EndComments
%%BeginProlog
80 dict begin
/s {stroke} def /l {lineto} def /m {moveto} def /t {translate} def
/r {rotate} def /rl {roll}  def /R {repeat} def
/d {rlineto} def /rm {rmoveto} def /gr {grestore} def /f {eofill} def
/c {setrgbcolor} def /black {0 setgray} def /sd {setdash} def
/cl {closepath} def /sf {scalefont setfont} def /lw {setlinewidth} def
/box {m dup 0 exch d exch 0 d 0 exch neg d cl} def
/NC{systemdict begin initclip end}def/C{NC box clip newpath}def
/bl {box s} def /bf {box f} def /Y { 0 exch d} def /X { 0 d} def 
/K {{pop pop 0 moveto} exch kshow} bind def
/ita {/ang 15 def gsave [1 0 ang dup sin exch cos div 1 0 0] concat} def 
/mp {newpath /y exch def /x exch def} def
/side {[w .77 mul w .23 mul] .385 w mul sd w 0 l currentpoint t -144 r} def
/mr {mp x y w2 0 360 arc} def /m24 {mr s} def /m20 {mr f} def
/mb {mp x y w2 add m w2 neg 0 d 0 w neg d w 0 d 0 w d cl} def
/mt {mp x y w2 add m w2 neg w neg d w 0 d cl} def
/m21 {mb f} def /m25 {mb s} def /m22 {mt f} def /m26{mt s} def
/m23 {mp x y w2 sub m w2 w d w neg 0 d cl f} def
/m27 {mp x y w2 add m w3 neg w2 neg d w3 w2 neg d w3 w2 d cl s} def
/m28 {mp x w2 sub y w2 sub w3 add m w3 0 d  0 w3 neg d w3 0 d 0 w3 d w3 0 d  0 w3 d w3 neg 0 d 0 w3 d w3 neg 0 d 0 w3 neg d w3 neg 0 d cl s } def
/m29 {mp gsave x w2 sub y w2 add w3 sub m currentpoint t 4 {side} repeat cl fill gr} def
/m30 {mp gsave x w2 sub y w2 add w3 sub m currentpoint t 4 {side} repeat cl s gr} def
/m31 {mp x y w2 sub m 0 w d x w2 sub y m w 0 d x w2 sub y w2 add m w w neg d x w2 sub y w2 sub m w w d s} def
/m32 {mp x y w2 sub m w2 w d w neg 0 d cl s} def
/m33 {mp x y w2 add m w3 neg w2 neg d w3 w2 neg d w3 w2 d cl f} def
/m34 {mp x w2 sub y w2 sub w3 add m w3 0 d  0 w3 neg d w3 0 d 0 w3 d w3 0 d  0 w3 d w3 neg 0 d 0 w3 d w3 neg 0 d 0 w3 neg d w3 neg 0 d cl f } def
/m2 {mp x y w2 sub m 0 w d x w2 sub y m w 0 d s} def
/m5 {mp x w2 sub y w2 sub m w w d x w2 sub y w2 add m w w neg d s} def
/reEncode {exch findfont dup length dict begin {1 index /FID eq  {pop pop} {def} ifelse } forall /Encoding exch def currentdict end dup /FontName get exch definefont pop } def [/Times-Bold /Times-Italic /Times-BoldItalic /Helvetica /Helvetica-Oblique
 /Helvetica-Bold /Helvetica-BoldOblique /Courier /Courier-Oblique /Courier-Bold /Courier-BoldOblique /Times-Roman /AvantGarde-Book /AvantGarde-BookOblique /AvantGarde-Demi /AvantGarde-DemiOblique /Bookman-Demi /Bookman-DemiItalic /Bookman-Light
 /Bookman-LightItalic /Helvetica-Narrow /Helvetica-Narrow-Bold /Helvetica-Narrow-BoldOblique /Helvetica-Narrow-Oblique /NewCenturySchlbk-Roman /NewCenturySchlbk-Bold /NewCenturySchlbk-BoldItalic /NewCenturySchlbk-Italic /Palatino-Bold
 /Palatino-BoldItalic /Palatino-Italic /Palatino-Roman ] {ISOLatin1Encoding reEncode } forall
%%EndProlog
%%BeginSetup
%%EndSetup
newpath  gsave  .25 .25 scale  gsave  0 0 t 0.490196 0.545098 0.615686 c[  ] 0 sd 3 lw 0.941176 0.941176 0.941176 c 2268 1682 0 0 bf black 1 1 0.992157 c 1916 1312 238 202 bf black 1916 1312 238 202 bl 1 1 0.992157 c 1916 1312 238 202 bf black 1916
 1312 238 202 bl 238 202 m 1916 X s
 gsave  2268 1682 0 0 C 1434.44 30.4391 t 0 r /Helvetica-Bold findfont 72.293 sf 0 0 m (CFMlpANN response) show NC gr  308 244 m -42 Y s 354 223 m -21 Y s 400 223 m -21 Y s 446 223 m -21 Y s 492 244 m -42 Y s 538 223 m -21 Y s 584 223 m -21 Y s 630
 223 m -21 Y s 677 244 m -42 Y s 723 223 m -21 Y s 769 223 m -21 Y s 815 223 m -21 Y s 861 244 m -42 Y s 907 223 m -21 Y s 953 223 m -21 Y s 999 223 m -21 Y s 1045 244 m -42 Y s 1091 223 m -21 Y s 1137 223 m -21 Y s 1183 223 m -21 Y s 1229 244 m -42
 Y s 1276 223 m -21 Y s 1322 223 m -21 Y s 1368 223 m -21 Y s 1414 244 m -42 Y s 1460 223 m -21 Y s 1506 223 m -21 Y s 1552 223 m -21 Y s 1598 244 m -42 Y s 1644 223 m -21 Y s 1690 223 m -21 Y s 1736 223 m -21 Y s 1782 244 m -42 Y s 1828 223 m -21 Y
 s 1875 223 m -21 Y s 1921 223 m -21 Y s 1967 244 m -42 Y s 2013 223 m -21 Y s 2059 223 m -21 Y s 2105 223 m -21 Y s 2151 244 m -42 Y s 308 244 m -42 Y s 262 223 m -21 Y s 2151 244 m -42 Y s
 gsave  2268 1682 0 0 C 205.464 129.366 t 0 r /Helvetica-Bold findfont 64.6832 sf 0 0 m (0.4958) show NC gr 
 gsave  2268 1682 0 0 C 410.928 129.366 t 0 r /Helvetica-Bold findfont 64.6832 sf 0 0 m (0.496) show NC gr 
 gsave  2268 1682 0 0 C 574.539 129.366 t 0 r /Helvetica-Bold findfont 64.6832 sf 0 0 m (0.4962) show NC gr 
 gsave  2268 1682 0 0 C 760.979 129.366 t 0 r /Helvetica-Bold findfont 64.6832 sf 0 0 m (0.4964) show NC gr 
 gsave  2268 1682 0 0 C 943.614 129.366 t 0 r /Helvetica-Bold findfont 64.6832 sf 0 0 m (0.4966) show NC gr 
 gsave  2268 1682 0 0 C 1130.05 129.366 t 0 r /Helvetica-Bold findfont 64.6832 sf 0 0 m (0.4968) show NC gr 
 gsave  2268 1682 0 0 C 1327.91 129.366 t 0 r /Helvetica-Bold findfont 64.6832 sf 0 0 m (0.497) show NC gr 
 gsave  2268 1682 0 0 C 1495.32 129.366 t 0 r /Helvetica-Bold findfont 64.6832 sf 0 0 m (0.4972) show NC gr 
 gsave  2268 1682 0 0 C 1681.76 129.366 t 0 r /Helvetica-Bold findfont 64.6832 sf 0 0 m (0.4974) show NC gr 
 gsave  2268 1682 0 0 C 1864.4 129.366 t 0 r /Helvetica-Bold findfont 64.6832 sf 0 0 m (0.4976) show NC gr 
 gsave  2268 1682 0 0 C 2050.84 129.366 t 0 r /Helvetica-Bold findfont 64.6832 sf 0 0 m (0.4978) show NC gr  238 1514 m 1916 X s 308 1471 m 43 Y s 354 1492 m 22 Y s 400 1492 m 22 Y s 446 1492 m 22 Y s 492 1471 m 43 Y s 538 1492 m 22 Y s 584 1492 m 22
 Y s 630 1492 m 22 Y s 677 1471 m 43 Y s 723 1492 m 22 Y s 769 1492 m 22 Y s 815 1492 m 22 Y s 861 1471 m 43 Y s 907 1492 m 22 Y s 953 1492 m 22 Y s 999 1492 m 22 Y s 1045 1471 m 43 Y s 1091 1492 m 22 Y s 1137 1492 m 22 Y s 1183 1492 m 22 Y s 1229
 1471 m 43 Y s 1276 1492 m 22 Y s 1322 1492 m 22 Y s 1368 1492 m 22 Y s 1414 1471 m 43 Y s 1460 1492 m 22 Y s 1506 1492 m 22 Y s 1552 1492 m 22 Y s 1598 1471 m 43 Y s 1644 1492 m 22 Y s 1690 1492 m 22 Y s 1736 1492 m 22 Y s 1782 1471 m 43 Y s 1828
 1492 m 22 Y s 1875 1492 m 22 Y s 1921 1492 m 22 Y s 1967 1471 m 43 Y s 2013 1492 m 22 Y s 2059 1492 m 22 Y s 2105 1492 m 22 Y s 2151 1471 m 43 Y s 308 1471 m 43 Y s 262 1492 m 22 Y s 2151 1471 m 43 Y s 238 202 m 1312 Y s
 gsave  2268 1682 0 0 C 64.6832 1430.64 t 90 r /Helvetica-Bold findfont 72.293 sf 0 0 m (dx) show NC gr 
 gsave  2268 1682 0 0 C 30.4391 1411.62 t 90 r /Helvetica-Bold findfont 45.6587 sf 0 0 m ( ) show NC gr 
 gsave  2268 1682 0 0 C 64.6832 1388.79 t 90 r /Helvetica-Bold findfont 72.293 sf 0 0 m (/) show NC gr 
 gsave  2268 1682 0 0 C 30.4391 1369.76 t 90 r /Helvetica-Bold findfont 45.6587 sf 0 0 m ( ) show NC gr 
 gsave  2268 1682 0 0 C 60.8783 1095.81 t 90 r /Helvetica-Bold findfont 72.293 sf 0 0 m (\(1/N\) dN) show NC gr  291 202 m -53 X s 265 244 m -27 X s 265 287 m -27 X s 265 329 m -27 X s 265 371 m -27 X s 291 414 m -53 X s 265 456 m -27 X s 265 499 m
 -27 X s 265 541 m -27 X s 265 583 m -27 X s 291 626 m -53 X s 265 668 m -27 X s 265 710 m -27 X s 265 753 m -27 X s 265 795 m -27 X s 291 838 m -53 X s 265 880 m -27 X s 265 922 m -27 X s 265 965 m -27 X s 265 1007 m -27 X s 291 1050 m -53 X s 265
 1092 m -27 X s 265 1134 m -27 X s 265 1177 m -27 X s 265 1219 m -27 X s 291 1262 m -53 X s 265 1304 m -27 X s 265 1346 m -27 X s 265 1389 m -27 X s 265 1431 m -27 X s 291 1473 m -53 X s 291 1473 m -53 X s
 gsave  2268 1682 0 0 C 175.025 178.83 t 0 r /Helvetica-Bold findfont 64.6832 sf 0 0 m (0) show NC gr 
 gsave  2268 1682 0 0 C 102.732 388.099 t 0 r /Helvetica-Bold findfont 64.6832 sf 0 0 m (500) show NC gr 
 gsave  2268 1682 0 0 C 64.6832 601.173 t 0 r /Helvetica-Bold findfont 64.6832 sf 0 0 m (1000) show NC gr 
 gsave  2268 1682 0 0 C 64.6832 814.247 t 0 r /Helvetica-Bold findfont 64.6832 sf 0 0 m (1500) show NC gr 
 gsave  2268 1682 0 0 C 64.6832 1023.52 t 0 r /Helvetica-Bold findfont 64.6832 sf 0 0 m (2000) show NC gr 
 gsave  2268 1682 0 0 C 64.6832 1236.59 t 0 r /Helvetica-Bold findfont 64.6832 sf 0 0 m (2500) show NC gr 
 gsave  2268 1682 0 0 C 64.6832 1449.66 t 0 r /Helvetica-Bold findfont 64.6832 sf 0 0 m (3000) show NC gr  2154 202 m 1312 Y s 2101 202 m 53 X s 2128 244 m 26 X s 2128 287 m 26 X s 2128 329 m 26 X s 2128 371 m 26 X s 2101 414 m 53 X s 2128 456 m 26 X
 s 2128 499 m 26 X s 2128 541 m 26 X s 2128 583 m 26 X s 2101 626 m 53 X s 2128 668 m 26 X s 2128 710 m 26 X s 2128 753 m 26 X s 2128 795 m 26 X s 2101 838 m 53 X s 2128 880 m 26 X s 2128 922 m 26 X s 2128 965 m 26 X s 2128 1007 m 26 X s 2101 1050 m
 53 X s 2128 1092 m 26 X s 2128 1134 m 26 X s 2128 1177 m 26 X s 2128 1219 m 26 X s 2101 1262 m 53 X s 2128 1304 m 26 X s 2128 1346 m 26 X s 2128 1389 m 26 X s 2128 1431 m 26 X s 2101 1473 m 53 X s 2101 1473 m 53 X s 0.490196 0.545098 0.615686 c 0.95
 0.95 0.95 c 0.490196 0.545098 0.615686 c 907 202 238 1312 bl 238 1312 m 907 X s 1145 1312 m 202 Y s 1145 1514 m -907 X s 238 1514 m -202 Y s black
 gsave  2268 1682 0 0 C 418.538 1445.86 t 0 r /Times-Italic findfont 57.0734 sf 0 0 m (Signal \(test sample\)) show NC gr  0.49 0.6 0.82 c 265 1428 m 127 X 70 Y -127 X f 0 0 0.933333 c 265 1498 m 127 X s 265 1428 m 127 X s 392 1428 m 70 Y s 265 1428
 m 70 Y s black
 gsave  2268 1682 0 0 C 418.538 1350.74 t 0 r /Times-Italic findfont 57.0734 sf 0 0 m (Background \(test sample\)) show NC gr  1 0 0 c 392 1354 m -27 -27 d s 387 1398 m -70 -71 d s 339 1398 m -70 -71 d s 291 1398 m -26 -26 d s 0 lw 0 0 0.933333 c 1 0
 0 c 3 lw 265 1398 m 127 X s 265 1327 m 127 X s 392 1327 m 71 Y s 265 1327 m 71 Y s 0 0 0.933333 c 0.49 0.6 0.82 c black 0.49 0.6 0.82 c 238 202 m 150 Y 48 X -150 Y 335 X 155 Y 48 X -155 Y 48 X 155 Y 48 X -1 Y 48 X -154 Y 48 X 149 Y 96 X 295 Y 48 X
 149 Y 47 X -295 Y 48 X -150 Y 48 X 455 Y 48 X -307 Y 48 X 457 Y 48 X -298 Y 48 X 150 Y 48 X -306 Y 48 X -1 Y 48 X -1 Y 48 X 465 Y 47 X -612 Y 96 X -2 Y 48 X -148 Y 48 X 301 Y 48 X -151 Y 48 X 23 Y 48 X -173 Y 96 X 154 Y 48 X 7 Y 47 X -161 Y 48 X f 0
 0 0.933333 c 0.49 0.6 0.82 c 0 0 0.933333 c 238 352 m 48 X -150 Y 335 X 155 Y 48 X -155 Y 48 X 155 Y 48 X -1 Y 48 X -154 Y 48 X 149 Y 96 X 295 Y 48 X 149 Y 47 X -295 Y 48 X -150 Y 48 X 455 Y 48 X -307 Y 48 X 457 Y 48 X -298 Y 48 X 150 Y 48 X -306 Y
 48 X -1 Y 48 X -1 Y 48 X 465 Y 47 X -612 Y 96 X -2 Y 48 X -148 Y 48 X 301 Y 48 X -151 Y 48 X 23 Y 48 X -173 Y 96 X 154 Y 48 X 7 Y 47 X -161 Y 48 X s 1 0 0 c black 1 0 0 c 2154 230 m -28 -28 d s 2154 278 m -48 -48 d s 2078 202 m cl s 2153 325 m -47
 -47 d s 2030 202 m cl s 1982 202 m cl s 1963 231 m -29 -29 d s 1963 279 m -48 -48 d s 1886 202 m cl s 1960 325 m -45 -46 d s 1867 231 m -30 -29 d s 1867 279 m -78 -77 d s 1864 325 m -123 -123 d s 1819 328 m -126 -126 d s 1819 376 m -48 -48 d s 1768
 325 m -123 -123 d s 1819 424 m -48 -48 d s 1723 328 m -126 -126 d s 1819 472 m -48 -48 d s 1723 376 m -48 -48 d s 1671 324 m -122 -122 d s 1819 520 m -48 -48 d s 1723 424 m -48 -48 d s 1627 329 m -95 -96 d s 1501 202 m cl s 1819 568 m -48 -48 d s
 1723 472 m -48 -47 d s 1627 377 m -95 -96 d s 1484 233 m -31 -31 d s 1774 571 m -3 -3 d s 1723 521 m -48 -48 d s 1627 425 m -95 -96 d s 1484 281 m -80 -79 d s 1723 569 m -48 -48 d s 1602 447 m -70 -70 d s 1484 329 m -128 -127 d s 1677 571 m -2 -2 d
 s 1556 449 m -24 -24 d s 1484 377 m -48 -48 d s 1431 325 m -123 -123 d s 1484 425 m -48 -48 d s 1388 330 m -128 -128 d s 1460 449 m -24 -23 d s 1388 378 m -176 -176 d s 1388 426 m -224 -224 d s 1388 474 m -240 -240 d s 1116 202 m cl s 1388 522 m
 -240 -240 d s 1100 235 m -32 -33 d s 1388 570 m -240 -239 d s 1100 283 m -80 -81 d s 1388 618 m -240 -239 d s 1100 331 m -128 -129 d s 1388 666 m -240 -239 d s 1100 379 m -177 -177 d s 1388 714 m -96 -95 d s 1245 571 m -97 -96 d s 1100 427 m -225
 -225 d s 1388 762 m -48 -47 d s 1324 698 m -32 -31 d s 1244 619 m -48 -48 d s 1196 571 m -48 -48 d s 1100 475 m -273 -273 d s 1388 811 m -48 -48 d s 1244 667 m -48 -48 d s 1100 523 m -321 -321 d s 1346 816 m -6 -5 d s 1244 715 m -48 -48 d s 1097 568
 m -366 -366 d s 1244 763 m -48 -48 d s 1052 571 m -369 -369 d s 1244 811 m -48 -48 d s 1052 620 m -143 -144 d s 882 449 m -213 -213 d s 635 202 m cl s 1244 859 m -48 -48 d s 1052 668 m -95 -96 d s 954 570 m -45 -46 d s 834 449 m -165 -165 d s 587
 202 m cl s 1244 907 m -48 -48 d s 1052 716 m -95 -96 d s 813 476 m -144 -143 d s 539 202 m cl s 1244 955 m -48 -47 d s 1052 764 m -47 -48 d s 986 697 m -29 -29 d s 813 524 m -48 -48 d s 740 451 m -71 -70 d s 490 202 m cl s 1244 1004 m -48 -48 d s
 1052 812 m -47 -48 d s 813 572 m -48 -47 d s 691 451 m -22 -22 d s 442 202 m cl s 1244 1052 m -48 -48 d s 1024 832 m -19 -20 d s 770 577 m -5 -4 d s 394 202 m cl s 1207 1062 m -11 -10 d s 346 202 m cl s 298 202 m cl s 250 202 m cl s 0 lw 3 lw 238
 202 m 431 X 249 Y 96 X 126 Y 48 X -128 Y 96 X 121 Y 48 X 127 Y 48 X 135 Y 47 X -264 Y 48 X -366 Y 48 X 369 Y 48 X 491 Y 48 X -491 Y 48 X 127 Y 48 X 118 Y 48 X -491 Y 48 X 124 Y 48 X -247 Y 48 X 247 Y 47 X -2 Y 48 X -123 Y 48 X 247 Y 48 X -246 Y 48 X
 246 Y 48 X -246 Y 48 X -123 Y 48 X 123 Y 48 X -123 Y 143 X 123 Y 48 X -123 Y s 0.490196 0.545098 0.615686 c 0.95 0.95 0.95 c 0.490196 0.545098 0.615686 c 952 202 1202 1312 bl 1202 1312 m 952 X s 2154 1312 m 202 Y s 2154 1514 m -952 X s 1202 1514 m
 -202 Y s black
 gsave  2268 1682 0 0 C 1293.66 1445.86 t 0 r /Times-Italic findfont 57.0734 sf 0 0 m (Signal \(training sample\)) show NC gr  0 0 0.933333 c /w 21 def /w2 {w 2 div} def /w3 {w 3 div} def 1250 1463 m20 black
 gsave  2268 1682 0 0 C 1293.66 1350.74 t 0 r /Times-Italic findfont 57.0734 sf 0 0 m (Background \(training sample\)) show NC gr  1 0 0 c 1250 1362 m20 0 0 0.933333 c 1 1 1 c 0 0 0.933333 c 693 202 m 137 Y s 693 354 m 138 Y s 669 347 m 17 X s 701
 347 m 16 X s 686 202 m 15 X s 686 492 m 15 X s 669 339 m 15 Y s 717 339 m 15 Y s 693 347 m20 789 202 m 140 Y s 789 357 m 140 Y s 765 349 m 16 X s 797 349 m 16 X s 781 202 m 16 X s 781 497 m 16 X s 765 342 m 15 Y s 813 342 m 15 Y s 789 349 m20 837
 488 m 278 Y s 837 781 m 279 Y s 813 774 m 16 X s 845 774 m 16 X s 829 488 m 16 X s 829 1060 m 16 X s 813 766 m 15 Y s 861 766 m 15 Y s 837 774 m20 885 202 m 161 Y s 885 378 m 161 Y s 861 370 m 16 X s 892 370 m 17 X s 877 202 m 15 X s 877 539 m 15 X
 s 861 363 m 15 Y s 909 363 m 15 Y s 885 370 m20 933 388 m 248 Y s 933 651 m 247 Y s 909 643 m 16 X s 940 643 m 17 X s 925 388 m 15 X s 925 898 m 15 X s 909 636 m 15 Y s 957 636 m 15 Y s 933 643 m20 981 286 m 197 Y s 981 499 m 196 Y s 957 491 m 16 X
 s 988 491 m 17 X s 973 286 m 15 X s 973 695 m 15 X s 957 483 m 16 Y s 1005 483 m 16 Y s 981 491 m20 1029 202 m 136 Y s 1029 353 m 137 Y s 1005 346 m 16 X s 1036 346 m 16 X s 1021 202 m 15 X s 1021 490 m 15 X s 1005 338 m 15 Y s 1052 338 m 15 Y s
 1029 346 m20 1076 288 m 202 Y s 1076 505 m 201 Y s 1052 497 m 17 X s 1084 497 m 16 X s 1069 288 m 15 X s 1069 706 m 15 X s 1052 490 m 15 Y s 1100 490 m 15 Y s 1076 497 m20 1124 387 m 246 Y s 1124 649 m 245 Y s 1100 641 m 17 X s 1132 641 m 16 X s
 1117 387 m 15 X s 1117 894 m 15 X s 1100 633 m 16 Y s 1148 633 m 16 Y s 1124 641 m20 1172 829 m 374 Y s 1172 1218 m 296 Y s 1148 1211 m 17 X s 1180 1211 m 16 X s 1165 829 m 15 X s 1165 1514 m 15 X s 1148 1203 m 15 Y s 1196 1203 m 15 Y s 1172 1211
 m20 1220 490 m 280 Y s 1220 785 m 280 Y s 1196 777 m 17 X s 1228 777 m 16 X s 1213 490 m 15 X s 1213 1065 m 15 X s 1196 770 m 15 Y s 1244 770 m 15 Y s 1220 777 m20 1268 385 m 242 Y s 1268 642 m 242 Y s 1244 635 m 16 X s 1276 635 m 16 X s 1260 385 m
 16 X s 1260 884 m 16 X s 1244 627 m 15 Y s 1292 627 m 15 Y s 1268 635 m20 1316 286 m 196 Y s 1316 497 m 196 Y s 1292 489 m 16 X s 1324 489 m 16 X s 1308 286 m 16 X s 1308 693 m 16 X s 1292 482 m 15 Y s 1340 482 m 15 Y s 1316 489 m20 1460 387 m 245 Y
 s 1460 647 m 245 Y s 1436 639 m 16 X s 1467 639 m 17 X s 1452 387 m 15 X s 1452 892 m 15 X s 1436 632 m 15 Y s 1484 632 m 15 Y s 1460 639 m20 1508 286 m 197 Y s 1508 498 m 196 Y s 1484 490 m 16 X s 1515 490 m 17 X s 1500 286 m 15 X s 1500 694 m 15 X
 s 1484 483 m 15 Y s 1532 483 m 15 Y s 1508 490 m20 1556 202 m 137 Y s 1556 354 m 137 Y s 1532 346 m 16 X s 1563 346 m 16 X s 1548 202 m 15 X s 1548 491 m 15 X s 1532 339 m 15 Y s 1579 339 m 15 Y s 1556 346 m20 1603 385 m 243 Y s 1603 643 m 243 Y s
 1579 636 m 17 X s 1611 636 m 16 X s 1596 385 m 15 X s 1596 886 m 15 X s 1579 628 m 15 Y s 1627 628 m 15 Y s 1603 636 m20 1651 491 m 281 Y s 1651 787 m 281 Y s 1627 779 m 17 X s 1659 779 m 16 X s 1644 491 m 15 X s 1644 1068 m 15 X s 1627 772 m 15 Y s
 1675 772 m 15 Y s 1651 779 m20 1699 287 m 198 Y s 1699 500 m 198 Y s 1675 493 m 17 X s 1707 493 m 16 X s 1692 287 m 15 X s 1692 698 m 15 X s 1675 485 m 15 Y s 1723 485 m 15 Y s 1699 493 m20 1747 386 m 243 Y s 1747 644 m 244 Y s 1723 637 m 17 X s
 1755 637 m 16 X s 1740 386 m 15 X s 1740 888 m 15 X s 1723 629 m 15 Y s 1771 629 m 15 Y s 1747 637 m20 1795 202 m 135 Y s 1795 352 m 135 Y s 1771 344 m 16 X s 1803 344 m 16 X s 1787 202 m 16 X s 1787 487 m 16 X s 1771 337 m 15 Y s 1819 337 m 15 Y s
 1795 344 m20 1891 290 m 204 Y s 1891 509 m 205 Y s 1867 502 m 16 X s 1898 502 m 17 X s 1883 290 m 15 X s 1883 714 m 15 X s 1867 494 m 15 Y s 1915 494 m 15 Y s 1891 502 m20 2082 202 m 150 Y s 2082 367 m 150 Y s 2059 359 m 16 X s 2090 359 m 16 X s
 2075 202 m 15 X s 2075 517 m 15 X s 2059 352 m 15 Y s 2106 352 m 15 Y s 2082 359 m20 1 0 0 c 1 1 1 c 1 0 0 c 358 202 m 97 Y s 358 314 m 97 Y s 334 306 m 16 X s 365 306 m 17 X s 350 202 m 15 X s 350 411 m 15 X s 334 299 m 15 Y s 382 299 m 15 Y s 358
 306 m20 549 202 m 97 Y s 549 314 m 98 Y s 526 307 m 16 X s 557 307 m 16 X s 542 202 m 15 X s 542 412 m 15 X s 526 299 m 15 Y s 573 299 m 15 Y s 549 307 m20 693 202 m 99 Y s 693 316 m 99 Y s 669 308 m 17 X s 701 308 m 16 X s 686 202 m 15 X s 686 415
 m 15 X s 669 301 m 15 Y s 717 301 m 15 Y s 693 308 m20 789 202 m 95 Y s 789 312 m 96 Y s 765 305 m 16 X s 797 305 m 16 X s 781 202 m 16 X s 781 408 m 16 X s 765 297 m 15 Y s 813 297 m 15 Y s 789 305 m20 837 263 m 140 Y s 837 418 m 140 Y s 813 410 m
 16 X s 845 410 m 16 X s 829 263 m 16 X s 829 558 m 16 X s 813 403 m 15 Y s 861 403 m 15 Y s 837 410 m20 885 202 m 97 Y s 885 314 m 97 Y s 861 306 m 16 X s 892 306 m 17 X s 877 202 m 15 X s 877 411 m 15 X s 861 299 m 15 Y s 909 299 m 15 Y s 885 306
 m20 933 491 m 226 Y s 933 733 m 226 Y s 909 725 m 16 X s 940 725 m 17 X s 925 491 m 15 X s 925 959 m 15 X s 909 717 m 16 Y s 957 717 m 16 Y s 933 725 m20 981 489 m 224 Y s 981 728 m 225 Y s 957 721 m 16 X s 988 721 m 17 X s 973 489 m 15 X s 973 953
 m 15 X s 957 713 m 15 Y s 1005 713 m 15 Y s 981 721 m20 1029 262 m 138 Y s 1029 415 m 138 Y s 1005 408 m 16 X s 1036 408 m 16 X s 1021 262 m 15 X s 1021 553 m 15 X s 1005 400 m 15 Y s 1052 400 m 15 Y s 1029 408 m20 1076 575 m 250 Y s 1076 841 m 250
 Y s 1052 833 m 17 X s 1084 833 m 16 X s 1069 575 m 15 X s 1069 1091 m 15 X s 1052 825 m 16 Y s 1100 825 m 16 Y s 1076 833 m20 1124 409 m 200 Y s 1124 625 m 200 Y s 1100 617 m 17 X s 1132 617 m 16 X s 1117 409 m 15 X s 1117 825 m 15 X s 1100 609 m 16
 Y s 1148 609 m 16 Y s 1124 617 m20 1172 658 m 270 Y s 1172 944 m 269 Y s 1148 936 m 17 X s 1180 936 m 16 X s 1165 658 m 15 X s 1165 1213 m 15 X s 1148 928 m 16 Y s 1196 928 m 16 Y s 1172 936 m20 1220 410 m 201 Y s 1220 626 m 201 Y s 1196 618 m 17 X
 s 1228 618 m 16 X s 1213 410 m 15 X s 1213 827 m 15 X s 1196 611 m 15 Y s 1244 611 m 15 Y s 1220 618 m20 1268 264 m 142 Y s 1268 422 m 142 Y s 1244 414 m 16 X s 1276 414 m 16 X s 1260 264 m 16 X s 1260 564 m 16 X s 1244 406 m 16 Y s 1292 406 m 16 Y
 s 1268 414 m20 1316 335 m 174 Y s 1316 524 m 174 Y s 1292 517 m 16 X s 1324 517 m 16 X s 1308 335 m 16 X s 1308 698 m 16 X s 1292 509 m 15 Y s 1340 509 m 15 Y s 1316 517 m20 1364 410 m 200 Y s 1364 625 m 200 Y s 1340 618 m 16 X s 1371 618 m 17 X s
 1356 410 m 15 X s 1356 825 m 15 X s 1340 610 m 15 Y s 1388 610 m 15 Y s 1364 618 m20 1412 740 m 287 Y s 1412 1042 m 287 Y s 1388 1034 m 16 X s 1419 1034 m 17 X s 1404 740 m 15 X s 1404 1329 m 15 X s 1388 1027 m 15 Y s 1436 1027 m 15 Y s 1412 1034
 m20 1460 264 m 141 Y s 1460 421 m 141 Y s 1436 413 m 16 X s 1467 413 m 17 X s 1452 264 m 15 X s 1452 562 m 15 X s 1436 405 m 16 Y s 1484 405 m 16 Y s 1460 413 m20 1508 411 m 202 Y s 1508 628 m 202 Y s 1484 620 m 16 X s 1515 620 m 17 X s 1500 411 m
 15 X s 1500 830 m 15 X s 1484 613 m 15 Y s 1532 613 m 15 Y s 1508 620 m20 1556 334 m 173 Y s 1556 522 m 173 Y s 1532 515 m 16 X s 1563 515 m 16 X s 1548 334 m 15 X s 1548 695 m 15 X s 1532 507 m 15 Y s 1579 507 m 15 Y s 1556 515 m20 1651 335 m 173 Y
 s 1651 523 m 174 Y s 1627 516 m 17 X s 1659 516 m 16 X s 1644 335 m 15 X s 1644 697 m 15 X s 1627 508 m 15 Y s 1675 508 m 15 Y s 1651 516 m20 1699 263 m 139 Y s 1699 417 m 140 Y s 1675 410 m 17 X s 1707 410 m 16 X s 1692 263 m 15 X s 1692 557 m 15 X
 s 1675 402 m 15 Y s 1723 402 m 15 Y s 1699 410 m20 1747 202 m 97 Y s 1747 315 m 97 Y s 1723 307 m 17 X s 1755 307 m 16 X s 1740 202 m 15 X s 1740 412 m 15 X s 1723 299 m 16 Y s 1771 299 m 16 Y s 1747 307 m20 1795 262 m 139 Y s 1795 417 m 138 Y s
 1771 409 m 16 X s 1803 409 m 16 X s 1787 262 m 16 X s 1787 555 m 16 X s 1771 401 m 16 Y s 1819 401 m 16 Y s 1795 409 m20 1939 336 m 176 Y s 1939 527 m 176 Y s 1915 519 m 16 X s 1946 519 m 17 X s 1931 336 m 15 X s 1931 703 m 15 X s 1915 512 m 15 Y s
 1963 512 m 15 Y s 1939 519 m20 2130 202 m 100 Y s 2130 317 m 100 Y s 2106 309 m 17 X s 2138 309 m 16 X s 2123 202 m 15 X s 2123 417 m 15 X s 2106 302 m 15 Y s 2154 302 m 15 Y s 2130 309 m20 black
 gsave  2268 1682 0 0 C 272.126 1244.5 t 0 r /Helvetica-Bold findfont 49.4636 sf 0 0 m (Kolmogorov\255Smirnov test: signal \(background\) probability =  0.85 \(0.798\)) show NC gr  238 202 m 1916 X s 308 244 m -42 Y s 354 223 m -21 Y s 400 223 m -21
 Y s 446 223 m -21 Y s 492 244 m -42 Y s 538 223 m -21 Y s 584 223 m -21 Y s 630 223 m -21 Y s 677 244 m -42 Y s 723 223 m -21 Y s 769 223 m -21 Y s 815 223 m -21 Y s 861 244 m -42 Y s 907 223 m -21 Y s 953 223 m -21 Y s 999 223 m -21 Y s 1045 244 m
 -42 Y s 1091 223 m -21 Y s 1137 223 m -21 Y s 1183 223 m -21 Y s 1229 244 m -42 Y s 1276 223 m -21 Y s 1322 223 m -21 Y s 1368 223 m -21 Y s 1414 244 m -42 Y s 1460 223 m -21 Y s 1506 223 m -21 Y s 1552 223 m -21 Y s 1598 244 m -42 Y s 1644 223 m
 -21 Y s 1690 223 m -21 Y s 1736 223 m -21 Y s 1782 244 m -42 Y s 1828 223 m -21 Y s 1875 223 m -21 Y s 1921 223 m -21 Y s 1967 244 m -42 Y s 2013 223 m -21 Y s 2059 223 m -21 Y s 2105 223 m -21 Y s 2151 244 m -42 Y s 308 244 m -42 Y s 262 223 m -21
 Y s 2151 244 m -42 Y s 238 1514 m 1916 X s 308 1471 m 43 Y s 354 1492 m 22 Y s 400 1492 m 22 Y s 446 1492 m 22 Y s 492 1471 m 43 Y s 538 1492 m 22 Y s 584 1492 m 22 Y s 630 1492 m 22 Y s 677 1471 m 43 Y s 723 1492 m 22 Y s 769 1492 m 22 Y s 815 1492
 m 22 Y s 861 1471 m 43 Y s 907 1492 m 22 Y s 953 1492 m 22 Y s 999 1492 m 22 Y s 1045 1471 m 43 Y s 1091 1492 m 22 Y s 1137 1492 m 22 Y s 1183 1492 m 22 Y s 1229 1471 m 43 Y s 1276 1492 m 22 Y s 1322 1492 m 22 Y s 1368 1492 m 22 Y s 1414 1471 m 43 Y
 s 1460 1492 m 22 Y s 1506 1492 m 22 Y s 1552 1492 m 22 Y s 1598 1471 m 43 Y s 1644 1492 m 22 Y s 1690 1492 m 22 Y s 1736 1492 m 22 Y s 1782 1471 m 43 Y s 1828 1492 m 22 Y s 1875 1492 m 22 Y s 1921 1492 m 22 Y s 1967 1471 m 43 Y s 2013 1492 m 22 Y s
 2059 1492 m 22 Y s 2105 1492 m 22 Y s 2151 1471 m 43 Y s 308 1471 m 43 Y s 262 1492 m 22 Y s 2151 1471 m 43 Y s 238 202 m 1312 Y s 291 202 m -53 X s 265 244 m -27 X s 265 287 m -27 X s 265 329 m -27 X s 265 371 m -27 X s 291 414 m -53 X s 265 456 m
 -27 X s 265 499 m -27 X s 265 541 m -27 X s 265 583 m -27 X s 291 626 m -53 X s 265 668 m -27 X s 265 710 m -27 X s 265 753 m -27 X s 265 795 m -27 X s 291 838 m -53 X s 265 880 m -27 X s 265 922 m -27 X s 265 965 m -27 X s 265 1007 m -27 X s 291
 1050 m -53 X s 265 1092 m -27 X s 265 1134 m -27 X s 265 1177 m -27 X s 265 1219 m -27 X s 291 1262 m -53 X s 265 1304 m -27 X s 265 1346 m -27 X s 265 1389 m -27 X s 265 1431 m -27 X s 291 1473 m -53 X s 291 1473 m -53 X s 2154 202 m 1312 Y s 2101
 202 m 53 X s 2128 244 m 26 X s 2128 287 m 26 X s 2128 329 m 26 X s 2128 371 m 26 X s 2101 414 m 53 X s 2128 456 m 26 X s 2128 499 m 26 X s 2128 541 m 26 X s 2128 583 m 26 X s 2101 626 m 53 X s 2128 668 m 26 X s 2128 710 m 26 X s 2128 753 m 26 X s
 2128 795 m 26 X s 2101 838 m 53 X s 2128 880 m 26 X s 2128 922 m 26 X s 2128 965 m 26 X s 2128 1007 m 26 X s 2101 1050 m 53 X s 2128 1092 m 26 X s 2128 1134 m 26 X s 2128 1177 m 26 X s 2128 1219 m 26 X s 2101 1262 m 53 X s 2128 1304 m 26 X s 2128
 1346 m 26 X s 2128 1389 m 26 X s 2128 1431 m 26 X s 2101 1473 m 53 X s 2101 1473 m 53 X s
 gsave  2268 1682 0 0 C 2211.02 193.403 t 90 r /Helvetica-Bold findfont 45.6587 sf 0 0 m (U/O\255flow \(S,B\): \(0.0, 0.0\)% / \(0.0, 0.0\)%) show NC gr  0.490196 0.545098 0.615686 c 0.364706 0.419608 0.490196 c 1587 96 23 1577 bf 0.490196 0.545098
 0.615686 c 23 1577 m 1587 X s 1610 1577 m 96 Y s 1610 1673 m -1587 X s 23 1673 m -96 Y s 1 1 1 c black 1 1 1 c
 gsave  2268 1682 0 0 C 79.9028 1609.47 t 0 r /Helvetica-Bold findfont 60.8783 sf 0 0 m (TMVA overtraining check for classifier: CFMlpANN) show NC gr 
 gr  gr showpage
end
%%EOF
