%!PS-Adobe-2.0 EPSF-2.0
%%BoundingBox:  0 0 567 420
%%Title: plots/overtrain_BDTD.eps: TMVA comparison BDTD
%%Creator: ROOT Version 5.34/09
%%CreationDate: Sat Jan  4 23:56:05 2014
%%EndComments
%%BeginProlog
80 dict begin
/s {stroke} def /l {lineto} def /m {moveto} def /t {translate} def
/r {rotate} def /rl {roll}  def /R {repeat} def
/d {rlineto} def /rm {rmoveto} def /gr {grestore} def /f {eofill} def
/c {setrgbcolor} def /black {0 setgray} def /sd {setdash} def
/cl {closepath} def /sf {scalefont setfont} def /lw {setlinewidth} def
/box {m dup 0 exch d exch 0 d 0 exch neg d cl} def
/NC{systemdict begin initclip end}def/C{NC box clip newpath}def
/bl {box s} def /bf {box f} def /Y { 0 exch d} def /X { 0 d} def 
/K {{pop pop 0 moveto} exch kshow} bind def
/ita {/ang 15 def gsave [1 0 ang dup sin exch cos div 1 0 0] concat} def 
/mp {newpath /y exch def /x exch def} def
/side {[w .77 mul w .23 mul] .385 w mul sd w 0 l currentpoint t -144 r} def
/mr {mp x y w2 0 360 arc} def /m24 {mr s} def /m20 {mr f} def
/mb {mp x y w2 add m w2 neg 0 d 0 w neg d w 0 d 0 w d cl} def
/mt {mp x y w2 add m w2 neg w neg d w 0 d cl} def
/m21 {mb f} def /m25 {mb s} def /m22 {mt f} def /m26{mt s} def
/m23 {mp x y w2 sub m w2 w d w neg 0 d cl f} def
/m27 {mp x y w2 add m w3 neg w2 neg d w3 w2 neg d w3 w2 d cl s} def
/m28 {mp x w2 sub y w2 sub w3 add m w3 0 d  0 w3 neg d w3 0 d 0 w3 d w3 0 d  0 w3 d w3 neg 0 d 0 w3 d w3 neg 0 d 0 w3 neg d w3 neg 0 d cl s } def
/m29 {mp gsave x w2 sub y w2 add w3 sub m currentpoint t 4 {side} repeat cl fill gr} def
/m30 {mp gsave x w2 sub y w2 add w3 sub m currentpoint t 4 {side} repeat cl s gr} def
/m31 {mp x y w2 sub m 0 w d x w2 sub y m w 0 d x w2 sub y w2 add m w w neg d x w2 sub y w2 sub m w w d s} def
/m32 {mp x y w2 sub m w2 w d w neg 0 d cl s} def
/m33 {mp x y w2 add m w3 neg w2 neg d w3 w2 neg d w3 w2 d cl f} def
/m34 {mp x w2 sub y w2 sub w3 add m w3 0 d  0 w3 neg d w3 0 d 0 w3 d w3 0 d  0 w3 d w3 neg 0 d 0 w3 d w3 neg 0 d 0 w3 neg d w3 neg 0 d cl f } def
/m2 {mp x y w2 sub m 0 w d x w2 sub y m w 0 d s} def
/m5 {mp x w2 sub y w2 sub m w w d x w2 sub y w2 add m w w neg d s} def
/reEncode {exch findfont dup length dict begin {1 index /FID eq  {pop pop} {def} ifelse } forall /Encoding exch def currentdict end dup /FontName get exch definefont pop } def [/Times-Bold /Times-Italic /Times-BoldItalic /Helvetica /Helvetica-Oblique
 /Helvetica-Bold /Helvetica-BoldOblique /Courier /Courier-Oblique /Courier-Bold /Courier-BoldOblique /Times-Roman /AvantGarde-Book /AvantGarde-BookOblique /AvantGarde-Demi /AvantGarde-DemiOblique /Bookman-Demi /Bookman-DemiItalic /Bookman-Light
 /Bookman-LightItalic /Helvetica-Narrow /Helvetica-Narrow-Bold /Helvetica-Narrow-BoldOblique /Helvetica-Narrow-Oblique /NewCenturySchlbk-Roman /NewCenturySchlbk-Bold /NewCenturySchlbk-BoldItalic /NewCenturySchlbk-Italic /Palatino-Bold
 /Palatino-BoldItalic /Palatino-Italic /Palatino-Roman ] {ISOLatin1Encoding reEncode } forall
%%EndProlog
%%BeginSetup
%%EndSetup
newpath  gsave  .25 .25 scale  gsave  0 0 t 0.490196 0.545098 0.615686 c[  ] 0 sd 3 lw 0.941176 0.941176 0.941176 c 2268 1682 0 0 bf black 1 1 0.992157 c 1916 1312 238 202 bf black 1916 1312 238 202 bl 1 1 0.992157 c 1916 1312 238 202 bf black 1916
 1312 238 202 bl 238 202 m 1916 X s
 gsave  2268 1682 0 0 C 1609.47 34.244 t 0 r /Helvetica-Bold findfont 72.293 sf 0 0 m (BDTD response) show NC gr  517 244 m -42 Y s 589 223 m -21 Y s 660 223 m -21 Y s 732 223 m -21 Y s 803 223 m -21 Y s 875 244 m -42 Y s 946 223 m -21 Y s 1018 223 m
 -21 Y s 1089 223 m -21 Y s 1161 223 m -21 Y s 1232 244 m -42 Y s 1304 223 m -21 Y s 1375 223 m -21 Y s 1447 223 m -21 Y s 1518 223 m -21 Y s 1590 244 m -42 Y s 1661 223 m -21 Y s 1733 223 m -21 Y s 1804 223 m -21 Y s 1876 223 m -21 Y s 1947 244 m
 -42 Y s 517 244 m -42 Y s 446 223 m -21 Y s 374 223 m -21 Y s 302 223 m -21 Y s 1947 244 m -42 Y s 2019 223 m -21 Y s 2091 223 m -21 Y s
 gsave  2268 1682 0 0 C 456.587 129.366 t 0 r /Helvetica-Bold findfont 64.6832 sf 0 0 m (\2550.2) show NC gr 
 gsave  2268 1682 0 0 C 818.052 129.366 t 0 r /Helvetica-Bold findfont 64.6832 sf 0 0 m (\2550.1) show NC gr 
 gsave  2268 1682 0 0 C 1209.96 129.366 t 0 r /Helvetica-Bold findfont 64.6832 sf 0 0 m (0) show NC gr 
 gsave  2268 1682 0 0 C 1544.79 129.366 t 0 r /Helvetica-Bold findfont 64.6832 sf 0 0 m (0.1) show NC gr 
 gsave  2268 1682 0 0 C 1898.64 129.366 t 0 r /Helvetica-Bold findfont 64.6832 sf 0 0 m (0.2) show NC gr  238 1514 m 1916 X s 517 1471 m 43 Y s 589 1492 m 22 Y s 660 1492 m 22 Y s 732 1492 m 22 Y s 803 1492 m 22 Y s 875 1471 m 43 Y s 946 1492 m 22 Y
 s 1018 1492 m 22 Y s 1089 1492 m 22 Y s 1161 1492 m 22 Y s 1232 1471 m 43 Y s 1304 1492 m 22 Y s 1375 1492 m 22 Y s 1447 1492 m 22 Y s 1518 1492 m 22 Y s 1590 1471 m 43 Y s 1661 1492 m 22 Y s 1733 1492 m 22 Y s 1804 1492 m 22 Y s 1876 1492 m 22 Y s
 1947 1471 m 43 Y s 517 1471 m 43 Y s 446 1492 m 22 Y s 374 1492 m 22 Y s 302 1492 m 22 Y s 1947 1471 m 43 Y s 2019 1492 m 22 Y s 2091 1492 m 22 Y s 238 202 m 1312 Y s
 gsave  2268 1682 0 0 C 64.6832 1430.64 t 90 r /Helvetica-Bold findfont 72.293 sf 0 0 m (dx) show NC gr 
 gsave  2268 1682 0 0 C 30.4391 1411.62 t 90 r /Helvetica-Bold findfont 45.6587 sf 0 0 m ( ) show NC gr 
 gsave  2268 1682 0 0 C 64.6832 1388.79 t 90 r /Helvetica-Bold findfont 72.293 sf 0 0 m (/) show NC gr 
 gsave  2268 1682 0 0 C 30.4391 1369.76 t 90 r /Helvetica-Bold findfont 45.6587 sf 0 0 m ( ) show NC gr 
 gsave  2268 1682 0 0 C 60.8783 1095.81 t 90 r /Helvetica-Bold findfont 72.293 sf 0 0 m (\(1/N\) dN) show NC gr  291 202 m -53 X s 265 231 m -27 X s 265 260 m -27 X s 265 289 m -27 X s 265 318 m -27 X s 291 347 m -53 X s 265 376 m -27 X s 265 405 m
 -27 X s 265 434 m -27 X s 265 463 m -27 X s 291 492 m -53 X s 265 521 m -27 X s 265 550 m -27 X s 265 579 m -27 X s 265 608 m -27 X s 291 637 m -53 X s 265 666 m -27 X s 265 695 m -27 X s 265 724 m -27 X s 265 753 m -27 X s 291 782 m -53 X s 265 811
 m -27 X s 265 840 m -27 X s 265 869 m -27 X s 265 898 m -27 X s 291 927 m -53 X s 265 956 m -27 X s 265 985 m -27 X s 265 1014 m -27 X s 265 1043 m -27 X s 291 1072 m -53 X s 265 1101 m -27 X s 265 1130 m -27 X s 265 1159 m -27 X s 265 1188 m -27 X
 s 291 1217 m -53 X s 265 1246 m -27 X s 265 1275 m -27 X s 265 1304 m -27 X s 265 1333 m -27 X s 291 1362 m -53 X s 265 1391 m -27 X s 265 1420 m -27 X s 265 1449 m -27 X s 265 1478 m -27 X s 291 1507 m -53 X s 291 1507 m -53 X s
 gsave  2268 1682 0 0 C 175.025 178.83 t 0 r /Helvetica-Bold findfont 64.6832 sf 0 0 m (0) show NC gr 
 gsave  2268 1682 0 0 C 175.025 323.416 t 0 r /Helvetica-Bold findfont 64.6832 sf 0 0 m (5) show NC gr 
 gsave  2268 1682 0 0 C 136.976 468.002 t 0 r /Helvetica-Bold findfont 64.6832 sf 0 0 m (10) show NC gr 
 gsave  2268 1682 0 0 C 136.976 612.588 t 0 r /Helvetica-Bold findfont 64.6832 sf 0 0 m (15) show NC gr 
 gsave  2268 1682 0 0 C 136.976 757.174 t 0 r /Helvetica-Bold findfont 64.6832 sf 0 0 m (20) show NC gr 
 gsave  2268 1682 0 0 C 136.976 901.76 t 0 r /Helvetica-Bold findfont 64.6832 sf 0 0 m (25) show NC gr 
 gsave  2268 1682 0 0 C 136.976 1046.35 t 0 r /Helvetica-Bold findfont 64.6832 sf 0 0 m (30) show NC gr 
 gsave  2268 1682 0 0 C 136.976 1190.93 t 0 r /Helvetica-Bold findfont 64.6832 sf 0 0 m (35) show NC gr 
 gsave  2268 1682 0 0 C 136.976 1339.32 t 0 r /Helvetica-Bold findfont 64.6832 sf 0 0 m (40) show NC gr 
 gsave  2268 1682 0 0 C 136.976 1483.91 t 0 r /Helvetica-Bold findfont 64.6832 sf 0 0 m (45) show NC gr  2154 202 m 1312 Y s 2101 202 m 53 X s 2128 231 m 26 X s 2128 260 m 26 X s 2128 289 m 26 X s 2128 318 m 26 X s 2101 347 m 53 X s 2128 376 m 26 X s
 2128 405 m 26 X s 2128 434 m 26 X s 2128 463 m 26 X s 2101 492 m 53 X s 2128 521 m 26 X s 2128 550 m 26 X s 2128 579 m 26 X s 2128 608 m 26 X s 2101 637 m 53 X s 2128 666 m 26 X s 2128 695 m 26 X s 2128 724 m 26 X s 2128 753 m 26 X s 2101 782 m 53 X
 s 2128 811 m 26 X s 2128 840 m 26 X s 2128 869 m 26 X s 2128 898 m 26 X s 2101 927 m 53 X s 2128 956 m 26 X s 2128 985 m 26 X s 2128 1014 m 26 X s 2128 1043 m 26 X s 2101 1072 m 53 X s 2128 1101 m 26 X s 2128 1130 m 26 X s 2128 1159 m 26 X s 2128
 1188 m 26 X s 2101 1217 m 53 X s 2128 1246 m 26 X s 2128 1275 m 26 X s 2128 1304 m 26 X s 2128 1333 m 26 X s 2101 1362 m 53 X s 2128 1391 m 26 X s 2128 1420 m 26 X s 2128 1449 m 26 X s 2128 1478 m 26 X s 2101 1507 m 53 X s 2101 1507 m 53 X s
 0.490196 0.545098 0.615686 c 0.95 0.95 0.95 c 0.490196 0.545098 0.615686 c 907 202 238 1312 bl 238 1312 m 907 X s 1145 1312 m 202 Y s 1145 1514 m -907 X s 238 1514 m -202 Y s black
 gsave  2268 1682 0 0 C 418.538 1445.86 t 0 r /Times-Italic findfont 57.0734 sf 0 0 m (Signal \(test sample\)) show NC gr  0.49 0.6 0.82 c 265 1428 m 127 X 70 Y -127 X f 0 0 0.933333 c 265 1498 m 127 X s 265 1428 m 127 X s 392 1428 m 70 Y s 265 1428
 m 70 Y s black
 gsave  2268 1682 0 0 C 418.538 1350.74 t 0 r /Times-Italic findfont 57.0734 sf 0 0 m (Background \(test sample\)) show NC gr  1 0 0 c 392 1354 m -27 -27 d s 387 1398 m -70 -71 d s 339 1398 m -70 -71 d s 291 1398 m -26 -26 d s 0 lw 0 0 0.933333 c 1 0
 0 c 3 lw 265 1398 m 127 X s 265 1327 m 127 X s 392 1327 m 71 Y s 265 1327 m 71 Y s 0 0 0.933333 c 0.49 0.6 0.82 c black 0.49 0.6 0.82 c 238 202 m 40 Y 48 X -40 Y 96 X 81 Y 48 X -81 Y 48 X 119 Y 48 X -40 Y 95 X -79 Y 48 X 39 Y 48 X 1 Y 96 X -1 Y 48 X
 40 Y 48 X 42 Y 48 X 80 Y 48 X -78 Y 48 X -83 Y 47 X 41 Y 48 X 77 Y 48 X -80 Y 48 X 2 Y 48 X -41 Y 48 X -39 Y 48 X 40 Y 48 X 119 Y 48 X -74 Y 48 X 37 Y 47 X -83 Y 48 X 1 Y 48 X 1 Y 48 X 38 Y 48 X -79 Y 383 X f 0 0 0.933333 c 0.49 0.6 0.82 c 0 0
 0.933333 c 238 242 m 48 X -40 Y 96 X 81 Y 48 X -81 Y 48 X 119 Y 48 X -40 Y 95 X -79 Y 48 X 39 Y 48 X 1 Y 96 X -1 Y 48 X 40 Y 48 X 42 Y 48 X 80 Y 48 X -78 Y 48 X -83 Y 47 X 41 Y 48 X 77 Y 48 X -80 Y 48 X 2 Y 48 X -41 Y 48 X -39 Y 48 X 40 Y 48 X 119 Y
 48 X -74 Y 48 X 37 Y 47 X -83 Y 48 X 1 Y 48 X 1 Y 48 X 38 Y 48 X -79 Y 383 X s 1 0 0 c black 1 0 0 c 2154 230 m -28 -28 d s 2111 235 m -33 -33 d s 2063 235 m -4 -4 d s 2030 202 m s 2011 231 m -29 -29 d s 2000 268 m -37 -37 d s 1934 202 m cl s 1886
 202 m s 1867 231 m -30 -29 d s 1867 279 m -78 -77 d s 1839 300 m -20 -20 d s 1807 268 m -66 -66 d s 1726 235 m -3 -3 d s 1693 202 m s 1675 232 m -30 -30 d s 1663 268 m -36 -36 d s 1597 202 m cl s 1579 233 m -30 -31 d s 1566 267 m -65 -65 d s 1485
 235 m -32 -33 d s 1437 235 m -33 -33 d s 1436 281 m -80 -79 d s 1406 299 m -98 -97 d s 1388 330 m -48 -48 d s 1325 267 m -65 -65 d s 1376 365 m -36 -35 d s 1292 282 m -80 -80 d s 1292 330 m -48 -48 d s 1229 267 m -65 -65 d s 1279 365 m -35 -35 d s
 1196 282 m -80 -80 d s 1166 300 m -98 -98 d s 1148 331 m -128 -129 d s 1148 379 m -95 -96 d s 1038 269 m -33 -34 d s 1004 234 m -32 -32 d s 1119 398 m -19 -19 d s 1056 334 m -3 -3 d s 957 235 m -34 -33 d s 941 267 m -66 -65 d s 893 267 m -66 -65 d s
 861 284 m -82 -82 d s 861 332 m -48 -48 d s 797 268 m -66 -66 d s 813 332 m s 750 269 m -33 -33 d s 683 202 m s 635 202 m s 587 202 m s 572 235 m -33 -33 d s 523 235 m -33 -33 d s 442 202 m s 430 237 m -36 -35 d s 430 285 m -48 -47 d s 346 202 m cl
 s 397 301 m -15 -15 d s 298 202 m cl s 250 202 m cl s 0 lw 3 lw 238 202 m 144 X 99 Y 48 X -99 Y 48 X 33 Y 95 X -33 Y 144 X 67 Y 48 X -1 Y 48 X 64 Y 48 X -65 Y 96 X -33 Y 48 X 35 Y 48 X 65 Y 47 X 64 Y 48 X -98 Y 48 X -33 Y 48 X 98 Y 48 X -98 Y 48 X
 98 Y 48 X -66 Y 48 X -64 Y 96 X 32 Y 47 X -65 Y 48 X 66 Y 48 X -66 Y 48 X 33 Y 48 X 33 Y 48 X 32 Y 48 X -98 Y 96 X 66 Y 48 X -66 Y 48 X 33 Y 95 X -33 Y s 0.490196 0.545098 0.615686 c 0.95 0.95 0.95 c 0.490196 0.545098 0.615686 c 952 202 1202 1312 bl
 1202 1312 m 952 X s 2154 1312 m 202 Y s 2154 1514 m -952 X s 1202 1514 m -202 Y s black
 gsave  2268 1682 0 0 C 1293.66 1445.86 t 0 r /Times-Italic findfont 57.0734 sf 0 0 m (Signal \(training sample\)) show NC gr  0 0 0.933333 c /w 21 def /w2 {w 2 div} def /w3 {w 3 div} def 1250 1463 m20 black
 gsave  2268 1682 0 0 C 1293.66 1350.74 t 0 r /Times-Italic findfont 57.0734 sf 0 0 m (Background \(training sample\)) show NC gr  1 0 0 c 1250 1362 m20 0 0 0.933333 c 1 1 1 c 0 0 0.933333 c 1508 562 m 131 Y s 1508 708 m 131 Y s 1484 701 m 16 X s
 1515 701 m 17 X s 1500 562 m 15 X s 1500 839 m 15 X s 1484 693 m 15 Y s 1532 693 m 15 Y s 1508 701 m20 1556 1013 m 190 Y s 1556 1218 m 191 Y s 1532 1211 m 16 X s 1563 1211 m 16 X s 1548 1013 m 15 X s 1548 1409 m 15 X s 1532 1203 m 15 Y s 1579 1203 m
 15 Y s 1556 1211 m20 1603 370 m 95 Y s 1603 481 m 94 Y s 1579 473 m 17 X s 1611 473 m 16 X s 1596 370 m 15 X s 1596 575 m 15 X s 1579 465 m 16 Y s 1627 465 m 16 Y s 1603 473 m20 1651 225 m 47 Y s 1651 288 m 47 Y s 1627 280 m 17 X s 1659 280 m 16 X s
 1644 225 m 15 X s 1644 335 m 15 X s 1627 272 m 16 Y s 1675 272 m 16 Y s 1651 280 m20 1699 339 m 88 Y s 1699 442 m 87 Y s 1675 434 m 17 X s 1707 434 m 16 X s 1692 339 m 15 X s 1692 529 m 15 X s 1675 427 m 15 Y s 1723 427 m 15 Y s 1699 434 m20 1747
 224 m 46 Y s 1747 285 m 47 Y s 1723 278 m 17 X s 1755 278 m 16 X s 1740 224 m 15 X s 1740 332 m 15 X s 1723 270 m 15 Y s 1771 270 m 15 Y s 1747 278 m20 1 0 0 c 1 1 1 c 1 0 0 c 262 202 m 20 Y s 262 237 m 21 Y s 238 230 m 16 X s 270 230 m 16 X s 254
 202 m 16 X s 254 258 m 16 X s 238 222 m 15 Y s 286 222 m 15 Y s 262 230 m20 406 202 m 20 Y s 406 237 m 20 Y s 382 230 m 16 X s 413 230 m 17 X s 398 202 m 15 X s 398 257 m 15 X s 382 222 m 15 Y s 430 222 m 15 Y s 406 230 m20 502 202 m 20 Y s 502 237
 m 21 Y s 478 230 m 16 X s 509 230 m 17 X s 494 202 m 15 X s 494 258 m 15 X s 478 222 m 15 Y s 526 222 m 15 Y s 502 230 m20 549 218 m 32 Y s 549 265 m 33 Y s 526 258 m 16 X s 557 258 m 16 X s 542 218 m 15 X s 542 298 m 15 X s 526 250 m 15 Y s 573 250
 m 15 Y s 549 258 m20 597 280 m 55 Y s 597 350 m 56 Y s 573 343 m 17 X s 605 343 m 16 X s 590 280 m 15 X s 590 406 m 15 X s 573 335 m 15 Y s 621 335 m 15 Y s 597 343 m20 645 218 m 32 Y s 645 265 m 32 Y s 621 258 m 17 X s 653 258 m 16 X s 638 218 m 15
 X s 638 297 m 15 X s 621 250 m 15 Y s 669 250 m 15 Y s 645 258 m20 693 202 m 20 Y s 693 237 m 21 Y s 669 230 m 17 X s 701 230 m 16 X s 686 202 m 15 X s 686 258 m 15 X s 669 222 m 15 Y s 717 222 m 15 Y s 693 230 m20 741 238 m 42 Y s 741 295 m 42 Y s
 717 288 m 17 X s 749 288 m 16 X s 734 238 m 15 X s 734 337 m 15 X s 717 280 m 15 Y s 765 280 m 15 Y s 741 288 m20 789 393 m 82 Y s 789 490 m 81 Y s 765 482 m 16 X s 797 482 m 16 X s 781 393 m 16 X s 781 571 m 16 X s 765 475 m 15 Y s 813 475 m 15 Y s
 789 482 m20 837 394 m 81 Y s 837 491 m 81 Y s 813 483 m 16 X s 845 483 m 16 X s 829 394 m 16 X s 829 572 m 16 X s 813 475 m 16 Y s 861 475 m 16 Y s 837 483 m20 885 443 m 90 Y s 885 548 m 91 Y s 861 541 m 16 X s 892 541 m 17 X s 877 443 m 15 X s 877
 639 m 15 X s 861 533 m 15 Y s 909 533 m 15 Y s 885 541 m20 933 713 m 127 Y s 933 855 m 128 Y s 909 848 m 16 X s 940 848 m 17 X s 925 713 m 15 X s 925 983 m 15 X s 909 840 m 15 Y s 957 840 m 15 Y s 933 848 m20 981 302 m 61 Y s 981 378 m 62 Y s 957
 371 m 16 X s 988 371 m 17 X s 973 302 m 15 X s 973 440 m 15 X s 957 363 m 15 Y s 1005 363 m 15 Y s 981 371 m20 black
 gsave  2268 1682 0 0 C 272.126 1244.5 t 0 r /Helvetica-Bold findfont 49.4636 sf 0 0 m (Kolmogorov\255Smirnov test: signal \(background\) probability = 3.63e\25516 \(1.05e\25516\)) show NC gr  238 202 m 1916 X s 517 244 m -42 Y s 589 223 m -21 Y s
 660 223 m -21 Y s 732 223 m -21 Y s 803 223 m -21 Y s 875 244 m -42 Y s 946 223 m -21 Y s 1018 223 m -21 Y s 1089 223 m -21 Y s 1161 223 m -21 Y s 1232 244 m -42 Y s 1304 223 m -21 Y s 1375 223 m -21 Y s 1447 223 m -21 Y s 1518 223 m -21 Y s 1590
 244 m -42 Y s 1661 223 m -21 Y s 1733 223 m -21 Y s 1804 223 m -21 Y s 1876 223 m -21 Y s 1947 244 m -42 Y s 517 244 m -42 Y s 446 223 m -21 Y s 374 223 m -21 Y s 302 223 m -21 Y s 1947 244 m -42 Y s 2019 223 m -21 Y s 2091 223 m -21 Y s 238 1514 m
 1916 X s 517 1471 m 43 Y s 589 1492 m 22 Y s 660 1492 m 22 Y s 732 1492 m 22 Y s 803 1492 m 22 Y s 875 1471 m 43 Y s 946 1492 m 22 Y s 1018 1492 m 22 Y s 1089 1492 m 22 Y s 1161 1492 m 22 Y s 1232 1471 m 43 Y s 1304 1492 m 22 Y s 1375 1492 m 22 Y s
 1447 1492 m 22 Y s 1518 1492 m 22 Y s 1590 1471 m 43 Y s 1661 1492 m 22 Y s 1733 1492 m 22 Y s 1804 1492 m 22 Y s 1876 1492 m 22 Y s 1947 1471 m 43 Y s 517 1471 m 43 Y s 446 1492 m 22 Y s 374 1492 m 22 Y s 302 1492 m 22 Y s 1947 1471 m 43 Y s 2019
 1492 m 22 Y s 2091 1492 m 22 Y s 238 202 m 1312 Y s 291 202 m -53 X s 265 231 m -27 X s 265 260 m -27 X s 265 289 m -27 X s 265 318 m -27 X s 291 347 m -53 X s 265 376 m -27 X s 265 405 m -27 X s 265 434 m -27 X s 265 463 m -27 X s 291 492 m -53 X s
 265 521 m -27 X s 265 550 m -27 X s 265 579 m -27 X s 265 608 m -27 X s 291 637 m -53 X s 265 666 m -27 X s 265 695 m -27 X s 265 724 m -27 X s 265 753 m -27 X s 291 782 m -53 X s 265 811 m -27 X s 265 840 m -27 X s 265 869 m -27 X s 265 898 m -27 X
 s 291 927 m -53 X s 265 956 m -27 X s 265 985 m -27 X s 265 1014 m -27 X s 265 1043 m -27 X s 291 1072 m -53 X s 265 1101 m -27 X s 265 1130 m -27 X s 265 1159 m -27 X s 265 1188 m -27 X s 291 1217 m -53 X s 265 1246 m -27 X s 265 1275 m -27 X s 265
 1304 m -27 X s 265 1333 m -27 X s 291 1362 m -53 X s 265 1391 m -27 X s 265 1420 m -27 X s 265 1449 m -27 X s 265 1478 m -27 X s 291 1507 m -53 X s 291 1507 m -53 X s 2154 202 m 1312 Y s 2101 202 m 53 X s 2128 231 m 26 X s 2128 260 m 26 X s 2128 289
 m 26 X s 2128 318 m 26 X s 2101 347 m 53 X s 2128 376 m 26 X s 2128 405 m 26 X s 2128 434 m 26 X s 2128 463 m 26 X s 2101 492 m 53 X s 2128 521 m 26 X s 2128 550 m 26 X s 2128 579 m 26 X s 2128 608 m 26 X s 2101 637 m 53 X s 2128 666 m 26 X s 2128
 695 m 26 X s 2128 724 m 26 X s 2128 753 m 26 X s 2101 782 m 53 X s 2128 811 m 26 X s 2128 840 m 26 X s 2128 869 m 26 X s 2128 898 m 26 X s 2101 927 m 53 X s 2128 956 m 26 X s 2128 985 m 26 X s 2128 1014 m 26 X s 2128 1043 m 26 X s 2101 1072 m 53 X s
 2128 1101 m 26 X s 2128 1130 m 26 X s 2128 1159 m 26 X s 2128 1188 m 26 X s 2101 1217 m 53 X s 2128 1246 m 26 X s 2128 1275 m 26 X s 2128 1304 m 26 X s 2128 1333 m 26 X s 2101 1362 m 53 X s 2128 1391 m 26 X s 2128 1420 m 26 X s 2128 1449 m 26 X s
 2128 1478 m 26 X s 2101 1507 m 53 X s 2101 1507 m 53 X s
 gsave  2268 1682 0 0 C 2211.02 193.403 t 90 r /Helvetica-Bold findfont 45.6587 sf 0 0 m (U/O\255flow \(S,B\): \(0.0, 0.0\)% / \(0.0, 0.0\)%) show NC gr  0.490196 0.545098 0.615686 c 0.364706 0.419608 0.490196 c 1587 96 23 1577 bf 0.490196 0.545098
 0.615686 c 23 1577 m 1587 X s 1610 1577 m 96 Y s 1610 1673 m -1587 X s 23 1673 m -96 Y s 1 1 1 c black 1 1 1 c
 gsave  2268 1682 0 0 C 72.293 1605.67 t 0 r /Helvetica-Bold findfont 68.4881 sf 0 0 m (TMVA overtraining check for classifier: BDTD) show NC gr 
 gr  gr showpage
end
%%EOF
