%!PS-Adobe-2.0 EPSF-2.0
%%BoundingBox:  0 0 567 420
%%Title: plots/overtrain_MLP.eps: TMVA comparison MLP
%%Creator: ROOT Version 5.34/09
%%CreationDate: Sat Jan  4 23:56:04 2014
%%EndComments
%%BeginProlog
80 dict begin
/s {stroke} def /l {lineto} def /m {moveto} def /t {translate} def
/r {rotate} def /rl {roll}  def /R {repeat} def
/d {rlineto} def /rm {rmoveto} def /gr {grestore} def /f {eofill} def
/c {setrgbcolor} def /black {0 setgray} def /sd {setdash} def
/cl {closepath} def /sf {scalefont setfont} def /lw {setlinewidth} def
/box {m dup 0 exch d exch 0 d 0 exch neg d cl} def
/NC{systemdict begin initclip end}def/C{NC box clip newpath}def
/bl {box s} def /bf {box f} def /Y { 0 exch d} def /X { 0 d} def 
/K {{pop pop 0 moveto} exch kshow} bind def
/ita {/ang 15 def gsave [1 0 ang dup sin exch cos div 1 0 0] concat} def 
/mp {newpath /y exch def /x exch def} def
/side {[w .77 mul w .23 mul] .385 w mul sd w 0 l currentpoint t -144 r} def
/mr {mp x y w2 0 360 arc} def /m24 {mr s} def /m20 {mr f} def
/mb {mp x y w2 add m w2 neg 0 d 0 w neg d w 0 d 0 w d cl} def
/mt {mp x y w2 add m w2 neg w neg d w 0 d cl} def
/m21 {mb f} def /m25 {mb s} def /m22 {mt f} def /m26{mt s} def
/m23 {mp x y w2 sub m w2 w d w neg 0 d cl f} def
/m27 {mp x y w2 add m w3 neg w2 neg d w3 w2 neg d w3 w2 d cl s} def
/m28 {mp x w2 sub y w2 sub w3 add m w3 0 d  0 w3 neg d w3 0 d 0 w3 d w3 0 d  0 w3 d w3 neg 0 d 0 w3 d w3 neg 0 d 0 w3 neg d w3 neg 0 d cl s } def
/m29 {mp gsave x w2 sub y w2 add w3 sub m currentpoint t 4 {side} repeat cl fill gr} def
/m30 {mp gsave x w2 sub y w2 add w3 sub m currentpoint t 4 {side} repeat cl s gr} def
/m31 {mp x y w2 sub m 0 w d x w2 sub y m w 0 d x w2 sub y w2 add m w w neg d x w2 sub y w2 sub m w w d s} def
/m32 {mp x y w2 sub m w2 w d w neg 0 d cl s} def
/m33 {mp x y w2 add m w3 neg w2 neg d w3 w2 neg d w3 w2 d cl f} def
/m34 {mp x w2 sub y w2 sub w3 add m w3 0 d  0 w3 neg d w3 0 d 0 w3 d w3 0 d  0 w3 d w3 neg 0 d 0 w3 d w3 neg 0 d 0 w3 neg d w3 neg 0 d cl f } def
/m2 {mp x y w2 sub m 0 w d x w2 sub y m w 0 d s} def
/m5 {mp x w2 sub y w2 sub m w w d x w2 sub y w2 add m w w neg d s} def
/reEncode {exch findfont dup length dict begin {1 index /FID eq  {pop pop} {def} ifelse } forall /Encoding exch def currentdict end dup /FontName get exch definefont pop } def [/Times-Bold /Times-Italic /Times-BoldItalic /Helvetica /Helvetica-Oblique
 /Helvetica-Bold /Helvetica-BoldOblique /Courier /Courier-Oblique /Courier-Bold /Courier-BoldOblique /Times-Roman /AvantGarde-Book /AvantGarde-BookOblique /AvantGarde-Demi /AvantGarde-DemiOblique /Bookman-Demi /Bookman-DemiItalic /Bookman-Light
 /Bookman-LightItalic /Helvetica-Narrow /Helvetica-Narrow-Bold /Helvetica-Narrow-BoldOblique /Helvetica-Narrow-Oblique /NewCenturySchlbk-Roman /NewCenturySchlbk-Bold /NewCenturySchlbk-BoldItalic /NewCenturySchlbk-Italic /Palatino-Bold
 /Palatino-BoldItalic /Palatino-Italic /Palatino-Roman ] {ISOLatin1Encoding reEncode } forall
%%EndProlog
%%BeginSetup
%%EndSetup
newpath  gsave  .25 .25 scale  gsave  0 0 t 0.490196 0.545098 0.615686 c[  ] 0 sd 3 lw 0.941176 0.941176 0.941176 c 2268 1682 0 0 bf black 1 1 0.992157 c 1916 1312 238 202 bf black 1916 1312 238 202 bl 1 1 0.992157 c 1916 1312 238 202 bf black 1916
 1312 238 202 bl 238 202 m 1916 X s
 gsave  2268 1682 0 0 C 1658.93 34.244 t 0 r /Helvetica-Bold findfont 72.293 sf 0 0 m (MLP response) show NC gr  324 244 m -42 Y s 366 223 m -21 Y s 408 223 m -21 Y s 449 223 m -21 Y s 491 244 m -42 Y s 533 223 m -21 Y s 575 223 m -21 Y s 617 223 m
 -21 Y s 659 244 m -42 Y s 700 223 m -21 Y s 742 223 m -21 Y s 784 223 m -21 Y s 826 244 m -42 Y s 868 223 m -21 Y s 909 223 m -21 Y s 951 223 m -21 Y s 993 244 m -42 Y s 1035 223 m -21 Y s 1077 223 m -21 Y s 1118 223 m -21 Y s 1160 244 m -42 Y s
 1202 223 m -21 Y s 1244 223 m -21 Y s 1286 223 m -21 Y s 1327 244 m -42 Y s 1369 223 m -21 Y s 1411 223 m -21 Y s 1453 223 m -21 Y s 1495 244 m -42 Y s 1537 223 m -21 Y s 1578 223 m -21 Y s 1620 223 m -21 Y s 1662 244 m -42 Y s 1704 223 m -21 Y s
 1746 223 m -21 Y s 1787 223 m -21 Y s 1829 244 m -42 Y s 1871 223 m -21 Y s 1913 223 m -21 Y s 1955 223 m -21 Y s 1996 244 m -42 Y s 324 244 m -42 Y s 282 223 m -21 Y s 240 223 m -21 Y s 1996 244 m -42 Y s 2038 223 m -21 Y s 2080 223 m -21 Y s 2122
 223 m -21 Y s
 gsave  2268 1682 0 0 C 266.343 129.366 t 0 r /Helvetica-Bold findfont 64.6832 sf 0 0 m (\2550.2) show NC gr 
 gsave  2268 1682 0 0 C 471.807 129.366 t 0 r /Helvetica-Bold findfont 64.6832 sf 0 0 m (0) show NC gr 
 gsave  2268 1682 0 0 C 612.588 129.366 t 0 r /Helvetica-Bold findfont 64.6832 sf 0 0 m (0.2) show NC gr 
 gsave  2268 1682 0 0 C 780.003 129.366 t 0 r /Helvetica-Bold findfont 64.6832 sf 0 0 m (0.4) show NC gr 
 gsave  2268 1682 0 0 C 943.614 129.366 t 0 r /Helvetica-Bold findfont 64.6832 sf 0 0 m (0.6) show NC gr 
 gsave  2268 1682 0 0 C 1111.03 129.366 t 0 r /Helvetica-Bold findfont 64.6832 sf 0 0 m (0.8) show NC gr 
 gsave  2268 1682 0 0 C 1308.88 129.366 t 0 r /Helvetica-Bold findfont 64.6832 sf 0 0 m (1) show NC gr 
 gsave  2268 1682 0 0 C 1445.86 129.366 t 0 r /Helvetica-Bold findfont 64.6832 sf 0 0 m (1.2) show NC gr 
 gsave  2268 1682 0 0 C 1613.27 129.366 t 0 r /Helvetica-Bold findfont 64.6832 sf 0 0 m (1.4) show NC gr 
 gsave  2268 1682 0 0 C 1780.69 129.366 t 0 r /Helvetica-Bold findfont 64.6832 sf 0 0 m (1.6) show NC gr 
 gsave  2268 1682 0 0 C 1948.11 129.366 t 0 r /Helvetica-Bold findfont 64.6832 sf 0 0 m (1.8) show NC gr  238 1514 m 1916 X s 324 1471 m 43 Y s 366 1492 m 22 Y s 408 1492 m 22 Y s 449 1492 m 22 Y s 491 1471 m 43 Y s 533 1492 m 22 Y s 575 1492 m 22 Y
 s 617 1492 m 22 Y s 659 1471 m 43 Y s 700 1492 m 22 Y s 742 1492 m 22 Y s 784 1492 m 22 Y s 826 1471 m 43 Y s 868 1492 m 22 Y s 909 1492 m 22 Y s 951 1492 m 22 Y s 993 1471 m 43 Y s 1035 1492 m 22 Y s 1077 1492 m 22 Y s 1118 1492 m 22 Y s 1160 1471
 m 43 Y s 1202 1492 m 22 Y s 1244 1492 m 22 Y s 1286 1492 m 22 Y s 1327 1471 m 43 Y s 1369 1492 m 22 Y s 1411 1492 m 22 Y s 1453 1492 m 22 Y s 1495 1471 m 43 Y s 1537 1492 m 22 Y s 1578 1492 m 22 Y s 1620 1492 m 22 Y s 1662 1471 m 43 Y s 1704 1492 m
 22 Y s 1746 1492 m 22 Y s 1787 1492 m 22 Y s 1829 1471 m 43 Y s 1871 1492 m 22 Y s 1913 1492 m 22 Y s 1955 1492 m 22 Y s 1996 1471 m 43 Y s 324 1471 m 43 Y s 282 1492 m 22 Y s 240 1492 m 22 Y s 1996 1471 m 43 Y s 2038 1492 m 22 Y s 2080 1492 m 22 Y
 s 2122 1492 m 22 Y s 238 202 m 1312 Y s
 gsave  2268 1682 0 0 C 64.6832 1430.64 t 90 r /Helvetica-Bold findfont 72.293 sf 0 0 m (dx) show NC gr 
 gsave  2268 1682 0 0 C 30.4391 1411.62 t 90 r /Helvetica-Bold findfont 45.6587 sf 0 0 m ( ) show NC gr 
 gsave  2268 1682 0 0 C 64.6832 1388.79 t 90 r /Helvetica-Bold findfont 72.293 sf 0 0 m (/) show NC gr 
 gsave  2268 1682 0 0 C 30.4391 1369.76 t 90 r /Helvetica-Bold findfont 45.6587 sf 0 0 m ( ) show NC gr 
 gsave  2268 1682 0 0 C 60.8783 1095.81 t 90 r /Helvetica-Bold findfont 72.293 sf 0 0 m (\(1/N\) dN) show NC gr  291 202 m -53 X s 265 231 m -27 X s 265 261 m -27 X s 265 290 m -27 X s 265 320 m -27 X s 291 349 m -53 X s 265 379 m -27 X s 265 408 m
 -27 X s 265 437 m -27 X s 265 467 m -27 X s 291 496 m -53 X s 265 526 m -27 X s 265 555 m -27 X s 265 585 m -27 X s 265 614 m -27 X s 291 644 m -53 X s 265 673 m -27 X s 265 703 m -27 X s 265 732 m -27 X s 265 761 m -27 X s 291 791 m -53 X s 265 820
 m -27 X s 265 850 m -27 X s 265 879 m -27 X s 265 909 m -27 X s 291 938 m -53 X s 265 968 m -27 X s 265 997 m -27 X s 265 1027 m -27 X s 265 1056 m -27 X s 291 1085 m -53 X s 265 1115 m -27 X s 265 1144 m -27 X s 265 1174 m -27 X s 265 1203 m -27 X
 s 291 1233 m -53 X s 265 1262 m -27 X s 265 1292 m -27 X s 265 1321 m -27 X s 265 1351 m -27 X s 291 1380 m -53 X s 291 1380 m -53 X s 265 1409 m -27 X s 265 1439 m -27 X s 265 1468 m -27 X s 265 1498 m -27 X s
 gsave  2268 1682 0 0 C 175.025 178.83 t 0 r /Helvetica-Bold findfont 64.6832 sf 0 0 m (0) show NC gr 
 gsave  2268 1682 0 0 C 121.757 323.416 t 0 r /Helvetica-Bold findfont 64.6832 sf 0 0 m (0.5) show NC gr 
 gsave  2268 1682 0 0 C 182.635 471.807 t 0 r /Helvetica-Bold findfont 64.6832 sf 0 0 m (1) show NC gr 
 gsave  2268 1682 0 0 C 121.757 620.198 t 0 r /Helvetica-Bold findfont 64.6832 sf 0 0 m (1.5) show NC gr 
 gsave  2268 1682 0 0 C 175.025 764.784 t 0 r /Helvetica-Bold findfont 64.6832 sf 0 0 m (2) show NC gr 
 gsave  2268 1682 0 0 C 121.757 913.174 t 0 r /Helvetica-Bold findfont 64.6832 sf 0 0 m (2.5) show NC gr 
 gsave  2268 1682 0 0 C 175.025 1061.57 t 0 r /Helvetica-Bold findfont 64.6832 sf 0 0 m (3) show NC gr 
 gsave  2268 1682 0 0 C 121.757 1206.15 t 0 r /Helvetica-Bold findfont 64.6832 sf 0 0 m (3.5) show NC gr 
 gsave  2268 1682 0 0 C 175.025 1354.54 t 0 r /Helvetica-Bold findfont 64.6832 sf 0 0 m (4) show NC gr  2154 202 m 1312 Y s 2101 202 m 53 X s 2128 231 m 26 X s 2128 261 m 26 X s 2128 290 m 26 X s 2128 320 m 26 X s 2101 349 m 53 X s 2128 379 m 26 X s
 2128 408 m 26 X s 2128 437 m 26 X s 2128 467 m 26 X s 2101 496 m 53 X s 2128 526 m 26 X s 2128 555 m 26 X s 2128 585 m 26 X s 2128 614 m 26 X s 2101 644 m 53 X s 2128 673 m 26 X s 2128 703 m 26 X s 2128 732 m 26 X s 2128 761 m 26 X s 2101 791 m 53 X
 s 2128 820 m 26 X s 2128 850 m 26 X s 2128 879 m 26 X s 2128 909 m 26 X s 2101 938 m 53 X s 2128 968 m 26 X s 2128 997 m 26 X s 2128 1027 m 26 X s 2128 1056 m 26 X s 2101 1085 m 53 X s 2128 1115 m 26 X s 2128 1144 m 26 X s 2128 1174 m 26 X s 2128
 1203 m 26 X s 2101 1233 m 53 X s 2128 1262 m 26 X s 2128 1292 m 26 X s 2128 1321 m 26 X s 2128 1351 m 26 X s 2101 1380 m 53 X s 2101 1380 m 53 X s 2128 1409 m 26 X s 2128 1439 m 26 X s 2128 1468 m 26 X s 2128 1498 m 26 X s 0.490196 0.545098 0.615686
 c 0.95 0.95 0.95 c 0.490196 0.545098 0.615686 c 907 202 238 1312 bl 238 1312 m 907 X s 1145 1312 m 202 Y s 1145 1514 m -907 X s 238 1514 m -202 Y s black
 gsave  2268 1682 0 0 C 418.538 1445.86 t 0 r /Times-Italic findfont 57.0734 sf 0 0 m (Signal \(test sample\)) show NC gr  0.49 0.6 0.82 c 265 1428 m 127 X 70 Y -127 X f 0 0 0.933333 c 265 1498 m 127 X s 265 1428 m 127 X s 392 1428 m 70 Y s 265 1428
 m 70 Y s black
 gsave  2268 1682 0 0 C 418.538 1350.74 t 0 r /Times-Italic findfont 57.0734 sf 0 0 m (Background \(test sample\)) show NC gr  1 0 0 c 392 1354 m -27 -27 d s 387 1398 m -70 -71 d s 339 1398 m -70 -71 d s 291 1398 m -26 -26 d s 0 lw 0 0 0.933333 c 1 0
 0 c 3 lw 265 1398 m 127 X s 265 1327 m 127 X s 392 1327 m 71 Y s 265 1327 m 71 Y s 0 0 0.933333 c 0.49 0.6 0.82 c black 0.49 0.6 0.82 c 238 202 m 144 X 93 Y 48 X 291 Y 48 X -193 Y 48 X -191 Y 47 X 470 Y 48 X -88 Y 48 X -194 Y 48 X 383 Y 48 X -196 Y
 48 X -282 Y 48 X 99 Y 48 X -98 Y 48 X 94 Y 48 X 1 Y 48 X 189 Y 47 X 97 Y 48 X -280 Y 48 X -101 Y 48 X -1 Y 48 X -93 Y 48 X 192 Y 48 X -192 Y 191 X 192 Y 48 X -192 Y 48 X 109 Y 48 X -109 Y 431 X f 0 0 0.933333 c 0.49 0.6 0.82 c 0 0 0.933333 c 238 202
 m 144 X 93 Y 48 X 291 Y 48 X -193 Y 48 X -191 Y 47 X 470 Y 48 X -88 Y 48 X -194 Y 48 X 383 Y 48 X -196 Y 48 X -282 Y 48 X 99 Y 48 X -98 Y 48 X 94 Y 48 X 1 Y 48 X 189 Y 47 X 97 Y 48 X -280 Y 48 X -101 Y 48 X -1 Y 48 X -93 Y 48 X 192 Y 48 X -192 Y 191
 X 192 Y 48 X -192 Y 48 X 109 Y 48 X -109 Y 431 X s 1 0 0 c black 1 0 0 c 2154 230 m -28 -28 d s 2154 278 m -48 -48 d s 2078 202 m s 2108 280 m -2 -2 d s 2030 202 m s 1982 202 m s 1934 202 m s 1886 202 m s 1867 231 m -30 -29 d s 1867 279 m -48 -47 d
 s 1789 202 m s 1819 280 m s 1741 202 m s 1693 202 m s 1645 202 m s 1597 202 m s 1579 233 m -30 -31 d s 1578 279 m -77 -77 d s 1530 280 m -46 -47 d s 1453 202 m s 1404 202 m s 1388 233 m -32 -31 d s 1388 281 m -80 -79 d s 1388 330 m -48 -48 d s 1337
 279 m -77 -77 d s 1371 360 m -31 -30 d s 1292 282 m -48 -48 d s 1212 202 m s 1292 330 m -48 -48 d s 1196 234 m -32 -32 d s 1272 358 m -28 -28 d s 1196 282 m -80 -80 d s 1196 330 m -48 -48 d s 1145 279 m -77 -77 d s 1196 378 m -48 -47 d s 1100 283 m
 -80 -81 d s 1196 427 m -48 -48 d s 1100 331 m -128 -129 d s 1157 436 m -9 -9 d s 1100 379 m -177 -177 d s 1100 427 m -225 -225 d s 1100 475 m -95 -96 d s 982 357 m -155 -155 d s 1100 523 m -95 -96 d s 957 379 m -178 -177 d s 1100 571 m -95 -96 d s
 957 428 m -226 -226 d s 1075 593 m -70 -69 d s 957 476 m -274 -274 d s 1053 620 m -48 -48 d s 944 512 m -131 -132 d s 789 356 m -154 -154 d s 1053 668 m -48 -48 d s 897 512 m -84 -84 d s 765 380 m -178 -178 d s 1005 668 m s 861 524 m -48 -48 d s 765
 428 m -226 -226 d s 861 572 m -48 -48 d s 765 476 m -192 -191 d s 568 279 m -78 -77 d s 834 594 m -21 -22 d s 752 512 m -179 -179 d s 526 285 m -84 -83 d s 704 511 m -35 -34 d s 626 433 m -53 -52 d s 526 333 m -132 -131 d s 621 477 m -48 -48 d s 503
 358 m -73 -73 d s 425 281 m -79 -79 d s 621 525 m -48 -48 d s 454 358 m -24 -24 d s 376 280 m -78 -78 d s 621 573 m -48 -48 d s 329 281 m -79 -79 d s 593 593 m -20 -20 d s 281 281 m -43 -43 d s 0 lw 3 lw 238 281 m 96 X -1 Y 48 X 1 Y 48 X 77 Y 96 X
 -79 Y 47 X 314 Y 48 X -160 Y 48 X 78 Y 48 X 1 Y 48 X -156 Y 48 X 238 Y 48 X -82 Y 96 X -155 Y 48 X 311 Y 48 X -75 Y 47 X -314 Y 48 X 157 Y 48 X -234 Y 48 X 156 Y 48 X -79 Y 48 X 81 Y 48 X -158 Y 96 X 78 Y 48 X -1 Y 47 X -77 Y 240 X 78 Y 48 X -78 Y
 239 X 78 Y 48 X -78 Y s 0.490196 0.545098 0.615686 c 0.95 0.95 0.95 c 0.490196 0.545098 0.615686 c 952 202 1202 1312 bl 1202 1312 m 952 X s 2154 1312 m 202 Y s 2154 1514 m -952 X s 1202 1514 m -202 Y s black
 gsave  2268 1682 0 0 C 1293.66 1445.86 t 0 r /Times-Italic findfont 57.0734 sf 0 0 m (Signal \(training sample\)) show NC gr  0 0 0.933333 c /w 21 def /w2 {w 2 div} def /w3 {w 3 div} def 1250 1463 m20 black
 gsave  2268 1682 0 0 C 1293.66 1350.74 t 0 r /Times-Italic findfont 57.0734 sf 0 0 m (Background \(training sample\)) show NC gr  1 0 0 c 1250 1362 m20 0 0 0.933333 c 1 1 1 c 0 0 0.933333 c 597 202 m 82 Y s 597 300 m 82 Y s 573 292 m 17 X s 605 292
 m 16 X s 590 202 m 15 X s 590 382 m 15 X s 573 284 m 16 Y s 621 284 m 16 Y s 597 292 m20 645 202 m 83 Y s 645 300 m 83 Y s 621 292 m 17 X s 653 292 m 16 X s 638 202 m 15 X s 638 383 m 15 X s 621 285 m 15 Y s 669 285 m 15 Y s 645 292 m20 693 202 m 86
 Y s 693 303 m 85 Y s 669 295 m 17 X s 701 295 m 16 X s 686 202 m 15 X s 686 388 m 15 X s 669 288 m 15 Y s 717 288 m 15 Y s 693 295 m20 789 202 m 82 Y s 789 299 m 83 Y s 765 292 m 16 X s 797 292 m 16 X s 781 202 m 16 X s 781 382 m 16 X s 765 284 m 15
 Y s 813 284 m 15 Y s 789 292 m20 885 202 m 83 Y s 885 301 m 83 Y s 861 293 m 16 X s 892 293 m 17 X s 877 202 m 15 X s 877 384 m 15 X s 861 285 m 16 Y s 909 285 m 16 Y s 885 293 m20 933 317 m 151 Y s 933 483 m 151 Y s 909 476 m 16 X s 940 476 m 17 X
 s 925 317 m 15 X s 925 634 m 15 X s 909 468 m 15 Y s 957 468 m 15 Y s 933 476 m20 981 526 m 216 Y s 981 757 m 216 Y s 957 749 m 16 X s 988 749 m 17 X s 973 526 m 15 X s 973 973 m 15 X s 957 742 m 15 Y s 1005 742 m 15 Y s 981 749 m20 1029 758 m 271 Y
 s 1029 1044 m 271 Y s 1005 1036 m 16 X s 1036 1036 m 17 X s 1021 758 m 15 X s 1021 1315 m 15 X s 1005 1029 m 15 Y s 1053 1029 m 15 Y s 1029 1036 m20 1076 317 m 150 Y s 1076 483 m 150 Y s 1053 475 m 16 X s 1084 475 m 16 X s 1069 317 m 15 X s 1069 633
 m 15 X s 1053 467 m 16 Y s 1100 467 m 16 Y s 1076 475 m20 1124 386 m 176 Y s 1124 578 m 176 Y s 1100 570 m 17 X s 1132 570 m 16 X s 1117 386 m 15 X s 1117 754 m 15 X s 1100 562 m 16 Y s 1148 562 m 16 Y s 1124 570 m20 1172 318 m 151 Y s 1172 484 m
 151 Y s 1148 477 m 17 X s 1180 477 m 16 X s 1165 318 m 15 X s 1165 635 m 15 X s 1148 469 m 15 Y s 1196 469 m 15 Y s 1172 477 m20 1220 456 m 199 Y s 1220 670 m 198 Y s 1196 662 m 17 X s 1228 662 m 16 X s 1213 456 m 15 X s 1213 868 m 15 X s 1196 655 m
 15 Y s 1244 655 m 15 Y s 1220 662 m20 1268 907 m 296 Y s 1268 1218 m 296 Y s 1244 1211 m 16 X s 1276 1211 m 16 X s 1260 907 m 16 X s 1260 1514 m 16 X s 1244 1203 m 15 Y s 1292 1203 m 15 Y s 1268 1211 m20 1316 257 m 127 Y s 1316 399 m 127 Y s 1292
 391 m 16 X s 1324 391 m 16 X s 1308 257 m 16 X s 1308 526 m 16 X s 1292 384 m 15 Y s 1340 384 m 15 Y s 1316 391 m20 1364 318 m 150 Y s 1364 483 m 151 Y s 1340 476 m 16 X s 1371 476 m 17 X s 1356 318 m 15 X s 1356 634 m 15 X s 1340 468 m 15 Y s 1388
 468 m 15 Y s 1364 476 m20 1556 255 m 121 Y s 1556 391 m 121 Y s 1532 383 m 16 X s 1563 383 m 16 X s 1548 255 m 15 X s 1548 512 m 15 X s 1532 376 m 15 Y s 1579 376 m 15 Y s 1556 383 m20 1 0 0 c 1 1 1 c 1 0 0 c 310 202 m 59 Y s 310 277 m 59 Y s 286
 269 m 16 X s 318 269 m 16 X s 302 202 m 16 X s 302 336 m 16 X s 286 261 m 16 Y s 334 261 m 16 Y s 310 269 m20 358 202 m 59 Y s 358 276 m 60 Y s 334 269 m 16 X s 365 269 m 17 X s 350 202 m 15 X s 350 336 m 15 X s 334 261 m 15 Y s 382 261 m 15 Y s 358
 269 m20 406 202 m 60 Y s 406 278 m 60 Y s 382 270 m 16 X s 413 270 m 17 X s 398 202 m 15 X s 398 338 m 15 X s 382 262 m 16 Y s 430 262 m 16 Y s 406 270 m20 454 500 m 174 Y s 454 689 m 174 Y s 430 682 m 16 X s 461 682 m 17 X s 446 500 m 15 X s 446
 863 m 15 X s 430 674 m 15 Y s 478 674 m 15 Y s 454 682 m20 502 551 m 184 Y s 502 750 m 184 Y s 478 743 m 16 X s 509 743 m 17 X s 494 551 m 15 X s 494 934 m 15 X s 478 735 m 15 Y s 526 735 m 15 Y s 502 743 m20 549 337 m 127 Y s 549 479 m 128 Y s 526
 472 m 16 X s 557 472 m 16 X s 542 337 m 15 X s 542 607 m 15 X s 526 464 m 15 Y s 573 464 m 15 Y s 549 472 m20 597 550 m 182 Y s 597 748 m 182 Y s 573 740 m 17 X s 605 740 m 16 X s 590 550 m 15 X s 590 930 m 15 X s 573 732 m 16 Y s 621 732 m 16 Y s
 597 740 m20 645 552 m 183 Y s 645 750 m 184 Y s 621 743 m 17 X s 653 743 m 16 X s 638 552 m 15 X s 638 934 m 15 X s 621 735 m 15 Y s 669 735 m 15 Y s 645 743 m20 693 841 m 237 Y s 693 1094 m 237 Y s 669 1086 m 17 X s 701 1086 m 16 X s 686 841 m 15 X
 s 686 1331 m 15 X s 669 1078 m 16 Y s 717 1078 m 16 Y s 693 1086 m20 741 388 m 142 Y s 741 545 m 143 Y s 717 538 m 17 X s 749 538 m 16 X s 734 388 m 15 X s 734 688 m 15 X s 717 530 m 15 Y s 765 530 m 15 Y s 741 538 m20 789 241 m 88 Y s 789 344 m 88
 Y s 765 337 m 16 X s 797 337 m 16 X s 781 241 m 16 X s 781 432 m 16 X s 765 329 m 15 Y s 813 329 m 15 Y s 789 337 m20 837 287 m 110 Y s 837 412 m 109 Y s 813 404 m 16 X s 845 404 m 16 X s 829 287 m 16 X s 829 521 m 16 X s 813 397 m 15 Y s 861 397 m
 15 Y s 837 404 m20 885 202 m 60 Y s 885 277 m 60 Y s 861 269 m 16 X s 892 269 m 17 X s 877 202 m 15 X s 877 337 m 15 X s 861 262 m 15 Y s 909 262 m 15 Y s 885 269 m20 933 202 m 60 Y s 933 277 m 61 Y s 909 270 m 16 X s 940 270 m 17 X s 925 202 m 15 X
 s 925 338 m 15 X s 909 262 m 15 Y s 957 262 m 15 Y s 933 270 m20 981 241 m 87 Y s 981 344 m 87 Y s 957 336 m 16 X s 988 336 m 17 X s 973 241 m 15 X s 973 431 m 15 X s 957 328 m 16 Y s 1005 328 m 16 Y s 981 336 m20 1029 442 m 158 Y s 1029 615 m 158 Y
 s 1005 607 m 16 X s 1036 607 m 17 X s 1021 442 m 15 X s 1021 773 m 15 X s 1005 600 m 15 Y s 1053 600 m 15 Y s 1029 607 m20 1124 288 m 110 Y s 1124 413 m 110 Y s 1100 405 m 17 X s 1132 405 m 16 X s 1117 288 m 15 X s 1117 523 m 15 X s 1100 398 m 15 Y
 s 1148 398 m 15 Y s 1124 405 m20 1172 241 m 86 Y s 1172 343 m 86 Y s 1148 335 m 17 X s 1180 335 m 16 X s 1165 241 m 15 X s 1165 429 m 15 X s 1148 327 m 16 Y s 1196 327 m 16 Y s 1172 335 m20 black
 gsave  2268 1682 0 0 C 272.126 1244.5 t 0 r /Helvetica-Bold findfont 49.4636 sf 0 0 m (Kolmogorov\255Smirnov test: signal \(background\) probability = 5.35e\25506 \(0.000225\)) show NC gr  238 202 m 1916 X s 324 244 m -42 Y s 366 223 m -21 Y s 408
 223 m -21 Y s 449 223 m -21 Y s 491 244 m -42 Y s 533 223 m -21 Y s 575 223 m -21 Y s 617 223 m -21 Y s 659 244 m -42 Y s 700 223 m -21 Y s 742 223 m -21 Y s 784 223 m -21 Y s 826 244 m -42 Y s 868 223 m -21 Y s 909 223 m -21 Y s 951 223 m -21 Y s
 993 244 m -42 Y s 1035 223 m -21 Y s 1077 223 m -21 Y s 1118 223 m -21 Y s 1160 244 m -42 Y s 1202 223 m -21 Y s 1244 223 m -21 Y s 1286 223 m -21 Y s 1327 244 m -42 Y s 1369 223 m -21 Y s 1411 223 m -21 Y s 1453 223 m -21 Y s 1495 244 m -42 Y s
 1537 223 m -21 Y s 1578 223 m -21 Y s 1620 223 m -21 Y s 1662 244 m -42 Y s 1704 223 m -21 Y s 1746 223 m -21 Y s 1787 223 m -21 Y s 1829 244 m -42 Y s 1871 223 m -21 Y s 1913 223 m -21 Y s 1955 223 m -21 Y s 1996 244 m -42 Y s 324 244 m -42 Y s 282
 223 m -21 Y s 240 223 m -21 Y s 1996 244 m -42 Y s 2038 223 m -21 Y s 2080 223 m -21 Y s 2122 223 m -21 Y s 238 1514 m 1916 X s 324 1471 m 43 Y s 366 1492 m 22 Y s 408 1492 m 22 Y s 449 1492 m 22 Y s 491 1471 m 43 Y s 533 1492 m 22 Y s 575 1492 m 22
 Y s 617 1492 m 22 Y s 659 1471 m 43 Y s 700 1492 m 22 Y s 742 1492 m 22 Y s 784 1492 m 22 Y s 826 1471 m 43 Y s 868 1492 m 22 Y s 909 1492 m 22 Y s 951 1492 m 22 Y s 993 1471 m 43 Y s 1035 1492 m 22 Y s 1077 1492 m 22 Y s 1118 1492 m 22 Y s 1160
 1471 m 43 Y s 1202 1492 m 22 Y s 1244 1492 m 22 Y s 1286 1492 m 22 Y s 1327 1471 m 43 Y s 1369 1492 m 22 Y s 1411 1492 m 22 Y s 1453 1492 m 22 Y s 1495 1471 m 43 Y s 1537 1492 m 22 Y s 1578 1492 m 22 Y s 1620 1492 m 22 Y s 1662 1471 m 43 Y s 1704
 1492 m 22 Y s 1746 1492 m 22 Y s 1787 1492 m 22 Y s 1829 1471 m 43 Y s 1871 1492 m 22 Y s 1913 1492 m 22 Y s 1955 1492 m 22 Y s 1996 1471 m 43 Y s 324 1471 m 43 Y s 282 1492 m 22 Y s 240 1492 m 22 Y s 1996 1471 m 43 Y s 2038 1492 m 22 Y s 2080 1492
 m 22 Y s 2122 1492 m 22 Y s 238 202 m 1312 Y s 291 202 m -53 X s 265 231 m -27 X s 265 261 m -27 X s 265 290 m -27 X s 265 320 m -27 X s 291 349 m -53 X s 265 379 m -27 X s 265 408 m -27 X s 265 437 m -27 X s 265 467 m -27 X s 291 496 m -53 X s 265
 526 m -27 X s 265 555 m -27 X s 265 585 m -27 X s 265 614 m -27 X s 291 644 m -53 X s 265 673 m -27 X s 265 703 m -27 X s 265 732 m -27 X s 265 761 m -27 X s 291 791 m -53 X s 265 820 m -27 X s 265 850 m -27 X s 265 879 m -27 X s 265 909 m -27 X s
 291 938 m -53 X s 265 968 m -27 X s 265 997 m -27 X s 265 1027 m -27 X s 265 1056 m -27 X s 291 1085 m -53 X s 265 1115 m -27 X s 265 1144 m -27 X s 265 1174 m -27 X s 265 1203 m -27 X s 291 1233 m -53 X s 265 1262 m -27 X s 265 1292 m -27 X s 265
 1321 m -27 X s 265 1351 m -27 X s 291 1380 m -53 X s 291 1380 m -53 X s 265 1409 m -27 X s 265 1439 m -27 X s 265 1468 m -27 X s 265 1498 m -27 X s 2154 202 m 1312 Y s 2101 202 m 53 X s 2128 231 m 26 X s 2128 261 m 26 X s 2128 290 m 26 X s 2128 320
 m 26 X s 2101 349 m 53 X s 2128 379 m 26 X s 2128 408 m 26 X s 2128 437 m 26 X s 2128 467 m 26 X s 2101 496 m 53 X s 2128 526 m 26 X s 2128 555 m 26 X s 2128 585 m 26 X s 2128 614 m 26 X s 2101 644 m 53 X s 2128 673 m 26 X s 2128 703 m 26 X s 2128
 732 m 26 X s 2128 761 m 26 X s 2101 791 m 53 X s 2128 820 m 26 X s 2128 850 m 26 X s 2128 879 m 26 X s 2128 909 m 26 X s 2101 938 m 53 X s 2128 968 m 26 X s 2128 997 m 26 X s 2128 1027 m 26 X s 2128 1056 m 26 X s 2101 1085 m 53 X s 2128 1115 m 26 X
 s 2128 1144 m 26 X s 2128 1174 m 26 X s 2128 1203 m 26 X s 2101 1233 m 53 X s 2128 1262 m 26 X s 2128 1292 m 26 X s 2128 1321 m 26 X s 2128 1351 m 26 X s 2101 1380 m 53 X s 2101 1380 m 53 X s 2128 1409 m 26 X s 2128 1439 m 26 X s 2128 1468 m 26 X s
 2128 1498 m 26 X s
 gsave  2268 1682 0 0 C 2211.02 193.403 t 90 r /Helvetica-Bold findfont 45.6587 sf 0 0 m (U/O\255flow \(S,B\): \(0.0, 0.0\)% / \(0.0, 0.0\)%) show NC gr  0.490196 0.545098 0.615686 c 0.364706 0.419608 0.490196 c 1587 96 23 1577 bf 0.490196 0.545098
 0.615686 c 23 1577 m 1587 X s 1610 1577 m 96 Y s 1610 1673 m -1587 X s 23 1673 m -96 Y s 1 1 1 c black 1 1 1 c
 gsave  2268 1682 0 0 C 95.1223 1605.67 t 0 r /Helvetica-Bold findfont 68.4881 sf 0 0 m (TMVA overtraining check for classifier: MLP) show NC gr 
 gr  gr showpage
end
%%EOF
