%!PS-Adobe-2.0 EPSF-2.0
%%BoundingBox:  0 0 567 420
%%Title: plots/overtrain_BDTB.eps: TMVA comparison BDTB
%%Creator: ROOT Version 5.34/09
%%CreationDate: Sat Jan  4 23:56:04 2014
%%EndComments
%%BeginProlog
80 dict begin
/s {stroke} def /l {lineto} def /m {moveto} def /t {translate} def
/r {rotate} def /rl {roll}  def /R {repeat} def
/d {rlineto} def /rm {rmoveto} def /gr {grestore} def /f {eofill} def
/c {setrgbcolor} def /black {0 setgray} def /sd {setdash} def
/cl {closepath} def /sf {scalefont setfont} def /lw {setlinewidth} def
/box {m dup 0 exch d exch 0 d 0 exch neg d cl} def
/NC{systemdict begin initclip end}def/C{NC box clip newpath}def
/bl {box s} def /bf {box f} def /Y { 0 exch d} def /X { 0 d} def 
/K {{pop pop 0 moveto} exch kshow} bind def
/ita {/ang 15 def gsave [1 0 ang dup sin exch cos div 1 0 0] concat} def 
/mp {newpath /y exch def /x exch def} def
/side {[w .77 mul w .23 mul] .385 w mul sd w 0 l currentpoint t -144 r} def
/mr {mp x y w2 0 360 arc} def /m24 {mr s} def /m20 {mr f} def
/mb {mp x y w2 add m w2 neg 0 d 0 w neg d w 0 d 0 w d cl} def
/mt {mp x y w2 add m w2 neg w neg d w 0 d cl} def
/m21 {mb f} def /m25 {mb s} def /m22 {mt f} def /m26{mt s} def
/m23 {mp x y w2 sub m w2 w d w neg 0 d cl f} def
/m27 {mp x y w2 add m w3 neg w2 neg d w3 w2 neg d w3 w2 d cl s} def
/m28 {mp x w2 sub y w2 sub w3 add m w3 0 d  0 w3 neg d w3 0 d 0 w3 d w3 0 d  0 w3 d w3 neg 0 d 0 w3 d w3 neg 0 d 0 w3 neg d w3 neg 0 d cl s } def
/m29 {mp gsave x w2 sub y w2 add w3 sub m currentpoint t 4 {side} repeat cl fill gr} def
/m30 {mp gsave x w2 sub y w2 add w3 sub m currentpoint t 4 {side} repeat cl s gr} def
/m31 {mp x y w2 sub m 0 w d x w2 sub y m w 0 d x w2 sub y w2 add m w w neg d x w2 sub y w2 sub m w w d s} def
/m32 {mp x y w2 sub m w2 w d w neg 0 d cl s} def
/m33 {mp x y w2 add m w3 neg w2 neg d w3 w2 neg d w3 w2 d cl f} def
/m34 {mp x w2 sub y w2 sub w3 add m w3 0 d  0 w3 neg d w3 0 d 0 w3 d w3 0 d  0 w3 d w3 neg 0 d 0 w3 d w3 neg 0 d 0 w3 neg d w3 neg 0 d cl f } def
/m2 {mp x y w2 sub m 0 w d x w2 sub y m w 0 d s} def
/m5 {mp x w2 sub y w2 sub m w w d x w2 sub y w2 add m w w neg d s} def
/reEncode {exch findfont dup length dict begin {1 index /FID eq  {pop pop} {def} ifelse } forall /Encoding exch def currentdict end dup /FontName get exch definefont pop } def [/Times-Bold /Times-Italic /Times-BoldItalic /Helvetica /Helvetica-Oblique
 /Helvetica-Bold /Helvetica-BoldOblique /Courier /Courier-Oblique /Courier-Bold /Courier-BoldOblique /Times-Roman /AvantGarde-Book /AvantGarde-BookOblique /AvantGarde-Demi /AvantGarde-DemiOblique /Bookman-Demi /Bookman-DemiItalic /Bookman-Light
 /Bookman-LightItalic /Helvetica-Narrow /Helvetica-Narrow-Bold /Helvetica-Narrow-BoldOblique /Helvetica-Narrow-Oblique /NewCenturySchlbk-Roman /NewCenturySchlbk-Bold /NewCenturySchlbk-BoldItalic /NewCenturySchlbk-Italic /Palatino-Bold
 /Palatino-BoldItalic /Palatino-Italic /Palatino-Roman ] {ISOLatin1Encoding reEncode } forall
%%EndProlog
%%BeginSetup
%%EndSetup
newpath  gsave  .25 .25 scale  gsave  0 0 t 0.490196 0.545098 0.615686 c[  ] 0 sd 3 lw 0.941176 0.941176 0.941176 c 2268 1682 0 0 bf black 1 1 0.992157 c 1916 1312 238 202 bf black 1916 1312 238 202 bl 1 1 0.992157 c 1916 1312 238 202 bf black 1916
 1312 238 202 bl 238 202 m 1916 X s
 gsave  2268 1682 0 0 C 1609.47 34.244 t 0 r /Helvetica-Bold findfont 72.293 sf 0 0 m (BDTB response) show NC gr  442 244 m -42 Y s 505 223 m -21 Y s 569 223 m -21 Y s 633 223 m -21 Y s 696 244 m -42 Y s 760 223 m -21 Y s 824 223 m -21 Y s 887 223 m
 -21 Y s 951 244 m -42 Y s 1015 223 m -21 Y s 1078 223 m -21 Y s 1142 223 m -21 Y s 1206 244 m -42 Y s 1269 223 m -21 Y s 1333 223 m -21 Y s 1397 223 m -21 Y s 1460 244 m -42 Y s 1524 223 m -21 Y s 1588 223 m -21 Y s 1651 223 m -21 Y s 1715 244 m -42
 Y s 1779 223 m -21 Y s 1842 223 m -21 Y s 1906 223 m -21 Y s 1970 244 m -42 Y s 442 244 m -42 Y s 378 223 m -21 Y s 315 223 m -21 Y s 251 223 m -21 Y s 1970 244 m -42 Y s 2033 223 m -21 Y s 2097 223 m -21 Y s
 gsave  2268 1682 0 0 C 384.294 129.366 t 0 r /Helvetica-Bold findfont 64.6832 sf 0 0 m (\2550.6) show NC gr 
 gsave  2268 1682 0 0 C 639.222 129.366 t 0 r /Helvetica-Bold findfont 64.6832 sf 0 0 m (\2550.4) show NC gr 
 gsave  2268 1682 0 0 C 890.345 129.366 t 0 r /Helvetica-Bold findfont 64.6832 sf 0 0 m (\2550.2) show NC gr 
 gsave  2268 1682 0 0 C 1183.32 129.366 t 0 r /Helvetica-Bold findfont 64.6832 sf 0 0 m (0) show NC gr 
 gsave  2268 1682 0 0 C 1411.62 129.366 t 0 r /Helvetica-Bold findfont 64.6832 sf 0 0 m (0.2) show NC gr 
 gsave  2268 1682 0 0 C 1666.54 129.366 t 0 r /Helvetica-Bold findfont 64.6832 sf 0 0 m (0.4) show NC gr 
 gsave  2268 1682 0 0 C 1921.47 129.366 t 0 r /Helvetica-Bold findfont 64.6832 sf 0 0 m (0.6) show NC gr  238 1514 m 1916 X s 442 1471 m 43 Y s 505 1492 m 22 Y s 569 1492 m 22 Y s 633 1492 m 22 Y s 696 1471 m 43 Y s 760 1492 m 22 Y s 824 1492 m 22 Y
 s 887 1492 m 22 Y s 951 1471 m 43 Y s 1015 1492 m 22 Y s 1078 1492 m 22 Y s 1142 1492 m 22 Y s 1206 1471 m 43 Y s 1269 1492 m 22 Y s 1333 1492 m 22 Y s 1397 1492 m 22 Y s 1460 1471 m 43 Y s 1524 1492 m 22 Y s 1588 1492 m 22 Y s 1651 1492 m 22 Y s
 1715 1471 m 43 Y s 1779 1492 m 22 Y s 1842 1492 m 22 Y s 1906 1492 m 22 Y s 1970 1471 m 43 Y s 442 1471 m 43 Y s 378 1492 m 22 Y s 315 1492 m 22 Y s 251 1492 m 22 Y s 1970 1471 m 43 Y s 2033 1492 m 22 Y s 2097 1492 m 22 Y s 238 202 m 1312 Y s
 gsave  2268 1682 0 0 C 64.6832 1430.64 t 90 r /Helvetica-Bold findfont 72.293 sf 0 0 m (dx) show NC gr 
 gsave  2268 1682 0 0 C 30.4391 1411.62 t 90 r /Helvetica-Bold findfont 45.6587 sf 0 0 m ( ) show NC gr 
 gsave  2268 1682 0 0 C 64.6832 1388.79 t 90 r /Helvetica-Bold findfont 72.293 sf 0 0 m (/) show NC gr 
 gsave  2268 1682 0 0 C 30.4391 1369.76 t 90 r /Helvetica-Bold findfont 45.6587 sf 0 0 m ( ) show NC gr 
 gsave  2268 1682 0 0 C 60.8783 1095.81 t 90 r /Helvetica-Bold findfont 72.293 sf 0 0 m (\(1/N\) dN) show NC gr  291 202 m -53 X s 265 231 m -27 X s 265 261 m -27 X s 265 290 m -27 X s 265 319 m -27 X s 291 349 m -53 X s 265 378 m -27 X s 265 407 m
 -27 X s 265 437 m -27 X s 265 466 m -27 X s 291 495 m -53 X s 265 525 m -27 X s 265 554 m -27 X s 265 583 m -27 X s 265 613 m -27 X s 291 642 m -53 X s 265 671 m -27 X s 265 701 m -27 X s 265 730 m -27 X s 265 760 m -27 X s 291 789 m -53 X s 265 818
 m -27 X s 265 848 m -27 X s 265 877 m -27 X s 265 906 m -27 X s 291 936 m -53 X s 265 965 m -27 X s 265 994 m -27 X s 265 1024 m -27 X s 265 1053 m -27 X s 291 1082 m -53 X s 265 1112 m -27 X s 265 1141 m -27 X s 265 1170 m -27 X s 265 1200 m -27 X
 s 291 1229 m -53 X s 265 1259 m -27 X s 265 1288 m -27 X s 265 1317 m -27 X s 265 1347 m -27 X s 291 1376 m -53 X s 291 1376 m -53 X s 265 1405 m -27 X s 265 1435 m -27 X s 265 1464 m -27 X s 265 1493 m -27 X s
 gsave  2268 1682 0 0 C 175.025 178.83 t 0 r /Helvetica-Bold findfont 64.6832 sf 0 0 m (0) show NC gr 
 gsave  2268 1682 0 0 C 121.757 323.416 t 0 r /Helvetica-Bold findfont 64.6832 sf 0 0 m (0.5) show NC gr 
 gsave  2268 1682 0 0 C 182.635 471.807 t 0 r /Helvetica-Bold findfont 64.6832 sf 0 0 m (1) show NC gr 
 gsave  2268 1682 0 0 C 121.757 616.393 t 0 r /Helvetica-Bold findfont 64.6832 sf 0 0 m (1.5) show NC gr 
 gsave  2268 1682 0 0 C 175.025 764.784 t 0 r /Helvetica-Bold findfont 64.6832 sf 0 0 m (2) show NC gr 
 gsave  2268 1682 0 0 C 121.757 909.37 t 0 r /Helvetica-Bold findfont 64.6832 sf 0 0 m (2.5) show NC gr 
 gsave  2268 1682 0 0 C 175.025 1057.76 t 0 r /Helvetica-Bold findfont 64.6832 sf 0 0 m (3) show NC gr 
 gsave  2268 1682 0 0 C 121.757 1206.15 t 0 r /Helvetica-Bold findfont 64.6832 sf 0 0 m (3.5) show NC gr 
 gsave  2268 1682 0 0 C 175.025 1350.74 t 0 r /Helvetica-Bold findfont 64.6832 sf 0 0 m (4) show NC gr  2154 202 m 1312 Y s 2101 202 m 53 X s 2128 231 m 26 X s 2128 261 m 26 X s 2128 290 m 26 X s 2128 319 m 26 X s 2101 349 m 53 X s 2128 378 m 26 X s
 2128 407 m 26 X s 2128 437 m 26 X s 2128 466 m 26 X s 2101 495 m 53 X s 2128 525 m 26 X s 2128 554 m 26 X s 2128 583 m 26 X s 2128 613 m 26 X s 2101 642 m 53 X s 2128 671 m 26 X s 2128 701 m 26 X s 2128 730 m 26 X s 2128 760 m 26 X s 2101 789 m 53 X
 s 2128 818 m 26 X s 2128 848 m 26 X s 2128 877 m 26 X s 2128 906 m 26 X s 2101 936 m 53 X s 2128 965 m 26 X s 2128 994 m 26 X s 2128 1024 m 26 X s 2128 1053 m 26 X s 2101 1082 m 53 X s 2128 1112 m 26 X s 2128 1141 m 26 X s 2128 1170 m 26 X s 2128
 1200 m 26 X s 2101 1229 m 53 X s 2128 1259 m 26 X s 2128 1288 m 26 X s 2128 1317 m 26 X s 2128 1347 m 26 X s 2101 1376 m 53 X s 2101 1376 m 53 X s 2128 1405 m 26 X s 2128 1435 m 26 X s 2128 1464 m 26 X s 2128 1493 m 26 X s 0.490196 0.545098 0.615686
 c 0.95 0.95 0.95 c 0.490196 0.545098 0.615686 c 907 202 238 1312 bl 238 1312 m 907 X s 1145 1312 m 202 Y s 1145 1514 m -907 X s 238 1514 m -202 Y s black
 gsave  2268 1682 0 0 C 418.538 1445.86 t 0 r /Times-Italic findfont 57.0734 sf 0 0 m (Signal \(test sample\)) show NC gr  0.49 0.6 0.82 c 265 1428 m 127 X 70 Y -127 X f 0 0 0.933333 c 265 1498 m 127 X s 265 1428 m 127 X s 392 1428 m 70 Y s 265 1428
 m 70 Y s black
 gsave  2268 1682 0 0 C 418.538 1350.74 t 0 r /Times-Italic findfont 57.0734 sf 0 0 m (Background \(test sample\)) show NC gr  1 0 0 c 392 1354 m -27 -27 d s 387 1398 m -70 -71 d s 339 1398 m -70 -71 d s 291 1398 m -26 -26 d s 0 lw 0 0 0.933333 c 1 0
 0 c 3 lw 265 1398 m 127 X s 265 1327 m 127 X s 392 1327 m 71 Y s 265 1327 m 71 Y s 0 0 0.933333 c 0.49 0.6 0.82 c black 0.49 0.6 0.82 c 238 202 m 48 X 141 Y 48 X 426 Y 48 X -280 Y 48 X -145 Y 48 X 1 Y 48 X -143 Y 95 X 144 Y 48 X 578 Y 48 X -581 Y 48
 X 291 Y 48 X 2 Y 48 X -434 Y 96 X 143 Y 48 X -143 Y 48 X 147 Y 47 X 150 Y 48 X -151 Y 48 X 143 Y 48 X -142 Y 48 X 138 Y 48 X -143 Y 48 X 573 Y 48 X -407 Y 48 X -157 Y 48 X 567 Y 47 X -718 Y 48 X 145 Y 48 X 2 Y 48 X -147 Y 96 X 433 Y 48 X -143 Y 48 X
 -290 Y 191 X 142 Y 48 X -142 Y f 0 0 0.933333 c 0.49 0.6 0.82 c 0 0 0.933333 c 238 202 m 48 X 141 Y 48 X 426 Y 48 X -280 Y 48 X -145 Y 48 X 1 Y 48 X -143 Y 95 X 144 Y 48 X 578 Y 48 X -581 Y 48 X 291 Y 48 X 2 Y 48 X -434 Y 96 X 143 Y 48 X -143 Y 48 X
 147 Y 47 X 150 Y 48 X -151 Y 48 X 143 Y 48 X -142 Y 48 X 138 Y 48 X -143 Y 48 X 573 Y 48 X -407 Y 48 X -157 Y 48 X 567 Y 47 X -718 Y 48 X 145 Y 48 X 2 Y 48 X -147 Y 96 X 433 Y 48 X -143 Y 48 X -290 Y 191 X 142 Y 48 X -142 Y s 1 0 0 c black 1 0 0 c
 2126 202 m s 2078 202 m s 2030 202 m s 1982 202 m s 1934 202 m s 1886 202 m s 1837 202 m s 1789 202 m s 1741 202 m s 1693 202 m s 1675 232 m -30 -30 d s 1675 280 m -48 -48 d s 1597 202 m s 1675 328 m -48 -48 d s 1579 233 m -30 -31 d s 1675 376 m -48
 -47 d s 1579 281 m -78 -79 d s 1675 425 m -48 -48 d s 1579 329 m -126 -127 d s 1640 438 m -13 -13 d s 1579 377 m -175 -175 d s 1579 425 m -223 -223 d s 1545 438 m -237 -236 d s 1532 473 m -272 -271 d s 1532 521 m -192 -191 d s 1329 319 m -117 -117 d
 s 1515 552 m -175 -174 d s 1292 330 m -128 -128 d s 1484 570 m -144 -144 d s 1292 378 m -48 -48 d s 1235 321 m -119 -119 d s 1484 618 m -144 -144 d s 1292 426 m -48 -48 d s 1185 319 m -117 -117 d s 1484 666 m -96 -96 d s 1371 553 m -31 -31 d s 1292
 474 m -48 -48 d s 1139 321 m -119 -119 d s 1443 673 m -55 -55 d s 1292 522 m -48 -48 d s 1100 331 m -128 -129 d s 1436 714 m -48 -48 d s 1276 555 m -32 -32 d s 1100 379 m -143 -144 d s 923 202 m s 1436 762 m -48 -48 d s 1100 427 m -143 -144 d s 909
 235 m -34 -33 d s 1436 810 m -48 -48 d s 1066 441 m -109 -110 d s 909 283 m -82 -81 d s 1436 858 m -48 -47 d s 1053 475 m -96 -96 d s 909 332 m -130 -130 d s 1436 907 m -48 -48 d s 1053 523 m -48 -48 d s 974 445 m -17 -17 d s 909 380 m -178 -178 d s
 1390 909 m -2 -2 d s 1037 556 m -32 -32 d s 909 428 m -226 -226 d s 909 476 m -144 -144 d s 752 319 m -117 -117 d s 909 524 m -144 -144 d s 717 332 m -130 -130 d s 909 572 m -144 -144 d s 717 380 m -178 -178 d s 909 620 m -144 -144 d s 717 429 m -96
 -96 d s 608 319 m -118 -117 d s 909 668 m -144 -143 d s 717 477 m -96 -96 d s 560 320 m -118 -118 d s 909 716 m -144 -143 d s 717 525 m -96 -96 d s 512 319 m -118 -117 d s 909 764 m -144 -143 d s 717 573 m -96 -96 d s 466 321 m -120 -119 d s 909 813
 m -96 -96 d s 773 677 m -8 -8 d s 717 621 m -48 -48 d s 658 562 m -37 -37 d s 418 322 m -120 -120 d s 909 861 m -48 -48 d s 838 790 m -25 -25 d s 717 669 m -48 -48 d s 367 319 m -117 -117 d s 909 909 m -48 -48 d s 672 672 m -3 -3 d s 321 321 m -83
 -83 d s 862 910 m -1 -1 d s 286 334 m -48 -48 d s 286 382 m -48 -48 d s 286 430 m -48 -48 d s 248 441 m -10 -10 d s 0 lw 3 lw 238 441 m 48 X -120 Y 48 X -2 Y 48 X 3 Y 48 X -1 Y 48 X -2 Y 48 X 1 Y 47 X -1 Y 48 X 243 Y 48 X 110 Y 48 X -353 Y 48 X 358
 Y 48 X 113 Y 48 X 120 Y 48 X -708 Y 48 X 243 Y 48 X 111 Y 48 X -115 Y 47 X -120 Y 48 X -2 Y 48 X 2 Y 48 X 234 Y 48 X -236 Y 48 X 234 Y 48 X 356 Y 48 X -236 Y 48 X -121 Y 48 X -114 Y 47 X -236 Y 48 X 236 Y 48 X -236 Y 479 X s 0.490196 0.545098
 0.615686 c 0.95 0.95 0.95 c 0.490196 0.545098 0.615686 c 952 202 1202 1312 bl 1202 1312 m 952 X s 2154 1312 m 202 Y s 2154 1514 m -952 X s 1202 1514 m -202 Y s black
 gsave  2268 1682 0 0 C 1293.66 1445.86 t 0 r /Times-Italic findfont 57.0734 sf 0 0 m (Signal \(training sample\)) show NC gr  0 0 0.933333 c /w 21 def /w2 {w 2 div} def /w3 {w 3 div} def 1250 1463 m20 black
 gsave  2268 1682 0 0 C 1293.66 1350.74 t 0 r /Times-Italic findfont 57.0734 sf 0 0 m (Background \(training sample\)) show NC gr  1 0 0 c 1250 1362 m20 0 0 0.933333 c 1 1 1 c 0 0 0.933333 c 406 283 m 190 Y s 406 488 m 189 Y s 382 480 m 16 X s 413
 480 m 17 X s 398 283 m 15 X s 398 677 m 15 X s 382 473 m 15 Y s 430 473 m 15 Y s 406 480 m20 645 290 m 208 Y s 645 513 m 207 Y s 621 505 m 17 X s 653 505 m 16 X s 638 290 m 15 X s 638 720 m 15 X s 621 498 m 15 Y s 669 498 m 15 Y s 645 505 m20 693
 202 m 134 Y s 693 351 m 134 Y s 669 343 m 17 X s 701 343 m 16 X s 686 202 m 15 X s 686 485 m 15 X s 669 336 m 15 Y s 717 336 m 15 Y s 693 343 m20 741 202 m 135 Y s 741 352 m 135 Y s 717 344 m 17 X s 749 344 m 16 X s 734 202 m 15 X s 734 487 m 15 X s
 717 337 m 15 Y s 765 337 m 15 Y s 741 344 m20 789 202 m 133 Y s 789 351 m 133 Y s 765 343 m 16 X s 797 343 m 16 X s 781 202 m 16 X s 781 484 m 16 X s 765 335 m 16 Y s 813 335 m 16 Y s 789 343 m20 837 284 m 192 Y s 837 491 m 192 Y s 813 484 m 16 X s
 845 484 m 16 X s 829 284 m 16 X s 829 683 m 16 X s 813 476 m 15 Y s 861 476 m 15 Y s 837 484 m20 933 202 m 133 Y s 933 350 m 133 Y s 909 342 m 16 X s 940 342 m 17 X s 925 202 m 15 X s 925 483 m 15 X s 909 335 m 15 Y s 957 335 m 15 Y s 933 342 m20
 981 202 m 133 Y s 981 350 m 134 Y s 957 343 m 16 X s 988 343 m 17 X s 973 202 m 15 X s 973 484 m 15 X s 957 335 m 15 Y s 1005 335 m 15 Y s 981 343 m20 1029 283 m 190 Y s 1029 488 m 190 Y s 1005 481 m 16 X s 1036 481 m 17 X s 1021 283 m 15 X s 1021
 678 m 15 X s 1005 473 m 15 Y s 1053 473 m 15 Y s 1029 481 m20 1076 283 m 190 Y s 1076 488 m 190 Y s 1053 481 m 16 X s 1084 481 m 16 X s 1069 283 m 15 X s 1069 678 m 15 X s 1053 473 m 15 Y s 1100 473 m 15 Y s 1076 481 m20 1124 285 m 193 Y s 1124 494
 m 193 Y s 1100 486 m 17 X s 1132 486 m 16 X s 1117 285 m 15 X s 1117 687 m 15 X s 1100 478 m 16 Y s 1148 478 m 16 Y s 1124 486 m20 1172 202 m 133 Y s 1172 351 m 133 Y s 1148 343 m 17 X s 1180 343 m 16 X s 1165 202 m 15 X s 1165 484 m 15 X s 1148 335
 m 16 Y s 1196 335 m 16 Y s 1172 343 m20 1220 284 m 191 Y s 1220 490 m 191 Y s 1196 483 m 17 X s 1228 483 m 16 X s 1213 284 m 15 X s 1213 681 m 15 X s 1196 475 m 15 Y s 1244 475 m 15 Y s 1220 483 m20 1316 202 m 132 Y s 1316 349 m 132 Y s 1292 341 m
 16 X s 1324 341 m 16 X s 1308 202 m 16 X s 1308 481 m 16 X s 1292 334 m 15 Y s 1340 334 m 15 Y s 1316 341 m20 1364 286 m 197 Y s 1364 498 m 197 Y s 1340 491 m 16 X s 1371 491 m 17 X s 1356 286 m 15 X s 1356 695 m 15 X s 1340 483 m 15 Y s 1388 483 m
 15 Y s 1364 491 m20 1412 380 m 236 Y s 1412 632 m 236 Y s 1388 624 m 16 X s 1419 624 m 17 X s 1404 380 m 15 X s 1404 868 m 15 X s 1388 616 m 16 Y s 1436 616 m 16 Y s 1412 624 m20 1460 202 m 132 Y s 1460 349 m 132 Y s 1436 341 m 16 X s 1467 341 m 17
 X s 1452 202 m 15 X s 1452 481 m 15 X s 1436 334 m 15 Y s 1484 334 m 15 Y s 1460 341 m20 1508 483 m 273 Y s 1508 771 m 274 Y s 1484 764 m 16 X s 1515 764 m 17 X s 1500 483 m 15 X s 1500 1045 m 15 X s 1484 756 m 15 Y s 1532 756 m 15 Y s 1508 764 m20
 1556 382 m 239 Y s 1556 636 m 238 Y s 1532 628 m 16 X s 1563 628 m 16 X s 1548 382 m 15 X s 1548 874 m 15 X s 1532 621 m 15 Y s 1579 621 m 15 Y s 1556 628 m20 1603 829 m 374 Y s 1603 1218 m 296 Y s 1579 1211 m 17 X s 1611 1211 m 16 X s 1596 829 m 15
 X s 1596 1514 m 15 X s 1579 1203 m 15 Y s 1627 1203 m 15 Y s 1603 1211 m20 1651 202 m 133 Y s 1651 351 m 133 Y s 1627 343 m 17 X s 1659 343 m 16 X s 1644 202 m 15 X s 1644 484 m 15 X s 1627 335 m 16 Y s 1675 335 m 16 Y s 1651 343 m20 1699 202 m 131
 Y s 1699 348 m 132 Y s 1675 341 m 17 X s 1707 341 m 16 X s 1692 202 m 15 X s 1692 480 m 15 X s 1675 333 m 15 Y s 1723 333 m 15 Y s 1699 341 m20 1747 202 m 135 Y s 1747 352 m 136 Y s 1723 345 m 17 X s 1755 345 m 16 X s 1740 202 m 15 X s 1740 488 m 15
 X s 1723 337 m 15 Y s 1771 337 m 15 Y s 1747 345 m20 1795 484 m 275 Y s 1795 774 m 275 Y s 1771 767 m 16 X s 1803 767 m 16 X s 1787 484 m 16 X s 1787 1049 m 16 X s 1771 759 m 15 Y s 1819 759 m 15 Y s 1795 767 m20 1843 202 m 134 Y s 1843 351 m 134 Y
 s 1819 343 m 16 X s 1851 343 m 16 X s 1835 202 m 16 X s 1835 485 m 16 X s 1819 336 m 15 Y s 1867 336 m 15 Y s 1843 343 m20 1891 202 m 133 Y s 1891 350 m 134 Y s 1867 343 m 16 X s 1898 343 m 17 X s 1883 202 m 15 X s 1883 484 m 15 X s 1867 335 m 15 Y
 s 1915 335 m 15 Y s 1891 343 m20 1939 202 m 138 Y s 1939 355 m 139 Y s 1915 348 m 16 X s 1946 348 m 17 X s 1931 202 m 15 X s 1931 494 m 15 X s 1915 340 m 15 Y s 1963 340 m 15 Y s 1939 348 m20 2035 202 m 132 Y s 2035 350 m 132 Y s 2011 342 m 16 X s
 2042 342 m 17 X s 2027 202 m 15 X s 2027 482 m 15 X s 2011 334 m 16 Y s 2059 334 m 16 Y s 2035 342 m20 2082 284 m 192 Y s 2082 492 m 192 Y s 2059 484 m 16 X s 2090 484 m 16 X s 2075 284 m 15 X s 2075 684 m 15 X s 2059 476 m 16 Y s 2106 476 m 16 Y s
 2082 484 m20 2130 202 m 133 Y s 2130 351 m 133 Y s 2106 343 m 17 X s 2138 343 m 16 X s 2123 202 m 15 X s 2123 484 m 15 X s 2106 335 m 16 Y s 2154 335 m 16 Y s 2130 343 m20 1 0 0 c 1 1 1 c 1 0 0 c 262 404 m 194 Y s 262 613 m 195 Y s 238 606 m 16 X s
 270 606 m 16 X s 254 404 m 16 X s 254 808 m 16 X s 238 598 m 15 Y s 286 598 m 15 Y s 262 606 m20 310 725 m 278 Y s 310 1018 m 278 Y s 286 1011 m 16 X s 318 1011 m 16 X s 302 725 m 16 X s 302 1296 m 16 X s 286 1003 m 15 Y s 334 1003 m 15 Y s 310 1011
 m20 358 332 m 170 Y s 358 517 m 170 Y s 334 509 m 16 X s 365 509 m 17 X s 350 332 m 15 X s 350 687 m 15 X s 334 502 m 15 Y s 382 502 m 15 Y s 358 509 m20 406 405 m 195 Y s 406 615 m 195 Y s 382 607 m 16 X s 413 607 m 17 X s 398 405 m 15 X s 398 810
 m 15 X s 382 600 m 15 Y s 430 600 m 15 Y s 406 607 m20 502 262 m 139 Y s 502 416 m 139 Y s 478 409 m 16 X s 509 409 m 17 X s 494 262 m 15 X s 494 555 m 15 X s 478 401 m 15 Y s 526 401 m 15 Y s 502 409 m20 549 202 m 94 Y s 549 311 m 94 Y s 526 304 m
 16 X s 557 304 m 16 X s 542 202 m 15 X s 542 405 m 15 X s 526 296 m 15 Y s 573 296 m 15 Y s 549 304 m20 597 261 m 134 Y s 597 411 m 134 Y s 573 403 m 17 X s 605 403 m 16 X s 590 261 m 15 X s 590 545 m 15 X s 573 395 m 16 Y s 621 395 m 16 Y s 597 403
 m20 645 330 m 168 Y s 645 513 m 168 Y s 621 506 m 17 X s 653 506 m 16 X s 638 330 m 15 X s 638 681 m 15 X s 621 498 m 15 Y s 669 498 m 15 Y s 645 506 m20 693 330 m 168 Y s 693 513 m 168 Y s 669 506 m 17 X s 701 506 m 16 X s 686 330 m 15 X s 686 681
 m 15 X s 669 498 m 15 Y s 717 498 m 15 Y s 693 506 m20 741 407 m 197 Y s 741 619 m 198 Y s 717 612 m 17 X s 749 612 m 16 X s 734 407 m 15 X s 734 817 m 15 X s 717 604 m 15 Y s 765 604 m 15 Y s 741 612 m20 789 404 m 194 Y s 789 614 m 194 Y s 765 606
 m 16 X s 797 606 m 16 X s 781 404 m 16 X s 781 808 m 16 X s 765 598 m 16 Y s 813 598 m 16 Y s 789 606 m20 837 482 m 220 Y s 837 717 m 220 Y s 813 710 m 16 X s 845 710 m 16 X s 829 482 m 16 X s 829 937 m 16 X s 813 702 m 15 Y s 861 702 m 15 Y s 837
 710 m20 885 261 m 134 Y s 885 410 m 134 Y s 861 403 m 16 X s 892 403 m 17 X s 877 261 m 15 X s 877 544 m 15 X s 861 395 m 15 Y s 909 395 m 15 Y s 885 403 m20 933 261 m 136 Y s 933 412 m 136 Y s 909 405 m 16 X s 940 405 m 17 X s 925 261 m 15 X s 925
 548 m 15 X s 909 397 m 15 Y s 957 397 m 15 Y s 933 405 m20 981 261 m 136 Y s 981 412 m 136 Y s 957 405 m 16 X s 988 405 m 17 X s 973 261 m 15 X s 973 548 m 15 X s 957 397 m 15 Y s 1005 397 m 15 Y s 981 405 m20 1029 404 m 195 Y s 1029 614 m 195 Y s
 1005 607 m 16 X s 1036 607 m 17 X s 1021 404 m 15 X s 1021 809 m 15 X s 1005 599 m 15 Y s 1053 599 m 15 Y s 1029 607 m20 1076 202 m 92 Y s 1076 310 m 92 Y s 1053 302 m 16 X s 1084 302 m 16 X s 1069 202 m 15 X s 1069 402 m 15 X s 1053 294 m 16 Y s
 1100 294 m 16 Y s 1076 302 m20 1124 330 m 168 Y s 1124 513 m 168 Y s 1100 506 m 17 X s 1132 506 m 16 X s 1117 330 m 15 X s 1117 681 m 15 X s 1100 498 m 15 Y s 1148 498 m 15 Y s 1124 506 m20 1172 202 m 94 Y s 1172 312 m 94 Y s 1148 304 m 17 X s 1180
 304 m 16 X s 1165 202 m 15 X s 1165 406 m 15 X s 1148 296 m 16 Y s 1196 296 m 16 Y s 1172 304 m20 1268 202 m 94 Y s 1268 311 m 95 Y s 1244 304 m 16 X s 1276 304 m 16 X s 1260 202 m 16 X s 1260 406 m 16 X s 1244 296 m 15 Y s 1292 296 m 15 Y s 1268
 304 m20 1316 202 m 94 Y s 1316 311 m 94 Y s 1292 304 m 16 X s 1324 304 m 16 X s 1308 202 m 16 X s 1308 405 m 16 X s 1292 296 m 15 Y s 1340 296 m 15 Y s 1316 304 m20 1508 403 m 194 Y s 1508 612 m 193 Y s 1484 604 m 16 X s 1515 604 m 17 X s 1500 403 m
 15 X s 1500 805 m 15 X s 1484 597 m 15 Y s 1532 597 m 15 Y s 1508 604 m20 1556 261 m 135 Y s 1556 411 m 135 Y s 1532 404 m 16 X s 1563 404 m 16 X s 1548 261 m 15 X s 1548 546 m 15 X s 1532 396 m 15 Y s 1579 396 m 15 Y s 1556 404 m20 1603 406 m 196 Y
 s 1603 617 m 196 Y s 1579 609 m 17 X s 1611 609 m 16 X s 1596 406 m 15 X s 1596 813 m 15 X s 1579 602 m 15 Y s 1627 602 m 15 Y s 1603 609 m20 1651 260 m 134 Y s 1651 409 m 134 Y s 1627 402 m 17 X s 1659 402 m 16 X s 1644 260 m 15 X s 1644 543 m 15 X
 s 1627 394 m 15 Y s 1675 394 m 15 Y s 1651 402 m20 1747 202 m 93 Y s 1747 310 m 93 Y s 1723 303 m 17 X s 1755 303 m 16 X s 1740 202 m 15 X s 1740 403 m 15 X s 1723 295 m 15 Y s 1771 295 m 15 Y s 1747 303 m20 1795 261 m 134 Y s 1795 410 m 135 Y s
 1771 403 m 16 X s 1803 403 m 16 X s 1787 261 m 16 X s 1787 545 m 16 X s 1771 395 m 15 Y s 1819 395 m 15 Y s 1795 403 m20 1891 202 m 93 Y s 1891 311 m 93 Y s 1867 303 m 16 X s 1898 303 m 17 X s 1883 202 m 15 X s 1883 404 m 15 X s 1867 295 m 16 Y s
 1915 295 m 16 Y s 1891 303 m20 1987 202 m 93 Y s 1987 310 m 93 Y s 1963 302 m 16 X s 1994 302 m 17 X s 1979 202 m 15 X s 1979 403 m 15 X s 1963 295 m 15 Y s 2011 295 m 15 Y s 1987 302 m20 black
 gsave  2268 1682 0 0 C 272.126 1244.5 t 0 r /Helvetica-Bold findfont 49.4636 sf 0 0 m (Kolmogorov\255Smirnov test: signal \(background\) probability = 0.0667 \(0.179\)) show NC gr  238 202 m 1916 X s 442 244 m -42 Y s 505 223 m -21 Y s 569 223 m -21
 Y s 633 223 m -21 Y s 696 244 m -42 Y s 760 223 m -21 Y s 824 223 m -21 Y s 887 223 m -21 Y s 951 244 m -42 Y s 1015 223 m -21 Y s 1078 223 m -21 Y s 1142 223 m -21 Y s 1206 244 m -42 Y s 1269 223 m -21 Y s 1333 223 m -21 Y s 1397 223 m -21 Y s 1460
 244 m -42 Y s 1524 223 m -21 Y s 1588 223 m -21 Y s 1651 223 m -21 Y s 1715 244 m -42 Y s 1779 223 m -21 Y s 1842 223 m -21 Y s 1906 223 m -21 Y s 1970 244 m -42 Y s 442 244 m -42 Y s 378 223 m -21 Y s 315 223 m -21 Y s 251 223 m -21 Y s 1970 244 m
 -42 Y s 2033 223 m -21 Y s 2097 223 m -21 Y s 238 1514 m 1916 X s 442 1471 m 43 Y s 505 1492 m 22 Y s 569 1492 m 22 Y s 633 1492 m 22 Y s 696 1471 m 43 Y s 760 1492 m 22 Y s 824 1492 m 22 Y s 887 1492 m 22 Y s 951 1471 m 43 Y s 1015 1492 m 22 Y s
 1078 1492 m 22 Y s 1142 1492 m 22 Y s 1206 1471 m 43 Y s 1269 1492 m 22 Y s 1333 1492 m 22 Y s 1397 1492 m 22 Y s 1460 1471 m 43 Y s 1524 1492 m 22 Y s 1588 1492 m 22 Y s 1651 1492 m 22 Y s 1715 1471 m 43 Y s 1779 1492 m 22 Y s 1842 1492 m 22 Y s
 1906 1492 m 22 Y s 1970 1471 m 43 Y s 442 1471 m 43 Y s 378 1492 m 22 Y s 315 1492 m 22 Y s 251 1492 m 22 Y s 1970 1471 m 43 Y s 2033 1492 m 22 Y s 2097 1492 m 22 Y s 238 202 m 1312 Y s 291 202 m -53 X s 265 231 m -27 X s 265 261 m -27 X s 265 290 m
 -27 X s 265 319 m -27 X s 291 349 m -53 X s 265 378 m -27 X s 265 407 m -27 X s 265 437 m -27 X s 265 466 m -27 X s 291 495 m -53 X s 265 525 m -27 X s 265 554 m -27 X s 265 583 m -27 X s 265 613 m -27 X s 291 642 m -53 X s 265 671 m -27 X s 265 701
 m -27 X s 265 730 m -27 X s 265 760 m -27 X s 291 789 m -53 X s 265 818 m -27 X s 265 848 m -27 X s 265 877 m -27 X s 265 906 m -27 X s 291 936 m -53 X s 265 965 m -27 X s 265 994 m -27 X s 265 1024 m -27 X s 265 1053 m -27 X s 291 1082 m -53 X s
 265 1112 m -27 X s 265 1141 m -27 X s 265 1170 m -27 X s 265 1200 m -27 X s 291 1229 m -53 X s 265 1259 m -27 X s 265 1288 m -27 X s 265 1317 m -27 X s 265 1347 m -27 X s 291 1376 m -53 X s 291 1376 m -53 X s 265 1405 m -27 X s 265 1435 m -27 X s
 265 1464 m -27 X s 265 1493 m -27 X s 2154 202 m 1312 Y s 2101 202 m 53 X s 2128 231 m 26 X s 2128 261 m 26 X s 2128 290 m 26 X s 2128 319 m 26 X s 2101 349 m 53 X s 2128 378 m 26 X s 2128 407 m 26 X s 2128 437 m 26 X s 2128 466 m 26 X s 2101 495 m
 53 X s 2128 525 m 26 X s 2128 554 m 26 X s 2128 583 m 26 X s 2128 613 m 26 X s 2101 642 m 53 X s 2128 671 m 26 X s 2128 701 m 26 X s 2128 730 m 26 X s 2128 760 m 26 X s 2101 789 m 53 X s 2128 818 m 26 X s 2128 848 m 26 X s 2128 877 m 26 X s 2128 906
 m 26 X s 2101 936 m 53 X s 2128 965 m 26 X s 2128 994 m 26 X s 2128 1024 m 26 X s 2128 1053 m 26 X s 2101 1082 m 53 X s 2128 1112 m 26 X s 2128 1141 m 26 X s 2128 1170 m 26 X s 2128 1200 m 26 X s 2101 1229 m 53 X s 2128 1259 m 26 X s 2128 1288 m 26
 X s 2128 1317 m 26 X s 2128 1347 m 26 X s 2101 1376 m 53 X s 2101 1376 m 53 X s 2128 1405 m 26 X s 2128 1435 m 26 X s 2128 1464 m 26 X s 2128 1493 m 26 X s
 gsave  2268 1682 0 0 C 2211.02 193.403 t 90 r /Helvetica-Bold findfont 45.6587 sf 0 0 m (U/O\255flow \(S,B\): \(0.0, 0.0\)% / \(0.0, 0.0\)%) show NC gr  0.490196 0.545098 0.615686 c 0.364706 0.419608 0.490196 c 1587 96 23 1577 bf 0.490196 0.545098
 0.615686 c 23 1577 m 1587 X s 1610 1577 m 96 Y s 1610 1673 m -1587 X s 23 1673 m -96 Y s 1 1 1 c black 1 1 1 c
 gsave  2268 1682 0 0 C 72.293 1605.67 t 0 r /Helvetica-Bold findfont 68.4881 sf 0 0 m (TMVA overtraining check for classifier: BDTB) show NC gr 
 gr  gr showpage
end
%%EOF
