%!PS-Adobe-2.0 EPSF-2.0
%%BoundingBox:  0 0 567 420
%%Title: plots/overtrain_BDT.eps: TMVA comparison BDT
%%Creator: ROOT Version 5.34/09
%%CreationDate: Sat Jan  4 23:56:04 2014
%%EndComments
%%BeginProlog
80 dict begin
/s {stroke} def /l {lineto} def /m {moveto} def /t {translate} def
/r {rotate} def /rl {roll}  def /R {repeat} def
/d {rlineto} def /rm {rmoveto} def /gr {grestore} def /f {eofill} def
/c {setrgbcolor} def /black {0 setgray} def /sd {setdash} def
/cl {closepath} def /sf {scalefont setfont} def /lw {setlinewidth} def
/box {m dup 0 exch d exch 0 d 0 exch neg d cl} def
/NC{systemdict begin initclip end}def/C{NC box clip newpath}def
/bl {box s} def /bf {box f} def /Y { 0 exch d} def /X { 0 d} def 
/K {{pop pop 0 moveto} exch kshow} bind def
/ita {/ang 15 def gsave [1 0 ang dup sin exch cos div 1 0 0] concat} def 
/mp {newpath /y exch def /x exch def} def
/side {[w .77 mul w .23 mul] .385 w mul sd w 0 l currentpoint t -144 r} def
/mr {mp x y w2 0 360 arc} def /m24 {mr s} def /m20 {mr f} def
/mb {mp x y w2 add m w2 neg 0 d 0 w neg d w 0 d 0 w d cl} def
/mt {mp x y w2 add m w2 neg w neg d w 0 d cl} def
/m21 {mb f} def /m25 {mb s} def /m22 {mt f} def /m26{mt s} def
/m23 {mp x y w2 sub m w2 w d w neg 0 d cl f} def
/m27 {mp x y w2 add m w3 neg w2 neg d w3 w2 neg d w3 w2 d cl s} def
/m28 {mp x w2 sub y w2 sub w3 add m w3 0 d  0 w3 neg d w3 0 d 0 w3 d w3 0 d  0 w3 d w3 neg 0 d 0 w3 d w3 neg 0 d 0 w3 neg d w3 neg 0 d cl s } def
/m29 {mp gsave x w2 sub y w2 add w3 sub m currentpoint t 4 {side} repeat cl fill gr} def
/m30 {mp gsave x w2 sub y w2 add w3 sub m currentpoint t 4 {side} repeat cl s gr} def
/m31 {mp x y w2 sub m 0 w d x w2 sub y m w 0 d x w2 sub y w2 add m w w neg d x w2 sub y w2 sub m w w d s} def
/m32 {mp x y w2 sub m w2 w d w neg 0 d cl s} def
/m33 {mp x y w2 add m w3 neg w2 neg d w3 w2 neg d w3 w2 d cl f} def
/m34 {mp x w2 sub y w2 sub w3 add m w3 0 d  0 w3 neg d w3 0 d 0 w3 d w3 0 d  0 w3 d w3 neg 0 d 0 w3 d w3 neg 0 d 0 w3 neg d w3 neg 0 d cl f } def
/m2 {mp x y w2 sub m 0 w d x w2 sub y m w 0 d s} def
/m5 {mp x w2 sub y w2 sub m w w d x w2 sub y w2 add m w w neg d s} def
/reEncode {exch findfont dup length dict begin {1 index /FID eq  {pop pop} {def} ifelse } forall /Encoding exch def currentdict end dup /FontName get exch definefont pop } def [/Times-Bold /Times-Italic /Times-BoldItalic /Helvetica /Helvetica-Oblique
 /Helvetica-Bold /Helvetica-BoldOblique /Courier /Courier-Oblique /Courier-Bold /Courier-BoldOblique /Times-Roman /AvantGarde-Book /AvantGarde-BookOblique /AvantGarde-Demi /AvantGarde-DemiOblique /Bookman-Demi /Bookman-DemiItalic /Bookman-Light
 /Bookman-LightItalic /Helvetica-Narrow /Helvetica-Narrow-Bold /Helvetica-Narrow-BoldOblique /Helvetica-Narrow-Oblique /NewCenturySchlbk-Roman /NewCenturySchlbk-Bold /NewCenturySchlbk-BoldItalic /NewCenturySchlbk-Italic /Palatino-Bold
 /Palatino-BoldItalic /Palatino-Italic /Palatino-Roman ] {ISOLatin1Encoding reEncode } forall
%%EndProlog
%%BeginSetup
%%EndSetup
newpath  gsave  .25 .25 scale  gsave  0 0 t 0.490196 0.545098 0.615686 c[  ] 0 sd 3 lw 0.941176 0.941176 0.941176 c 2268 1682 0 0 bf black 1 1 0.992157 c 1916 1312 238 202 bf black 1916 1312 238 202 bl 1 1 0.992157 c 1916 1312 238 202 bf black 1916
 1312 238 202 bl 238 202 m 1916 X s
 gsave  2268 1682 0 0 C 1662.74 34.244 t 0 r /Helvetica-Bold findfont 72.293 sf 0 0 m (BDT response) show NC gr  360 244 m -42 Y s 425 223 m -21 Y s 490 223 m -21 Y s 555 223 m -21 Y s 620 223 m -21 Y s 684 244 m -42 Y s 749 223 m -21 Y s 814 223 m
 -21 Y s 879 223 m -21 Y s 944 223 m -21 Y s 1008 244 m -42 Y s 1073 223 m -21 Y s 1138 223 m -21 Y s 1203 223 m -21 Y s 1268 223 m -21 Y s 1333 244 m -42 Y s 1397 223 m -21 Y s 1462 223 m -21 Y s 1527 223 m -21 Y s 1592 223 m -21 Y s 1657 244 m -42
 Y s 1722 223 m -21 Y s 1786 223 m -21 Y s 1851 223 m -21 Y s 1916 223 m -21 Y s 1981 244 m -42 Y s 360 244 m -42 Y s 295 223 m -21 Y s 1981 244 m -42 Y s 2046 223 m -21 Y s 2111 223 m -21 Y s
 gsave  2268 1682 0 0 C 300.587 129.366 t 0 r /Helvetica-Bold findfont 64.6832 sf 0 0 m (\2550.3) show NC gr 
 gsave  2268 1682 0 0 C 624.003 129.366 t 0 r /Helvetica-Bold findfont 64.6832 sf 0 0 m (\2550.2) show NC gr 
 gsave  2268 1682 0 0 C 955.028 129.366 t 0 r /Helvetica-Bold findfont 64.6832 sf 0 0 m (\2550.1) show NC gr 
 gsave  2268 1682 0 0 C 1312.69 129.366 t 0 r /Helvetica-Bold findfont 64.6832 sf 0 0 m (0) show NC gr 
 gsave  2268 1682 0 0 C 1613.27 129.366 t 0 r /Helvetica-Bold findfont 64.6832 sf 0 0 m (0.1) show NC gr 
 gsave  2268 1682 0 0 C 1932.89 129.366 t 0 r /Helvetica-Bold findfont 64.6832 sf 0 0 m (0.2) show NC gr  238 1514 m 1916 X s 360 1471 m 43 Y s 425 1492 m 22 Y s 490 1492 m 22 Y s 555 1492 m 22 Y s 620 1492 m 22 Y s 684 1471 m 43 Y s 749 1492 m 22 Y
 s 814 1492 m 22 Y s 879 1492 m 22 Y s 944 1492 m 22 Y s 1008 1471 m 43 Y s 1073 1492 m 22 Y s 1138 1492 m 22 Y s 1203 1492 m 22 Y s 1268 1492 m 22 Y s 1333 1471 m 43 Y s 1397 1492 m 22 Y s 1462 1492 m 22 Y s 1527 1492 m 22 Y s 1592 1492 m 22 Y s
 1657 1471 m 43 Y s 1722 1492 m 22 Y s 1786 1492 m 22 Y s 1851 1492 m 22 Y s 1916 1492 m 22 Y s 1981 1471 m 43 Y s 360 1471 m 43 Y s 295 1492 m 22 Y s 1981 1471 m 43 Y s 2046 1492 m 22 Y s 2111 1492 m 22 Y s 238 202 m 1312 Y s
 gsave  2268 1682 0 0 C 64.6832 1430.64 t 90 r /Helvetica-Bold findfont 72.293 sf 0 0 m (dx) show NC gr 
 gsave  2268 1682 0 0 C 30.4391 1411.62 t 90 r /Helvetica-Bold findfont 45.6587 sf 0 0 m ( ) show NC gr 
 gsave  2268 1682 0 0 C 64.6832 1388.79 t 90 r /Helvetica-Bold findfont 72.293 sf 0 0 m (/) show NC gr 
 gsave  2268 1682 0 0 C 30.4391 1369.76 t 90 r /Helvetica-Bold findfont 45.6587 sf 0 0 m ( ) show NC gr 
 gsave  2268 1682 0 0 C 60.8783 1095.81 t 90 r /Helvetica-Bold findfont 72.293 sf 0 0 m (\(1/N\) dN) show NC gr  291 202 m -53 X s 265 252 m -27 X s 265 302 m -27 X s 265 352 m -27 X s 265 402 m -27 X s 291 452 m -53 X s 265 502 m -27 X s 265 552 m
 -27 X s 265 602 m -27 X s 265 652 m -27 X s 291 702 m -53 X s 265 752 m -27 X s 265 802 m -27 X s 265 852 m -27 X s 265 902 m -27 X s 291 952 m -53 X s 265 1002 m -27 X s 265 1052 m -27 X s 265 1102 m -27 X s 265 1152 m -27 X s 291 1202 m -53 X s
 265 1252 m -27 X s 265 1302 m -27 X s 265 1352 m -27 X s 265 1402 m -27 X s 291 1452 m -53 X s 291 1452 m -53 X s 265 1502 m -27 X s
 gsave  2268 1682 0 0 C 175.025 178.83 t 0 r /Helvetica-Bold findfont 64.6832 sf 0 0 m (0) show NC gr 
 gsave  2268 1682 0 0 C 175.025 426.148 t 0 r /Helvetica-Bold findfont 64.6832 sf 0 0 m (5) show NC gr 
 gsave  2268 1682 0 0 C 136.976 677.271 t 0 r /Helvetica-Bold findfont 64.6832 sf 0 0 m (10) show NC gr 
 gsave  2268 1682 0 0 C 136.976 928.394 t 0 r /Helvetica-Bold findfont 64.6832 sf 0 0 m (15) show NC gr 
 gsave  2268 1682 0 0 C 136.976 1175.71 t 0 r /Helvetica-Bold findfont 64.6832 sf 0 0 m (20) show NC gr 
 gsave  2268 1682 0 0 C 136.976 1426.84 t 0 r /Helvetica-Bold findfont 64.6832 sf 0 0 m (25) show NC gr  2154 202 m 1312 Y s 2101 202 m 53 X s 2128 252 m 26 X s 2128 302 m 26 X s 2128 352 m 26 X s 2128 402 m 26 X s 2101 452 m 53 X s 2128 502 m 26 X s
 2128 552 m 26 X s 2128 602 m 26 X s 2128 652 m 26 X s 2101 702 m 53 X s 2128 752 m 26 X s 2128 802 m 26 X s 2128 852 m 26 X s 2128 902 m 26 X s 2101 952 m 53 X s 2128 1002 m 26 X s 2128 1052 m 26 X s 2128 1102 m 26 X s 2128 1152 m 26 X s 2101 1202 m
 53 X s 2128 1252 m 26 X s 2128 1302 m 26 X s 2128 1352 m 26 X s 2128 1402 m 26 X s 2101 1452 m 53 X s 2101 1452 m 53 X s 2128 1502 m 26 X s 0.490196 0.545098 0.615686 c 0.95 0.95 0.95 c 0.490196 0.545098 0.615686 c 907 202 238 1312 bl 238 1312 m 907
 X s 1145 1312 m 202 Y s 1145 1514 m -907 X s 238 1514 m -202 Y s black
 gsave  2268 1682 0 0 C 418.538 1445.86 t 0 r /Times-Italic findfont 57.0734 sf 0 0 m (Signal \(test sample\)) show NC gr  0.49 0.6 0.82 c 265 1428 m 127 X 70 Y -127 X f 0 0 0.933333 c 265 1498 m 127 X s 265 1428 m 127 X s 392 1428 m 70 Y s 265 1428
 m 70 Y s black
 gsave  2268 1682 0 0 C 418.538 1350.74 t 0 r /Times-Italic findfont 57.0734 sf 0 0 m (Background \(test sample\)) show NC gr  1 0 0 c 392 1354 m -27 -27 d s 387 1398 m -70 -71 d s 339 1398 m -70 -71 d s 291 1398 m -26 -26 d s 0 lw 0 0 0.933333 c 1 0
 0 c 3 lw 265 1398 m 127 X s 265 1327 m 127 X s 392 1327 m 71 Y s 265 1327 m 71 Y s 0 0 0.933333 c 0.49 0.6 0.82 c black 0.49 0.6 0.82 c 238 202 m 123 Y 48 X -123 Y 192 X 61 Y 48 X 2 Y 47 X -63 Y 48 X 62 Y 48 X -62 Y 96 X 125 Y 48 X 126 Y 48 X -187 Y
 48 X 247 Y 48 X -248 Y 48 X 189 Y 48 X -191 Y 47 X -61 Y 48 X 191 Y 48 X 118 Y 48 X 2 Y 48 X -52 Y 48 X -134 Y 48 X 3 Y 48 X -128 Y 143 X 125 Y 48 X -63 Y 48 X -62 Y 48 X 124 Y 48 X -63 Y 48 X 1 Y 48 X -62 Y 96 X 64 Y 48 X 59 Y 48 X -123 Y 95 X f 0
 0 0.933333 c 0.49 0.6 0.82 c 0 0 0.933333 c 238 325 m 48 X -123 Y 192 X 61 Y 48 X 2 Y 47 X -63 Y 48 X 62 Y 48 X -62 Y 96 X 125 Y 48 X 126 Y 48 X -187 Y 48 X 247 Y 48 X -248 Y 48 X 189 Y 48 X -191 Y 47 X -61 Y 48 X 191 Y 48 X 118 Y 48 X 2 Y 48 X -52
 Y 48 X -134 Y 48 X 3 Y 48 X -128 Y 143 X 125 Y 48 X -63 Y 48 X -62 Y 48 X 124 Y 48 X -63 Y 48 X 1 Y 48 X -62 Y 96 X 64 Y 48 X 59 Y 48 X -123 Y 95 X s 1 0 0 c black 1 0 0 c 2154 230 m -28 -28 d s 2129 253 m -23 -23 d s 2078 202 m s 2059 231 m -29 -29
 d s 2032 253 m -50 -51 d s 1985 253 m -22 -22 d s 1934 202 m cl s 1915 231 m -29 -29 d s 1888 253 m -21 -22 d s 1837 202 m cl s 1819 232 m -30 -30 d s 1819 280 m -78 -78 d s 1795 304 m -24 -24 d s 1744 253 m -21 -21 d s 1693 202 m s 1675 232 m -30
 -30 d s 1675 280 m -78 -78 d s 1675 328 m -126 -126 d s 1675 376 m -174 -174 d s 1675 425 m -48 -48 d s 1605 355 m -26 -26 d s 1556 305 m -103 -103 d s 1660 458 m -33 -33 d s 1507 304 m -103 -102 d s 1484 329 m -128 -127 d s 1484 377 m -176 -175 d s
 1464 406 m -124 -124 d s 1311 253 m -51 -51 d s 1422 412 m -34 -34 d s 1366 355 m -26 -25 d s 1292 282 m -80 -80 d s 1292 330 m -128 -128 d s 1292 378 m -176 -176 d s 1270 404 m -202 -202 d s 1225 407 m -29 -29 d s 1176 358 m -28 -27 d s 1122 304 m
 -102 -102 d s 1100 331 m -128 -129 d s 1100 379 m -95 -96 d s 975 253 m -52 -51 d s 1080 407 m -27 -28 d s 1028 354 m -23 -23 d s 957 283 m -48 -48 d s 875 202 m s 957 331 m -48 -48 d s 827 202 m s 935 358 m -26 -26 d s 813 236 m -34 -34 d s 813 284
 m -82 -82 d s 785 304 m -102 -102 d s 736 304 m -67 -68 d s 635 202 m cl s 717 332 m -48 -48 d s 621 237 m -34 -35 d s 717 380 m -48 -47 d s 621 285 m -48 -48 d s 539 202 m s 696 407 m -27 -26 d s 593 304 m -20 -19 d s 526 237 m -36 -35 d s 493 252
 m -15 -15 d s 442 202 m cl s 394 202 m s 346 202 m cl s 298 202 m cl s 250 202 m cl s 0 lw 3 lw 238 202 m 240 X 50 Y 48 X -50 Y 47 X 102 Y 48 X -102 Y 48 X 205 Y 48 X -103 Y 96 X -102 Y 96 X 156 Y 48 X -105 Y 48 X 101 Y 48 X 53 Y 47 X -103 Y 48 X 54
 Y 48 X 49 Y 48 X -3 Y 48 X -151 Y 48 X 102 Y 48 X 57 Y 48 X -6 Y 48 X -102 Y 48 X 1 Y 47 X 50 Y 48 X 103 Y 48 X -256 Y 48 X 51 Y 48 X 51 Y 48 X -102 Y 48 X 51 Y 48 X -51 Y 48 X 51 Y 96 X -51 Y 47 X 51 Y 48 X -51 Y s 0.490196 0.545098 0.615686 c 0.95
 0.95 0.95 c 0.490196 0.545098 0.615686 c 952 202 1202 1312 bl 1202 1312 m 952 X s 2154 1312 m 202 Y s 2154 1514 m -952 X s 1202 1514 m -202 Y s black
 gsave  2268 1682 0 0 C 1293.66 1445.86 t 0 r /Times-Italic findfont 57.0734 sf 0 0 m (Signal \(training sample\)) show NC gr  0 0 0.933333 c /w 21 def /w2 {w 2 div} def /w3 {w 3 div} def 1250 1463 m20 black
 gsave  2268 1682 0 0 C 1293.66 1350.74 t 0 r /Times-Italic findfont 57.0734 sf 0 0 m (Background \(training sample\)) show NC gr  1 0 0 c 1250 1362 m20 0 0 0.933333 c 1 1 1 c 0 0 0.933333 c 1556 683 m 201 Y s 1556 899 m 200 Y s 1532 891 m 16 X s
 1563 891 m 16 X s 1548 683 m 15 X s 1548 1099 m 15 X s 1532 884 m 15 Y s 1579 884 m 15 Y s 1556 891 m20 1603 958 m 245 Y s 1603 1218 m 245 Y s 1579 1211 m 17 X s 1611 1211 m 16 X s 1596 958 m 15 X s 1596 1463 m 15 X s 1579 1203 m 15 Y s 1627 1203 m
 15 Y s 1603 1211 m20 1651 784 m 216 Y s 1651 1015 m 216 Y s 1627 1008 m 17 X s 1659 1008 m 16 X s 1644 784 m 15 X s 1644 1231 m 15 X s 1627 1000 m 15 Y s 1675 1000 m 15 Y s 1651 1008 m20 1699 425 m 147 Y s 1699 587 m 147 Y s 1675 580 m 17 X s 1707
 580 m 16 X s 1692 425 m 15 X s 1692 734 m 15 X s 1675 572 m 15 Y s 1723 572 m 15 Y s 1699 580 m20 1747 238 m 80 Y s 1747 333 m 80 Y s 1723 326 m 17 X s 1755 326 m 16 X s 1740 238 m 15 X s 1740 413 m 15 X s 1723 318 m 15 Y s 1771 318 m 15 Y s 1747
 326 m20 1795 328 m 120 Y s 1795 463 m 119 Y s 1771 455 m 16 X s 1803 455 m 16 X s 1787 328 m 16 X s 1787 582 m 16 X s 1771 448 m 15 Y s 1819 448 m 15 Y s 1795 455 m20 1939 238 m 81 Y s 1939 334 m 81 Y s 1915 327 m 16 X s 1946 327 m 17 X s 1931 238 m
 15 X s 1931 415 m 15 X s 1915 319 m 15 Y s 1963 319 m 15 Y s 1939 327 m20 1 0 0 c 1 1 1 c 1 0 0 c 549 202 m 36 Y s 549 253 m 36 Y s 526 245 m 16 X s 557 245 m 16 X s 542 202 m 15 X s 542 289 m 15 X s 526 238 m 15 Y s 573 238 m 15 Y s 549 245 m20 597
 202 m 35 Y s 597 252 m 35 Y s 573 245 m 17 X s 605 245 m 16 X s 590 202 m 15 X s 590 287 m 15 X s 573 237 m 15 Y s 621 237 m 15 Y s 597 245 m20 693 289 m 79 Y s 693 383 m 79 Y s 669 375 m 17 X s 701 375 m 16 X s 686 289 m 15 X s 686 462 m 15 X s 669
 368 m 15 Y s 717 368 m 15 Y s 693 375 m20 741 257 m 68 Y s 741 340 m 68 Y s 717 332 m 17 X s 749 332 m 16 X s 734 257 m 15 X s 734 408 m 15 X s 717 325 m 15 Y s 765 325 m 15 Y s 741 332 m20 789 202 m 36 Y s 789 253 m 36 Y s 765 245 m 16 X s 797 245
 m 16 X s 781 202 m 16 X s 781 289 m 16 X s 765 238 m 15 Y s 813 238 m 15 Y s 789 245 m20 837 289 m 79 Y s 837 384 m 79 Y s 813 376 m 16 X s 845 376 m 16 X s 829 289 m 16 X s 829 463 m 16 X s 813 368 m 16 Y s 861 368 m 16 Y s 837 376 m20 885 288 m 79
 Y s 885 382 m 79 Y s 861 375 m 16 X s 892 375 m 17 X s 877 288 m 15 X s 877 461 m 15 X s 861 367 m 15 Y s 909 367 m 15 Y s 885 375 m20 933 391 m 107 Y s 933 513 m 108 Y s 909 506 m 16 X s 940 506 m 17 X s 925 391 m 15 X s 925 621 m 15 X s 909 498 m
 15 Y s 957 498 m 15 Y s 933 506 m20 981 425 m 114 Y s 981 555 m 114 Y s 957 547 m 16 X s 988 547 m 17 X s 973 425 m 15 X s 973 669 m 15 X s 957 539 m 16 Y s 1005 539 m 16 Y s 981 547 m20 1029 879 m 188 Y s 1029 1082 m 187 Y s 1005 1074 m 16 X s 1036
 1074 m 17 X s 1021 879 m 15 X s 1021 1269 m 15 X s 1005 1067 m 15 Y s 1053 1067 m 15 Y s 1029 1074 m20 1076 951 m 196 Y s 1076 1162 m 195 Y s 1053 1154 m 16 X s 1084 1154 m 16 X s 1069 951 m 15 X s 1069 1357 m 15 X s 1053 1147 m 15 Y s 1100 1147 m
 15 Y s 1076 1154 m20 1124 257 m 67 Y s 1124 339 m 67 Y s 1100 331 m 17 X s 1132 331 m 16 X s 1117 257 m 15 X s 1117 406 m 15 X s 1100 324 m 15 Y s 1148 324 m 15 Y s 1124 331 m20 black
 gsave  2268 1682 0 0 C 272.126 1244.5 t 0 r /Helvetica-Bold findfont 49.4636 sf 0 0 m (Kolmogorov\255Smirnov test: signal \(background\) probability = 4.93e\25516 \(5.25e\25513\)) show NC gr  238 202 m 1916 X s 360 244 m -42 Y s 425 223 m -21 Y s
 490 223 m -21 Y s 555 223 m -21 Y s 620 223 m -21 Y s 684 244 m -42 Y s 749 223 m -21 Y s 814 223 m -21 Y s 879 223 m -21 Y s 944 223 m -21 Y s 1008 244 m -42 Y s 1073 223 m -21 Y s 1138 223 m -21 Y s 1203 223 m -21 Y s 1268 223 m -21 Y s 1333 244 m
 -42 Y s 1397 223 m -21 Y s 1462 223 m -21 Y s 1527 223 m -21 Y s 1592 223 m -21 Y s 1657 244 m -42 Y s 1722 223 m -21 Y s 1786 223 m -21 Y s 1851 223 m -21 Y s 1916 223 m -21 Y s 1981 244 m -42 Y s 360 244 m -42 Y s 295 223 m -21 Y s 1981 244 m -42
 Y s 2046 223 m -21 Y s 2111 223 m -21 Y s 238 1514 m 1916 X s 360 1471 m 43 Y s 425 1492 m 22 Y s 490 1492 m 22 Y s 555 1492 m 22 Y s 620 1492 m 22 Y s 684 1471 m 43 Y s 749 1492 m 22 Y s 814 1492 m 22 Y s 879 1492 m 22 Y s 944 1492 m 22 Y s 1008
 1471 m 43 Y s 1073 1492 m 22 Y s 1138 1492 m 22 Y s 1203 1492 m 22 Y s 1268 1492 m 22 Y s 1333 1471 m 43 Y s 1397 1492 m 22 Y s 1462 1492 m 22 Y s 1527 1492 m 22 Y s 1592 1492 m 22 Y s 1657 1471 m 43 Y s 1722 1492 m 22 Y s 1786 1492 m 22 Y s 1851
 1492 m 22 Y s 1916 1492 m 22 Y s 1981 1471 m 43 Y s 360 1471 m 43 Y s 295 1492 m 22 Y s 1981 1471 m 43 Y s 2046 1492 m 22 Y s 2111 1492 m 22 Y s 238 202 m 1312 Y s 291 202 m -53 X s 265 252 m -27 X s 265 302 m -27 X s 265 352 m -27 X s 265 402 m -27
 X s 291 452 m -53 X s 265 502 m -27 X s 265 552 m -27 X s 265 602 m -27 X s 265 652 m -27 X s 291 702 m -53 X s 265 752 m -27 X s 265 802 m -27 X s 265 852 m -27 X s 265 902 m -27 X s 291 952 m -53 X s 265 1002 m -27 X s 265 1052 m -27 X s 265 1102
 m -27 X s 265 1152 m -27 X s 291 1202 m -53 X s 265 1252 m -27 X s 265 1302 m -27 X s 265 1352 m -27 X s 265 1402 m -27 X s 291 1452 m -53 X s 291 1452 m -53 X s 265 1502 m -27 X s 2154 202 m 1312 Y s 2101 202 m 53 X s 2128 252 m 26 X s 2128 302 m
 26 X s 2128 352 m 26 X s 2128 402 m 26 X s 2101 452 m 53 X s 2128 502 m 26 X s 2128 552 m 26 X s 2128 602 m 26 X s 2128 652 m 26 X s 2101 702 m 53 X s 2128 752 m 26 X s 2128 802 m 26 X s 2128 852 m 26 X s 2128 902 m 26 X s 2101 952 m 53 X s 2128
 1002 m 26 X s 2128 1052 m 26 X s 2128 1102 m 26 X s 2128 1152 m 26 X s 2101 1202 m 53 X s 2128 1252 m 26 X s 2128 1302 m 26 X s 2128 1352 m 26 X s 2128 1402 m 26 X s 2101 1452 m 53 X s 2101 1452 m 53 X s 2128 1502 m 26 X s
 gsave  2268 1682 0 0 C 2211.02 193.403 t 90 r /Helvetica-Bold findfont 45.6587 sf 0 0 m (U/O\255flow \(S,B\): \(0.0, 0.0\)% / \(0.0, 0.0\)%) show NC gr  0.490196 0.545098 0.615686 c 0.364706 0.419608 0.490196 c 1587 96 23 1577 bf 0.490196 0.545098
 0.615686 c 23 1577 m 1587 X s 1610 1577 m 96 Y s 1610 1673 m -1587 X s 23 1673 m -96 Y s 1 1 1 c black 1 1 1 c
 gsave  2268 1682 0 0 C 98.9272 1605.67 t 0 r /Helvetica-Bold findfont 68.4881 sf 0 0 m (TMVA overtraining check for classifier: BDT) show NC gr 
 gr  gr showpage
end
%%EOF
