%!PS-Adobe-2.0 EPSF-2.0
%%BoundingBox:  0 0 567 420
%%Title: plots/proba_TMlpANN.eps: TMVA probability TMlpANN
%%Creator: ROOT Version 5.34/09
%%CreationDate: Sat Jan  4 23:55:57 2014
%%EndComments
%%BeginProlog
80 dict begin
/s {stroke} def /l {lineto} def /m {moveto} def /t {translate} def
/r {rotate} def /rl {roll}  def /R {repeat} def
/d {rlineto} def /rm {rmoveto} def /gr {grestore} def /f {eofill} def
/c {setrgbcolor} def /black {0 setgray} def /sd {setdash} def
/cl {closepath} def /sf {scalefont setfont} def /lw {setlinewidth} def
/box {m dup 0 exch d exch 0 d 0 exch neg d cl} def
/NC{systemdict begin initclip end}def/C{NC box clip newpath}def
/bl {box s} def /bf {box f} def /Y { 0 exch d} def /X { 0 d} def 
/K {{pop pop 0 moveto} exch kshow} bind def
/ita {/ang 15 def gsave [1 0 ang dup sin exch cos div 1 0 0] concat} def 
/mp {newpath /y exch def /x exch def} def
/side {[w .77 mul w .23 mul] .385 w mul sd w 0 l currentpoint t -144 r} def
/mr {mp x y w2 0 360 arc} def /m24 {mr s} def /m20 {mr f} def
/mb {mp x y w2 add m w2 neg 0 d 0 w neg d w 0 d 0 w d cl} def
/mt {mp x y w2 add m w2 neg w neg d w 0 d cl} def
/m21 {mb f} def /m25 {mb s} def /m22 {mt f} def /m26{mt s} def
/m23 {mp x y w2 sub m w2 w d w neg 0 d cl f} def
/m27 {mp x y w2 add m w3 neg w2 neg d w3 w2 neg d w3 w2 d cl s} def
/m28 {mp x w2 sub y w2 sub w3 add m w3 0 d  0 w3 neg d w3 0 d 0 w3 d w3 0 d  0 w3 d w3 neg 0 d 0 w3 d w3 neg 0 d 0 w3 neg d w3 neg 0 d cl s } def
/m29 {mp gsave x w2 sub y w2 add w3 sub m currentpoint t 4 {side} repeat cl fill gr} def
/m30 {mp gsave x w2 sub y w2 add w3 sub m currentpoint t 4 {side} repeat cl s gr} def
/m31 {mp x y w2 sub m 0 w d x w2 sub y m w 0 d x w2 sub y w2 add m w w neg d x w2 sub y w2 sub m w w d s} def
/m32 {mp x y w2 sub m w2 w d w neg 0 d cl s} def
/m33 {mp x y w2 add m w3 neg w2 neg d w3 w2 neg d w3 w2 d cl f} def
/m34 {mp x w2 sub y w2 sub w3 add m w3 0 d  0 w3 neg d w3 0 d 0 w3 d w3 0 d  0 w3 d w3 neg 0 d 0 w3 d w3 neg 0 d 0 w3 neg d w3 neg 0 d cl f } def
/m2 {mp x y w2 sub m 0 w d x w2 sub y m w 0 d s} def
/m5 {mp x w2 sub y w2 sub m w w d x w2 sub y w2 add m w w neg d s} def
/reEncode {exch findfont dup length dict begin {1 index /FID eq  {pop pop} {def} ifelse } forall /Encoding exch def currentdict end dup /FontName get exch definefont pop } def [/Times-Bold /Times-Italic /Times-BoldItalic /Helvetica /Helvetica-Oblique
 /Helvetica-Bold /Helvetica-BoldOblique /Courier /Courier-Oblique /Courier-Bold /Courier-BoldOblique /Times-Roman /AvantGarde-Book /AvantGarde-BookOblique /AvantGarde-Demi /AvantGarde-DemiOblique /Bookman-Demi /Bookman-DemiItalic /Bookman-Light
 /Bookman-LightItalic /Helvetica-Narrow /Helvetica-Narrow-Bold /Helvetica-Narrow-BoldOblique /Helvetica-Narrow-Oblique /NewCenturySchlbk-Roman /NewCenturySchlbk-Bold /NewCenturySchlbk-BoldItalic /NewCenturySchlbk-Italic /Palatino-Bold
 /Palatino-BoldItalic /Palatino-Italic /Palatino-Roman ] {ISOLatin1Encoding reEncode } forall
%%EndProlog
%%BeginSetup
%%EndSetup
newpath  gsave  .25 .25 scale  gsave  0 0 t 0.490196 0.545098 0.615686 c[  ] 0 sd 3 lw 0.941176 0.941176 0.941176 c 2268 1682 0 0 bf black 1 1 0.992157 c 1916 1312 238 202 bf black 1916 1312 238 202 bl 1 1 0.992157 c 1916 1312 238 202 bf black 1916
 1312 238 202 bl 238 202 m 1916 X s
 gsave  2268 1682 0 0 C 1544.79 30.4391 t 0 r /Helvetica-Bold findfont 72.293 sf 0 0 m (Signal probability) show NC gr  238 244 m -42 Y s 276 223 m -21 Y s 315 223 m -21 Y s 353 223 m -21 Y s 391 223 m -21 Y s 430 244 m -42 Y s 468 223 m -21 Y s 506
 223 m -21 Y s 545 223 m -21 Y s 583 223 m -21 Y s 621 244 m -42 Y s 660 223 m -21 Y s 698 223 m -21 Y s 736 223 m -21 Y s 775 223 m -21 Y s 813 244 m -42 Y s 851 223 m -21 Y s 890 223 m -21 Y s 928 223 m -21 Y s 966 223 m -21 Y s 1005 244 m -42 Y s
 1043 223 m -21 Y s 1081 223 m -21 Y s 1120 223 m -21 Y s 1158 223 m -21 Y s 1196 244 m -42 Y s 1235 223 m -21 Y s 1273 223 m -21 Y s 1311 223 m -21 Y s 1350 223 m -21 Y s 1388 244 m -42 Y s 1426 223 m -21 Y s 1464 223 m -21 Y s 1503 223 m -21 Y s
 1541 223 m -21 Y s 1579 244 m -42 Y s 1618 223 m -21 Y s 1656 223 m -21 Y s 1694 223 m -21 Y s 1733 223 m -21 Y s 1771 244 m -42 Y s 1809 223 m -21 Y s 1848 223 m -21 Y s 1886 223 m -21 Y s 1924 223 m -21 Y s 1963 244 m -42 Y s 2001 223 m -21 Y s
 2039 223 m -21 Y s 2078 223 m -21 Y s 2116 223 m -21 Y s 2154 244 m -42 Y s
 gsave  2268 1682 0 0 C 216.879 129.366 t 0 r /Helvetica-Bold findfont 64.6832 sf 0 0 m (0) show NC gr 
 gsave  2268 1682 0 0 C 384.294 129.366 t 0 r /Helvetica-Bold findfont 64.6832 sf 0 0 m (0.1) show NC gr 
 gsave  2268 1682 0 0 C 574.539 129.366 t 0 r /Helvetica-Bold findfont 64.6832 sf 0 0 m (0.2) show NC gr 
 gsave  2268 1682 0 0 C 764.784 129.366 t 0 r /Helvetica-Bold findfont 64.6832 sf 0 0 m (0.3) show NC gr 
 gsave  2268 1682 0 0 C 958.833 129.366 t 0 r /Helvetica-Bold findfont 64.6832 sf 0 0 m (0.4) show NC gr 
 gsave  2268 1682 0 0 C 1149.08 129.366 t 0 r /Helvetica-Bold findfont 64.6832 sf 0 0 m (0.5) show NC gr 
 gsave  2268 1682 0 0 C 1339.32 129.366 t 0 r /Helvetica-Bold findfont 64.6832 sf 0 0 m (0.6) show NC gr 
 gsave  2268 1682 0 0 C 1533.37 129.366 t 0 r /Helvetica-Bold findfont 64.6832 sf 0 0 m (0.7) show NC gr 
 gsave  2268 1682 0 0 C 1723.62 129.366 t 0 r /Helvetica-Bold findfont 64.6832 sf 0 0 m (0.8) show NC gr 
 gsave  2268 1682 0 0 C 1913.86 129.366 t 0 r /Helvetica-Bold findfont 64.6832 sf 0 0 m (0.9) show NC gr 
 gsave  2268 1682 0 0 C 2138.35 129.366 t 0 r /Helvetica-Bold findfont 64.6832 sf 0 0 m (1) show NC gr  238 1514 m 1916 X s 238 1471 m 43 Y s 276 1492 m 22 Y s 315 1492 m 22 Y s 353 1492 m 22 Y s 391 1492 m 22 Y s 430 1471 m 43 Y s 468 1492 m 22 Y s
 506 1492 m 22 Y s 545 1492 m 22 Y s 583 1492 m 22 Y s 621 1471 m 43 Y s 660 1492 m 22 Y s 698 1492 m 22 Y s 736 1492 m 22 Y s 775 1492 m 22 Y s 813 1471 m 43 Y s 851 1492 m 22 Y s 890 1492 m 22 Y s 928 1492 m 22 Y s 966 1492 m 22 Y s 1005 1471 m 43
 Y s 1043 1492 m 22 Y s 1081 1492 m 22 Y s 1120 1492 m 22 Y s 1158 1492 m 22 Y s 1196 1471 m 43 Y s 1235 1492 m 22 Y s 1273 1492 m 22 Y s 1311 1492 m 22 Y s 1350 1492 m 22 Y s 1388 1471 m 43 Y s 1426 1492 m 22 Y s 1464 1492 m 22 Y s 1503 1492 m 22 Y
 s 1541 1492 m 22 Y s 1579 1471 m 43 Y s 1618 1492 m 22 Y s 1656 1492 m 22 Y s 1694 1492 m 22 Y s 1733 1492 m 22 Y s 1771 1471 m 43 Y s 1809 1492 m 22 Y s 1848 1492 m 22 Y s 1886 1492 m 22 Y s 1924 1492 m 22 Y s 1963 1471 m 43 Y s 2001 1492 m 22 Y s
 2039 1492 m 22 Y s 2078 1492 m 22 Y s 2116 1492 m 22 Y s 2154 1471 m 43 Y s 238 202 m 1312 Y s
 gsave  2268 1682 0 0 C 64.6832 1430.64 t 90 r /Helvetica-Bold findfont 72.293 sf 0 0 m (dx) show NC gr 
 gsave  2268 1682 0 0 C 30.4391 1411.62 t 90 r /Helvetica-Bold findfont 45.6587 sf 0 0 m ( ) show NC gr 
 gsave  2268 1682 0 0 C 64.6832 1388.79 t 90 r /Helvetica-Bold findfont 72.293 sf 0 0 m (/) show NC gr 
 gsave  2268 1682 0 0 C 30.4391 1369.76 t 90 r /Helvetica-Bold findfont 45.6587 sf 0 0 m ( ) show NC gr 
 gsave  2268 1682 0 0 C 60.8783 1095.81 t 90 r /Helvetica-Bold findfont 72.293 sf 0 0 m (\(1/N\) dN) show NC gr  291 202 m -53 X s 265 252 m -27 X s 265 301 m -27 X s 265 351 m -27 X s 265 401 m -27 X s 291 450 m -53 X s 265 500 m -27 X s 265 550 m
 -27 X s 265 599 m -27 X s 265 649 m -27 X s 291 699 m -53 X s 265 749 m -27 X s 265 798 m -27 X s 265 848 m -27 X s 265 898 m -27 X s 291 947 m -53 X s 265 997 m -27 X s 265 1047 m -27 X s 265 1097 m -27 X s 265 1146 m -27 X s 291 1196 m -53 X s 265
 1246 m -27 X s 265 1295 m -27 X s 265 1345 m -27 X s 265 1395 m -27 X s 291 1445 m -53 X s 291 1445 m -53 X s 265 1494 m -27 X s
 gsave  2268 1682 0 0 C 175.025 178.83 t 0 r /Helvetica-Bold findfont 64.6832 sf 0 0 m (0) show NC gr 
 gsave  2268 1682 0 0 C 182.635 426.148 t 0 r /Helvetica-Bold findfont 64.6832 sf 0 0 m (1) show NC gr 
 gsave  2268 1682 0 0 C 175.025 673.466 t 0 r /Helvetica-Bold findfont 64.6832 sf 0 0 m (2) show NC gr 
 gsave  2268 1682 0 0 C 175.025 924.589 t 0 r /Helvetica-Bold findfont 64.6832 sf 0 0 m (3) show NC gr 
 gsave  2268 1682 0 0 C 175.025 1171.91 t 0 r /Helvetica-Bold findfont 64.6832 sf 0 0 m (4) show NC gr 
 gsave  2268 1682 0 0 C 175.025 1419.23 t 0 r /Helvetica-Bold findfont 64.6832 sf 0 0 m (5) show NC gr  2154 202 m 1312 Y s 2101 202 m 53 X s 2128 252 m 26 X s 2128 301 m 26 X s 2128 351 m 26 X s 2128 401 m 26 X s 2101 450 m 53 X s 2128 500 m 26 X s
 2128 550 m 26 X s 2128 599 m 26 X s 2128 649 m 26 X s 2101 699 m 53 X s 2128 749 m 26 X s 2128 798 m 26 X s 2128 848 m 26 X s 2128 898 m 26 X s 2101 947 m 53 X s 2128 997 m 26 X s 2128 1047 m 26 X s 2128 1097 m 26 X s 2128 1146 m 26 X s 2101 1196 m
 53 X s 2128 1246 m 26 X s 2128 1295 m 26 X s 2128 1345 m 26 X s 2128 1395 m 26 X s 2101 1445 m 53 X s 2101 1445 m 53 X s 2128 1494 m 26 X s 0.490196 0.545098 0.615686 c 0.95 0.95 0.95 c 0.490196 0.545098 0.615686 c 680 202 238 1312 bl 238 1312 m 680
 X s 918 1312 m 202 Y s 918 1514 m -680 X s 238 1514 m -202 Y s black
 gsave  2268 1682 0 0 C 441.368 1442.05 t 0 r /Times-Italic findfont 76.0979 sf 0 0 m (Signal) show NC gr  0.49 0.6 0.82 c 269 1428 m 143 X 70 Y -143 X f 0 0 0.933333 c 6 lw 269 1498 m 143 X s 269 1428 m 143 X s 412 1428 m 70 Y s 269 1428 m 70 Y s
 black
 gsave  2268 1682 0 0 C 441.368 1343.13 t 0 r /Times-Italic findfont 76.0979 sf 0 0 m (Background) show NC gr  1 0 0 c 3 lw 412 1374 m -47 -47 d s 387 1398 m -70 -71 d s 339 1398 m -70 -71 d s 291 1398 m -22 -23 d s 6 lw 0 0 0.933333 c 1 0 0 c 269
 1398 m 143 X s 269 1327 m 143 X s 412 1327 m 71 Y s 269 1327 m 71 Y s 0 0 0.933333 c 0.49 0.6 0.82 c black 3 lw 0.49 0.6 0.82 c 238 202 m 144 X 182 Y 48 X 546 Y 48 X 365 Y 48 X -731 Y 47 X 14 Y 48 X -17 Y 48 X -172 Y 48 X 176 Y 48 X 192 Y 48 X -367
 Y 48 X 179 Y 48 X -184 Y 48 X 184 Y 48 X -367 Y 48 X 189 Y 47 X -1 Y 48 X 179 Y 48 X 8 Y 48 X -10 Y 48 X -183 Y 48 X 5 Y 48 X -6 Y 48 X 30 Y 48 X -211 Y 95 X 184 Y 48 X 181 Y 48 X -180 Y 48 X -185 Y 96 X 374 Y 48 X -6 Y 48 X -4 Y 48 X -183 Y 48 X
 -181 Y 95 X 362 Y 48 X -362 Y f 6 lw 0 0 0.933333 c 0.49 0.6 0.82 c 0 0 0.933333 c 238 202 m 144 X 182 Y 48 X 546 Y 48 X 365 Y 48 X -731 Y 47 X 14 Y 48 X -17 Y 48 X -172 Y 48 X 176 Y 48 X 192 Y 48 X -367 Y 48 X 179 Y 48 X -184 Y 48 X 184 Y 48 X -367
 Y 48 X 189 Y 47 X -1 Y 48 X 179 Y 48 X 8 Y 48 X -10 Y 48 X -183 Y 48 X 5 Y 48 X -6 Y 48 X 30 Y 48 X -211 Y 95 X 184 Y 48 X 181 Y 48 X -180 Y 48 X -185 Y 96 X 374 Y 48 X -6 Y 48 X -4 Y 48 X -183 Y 48 X -181 Y 95 X 362 Y 48 X s 1 0 0 c black 3 lw 1 0
 0 c 2154 230 m -28 -28 d s 2154 278 m -76 -76 d s 2154 326 m -95 -95 d s 2030 202 m s 2154 374 m -95 -95 d s 2011 231 m -29 -29 d s 2154 423 m -95 -96 d s 2011 279 m -77 -77 d s 2154 471 m -95 -96 d s 2011 327 m -125 -125 d s 2154 519 m -95 -96 d s
 2011 375 m -174 -173 d s 2154 567 m -95 -96 d s 2011 423 m -222 -221 d s 2154 615 m -95 -96 d s 2011 471 m -240 -239 d s 1741 202 m cl s 2154 663 m -95 -96 d s 2011 519 m -144 -143 d s 1842 351 m -71 -71 d s 1723 232 m -30 -30 d s 2154 711 m -48 -48
 d s 2102 659 m -43 -44 d s 2011 567 m -48 -47 d s 1945 502 m -78 -78 d s 1819 376 m -48 -48 d s 1723 280 m -78 -78 d s 2154 759 m -48 -48 d s 2011 616 m -48 -48 d s 1915 520 m -48 -48 d s 1819 424 m -48 -48 d s 1723 328 m -96 -96 d s 1597 202 m s
 2150 803 m -44 -44 d s 2011 664 m -48 -48 d s 1915 568 m -48 -48 d s 1819 472 m -48 -48 d s 1698 351 m -71 -71 d s 1579 233 m -30 -31 d s 2011 712 m -48 -48 d s 1915 616 m -48 -48 d s 1819 520 m -48 -48 d s 1675 376 m -48 -47 d s 1579 281 m -78 -79
 d s 2011 760 m -48 -48 d s 1915 664 m -48 -48 d s 1819 568 m -48 -48 d s 1675 425 m -48 -48 d s 1579 329 m -126 -127 d s 2011 808 m -48 -48 d s 1915 712 m -48 -48 d s 1819 616 m -48 -48 d s 1675 473 m -48 -48 d s 1579 377 m -143 -144 d s 1404 202 m
 cl s 2011 856 m -48 -48 d s 1915 760 m -48 -48 d s 1806 651 m -35 -34 d s 1655 500 m -28 -27 d s 1579 425 m -47 -48 d s 1506 351 m -70 -70 d s 1388 233 m -32 -31 d s 2011 904 m -48 -48 d s 1915 808 m -48 -48 d s 1579 473 m -47 -48 d s 1461 354 m -25
 -25 d s 1388 281 m -48 -47 d s 1308 202 m cl s 2011 952 m -48 -48 d s 1915 856 m -48 -47 d s 1579 521 m -47 -48 d s 1388 330 m -48 -48 d s 1292 234 m -32 -32 d s 2011 1000 m -48 -48 d s 1915 905 m -48 -48 d s 1579 569 m -47 -48 d s 1388 378 m -48
 -48 d s 1292 282 m -80 -80 d s 2011 1049 m -48 -48 d s 1915 953 m -48 -48 d s 1579 617 m -47 -48 d s 1388 426 m -48 -48 d s 1292 330 m -96 -96 d s 1164 202 m cl s 2011 1097 m -48 -48 d s 1867 953 m s 1579 665 m -47 -47 d s 1388 474 m -48 -48 d s
 1292 378 m -96 -96 d s 1148 234 m -32 -32 d s 1968 1103 m -5 -6 d s 1579 714 m -47 -48 d s 1388 522 m -48 -48 d s 1292 426 m -96 -96 d s 1148 282 m -80 -80 d s 1579 762 m -47 -48 d s 1388 570 m -48 -48 d s 1292 474 m -96 -96 d s 1148 331 m -95 -96 d
 s 1020 202 m cl s 1578 808 m -46 -46 d s 1388 618 m -48 -48 d s 1273 503 m -77 -76 d s 1123 354 m -70 -71 d s 972 202 m s 1384 662 m -44 -44 d s 1222 500 m -26 -25 d s 1072 351 m -19 -20 d s 923 202 m cl s 875 202 m s 861 236 m -34 -34 d s 861 284 m
 -82 -82 d s 861 332 m -96 -96 d s 731 202 m s 861 380 m -96 -96 d s 717 236 m -34 -34 d s 861 428 m -96 -96 d s 717 284 m -82 -82 d s 861 476 m -96 -96 d s 717 332 m -130 -130 d s 844 507 m -79 -79 d s 688 352 m -149 -150 d s 813 524 m -48 -48 d s
 669 381 m -179 -179 d s 813 572 m -48 -47 d s 669 429 m -227 -227 d s 813 621 m -48 -48 d s 669 477 m -96 -96 d s 547 354 m -153 -152 d s 813 669 m -48 -48 d s 647 503 m -74 -74 d s 526 381 m -144 -143 d s 346 202 m s 813 717 m -48 -48 d s 597 501 m
 -24 -24 d s 526 429 m -144 -143 d s 298 202 m s 813 765 m -48 -48 d s 526 477 m -96 -95 d s 400 352 m -18 -18 d s 250 202 m cl s 804 804 m -39 -39 d s 526 526 m -96 -96 d s 526 574 m -96 -96 d s 526 622 m -96 -96 d s 526 670 m -96 -96 d s 526 718 m
 -96 -96 d s 526 766 m -96 -96 d s 526 814 m -96 -96 d s 526 862 m -96 -96 d s 526 910 m -96 -95 d s 526 958 m -96 -95 d s 526 1007 m -48 -48 d s 475 956 m -45 -45 d s 526 1055 m -48 -48 d s 526 1103 m -48 -48 d s 479 1104 m -1 -1 d s 6 lw 238 202 m
 144 X 150 Y 48 X 604 Y 48 X 148 Y 48 X -750 Y 47 X 147 Y 48 X 2 Y 48 X -151 Y 48 X -150 Y 48 X 602 Y 48 X -297 Y 48 X -305 Y 192 X 149 Y 47 X 3 Y 48 X -152 Y 48 X 298 Y 48 X 3 Y 48 X -301 Y 48 X 460 Y 48 X -460 Y 48 X 152 Y 48 X -3 Y 48 X 457 Y 47 X
 -606 Y 48 X 298 Y 48 X -149 Y 48 X -149 Y 48 X 449 Y 48 X -300 Y 48 X 602 Y 48 X -451 Y 48 X 601 Y 48 X -901 Y 48 X 457 Y 47 X 144 Y 48 X s black 3 lw 238 202 m 1916 X s 238 244 m -42 Y s 276 223 m -21 Y s 315 223 m -21 Y s 353 223 m -21 Y s 391 223
 m -21 Y s 430 244 m -42 Y s 468 223 m -21 Y s 506 223 m -21 Y s 545 223 m -21 Y s 583 223 m -21 Y s 621 244 m -42 Y s 660 223 m -21 Y s 698 223 m -21 Y s 736 223 m -21 Y s 775 223 m -21 Y s 813 244 m -42 Y s 851 223 m -21 Y s 890 223 m -21 Y s 928
 223 m -21 Y s 966 223 m -21 Y s 1005 244 m -42 Y s 1043 223 m -21 Y s 1081 223 m -21 Y s 1120 223 m -21 Y s 1158 223 m -21 Y s 1196 244 m -42 Y s 1235 223 m -21 Y s 1273 223 m -21 Y s 1311 223 m -21 Y s 1350 223 m -21 Y s 1388 244 m -42 Y s 1426 223
 m -21 Y s 1464 223 m -21 Y s 1503 223 m -21 Y s 1541 223 m -21 Y s 1579 244 m -42 Y s 1618 223 m -21 Y s 1656 223 m -21 Y s 1694 223 m -21 Y s 1733 223 m -21 Y s 1771 244 m -42 Y s 1809 223 m -21 Y s 1848 223 m -21 Y s 1886 223 m -21 Y s 1924 223 m
 -21 Y s 1963 244 m -42 Y s 2001 223 m -21 Y s 2039 223 m -21 Y s 2078 223 m -21 Y s 2116 223 m -21 Y s 2154 244 m -42 Y s 238 1514 m 1916 X s 238 1471 m 43 Y s 276 1492 m 22 Y s 315 1492 m 22 Y s 353 1492 m 22 Y s 391 1492 m 22 Y s 430 1471 m 43 Y s
 468 1492 m 22 Y s 506 1492 m 22 Y s 545 1492 m 22 Y s 583 1492 m 22 Y s 621 1471 m 43 Y s 660 1492 m 22 Y s 698 1492 m 22 Y s 736 1492 m 22 Y s 775 1492 m 22 Y s 813 1471 m 43 Y s 851 1492 m 22 Y s 890 1492 m 22 Y s 928 1492 m 22 Y s 966 1492 m 22 Y
 s 1005 1471 m 43 Y s 1043 1492 m 22 Y s 1081 1492 m 22 Y s 1120 1492 m 22 Y s 1158 1492 m 22 Y s 1196 1471 m 43 Y s 1235 1492 m 22 Y s 1273 1492 m 22 Y s 1311 1492 m 22 Y s 1350 1492 m 22 Y s 1388 1471 m 43 Y s 1426 1492 m 22 Y s 1464 1492 m 22 Y s
 1503 1492 m 22 Y s 1541 1492 m 22 Y s 1579 1471 m 43 Y s 1618 1492 m 22 Y s 1656 1492 m 22 Y s 1694 1492 m 22 Y s 1733 1492 m 22 Y s 1771 1471 m 43 Y s 1809 1492 m 22 Y s 1848 1492 m 22 Y s 1886 1492 m 22 Y s 1924 1492 m 22 Y s 1963 1471 m 43 Y s
 2001 1492 m 22 Y s 2039 1492 m 22 Y s 2078 1492 m 22 Y s 2116 1492 m 22 Y s 2154 1471 m 43 Y s 238 202 m 1312 Y s 291 202 m -53 X s 265 252 m -27 X s 265 301 m -27 X s 265 351 m -27 X s 265 401 m -27 X s 291 450 m -53 X s 265 500 m -27 X s 265 550 m
 -27 X s 265 599 m -27 X s 265 649 m -27 X s 291 699 m -53 X s 265 749 m -27 X s 265 798 m -27 X s 265 848 m -27 X s 265 898 m -27 X s 291 947 m -53 X s 265 997 m -27 X s 265 1047 m -27 X s 265 1097 m -27 X s 265 1146 m -27 X s 291 1196 m -53 X s 265
 1246 m -27 X s 265 1295 m -27 X s 265 1345 m -27 X s 265 1395 m -27 X s 291 1445 m -53 X s 291 1445 m -53 X s 265 1494 m -27 X s 2154 202 m 1312 Y s 2101 202 m 53 X s 2128 252 m 26 X s 2128 301 m 26 X s 2128 351 m 26 X s 2128 401 m 26 X s 2101 450 m
 53 X s 2128 500 m 26 X s 2128 550 m 26 X s 2128 599 m 26 X s 2128 649 m 26 X s 2101 699 m 53 X s 2128 749 m 26 X s 2128 798 m 26 X s 2128 848 m 26 X s 2128 898 m 26 X s 2101 947 m 53 X s 2128 997 m 26 X s 2128 1047 m 26 X s 2128 1097 m 26 X s 2128
 1146 m 26 X s 2101 1196 m 53 X s 2128 1246 m 26 X s 2128 1295 m 26 X s 2128 1345 m 26 X s 2128 1395 m 26 X s 2101 1445 m 53 X s 2101 1445 m 53 X s 2128 1494 m 26 X s
 gsave  2268 1682 0 0 C 2211.02 193.403 t 90 r /Helvetica-Bold findfont 45.6587 sf 0 0 m (U/O\255flow \(S,B\): \(0.0, 0.0\)% / \(0.0, 0.0\)%) show NC gr  0.490196 0.545098 0.615686 c 0.364706 0.419608 0.490196 c 1587 96 23 1577 bf 0.490196 0.545098
 0.615686 c 23 1577 m 1587 X s 1610 1577 m 96 Y s 1610 1673 m -1587 X s 23 1673 m -96 Y s 1 1 1 c black 1 1 1 c
 gsave  2268 1682 0 0 C 72.293 1605.67 t 0 r /Helvetica-Bold findfont 76.0979 sf 0 0 m (TMVA probability for classifier: TMlpANN) show NC gr 
 gr  gr showpage
end
%%EOF
