%!PS-Adobe-2.0 EPSF-2.0
%%BoundingBox:  0 0 567 420
%%Title: plots/proba_CFMlpANN.eps: TMVA probability CFMlpANN
%%Creator: ROOT Version 5.34/09
%%CreationDate: Sat Jan  4 23:55:57 2014
%%EndComments
%%BeginProlog
80 dict begin
/s {stroke} def /l {lineto} def /m {moveto} def /t {translate} def
/r {rotate} def /rl {roll}  def /R {repeat} def
/d {rlineto} def /rm {rmoveto} def /gr {grestore} def /f {eofill} def
/c {setrgbcolor} def /black {0 setgray} def /sd {setdash} def
/cl {closepath} def /sf {scalefont setfont} def /lw {setlinewidth} def
/box {m dup 0 exch d exch 0 d 0 exch neg d cl} def
/NC{systemdict begin initclip end}def/C{NC box clip newpath}def
/bl {box s} def /bf {box f} def /Y { 0 exch d} def /X { 0 d} def 
/K {{pop pop 0 moveto} exch kshow} bind def
/ita {/ang 15 def gsave [1 0 ang dup sin exch cos div 1 0 0] concat} def 
/mp {newpath /y exch def /x exch def} def
/side {[w .77 mul w .23 mul] .385 w mul sd w 0 l currentpoint t -144 r} def
/mr {mp x y w2 0 360 arc} def /m24 {mr s} def /m20 {mr f} def
/mb {mp x y w2 add m w2 neg 0 d 0 w neg d w 0 d 0 w d cl} def
/mt {mp x y w2 add m w2 neg w neg d w 0 d cl} def
/m21 {mb f} def /m25 {mb s} def /m22 {mt f} def /m26{mt s} def
/m23 {mp x y w2 sub m w2 w d w neg 0 d cl f} def
/m27 {mp x y w2 add m w3 neg w2 neg d w3 w2 neg d w3 w2 d cl s} def
/m28 {mp x w2 sub y w2 sub w3 add m w3 0 d  0 w3 neg d w3 0 d 0 w3 d w3 0 d  0 w3 d w3 neg 0 d 0 w3 d w3 neg 0 d 0 w3 neg d w3 neg 0 d cl s } def
/m29 {mp gsave x w2 sub y w2 add w3 sub m currentpoint t 4 {side} repeat cl fill gr} def
/m30 {mp gsave x w2 sub y w2 add w3 sub m currentpoint t 4 {side} repeat cl s gr} def
/m31 {mp x y w2 sub m 0 w d x w2 sub y m w 0 d x w2 sub y w2 add m w w neg d x w2 sub y w2 sub m w w d s} def
/m32 {mp x y w2 sub m w2 w d w neg 0 d cl s} def
/m33 {mp x y w2 add m w3 neg w2 neg d w3 w2 neg d w3 w2 d cl f} def
/m34 {mp x w2 sub y w2 sub w3 add m w3 0 d  0 w3 neg d w3 0 d 0 w3 d w3 0 d  0 w3 d w3 neg 0 d 0 w3 d w3 neg 0 d 0 w3 neg d w3 neg 0 d cl f } def
/m2 {mp x y w2 sub m 0 w d x w2 sub y m w 0 d s} def
/m5 {mp x w2 sub y w2 sub m w w d x w2 sub y w2 add m w w neg d s} def
/reEncode {exch findfont dup length dict begin {1 index /FID eq  {pop pop} {def} ifelse } forall /Encoding exch def currentdict end dup /FontName get exch definefont pop } def [/Times-Bold /Times-Italic /Times-BoldItalic /Helvetica /Helvetica-Oblique
 /Helvetica-Bold /Helvetica-BoldOblique /Courier /Courier-Oblique /Courier-Bold /Courier-BoldOblique /Times-Roman /AvantGarde-Book /AvantGarde-BookOblique /AvantGarde-Demi /AvantGarde-DemiOblique /Bookman-Demi /Bookman-DemiItalic /Bookman-Light
 /Bookman-LightItalic /Helvetica-Narrow /Helvetica-Narrow-Bold /Helvetica-Narrow-BoldOblique /Helvetica-Narrow-Oblique /NewCenturySchlbk-Roman /NewCenturySchlbk-Bold /NewCenturySchlbk-BoldItalic /NewCenturySchlbk-Italic /Palatino-Bold
 /Palatino-BoldItalic /Palatino-Italic /Palatino-Roman ] {ISOLatin1Encoding reEncode } forall
%%EndProlog
%%BeginSetup
%%EndSetup
newpath  gsave  .25 .25 scale  gsave  0 0 t 0.490196 0.545098 0.615686 c[  ] 0 sd 3 lw 0.941176 0.941176 0.941176 c 2268 1682 0 0 bf black 1 1 0.992157 c 1916 1312 238 202 bf black 1916 1312 238 202 bl 1 1 0.992157 c 1916 1312 238 202 bf black 1916
 1312 238 202 bl 238 202 m 1916 X s
 gsave  2268 1682 0 0 C 1544.79 30.4391 t 0 r /Helvetica-Bold findfont 72.293 sf 0 0 m (Signal probability) show NC gr  238 244 m -42 Y s 276 223 m -21 Y s 315 223 m -21 Y s 353 223 m -21 Y s 391 223 m -21 Y s 430 244 m -42 Y s 468 223 m -21 Y s 506
 223 m -21 Y s 545 223 m -21 Y s 583 223 m -21 Y s 621 244 m -42 Y s 660 223 m -21 Y s 698 223 m -21 Y s 736 223 m -21 Y s 775 223 m -21 Y s 813 244 m -42 Y s 851 223 m -21 Y s 890 223 m -21 Y s 928 223 m -21 Y s 966 223 m -21 Y s 1005 244 m -42 Y s
 1043 223 m -21 Y s 1081 223 m -21 Y s 1120 223 m -21 Y s 1158 223 m -21 Y s 1196 244 m -42 Y s 1235 223 m -21 Y s 1273 223 m -21 Y s 1311 223 m -21 Y s 1350 223 m -21 Y s 1388 244 m -42 Y s 1426 223 m -21 Y s 1464 223 m -21 Y s 1503 223 m -21 Y s
 1541 223 m -21 Y s 1579 244 m -42 Y s 1618 223 m -21 Y s 1656 223 m -21 Y s 1694 223 m -21 Y s 1733 223 m -21 Y s 1771 244 m -42 Y s 1809 223 m -21 Y s 1848 223 m -21 Y s 1886 223 m -21 Y s 1924 223 m -21 Y s 1963 244 m -42 Y s 2001 223 m -21 Y s
 2039 223 m -21 Y s 2078 223 m -21 Y s 2116 223 m -21 Y s 2154 244 m -42 Y s
 gsave  2268 1682 0 0 C 216.879 129.366 t 0 r /Helvetica-Bold findfont 64.6832 sf 0 0 m (0) show NC gr 
 gsave  2268 1682 0 0 C 384.294 129.366 t 0 r /Helvetica-Bold findfont 64.6832 sf 0 0 m (0.1) show NC gr 
 gsave  2268 1682 0 0 C 574.539 129.366 t 0 r /Helvetica-Bold findfont 64.6832 sf 0 0 m (0.2) show NC gr 
 gsave  2268 1682 0 0 C 764.784 129.366 t 0 r /Helvetica-Bold findfont 64.6832 sf 0 0 m (0.3) show NC gr 
 gsave  2268 1682 0 0 C 958.833 129.366 t 0 r /Helvetica-Bold findfont 64.6832 sf 0 0 m (0.4) show NC gr 
 gsave  2268 1682 0 0 C 1149.08 129.366 t 0 r /Helvetica-Bold findfont 64.6832 sf 0 0 m (0.5) show NC gr 
 gsave  2268 1682 0 0 C 1339.32 129.366 t 0 r /Helvetica-Bold findfont 64.6832 sf 0 0 m (0.6) show NC gr 
 gsave  2268 1682 0 0 C 1533.37 129.366 t 0 r /Helvetica-Bold findfont 64.6832 sf 0 0 m (0.7) show NC gr 
 gsave  2268 1682 0 0 C 1723.62 129.366 t 0 r /Helvetica-Bold findfont 64.6832 sf 0 0 m (0.8) show NC gr 
 gsave  2268 1682 0 0 C 1913.86 129.366 t 0 r /Helvetica-Bold findfont 64.6832 sf 0 0 m (0.9) show NC gr 
 gsave  2268 1682 0 0 C 2138.35 129.366 t 0 r /Helvetica-Bold findfont 64.6832 sf 0 0 m (1) show NC gr  238 1514 m 1916 X s 238 1471 m 43 Y s 276 1492 m 22 Y s 315 1492 m 22 Y s 353 1492 m 22 Y s 391 1492 m 22 Y s 430 1471 m 43 Y s 468 1492 m 22 Y s
 506 1492 m 22 Y s 545 1492 m 22 Y s 583 1492 m 22 Y s 621 1471 m 43 Y s 660 1492 m 22 Y s 698 1492 m 22 Y s 736 1492 m 22 Y s 775 1492 m 22 Y s 813 1471 m 43 Y s 851 1492 m 22 Y s 890 1492 m 22 Y s 928 1492 m 22 Y s 966 1492 m 22 Y s 1005 1471 m 43
 Y s 1043 1492 m 22 Y s 1081 1492 m 22 Y s 1120 1492 m 22 Y s 1158 1492 m 22 Y s 1196 1471 m 43 Y s 1235 1492 m 22 Y s 1273 1492 m 22 Y s 1311 1492 m 22 Y s 1350 1492 m 22 Y s 1388 1471 m 43 Y s 1426 1492 m 22 Y s 1464 1492 m 22 Y s 1503 1492 m 22 Y
 s 1541 1492 m 22 Y s 1579 1471 m 43 Y s 1618 1492 m 22 Y s 1656 1492 m 22 Y s 1694 1492 m 22 Y s 1733 1492 m 22 Y s 1771 1471 m 43 Y s 1809 1492 m 22 Y s 1848 1492 m 22 Y s 1886 1492 m 22 Y s 1924 1492 m 22 Y s 1963 1471 m 43 Y s 2001 1492 m 22 Y s
 2039 1492 m 22 Y s 2078 1492 m 22 Y s 2116 1492 m 22 Y s 2154 1471 m 43 Y s 238 202 m 1312 Y s
 gsave  2268 1682 0 0 C 64.6832 1430.64 t 90 r /Helvetica-Bold findfont 72.293 sf 0 0 m (dx) show NC gr 
 gsave  2268 1682 0 0 C 30.4391 1411.62 t 90 r /Helvetica-Bold findfont 45.6587 sf 0 0 m ( ) show NC gr 
 gsave  2268 1682 0 0 C 64.6832 1388.79 t 90 r /Helvetica-Bold findfont 72.293 sf 0 0 m (/) show NC gr 
 gsave  2268 1682 0 0 C 30.4391 1369.76 t 90 r /Helvetica-Bold findfont 45.6587 sf 0 0 m ( ) show NC gr 
 gsave  2268 1682 0 0 C 60.8783 1095.81 t 90 r /Helvetica-Bold findfont 72.293 sf 0 0 m (\(1/N\) dN) show NC gr  291 202 m -53 X s 265 234 m -27 X s 265 266 m -27 X s 265 298 m -27 X s 291 330 m -53 X s 265 362 m -27 X s 265 394 m -27 X s 265 426 m
 -27 X s 291 459 m -53 X s 265 491 m -27 X s 265 523 m -27 X s 265 555 m -27 X s 291 587 m -53 X s 265 619 m -27 X s 265 651 m -27 X s 265 683 m -27 X s 291 715 m -53 X s 265 747 m -27 X s 265 780 m -27 X s 265 812 m -27 X s 291 844 m -53 X s 265 876
 m -27 X s 265 908 m -27 X s 265 940 m -27 X s 291 972 m -53 X s 265 1004 m -27 X s 265 1036 m -27 X s 265 1068 m -27 X s 291 1101 m -53 X s 265 1133 m -27 X s 265 1165 m -27 X s 265 1197 m -27 X s 291 1229 m -53 X s 265 1261 m -27 X s 265 1293 m -27
 X s 265 1325 m -27 X s 291 1357 m -53 X s 265 1389 m -27 X s 265 1422 m -27 X s 265 1454 m -27 X s 291 1486 m -53 X s 291 1486 m -53 X s
 gsave  2268 1682 0 0 C 175.025 178.83 t 0 r /Helvetica-Bold findfont 64.6832 sf 0 0 m (0) show NC gr 
 gsave  2268 1682 0 0 C 175.025 304.391 t 0 r /Helvetica-Bold findfont 64.6832 sf 0 0 m (2) show NC gr 
 gsave  2268 1682 0 0 C 175.025 433.758 t 0 r /Helvetica-Bold findfont 64.6832 sf 0 0 m (4) show NC gr 
 gsave  2268 1682 0 0 C 175.025 563.124 t 0 r /Helvetica-Bold findfont 64.6832 sf 0 0 m (6) show NC gr 
 gsave  2268 1682 0 0 C 175.025 692.491 t 0 r /Helvetica-Bold findfont 64.6832 sf 0 0 m (8) show NC gr 
 gsave  2268 1682 0 0 C 136.976 818.052 t 0 r /Helvetica-Bold findfont 64.6832 sf 0 0 m (10) show NC gr 
 gsave  2268 1682 0 0 C 136.976 947.418 t 0 r /Helvetica-Bold findfont 64.6832 sf 0 0 m (12) show NC gr 
 gsave  2268 1682 0 0 C 136.976 1076.78 t 0 r /Helvetica-Bold findfont 64.6832 sf 0 0 m (14) show NC gr 
 gsave  2268 1682 0 0 C 136.976 1202.35 t 0 r /Helvetica-Bold findfont 64.6832 sf 0 0 m (16) show NC gr 
 gsave  2268 1682 0 0 C 136.976 1331.71 t 0 r /Helvetica-Bold findfont 64.6832 sf 0 0 m (18) show NC gr 
 gsave  2268 1682 0 0 C 136.976 1461.08 t 0 r /Helvetica-Bold findfont 64.6832 sf 0 0 m (20) show NC gr  2154 202 m 1312 Y s 2101 202 m 53 X s 2128 234 m 26 X s 2128 266 m 26 X s 2128 298 m 26 X s 2101 330 m 53 X s 2128 362 m 26 X s 2128 394 m 26 X s
 2128 426 m 26 X s 2101 459 m 53 X s 2128 491 m 26 X s 2128 523 m 26 X s 2128 555 m 26 X s 2101 587 m 53 X s 2128 619 m 26 X s 2128 651 m 26 X s 2128 683 m 26 X s 2101 715 m 53 X s 2128 747 m 26 X s 2128 780 m 26 X s 2128 812 m 26 X s 2101 844 m 53 X
 s 2128 876 m 26 X s 2128 908 m 26 X s 2128 940 m 26 X s 2101 972 m 53 X s 2128 1004 m 26 X s 2128 1036 m 26 X s 2128 1068 m 26 X s 2101 1101 m 53 X s 2128 1133 m 26 X s 2128 1165 m 26 X s 2128 1197 m 26 X s 2101 1229 m 53 X s 2128 1261 m 26 X s 2128
 1293 m 26 X s 2128 1325 m 26 X s 2101 1357 m 53 X s 2128 1389 m 26 X s 2128 1422 m 26 X s 2128 1454 m 26 X s 2101 1486 m 53 X s 2101 1486 m 53 X s 0.490196 0.545098 0.615686 c 0.95 0.95 0.95 c 0.490196 0.545098 0.615686 c 680 202 238 1312 bl 238
 1312 m 680 X s 918 1312 m 202 Y s 918 1514 m -680 X s 238 1514 m -202 Y s black
 gsave  2268 1682 0 0 C 441.368 1442.05 t 0 r /Times-Italic findfont 76.0979 sf 0 0 m (Signal) show NC gr  0.49 0.6 0.82 c 269 1428 m 143 X 70 Y -143 X f 0 0 0.933333 c 6 lw 269 1498 m 143 X s 269 1428 m 143 X s 412 1428 m 70 Y s 269 1428 m 70 Y s
 black
 gsave  2268 1682 0 0 C 441.368 1343.13 t 0 r /Times-Italic findfont 76.0979 sf 0 0 m (Background) show NC gr  1 0 0 c 3 lw 412 1374 m -47 -47 d s 387 1398 m -70 -71 d s 339 1398 m -70 -71 d s 291 1398 m -22 -23 d s 6 lw 0 0 0.933333 c 1 0 0 c 269
 1398 m 143 X s 269 1327 m 143 X s 412 1327 m 71 Y s 269 1327 m 71 Y s 0 0 0.933333 c 0.49 0.6 0.82 c black 3 lw 0.49 0.6 0.82 c 238 202 m 767 X 1093 Y 48 X -1093 Y 47 X 437 Y 48 X 407 Y 48 X -844 Y 96 X 146 Y 48 X -146 Y 479 X 47 Y 48 X -47 Y 287 X
 f 6 lw 0 0 0.933333 c 0.49 0.6 0.82 c 0 0 0.933333 c 238 202 m 767 X 1093 Y 48 X -1093 Y 47 X 437 Y 48 X 407 Y 48 X -844 Y 96 X 146 Y 48 X -146 Y 479 X 47 Y 48 X -47 Y 287 X s 1 0 0 c black 3 lw 1 0 0 c 2126 202 m cl s 2078 202 m s 2030 202 m s 1982
 202 m s 1934 202 m s 1886 202 m cl s 1837 202 m cl s 1789 202 m s 1741 202 m cl s 1693 202 m s 1645 202 m cl s 1597 202 m s 1549 202 m s 1501 202 m cl s 1453 202 m s 1404 202 m cl s 1356 202 m s 1340 234 m -32 -32 d s 1340 282 m -48 -48 d s 1260 202
 m cl s 1340 330 m -48 -48 d s 1212 202 m s 1340 378 m -48 -48 d s 1196 234 m -32 -32 d s 1340 426 m -48 -48 d s 1196 282 m -80 -80 d s 1340 474 m -48 -48 d s 1196 330 m -128 -128 d s 1340 522 m -48 -48 d s 1196 378 m -96 -95 d s 1058 241 m -38 -39 d
 s 1340 570 m -48 -48 d s 1196 427 m -96 -96 d s 1053 283 m -48 -48 d s 972 202 m s 1340 618 m -48 -48 d s 1196 475 m -96 -96 d s 1053 331 m -48 -48 d s 923 202 m cl s 1306 633 m -14 -14 d s 1196 523 m -96 -96 d s 1053 379 m -48 -48 d s 875 202 m s
 1196 571 m -96 -96 d s 1053 427 m -48 -48 d s 827 202 m s 1196 619 m -96 -96 d s 1053 475 m -48 -48 d s 779 202 m s 1196 667 m -96 -96 d s 1053 523 m -48 -48 d s 731 202 m s 1196 715 m -48 -48 d s 1109 628 m -9 -9 d s 1053 571 m -48 -47 d s 683 202
 m s 1196 763 m -48 -48 d s 1053 620 m -48 -48 d s 635 202 m cl s 1196 811 m -48 -48 d s 1053 668 m -48 -48 d s 587 202 m cl s 1196 859 m -48 -47 d s 1053 716 m -48 -48 d s 539 202 m cl s 1196 908 m -48 -48 d s 1053 764 m -48 -48 d s 490 202 m cl s
 1196 956 m -48 -48 d s 1053 812 m -48 -48 d s 442 202 m cl s 1196 1004 m -48 -48 d s 1053 860 m -48 -48 d s 394 202 m cl s 1196 1052 m -48 -48 d s 1007 863 m -2 -3 d s 346 202 m s 1196 1100 m -48 -48 d s 298 202 m s 1196 1148 m -48 -48 d s 250 202 m
 cl s 1196 1196 m -48 -48 d s 1165 1213 m -17 -17 d s 6 lw 238 202 m 767 X 661 Y 48 X -622 Y 47 X 387 Y 48 X 585 Y 48 X -1011 Y 96 X 431 Y 48 X -431 Y 814 X s black 3 lw 238 202 m 1916 X s 238 244 m -42 Y s 276 223 m -21 Y s 315 223 m -21 Y s 353 223
 m -21 Y s 391 223 m -21 Y s 430 244 m -42 Y s 468 223 m -21 Y s 506 223 m -21 Y s 545 223 m -21 Y s 583 223 m -21 Y s 621 244 m -42 Y s 660 223 m -21 Y s 698 223 m -21 Y s 736 223 m -21 Y s 775 223 m -21 Y s 813 244 m -42 Y s 851 223 m -21 Y s 890
 223 m -21 Y s 928 223 m -21 Y s 966 223 m -21 Y s 1005 244 m -42 Y s 1043 223 m -21 Y s 1081 223 m -21 Y s 1120 223 m -21 Y s 1158 223 m -21 Y s 1196 244 m -42 Y s 1235 223 m -21 Y s 1273 223 m -21 Y s 1311 223 m -21 Y s 1350 223 m -21 Y s 1388 244
 m -42 Y s 1426 223 m -21 Y s 1464 223 m -21 Y s 1503 223 m -21 Y s 1541 223 m -21 Y s 1579 244 m -42 Y s 1618 223 m -21 Y s 1656 223 m -21 Y s 1694 223 m -21 Y s 1733 223 m -21 Y s 1771 244 m -42 Y s 1809 223 m -21 Y s 1848 223 m -21 Y s 1886 223 m
 -21 Y s 1924 223 m -21 Y s 1963 244 m -42 Y s 2001 223 m -21 Y s 2039 223 m -21 Y s 2078 223 m -21 Y s 2116 223 m -21 Y s 2154 244 m -42 Y s 238 1514 m 1916 X s 238 1471 m 43 Y s 276 1492 m 22 Y s 315 1492 m 22 Y s 353 1492 m 22 Y s 391 1492 m 22 Y
 s 430 1471 m 43 Y s 468 1492 m 22 Y s 506 1492 m 22 Y s 545 1492 m 22 Y s 583 1492 m 22 Y s 621 1471 m 43 Y s 660 1492 m 22 Y s 698 1492 m 22 Y s 736 1492 m 22 Y s 775 1492 m 22 Y s 813 1471 m 43 Y s 851 1492 m 22 Y s 890 1492 m 22 Y s 928 1492 m 22
 Y s 966 1492 m 22 Y s 1005 1471 m 43 Y s 1043 1492 m 22 Y s 1081 1492 m 22 Y s 1120 1492 m 22 Y s 1158 1492 m 22 Y s 1196 1471 m 43 Y s 1235 1492 m 22 Y s 1273 1492 m 22 Y s 1311 1492 m 22 Y s 1350 1492 m 22 Y s 1388 1471 m 43 Y s 1426 1492 m 22 Y s
 1464 1492 m 22 Y s 1503 1492 m 22 Y s 1541 1492 m 22 Y s 1579 1471 m 43 Y s 1618 1492 m 22 Y s 1656 1492 m 22 Y s 1694 1492 m 22 Y s 1733 1492 m 22 Y s 1771 1471 m 43 Y s 1809 1492 m 22 Y s 1848 1492 m 22 Y s 1886 1492 m 22 Y s 1924 1492 m 22 Y s
 1963 1471 m 43 Y s 2001 1492 m 22 Y s 2039 1492 m 22 Y s 2078 1492 m 22 Y s 2116 1492 m 22 Y s 2154 1471 m 43 Y s 238 202 m 1312 Y s 291 202 m -53 X s 265 234 m -27 X s 265 266 m -27 X s 265 298 m -27 X s 291 330 m -53 X s 265 362 m -27 X s 265 394
 m -27 X s 265 426 m -27 X s 291 459 m -53 X s 265 491 m -27 X s 265 523 m -27 X s 265 555 m -27 X s 291 587 m -53 X s 265 619 m -27 X s 265 651 m -27 X s 265 683 m -27 X s 291 715 m -53 X s 265 747 m -27 X s 265 780 m -27 X s 265 812 m -27 X s 291
 844 m -53 X s 265 876 m -27 X s 265 908 m -27 X s 265 940 m -27 X s 291 972 m -53 X s 265 1004 m -27 X s 265 1036 m -27 X s 265 1068 m -27 X s 291 1101 m -53 X s 265 1133 m -27 X s 265 1165 m -27 X s 265 1197 m -27 X s 291 1229 m -53 X s 265 1261 m
 -27 X s 265 1293 m -27 X s 265 1325 m -27 X s 291 1357 m -53 X s 265 1389 m -27 X s 265 1422 m -27 X s 265 1454 m -27 X s 291 1486 m -53 X s 291 1486 m -53 X s 2154 202 m 1312 Y s 2101 202 m 53 X s 2128 234 m 26 X s 2128 266 m 26 X s 2128 298 m 26 X
 s 2101 330 m 53 X s 2128 362 m 26 X s 2128 394 m 26 X s 2128 426 m 26 X s 2101 459 m 53 X s 2128 491 m 26 X s 2128 523 m 26 X s 2128 555 m 26 X s 2101 587 m 53 X s 2128 619 m 26 X s 2128 651 m 26 X s 2128 683 m 26 X s 2101 715 m 53 X s 2128 747 m 26
 X s 2128 780 m 26 X s 2128 812 m 26 X s 2101 844 m 53 X s 2128 876 m 26 X s 2128 908 m 26 X s 2128 940 m 26 X s 2101 972 m 53 X s 2128 1004 m 26 X s 2128 1036 m 26 X s 2128 1068 m 26 X s 2101 1101 m 53 X s 2128 1133 m 26 X s 2128 1165 m 26 X s 2128
 1197 m 26 X s 2101 1229 m 53 X s 2128 1261 m 26 X s 2128 1293 m 26 X s 2128 1325 m 26 X s 2101 1357 m 53 X s 2128 1389 m 26 X s 2128 1422 m 26 X s 2128 1454 m 26 X s 2101 1486 m 53 X s 2101 1486 m 53 X s
 gsave  2268 1682 0 0 C 2211.02 193.403 t 90 r /Helvetica-Bold findfont 45.6587 sf 0 0 m (U/O\255flow \(S,B\): \(0.0, 0.0\)% / \(0.0, 0.0\)%) show NC gr  0.490196 0.545098 0.615686 c 0.364706 0.419608 0.490196 c 1587 96 23 1577 bf 0.490196 0.545098
 0.615686 c 23 1577 m 1587 X s 1610 1577 m 96 Y s 1610 1673 m -1587 X s 23 1673 m -96 Y s 1 1 1 c black 1 1 1 c
 gsave  2268 1682 0 0 C 79.9028 1605.67 t 0 r /Helvetica-Bold findfont 72.293 sf 0 0 m (TMVA probability for classifier: CFMlpANN) show NC gr 
 gr  gr showpage
end
%%EOF
