%!PS-Adobe-2.0 EPSF-2.0
%%BoundingBox:  0 0 567 420
%%Title: plots/proba_LD.eps: TMVA probability LD
%%Creator: ROOT Version 5.34/09
%%CreationDate: Sat Jan  4 23:55:56 2014
%%EndComments
%%BeginProlog
80 dict begin
/s {stroke} def /l {lineto} def /m {moveto} def /t {translate} def
/r {rotate} def /rl {roll}  def /R {repeat} def
/d {rlineto} def /rm {rmoveto} def /gr {grestore} def /f {eofill} def
/c {setrgbcolor} def /black {0 setgray} def /sd {setdash} def
/cl {closepath} def /sf {scalefont setfont} def /lw {setlinewidth} def
/box {m dup 0 exch d exch 0 d 0 exch neg d cl} def
/NC{systemdict begin initclip end}def/C{NC box clip newpath}def
/bl {box s} def /bf {box f} def /Y { 0 exch d} def /X { 0 d} def 
/K {{pop pop 0 moveto} exch kshow} bind def
/ita {/ang 15 def gsave [1 0 ang dup sin exch cos div 1 0 0] concat} def 
/mp {newpath /y exch def /x exch def} def
/side {[w .77 mul w .23 mul] .385 w mul sd w 0 l currentpoint t -144 r} def
/mr {mp x y w2 0 360 arc} def /m24 {mr s} def /m20 {mr f} def
/mb {mp x y w2 add m w2 neg 0 d 0 w neg d w 0 d 0 w d cl} def
/mt {mp x y w2 add m w2 neg w neg d w 0 d cl} def
/m21 {mb f} def /m25 {mb s} def /m22 {mt f} def /m26{mt s} def
/m23 {mp x y w2 sub m w2 w d w neg 0 d cl f} def
/m27 {mp x y w2 add m w3 neg w2 neg d w3 w2 neg d w3 w2 d cl s} def
/m28 {mp x w2 sub y w2 sub w3 add m w3 0 d  0 w3 neg d w3 0 d 0 w3 d w3 0 d  0 w3 d w3 neg 0 d 0 w3 d w3 neg 0 d 0 w3 neg d w3 neg 0 d cl s } def
/m29 {mp gsave x w2 sub y w2 add w3 sub m currentpoint t 4 {side} repeat cl fill gr} def
/m30 {mp gsave x w2 sub y w2 add w3 sub m currentpoint t 4 {side} repeat cl s gr} def
/m31 {mp x y w2 sub m 0 w d x w2 sub y m w 0 d x w2 sub y w2 add m w w neg d x w2 sub y w2 sub m w w d s} def
/m32 {mp x y w2 sub m w2 w d w neg 0 d cl s} def
/m33 {mp x y w2 add m w3 neg w2 neg d w3 w2 neg d w3 w2 d cl f} def
/m34 {mp x w2 sub y w2 sub w3 add m w3 0 d  0 w3 neg d w3 0 d 0 w3 d w3 0 d  0 w3 d w3 neg 0 d 0 w3 d w3 neg 0 d 0 w3 neg d w3 neg 0 d cl f } def
/m2 {mp x y w2 sub m 0 w d x w2 sub y m w 0 d s} def
/m5 {mp x w2 sub y w2 sub m w w d x w2 sub y w2 add m w w neg d s} def
/reEncode {exch findfont dup length dict begin {1 index /FID eq  {pop pop} {def} ifelse } forall /Encoding exch def currentdict end dup /FontName get exch definefont pop } def [/Times-Bold /Times-Italic /Times-BoldItalic /Helvetica /Helvetica-Oblique
 /Helvetica-Bold /Helvetica-BoldOblique /Courier /Courier-Oblique /Courier-Bold /Courier-BoldOblique /Times-Roman /AvantGarde-Book /AvantGarde-BookOblique /AvantGarde-Demi /AvantGarde-DemiOblique /Bookman-Demi /Bookman-DemiItalic /Bookman-Light
 /Bookman-LightItalic /Helvetica-Narrow /Helvetica-Narrow-Bold /Helvetica-Narrow-BoldOblique /Helvetica-Narrow-Oblique /NewCenturySchlbk-Roman /NewCenturySchlbk-Bold /NewCenturySchlbk-BoldItalic /NewCenturySchlbk-Italic /Palatino-Bold
 /Palatino-BoldItalic /Palatino-Italic /Palatino-Roman ] {ISOLatin1Encoding reEncode } forall
%%EndProlog
%%BeginSetup
%%EndSetup
newpath  gsave  .25 .25 scale  gsave  0 0 t 0.490196 0.545098 0.615686 c[  ] 0 sd 3 lw 0.941176 0.941176 0.941176 c 2268 1682 0 0 bf black 1 1 0.992157 c 1916 1312 238 202 bf black 1916 1312 238 202 bl 1 1 0.992157 c 1916 1312 238 202 bf black 1916
 1312 238 202 bl 238 202 m 1916 X s
 gsave  2268 1682 0 0 C 1544.79 30.4391 t 0 r /Helvetica-Bold findfont 72.293 sf 0 0 m (Signal probability) show NC gr  238 244 m -42 Y s 276 223 m -21 Y s 315 223 m -21 Y s 353 223 m -21 Y s 391 223 m -21 Y s 430 244 m -42 Y s 468 223 m -21 Y s 506
 223 m -21 Y s 545 223 m -21 Y s 583 223 m -21 Y s 621 244 m -42 Y s 660 223 m -21 Y s 698 223 m -21 Y s 736 223 m -21 Y s 775 223 m -21 Y s 813 244 m -42 Y s 851 223 m -21 Y s 890 223 m -21 Y s 928 223 m -21 Y s 966 223 m -21 Y s 1005 244 m -42 Y s
 1043 223 m -21 Y s 1081 223 m -21 Y s 1120 223 m -21 Y s 1158 223 m -21 Y s 1196 244 m -42 Y s 1235 223 m -21 Y s 1273 223 m -21 Y s 1311 223 m -21 Y s 1350 223 m -21 Y s 1388 244 m -42 Y s 1426 223 m -21 Y s 1464 223 m -21 Y s 1503 223 m -21 Y s
 1541 223 m -21 Y s 1579 244 m -42 Y s 1618 223 m -21 Y s 1656 223 m -21 Y s 1694 223 m -21 Y s 1733 223 m -21 Y s 1771 244 m -42 Y s 1809 223 m -21 Y s 1848 223 m -21 Y s 1886 223 m -21 Y s 1924 223 m -21 Y s 1963 244 m -42 Y s 2001 223 m -21 Y s
 2039 223 m -21 Y s 2078 223 m -21 Y s 2116 223 m -21 Y s 2154 244 m -42 Y s
 gsave  2268 1682 0 0 C 216.879 129.366 t 0 r /Helvetica-Bold findfont 64.6832 sf 0 0 m (0) show NC gr 
 gsave  2268 1682 0 0 C 384.294 129.366 t 0 r /Helvetica-Bold findfont 64.6832 sf 0 0 m (0.1) show NC gr 
 gsave  2268 1682 0 0 C 574.539 129.366 t 0 r /Helvetica-Bold findfont 64.6832 sf 0 0 m (0.2) show NC gr 
 gsave  2268 1682 0 0 C 764.784 129.366 t 0 r /Helvetica-Bold findfont 64.6832 sf 0 0 m (0.3) show NC gr 
 gsave  2268 1682 0 0 C 958.833 129.366 t 0 r /Helvetica-Bold findfont 64.6832 sf 0 0 m (0.4) show NC gr 
 gsave  2268 1682 0 0 C 1149.08 129.366 t 0 r /Helvetica-Bold findfont 64.6832 sf 0 0 m (0.5) show NC gr 
 gsave  2268 1682 0 0 C 1339.32 129.366 t 0 r /Helvetica-Bold findfont 64.6832 sf 0 0 m (0.6) show NC gr 
 gsave  2268 1682 0 0 C 1533.37 129.366 t 0 r /Helvetica-Bold findfont 64.6832 sf 0 0 m (0.7) show NC gr 
 gsave  2268 1682 0 0 C 1723.62 129.366 t 0 r /Helvetica-Bold findfont 64.6832 sf 0 0 m (0.8) show NC gr 
 gsave  2268 1682 0 0 C 1913.86 129.366 t 0 r /Helvetica-Bold findfont 64.6832 sf 0 0 m (0.9) show NC gr 
 gsave  2268 1682 0 0 C 2138.35 129.366 t 0 r /Helvetica-Bold findfont 64.6832 sf 0 0 m (1) show NC gr  238 1514 m 1916 X s 238 1471 m 43 Y s 276 1492 m 22 Y s 315 1492 m 22 Y s 353 1492 m 22 Y s 391 1492 m 22 Y s 430 1471 m 43 Y s 468 1492 m 22 Y s
 506 1492 m 22 Y s 545 1492 m 22 Y s 583 1492 m 22 Y s 621 1471 m 43 Y s 660 1492 m 22 Y s 698 1492 m 22 Y s 736 1492 m 22 Y s 775 1492 m 22 Y s 813 1471 m 43 Y s 851 1492 m 22 Y s 890 1492 m 22 Y s 928 1492 m 22 Y s 966 1492 m 22 Y s 1005 1471 m 43
 Y s 1043 1492 m 22 Y s 1081 1492 m 22 Y s 1120 1492 m 22 Y s 1158 1492 m 22 Y s 1196 1471 m 43 Y s 1235 1492 m 22 Y s 1273 1492 m 22 Y s 1311 1492 m 22 Y s 1350 1492 m 22 Y s 1388 1471 m 43 Y s 1426 1492 m 22 Y s 1464 1492 m 22 Y s 1503 1492 m 22 Y
 s 1541 1492 m 22 Y s 1579 1471 m 43 Y s 1618 1492 m 22 Y s 1656 1492 m 22 Y s 1694 1492 m 22 Y s 1733 1492 m 22 Y s 1771 1471 m 43 Y s 1809 1492 m 22 Y s 1848 1492 m 22 Y s 1886 1492 m 22 Y s 1924 1492 m 22 Y s 1963 1471 m 43 Y s 2001 1492 m 22 Y s
 2039 1492 m 22 Y s 2078 1492 m 22 Y s 2116 1492 m 22 Y s 2154 1471 m 43 Y s 238 202 m 1312 Y s
 gsave  2268 1682 0 0 C 64.6832 1430.64 t 90 r /Helvetica-Bold findfont 72.293 sf 0 0 m (dx) show NC gr 
 gsave  2268 1682 0 0 C 30.4391 1411.62 t 90 r /Helvetica-Bold findfont 45.6587 sf 0 0 m ( ) show NC gr 
 gsave  2268 1682 0 0 C 64.6832 1388.79 t 90 r /Helvetica-Bold findfont 72.293 sf 0 0 m (/) show NC gr 
 gsave  2268 1682 0 0 C 30.4391 1369.76 t 90 r /Helvetica-Bold findfont 45.6587 sf 0 0 m ( ) show NC gr 
 gsave  2268 1682 0 0 C 60.8783 1095.81 t 90 r /Helvetica-Bold findfont 72.293 sf 0 0 m (\(1/N\) dN) show NC gr  291 202 m -53 X s 265 231 m -27 X s 265 261 m -27 X s 265 291 m -27 X s 265 320 m -27 X s 291 350 m -53 X s 265 379 m -27 X s 265 409 m
 -27 X s 265 439 m -27 X s 265 468 m -27 X s 291 498 m -53 X s 265 527 m -27 X s 265 557 m -27 X s 265 587 m -27 X s 265 616 m -27 X s 291 646 m -53 X s 265 675 m -27 X s 265 705 m -27 X s 265 735 m -27 X s 265 764 m -27 X s 291 794 m -53 X s 265 823
 m -27 X s 265 853 m -27 X s 265 883 m -27 X s 265 912 m -27 X s 291 942 m -53 X s 265 971 m -27 X s 265 1001 m -27 X s 265 1031 m -27 X s 265 1060 m -27 X s 291 1090 m -53 X s 265 1119 m -27 X s 265 1149 m -27 X s 265 1179 m -27 X s 265 1208 m -27 X
 s 291 1238 m -53 X s 265 1267 m -27 X s 265 1297 m -27 X s 265 1327 m -27 X s 265 1356 m -27 X s 291 1386 m -53 X s 291 1386 m -53 X s 265 1415 m -27 X s 265 1445 m -27 X s 265 1475 m -27 X s 265 1504 m -27 X s
 gsave  2268 1682 0 0 C 175.025 178.83 t 0 r /Helvetica-Bold findfont 64.6832 sf 0 0 m (0) show NC gr 
 gsave  2268 1682 0 0 C 182.635 323.416 t 0 r /Helvetica-Bold findfont 64.6832 sf 0 0 m (1) show NC gr 
 gsave  2268 1682 0 0 C 175.025 471.807 t 0 r /Helvetica-Bold findfont 64.6832 sf 0 0 m (2) show NC gr 
 gsave  2268 1682 0 0 C 175.025 620.198 t 0 r /Helvetica-Bold findfont 64.6832 sf 0 0 m (3) show NC gr 
 gsave  2268 1682 0 0 C 175.025 768.588 t 0 r /Helvetica-Bold findfont 64.6832 sf 0 0 m (4) show NC gr 
 gsave  2268 1682 0 0 C 175.025 916.979 t 0 r /Helvetica-Bold findfont 64.6832 sf 0 0 m (5) show NC gr 
 gsave  2268 1682 0 0 C 175.025 1065.37 t 0 r /Helvetica-Bold findfont 64.6832 sf 0 0 m (6) show NC gr 
 gsave  2268 1682 0 0 C 175.025 1213.76 t 0 r /Helvetica-Bold findfont 64.6832 sf 0 0 m (7) show NC gr 
 gsave  2268 1682 0 0 C 175.025 1362.15 t 0 r /Helvetica-Bold findfont 64.6832 sf 0 0 m (8) show NC gr  2154 202 m 1312 Y s 2101 202 m 53 X s 2128 231 m 26 X s 2128 261 m 26 X s 2128 291 m 26 X s 2128 320 m 26 X s 2101 350 m 53 X s 2128 379 m 26 X s
 2128 409 m 26 X s 2128 439 m 26 X s 2128 468 m 26 X s 2101 498 m 53 X s 2128 527 m 26 X s 2128 557 m 26 X s 2128 587 m 26 X s 2128 616 m 26 X s 2101 646 m 53 X s 2128 675 m 26 X s 2128 705 m 26 X s 2128 735 m 26 X s 2128 764 m 26 X s 2101 794 m 53 X
 s 2128 823 m 26 X s 2128 853 m 26 X s 2128 883 m 26 X s 2128 912 m 26 X s 2101 942 m 53 X s 2128 971 m 26 X s 2128 1001 m 26 X s 2128 1031 m 26 X s 2128 1060 m 26 X s 2101 1090 m 53 X s 2128 1119 m 26 X s 2128 1149 m 26 X s 2128 1179 m 26 X s 2128
 1208 m 26 X s 2101 1238 m 53 X s 2128 1267 m 26 X s 2128 1297 m 26 X s 2128 1327 m 26 X s 2128 1356 m 26 X s 2101 1386 m 53 X s 2101 1386 m 53 X s 2128 1415 m 26 X s 2128 1445 m 26 X s 2128 1475 m 26 X s 2128 1504 m 26 X s 0.490196 0.545098 0.615686
 c 0.95 0.95 0.95 c 0.490196 0.545098 0.615686 c 680 202 238 1312 bl 238 1312 m 680 X s 918 1312 m 202 Y s 918 1514 m -680 X s 238 1514 m -202 Y s black
 gsave  2268 1682 0 0 C 441.368 1442.05 t 0 r /Times-Italic findfont 76.0979 sf 0 0 m (Signal) show NC gr  0.49 0.6 0.82 c 269 1428 m 143 X 70 Y -143 X f 0 0 0.933333 c 6 lw 269 1498 m 143 X s 269 1428 m 143 X s 412 1428 m 70 Y s 269 1428 m 70 Y s
 black
 gsave  2268 1682 0 0 C 441.368 1343.13 t 0 r /Times-Italic findfont 76.0979 sf 0 0 m (Background) show NC gr  1 0 0 c 3 lw 412 1374 m -47 -47 d s 387 1398 m -70 -71 d s 339 1398 m -70 -71 d s 291 1398 m -22 -23 d s 6 lw 0 0 0.933333 c 1 0 0 c 269
 1398 m 143 X s 269 1327 m 143 X s 412 1327 m 71 Y s 269 1327 m 71 Y s 0 0 0.933333 c 0.49 0.6 0.82 c black 3 lw 0.49 0.6 0.82 c 238 202 m 192 X 108 Y 48 X -108 Y 191 X 220 Y 48 X -113 Y 48 X -107 Y 96 X 108 Y 48 X 3 Y 48 X -3 Y 48 X 436 Y 48 X -330
 Y 47 X -214 Y 48 X 653 Y 48 X -221 Y 48 X 6 Y 48 X 3 Y 48 X -7 Y 48 X 659 Y 48 X -980 Y 48 X 216 Y 48 X -329 Y 239 X 110 Y 48 X -110 Y 48 X 117 Y 48 X 8 Y 48 X -125 Y 143 X 112 Y 48 X -112 Y f 6 lw 0 0 0.933333 c 0.49 0.6 0.82 c 0 0 0.933333 c 238
 202 m 192 X 108 Y 48 X -108 Y 191 X 220 Y 48 X -113 Y 48 X -107 Y 96 X 108 Y 48 X 3 Y 48 X -3 Y 48 X 436 Y 48 X -330 Y 47 X -214 Y 48 X 653 Y 48 X -221 Y 48 X 6 Y 48 X 3 Y 48 X -7 Y 48 X 659 Y 48 X -980 Y 48 X 216 Y 48 X -329 Y 239 X 110 Y 48 X -110
 Y 48 X 117 Y 48 X 8 Y 48 X -125 Y 143 X 112 Y 48 X s 1 0 0 c black 3 lw 1 0 0 c 2154 230 m -28 -28 d s 2154 278 m -48 -48 d s 2078 202 m s 2120 292 m -14 -14 d s 2030 202 m s 1982 202 m s 1934 202 m s 1915 231 m -29 -29 d s 1915 279 m -48 -48 d s
 1837 202 m cl s 1879 292 m -12 -13 d s 1789 202 m s 1741 202 m cl s 1693 202 m s 1645 202 m cl s 1597 202 m s 1549 202 m s 1532 233 m -31 -31 d s 1532 281 m -79 -79 d s 1532 329 m -128 -127 d s 1532 377 m -48 -48 d s 1445 291 m -89 -89 d s 1532 425
 m -48 -48 d s 1436 329 m -128 -127 d s 1527 469 m -43 -44 d s 1436 377 m -176 -175 d s 1436 426 m -224 -224 d s 1430 468 m -266 -266 d s 1388 474 m -272 -272 d s 1388 522 m -320 -320 d s 1388 570 m -368 -368 d s 1388 618 m -416 -416 d s 1388 666 m
 -431 -431 d s 923 202 m cl s 1388 714 m -431 -431 d s 909 235 m -34 -33 d s 1365 739 m -265 -264 d s 1095 470 m -138 -139 d s 909 283 m -82 -81 d s 1315 738 m -215 -215 d s 1053 475 m -96 -96 d s 869 291 m -56 -55 d s 779 202 m s 1266 737 m -70 -70
 d s 1179 650 m -79 -79 d s 1053 523 m -48 -48 d s 1004 475 m -47 -47 d s 861 332 m -48 -48 d s 765 236 m -34 -34 d s 1220 739 m -24 -24 d s 1128 647 m -28 -28 d s 1053 571 m -48 -47 d s 861 380 m -48 -48 d s 765 284 m -82 -82 d s 1053 620 m -48 -48
 d s 814 381 m -1 -1 d s 765 332 m -96 -96 d s 635 202 m cl s 1038 653 m -33 -33 d s 765 380 m -48 -48 d s 675 291 m -6 -7 d s 587 202 m cl s 720 383 m -3 -3 d s 539 202 m cl s 526 237 m -36 -35 d s 526 285 m -48 -48 d s 442 202 m cl s 483 291 m -5
 -6 d s 394 202 m cl s 382 238 m -36 -36 d s 382 286 m -48 -48 d s 298 202 m cl s 382 334 m -48 -48 d s 286 238 m -36 -36 d s 382 382 m -48 -48 d s 286 286 m -48 -48 d s 339 387 m -5 -5 d s 286 334 m -48 -48 d s 286 382 m -48 -48 d s 286 430 m -48
 -48 d s 282 474 m -44 -43 d s 6 lw 238 474 m 48 X -272 Y 48 X 185 Y 48 X -185 Y 96 X 89 Y 48 X -89 Y 143 X 89 Y 48 X 92 Y 48 X -181 Y 48 X 179 Y 48 X -90 Y 48 X -89 Y 48 X 273 Y 48 X 178 Y 48 X -183 Y 47 X 177 Y 48 X 3 Y 48 X 89 Y 48 X -2 Y 48 X 1 Y
 48 X 1 Y 48 X -271 Y 48 X -177 Y 48 X 178 Y 48 X -267 Y 335 X 90 Y 48 X -90 Y 191 X 90 Y 48 X s black 3 lw 238 202 m 1916 X s 238 244 m -42 Y s 276 223 m -21 Y s 315 223 m -21 Y s 353 223 m -21 Y s 391 223 m -21 Y s 430 244 m -42 Y s 468 223 m -21 Y
 s 506 223 m -21 Y s 545 223 m -21 Y s 583 223 m -21 Y s 621 244 m -42 Y s 660 223 m -21 Y s 698 223 m -21 Y s 736 223 m -21 Y s 775 223 m -21 Y s 813 244 m -42 Y s 851 223 m -21 Y s 890 223 m -21 Y s 928 223 m -21 Y s 966 223 m -21 Y s 1005 244 m
 -42 Y s 1043 223 m -21 Y s 1081 223 m -21 Y s 1120 223 m -21 Y s 1158 223 m -21 Y s 1196 244 m -42 Y s 1235 223 m -21 Y s 1273 223 m -21 Y s 1311 223 m -21 Y s 1350 223 m -21 Y s 1388 244 m -42 Y s 1426 223 m -21 Y s 1464 223 m -21 Y s 1503 223 m
 -21 Y s 1541 223 m -21 Y s 1579 244 m -42 Y s 1618 223 m -21 Y s 1656 223 m -21 Y s 1694 223 m -21 Y s 1733 223 m -21 Y s 1771 244 m -42 Y s 1809 223 m -21 Y s 1848 223 m -21 Y s 1886 223 m -21 Y s 1924 223 m -21 Y s 1963 244 m -42 Y s 2001 223 m
 -21 Y s 2039 223 m -21 Y s 2078 223 m -21 Y s 2116 223 m -21 Y s 2154 244 m -42 Y s 238 1514 m 1916 X s 238 1471 m 43 Y s 276 1492 m 22 Y s 315 1492 m 22 Y s 353 1492 m 22 Y s 391 1492 m 22 Y s 430 1471 m 43 Y s 468 1492 m 22 Y s 506 1492 m 22 Y s
 545 1492 m 22 Y s 583 1492 m 22 Y s 621 1471 m 43 Y s 660 1492 m 22 Y s 698 1492 m 22 Y s 736 1492 m 22 Y s 775 1492 m 22 Y s 813 1471 m 43 Y s 851 1492 m 22 Y s 890 1492 m 22 Y s 928 1492 m 22 Y s 966 1492 m 22 Y s 1005 1471 m 43 Y s 1043 1492 m 22
 Y s 1081 1492 m 22 Y s 1120 1492 m 22 Y s 1158 1492 m 22 Y s 1196 1471 m 43 Y s 1235 1492 m 22 Y s 1273 1492 m 22 Y s 1311 1492 m 22 Y s 1350 1492 m 22 Y s 1388 1471 m 43 Y s 1426 1492 m 22 Y s 1464 1492 m 22 Y s 1503 1492 m 22 Y s 1541 1492 m 22 Y
 s 1579 1471 m 43 Y s 1618 1492 m 22 Y s 1656 1492 m 22 Y s 1694 1492 m 22 Y s 1733 1492 m 22 Y s 1771 1471 m 43 Y s 1809 1492 m 22 Y s 1848 1492 m 22 Y s 1886 1492 m 22 Y s 1924 1492 m 22 Y s 1963 1471 m 43 Y s 2001 1492 m 22 Y s 2039 1492 m 22 Y s
 2078 1492 m 22 Y s 2116 1492 m 22 Y s 2154 1471 m 43 Y s 238 202 m 1312 Y s 291 202 m -53 X s 265 231 m -27 X s 265 261 m -27 X s 265 291 m -27 X s 265 320 m -27 X s 291 350 m -53 X s 265 379 m -27 X s 265 409 m -27 X s 265 439 m -27 X s 265 468 m
 -27 X s 291 498 m -53 X s 265 527 m -27 X s 265 557 m -27 X s 265 587 m -27 X s 265 616 m -27 X s 291 646 m -53 X s 265 675 m -27 X s 265 705 m -27 X s 265 735 m -27 X s 265 764 m -27 X s 291 794 m -53 X s 265 823 m -27 X s 265 853 m -27 X s 265 883
 m -27 X s 265 912 m -27 X s 291 942 m -53 X s 265 971 m -27 X s 265 1001 m -27 X s 265 1031 m -27 X s 265 1060 m -27 X s 291 1090 m -53 X s 265 1119 m -27 X s 265 1149 m -27 X s 265 1179 m -27 X s 265 1208 m -27 X s 291 1238 m -53 X s 265 1267 m -27
 X s 265 1297 m -27 X s 265 1327 m -27 X s 265 1356 m -27 X s 291 1386 m -53 X s 291 1386 m -53 X s 265 1415 m -27 X s 265 1445 m -27 X s 265 1475 m -27 X s 265 1504 m -27 X s 2154 202 m 1312 Y s 2101 202 m 53 X s 2128 231 m 26 X s 2128 261 m 26 X s
 2128 291 m 26 X s 2128 320 m 26 X s 2101 350 m 53 X s 2128 379 m 26 X s 2128 409 m 26 X s 2128 439 m 26 X s 2128 468 m 26 X s 2101 498 m 53 X s 2128 527 m 26 X s 2128 557 m 26 X s 2128 587 m 26 X s 2128 616 m 26 X s 2101 646 m 53 X s 2128 675 m 26 X
 s 2128 705 m 26 X s 2128 735 m 26 X s 2128 764 m 26 X s 2101 794 m 53 X s 2128 823 m 26 X s 2128 853 m 26 X s 2128 883 m 26 X s 2128 912 m 26 X s 2101 942 m 53 X s 2128 971 m 26 X s 2128 1001 m 26 X s 2128 1031 m 26 X s 2128 1060 m 26 X s 2101 1090
 m 53 X s 2128 1119 m 26 X s 2128 1149 m 26 X s 2128 1179 m 26 X s 2128 1208 m 26 X s 2101 1238 m 53 X s 2128 1267 m 26 X s 2128 1297 m 26 X s 2128 1327 m 26 X s 2128 1356 m 26 X s 2101 1386 m 53 X s 2101 1386 m 53 X s 2128 1415 m 26 X s 2128 1445 m
 26 X s 2128 1475 m 26 X s 2128 1504 m 26 X s
 gsave  2268 1682 0 0 C 2211.02 193.403 t 90 r /Helvetica-Bold findfont 45.6587 sf 0 0 m (U/O\255flow \(S,B\): \(0.0, 0.0\)% / \(0.0, 0.0\)%) show NC gr  0.490196 0.545098 0.615686 c 0.364706 0.419608 0.490196 c 1354 96 23 1577 bf 0.490196 0.545098
 0.615686 c 23 1577 m 1354 X s 1377 1577 m 96 Y s 1377 1673 m -1354 X s 23 1673 m -96 Y s 1 1 1 c black 1 1 1 c
 gsave  2268 1682 0 0 C 72.293 1605.67 t 0 r /Helvetica-Bold findfont 76.0979 sf 0 0 m (TMVA probability for classifier: LD) show NC gr 
 gr  gr showpage
end
%%EOF
