%!PS-Adobe-2.0 EPSF-2.0
%%BoundingBox:  0 0 567 420
%%Title: plots/proba_MLP.eps: TMVA probability MLP
%%Creator: ROOT Version 5.34/09
%%CreationDate: Sat Jan  4 23:55:56 2014
%%EndComments
%%BeginProlog
80 dict begin
/s {stroke} def /l {lineto} def /m {moveto} def /t {translate} def
/r {rotate} def /rl {roll}  def /R {repeat} def
/d {rlineto} def /rm {rmoveto} def /gr {grestore} def /f {eofill} def
/c {setrgbcolor} def /black {0 setgray} def /sd {setdash} def
/cl {closepath} def /sf {scalefont setfont} def /lw {setlinewidth} def
/box {m dup 0 exch d exch 0 d 0 exch neg d cl} def
/NC{systemdict begin initclip end}def/C{NC box clip newpath}def
/bl {box s} def /bf {box f} def /Y { 0 exch d} def /X { 0 d} def 
/K {{pop pop 0 moveto} exch kshow} bind def
/ita {/ang 15 def gsave [1 0 ang dup sin exch cos div 1 0 0] concat} def 
/mp {newpath /y exch def /x exch def} def
/side {[w .77 mul w .23 mul] .385 w mul sd w 0 l currentpoint t -144 r} def
/mr {mp x y w2 0 360 arc} def /m24 {mr s} def /m20 {mr f} def
/mb {mp x y w2 add m w2 neg 0 d 0 w neg d w 0 d 0 w d cl} def
/mt {mp x y w2 add m w2 neg w neg d w 0 d cl} def
/m21 {mb f} def /m25 {mb s} def /m22 {mt f} def /m26{mt s} def
/m23 {mp x y w2 sub m w2 w d w neg 0 d cl f} def
/m27 {mp x y w2 add m w3 neg w2 neg d w3 w2 neg d w3 w2 d cl s} def
/m28 {mp x w2 sub y w2 sub w3 add m w3 0 d  0 w3 neg d w3 0 d 0 w3 d w3 0 d  0 w3 d w3 neg 0 d 0 w3 d w3 neg 0 d 0 w3 neg d w3 neg 0 d cl s } def
/m29 {mp gsave x w2 sub y w2 add w3 sub m currentpoint t 4 {side} repeat cl fill gr} def
/m30 {mp gsave x w2 sub y w2 add w3 sub m currentpoint t 4 {side} repeat cl s gr} def
/m31 {mp x y w2 sub m 0 w d x w2 sub y m w 0 d x w2 sub y w2 add m w w neg d x w2 sub y w2 sub m w w d s} def
/m32 {mp x y w2 sub m w2 w d w neg 0 d cl s} def
/m33 {mp x y w2 add m w3 neg w2 neg d w3 w2 neg d w3 w2 d cl f} def
/m34 {mp x w2 sub y w2 sub w3 add m w3 0 d  0 w3 neg d w3 0 d 0 w3 d w3 0 d  0 w3 d w3 neg 0 d 0 w3 d w3 neg 0 d 0 w3 neg d w3 neg 0 d cl f } def
/m2 {mp x y w2 sub m 0 w d x w2 sub y m w 0 d s} def
/m5 {mp x w2 sub y w2 sub m w w d x w2 sub y w2 add m w w neg d s} def
/reEncode {exch findfont dup length dict begin {1 index /FID eq  {pop pop} {def} ifelse } forall /Encoding exch def currentdict end dup /FontName get exch definefont pop } def [/Times-Bold /Times-Italic /Times-BoldItalic /Helvetica /Helvetica-Oblique
 /Helvetica-Bold /Helvetica-BoldOblique /Courier /Courier-Oblique /Courier-Bold /Courier-BoldOblique /Times-Roman /AvantGarde-Book /AvantGarde-BookOblique /AvantGarde-Demi /AvantGarde-DemiOblique /Bookman-Demi /Bookman-DemiItalic /Bookman-Light
 /Bookman-LightItalic /Helvetica-Narrow /Helvetica-Narrow-Bold /Helvetica-Narrow-BoldOblique /Helvetica-Narrow-Oblique /NewCenturySchlbk-Roman /NewCenturySchlbk-Bold /NewCenturySchlbk-BoldItalic /NewCenturySchlbk-Italic /Palatino-Bold
 /Palatino-BoldItalic /Palatino-Italic /Palatino-Roman ] {ISOLatin1Encoding reEncode } forall
%%EndProlog
%%BeginSetup
%%EndSetup
newpath  gsave  .25 .25 scale  gsave  0 0 t 0.490196 0.545098 0.615686 c[  ] 0 sd 3 lw 0.941176 0.941176 0.941176 c 2268 1682 0 0 bf black 1 1 0.992157 c 1916 1312 238 202 bf black 1916 1312 238 202 bl 1 1 0.992157 c 1916 1312 238 202 bf black 1916
 1312 238 202 bl 238 202 m 1916 X s
 gsave  2268 1682 0 0 C 1544.79 30.4391 t 0 r /Helvetica-Bold findfont 72.293 sf 0 0 m (Signal probability) show NC gr  238 244 m -42 Y s 276 223 m -21 Y s 315 223 m -21 Y s 353 223 m -21 Y s 391 223 m -21 Y s 430 244 m -42 Y s 468 223 m -21 Y s 506
 223 m -21 Y s 545 223 m -21 Y s 583 223 m -21 Y s 621 244 m -42 Y s 660 223 m -21 Y s 698 223 m -21 Y s 736 223 m -21 Y s 775 223 m -21 Y s 813 244 m -42 Y s 851 223 m -21 Y s 890 223 m -21 Y s 928 223 m -21 Y s 966 223 m -21 Y s 1005 244 m -42 Y s
 1043 223 m -21 Y s 1081 223 m -21 Y s 1120 223 m -21 Y s 1158 223 m -21 Y s 1196 244 m -42 Y s 1235 223 m -21 Y s 1273 223 m -21 Y s 1311 223 m -21 Y s 1350 223 m -21 Y s 1388 244 m -42 Y s 1426 223 m -21 Y s 1464 223 m -21 Y s 1503 223 m -21 Y s
 1541 223 m -21 Y s 1579 244 m -42 Y s 1618 223 m -21 Y s 1656 223 m -21 Y s 1694 223 m -21 Y s 1733 223 m -21 Y s 1771 244 m -42 Y s 1809 223 m -21 Y s 1848 223 m -21 Y s 1886 223 m -21 Y s 1924 223 m -21 Y s 1963 244 m -42 Y s 2001 223 m -21 Y s
 2039 223 m -21 Y s 2078 223 m -21 Y s 2116 223 m -21 Y s 2154 244 m -42 Y s
 gsave  2268 1682 0 0 C 216.879 129.366 t 0 r /Helvetica-Bold findfont 64.6832 sf 0 0 m (0) show NC gr 
 gsave  2268 1682 0 0 C 384.294 129.366 t 0 r /Helvetica-Bold findfont 64.6832 sf 0 0 m (0.1) show NC gr 
 gsave  2268 1682 0 0 C 574.539 129.366 t 0 r /Helvetica-Bold findfont 64.6832 sf 0 0 m (0.2) show NC gr 
 gsave  2268 1682 0 0 C 764.784 129.366 t 0 r /Helvetica-Bold findfont 64.6832 sf 0 0 m (0.3) show NC gr 
 gsave  2268 1682 0 0 C 958.833 129.366 t 0 r /Helvetica-Bold findfont 64.6832 sf 0 0 m (0.4) show NC gr 
 gsave  2268 1682 0 0 C 1149.08 129.366 t 0 r /Helvetica-Bold findfont 64.6832 sf 0 0 m (0.5) show NC gr 
 gsave  2268 1682 0 0 C 1339.32 129.366 t 0 r /Helvetica-Bold findfont 64.6832 sf 0 0 m (0.6) show NC gr 
 gsave  2268 1682 0 0 C 1533.37 129.366 t 0 r /Helvetica-Bold findfont 64.6832 sf 0 0 m (0.7) show NC gr 
 gsave  2268 1682 0 0 C 1723.62 129.366 t 0 r /Helvetica-Bold findfont 64.6832 sf 0 0 m (0.8) show NC gr 
 gsave  2268 1682 0 0 C 1913.86 129.366 t 0 r /Helvetica-Bold findfont 64.6832 sf 0 0 m (0.9) show NC gr 
 gsave  2268 1682 0 0 C 2138.35 129.366 t 0 r /Helvetica-Bold findfont 64.6832 sf 0 0 m (1) show NC gr  238 1514 m 1916 X s 238 1471 m 43 Y s 276 1492 m 22 Y s 315 1492 m 22 Y s 353 1492 m 22 Y s 391 1492 m 22 Y s 430 1471 m 43 Y s 468 1492 m 22 Y s
 506 1492 m 22 Y s 545 1492 m 22 Y s 583 1492 m 22 Y s 621 1471 m 43 Y s 660 1492 m 22 Y s 698 1492 m 22 Y s 736 1492 m 22 Y s 775 1492 m 22 Y s 813 1471 m 43 Y s 851 1492 m 22 Y s 890 1492 m 22 Y s 928 1492 m 22 Y s 966 1492 m 22 Y s 1005 1471 m 43
 Y s 1043 1492 m 22 Y s 1081 1492 m 22 Y s 1120 1492 m 22 Y s 1158 1492 m 22 Y s 1196 1471 m 43 Y s 1235 1492 m 22 Y s 1273 1492 m 22 Y s 1311 1492 m 22 Y s 1350 1492 m 22 Y s 1388 1471 m 43 Y s 1426 1492 m 22 Y s 1464 1492 m 22 Y s 1503 1492 m 22 Y
 s 1541 1492 m 22 Y s 1579 1471 m 43 Y s 1618 1492 m 22 Y s 1656 1492 m 22 Y s 1694 1492 m 22 Y s 1733 1492 m 22 Y s 1771 1471 m 43 Y s 1809 1492 m 22 Y s 1848 1492 m 22 Y s 1886 1492 m 22 Y s 1924 1492 m 22 Y s 1963 1471 m 43 Y s 2001 1492 m 22 Y s
 2039 1492 m 22 Y s 2078 1492 m 22 Y s 2116 1492 m 22 Y s 2154 1471 m 43 Y s 238 202 m 1312 Y s
 gsave  2268 1682 0 0 C 64.6832 1430.64 t 90 r /Helvetica-Bold findfont 72.293 sf 0 0 m (dx) show NC gr 
 gsave  2268 1682 0 0 C 30.4391 1411.62 t 90 r /Helvetica-Bold findfont 45.6587 sf 0 0 m ( ) show NC gr 
 gsave  2268 1682 0 0 C 64.6832 1388.79 t 90 r /Helvetica-Bold findfont 72.293 sf 0 0 m (/) show NC gr 
 gsave  2268 1682 0 0 C 30.4391 1369.76 t 90 r /Helvetica-Bold findfont 45.6587 sf 0 0 m ( ) show NC gr 
 gsave  2268 1682 0 0 C 60.8783 1095.81 t 90 r /Helvetica-Bold findfont 72.293 sf 0 0 m (\(1/N\) dN) show NC gr  291 202 m -53 X s 265 241 m -27 X s 265 281 m -27 X s 265 321 m -27 X s 265 360 m -27 X s 291 400 m -53 X s 265 439 m -27 X s 265 479 m
 -27 X s 265 519 m -27 X s 265 558 m -27 X s 291 598 m -53 X s 265 637 m -27 X s 265 677 m -27 X s 265 717 m -27 X s 265 756 m -27 X s 291 796 m -53 X s 265 835 m -27 X s 265 875 m -27 X s 265 915 m -27 X s 265 954 m -27 X s 291 994 m -53 X s 265
 1033 m -27 X s 265 1073 m -27 X s 265 1113 m -27 X s 265 1152 m -27 X s 291 1192 m -53 X s 265 1231 m -27 X s 265 1271 m -27 X s 265 1311 m -27 X s 265 1350 m -27 X s 291 1390 m -53 X s 291 1390 m -53 X s 265 1429 m -27 X s 265 1469 m -27 X s 265
 1509 m -27 X s
 gsave  2268 1682 0 0 C 175.025 178.83 t 0 r /Helvetica-Bold findfont 64.6832 sf 0 0 m (0) show NC gr 
 gsave  2268 1682 0 0 C 182.635 376.684 t 0 r /Helvetica-Bold findfont 64.6832 sf 0 0 m (1) show NC gr 
 gsave  2268 1682 0 0 C 175.025 574.539 t 0 r /Helvetica-Bold findfont 64.6832 sf 0 0 m (2) show NC gr 
 gsave  2268 1682 0 0 C 175.025 772.393 t 0 r /Helvetica-Bold findfont 64.6832 sf 0 0 m (3) show NC gr 
 gsave  2268 1682 0 0 C 175.025 970.248 t 0 r /Helvetica-Bold findfont 64.6832 sf 0 0 m (4) show NC gr 
 gsave  2268 1682 0 0 C 175.025 1168.1 t 0 r /Helvetica-Bold findfont 64.6832 sf 0 0 m (5) show NC gr 
 gsave  2268 1682 0 0 C 175.025 1365.96 t 0 r /Helvetica-Bold findfont 64.6832 sf 0 0 m (6) show NC gr  2154 202 m 1312 Y s 2101 202 m 53 X s 2128 241 m 26 X s 2128 281 m 26 X s 2128 321 m 26 X s 2128 360 m 26 X s 2101 400 m 53 X s 2128 439 m 26 X s
 2128 479 m 26 X s 2128 519 m 26 X s 2128 558 m 26 X s 2101 598 m 53 X s 2128 637 m 26 X s 2128 677 m 26 X s 2128 717 m 26 X s 2128 756 m 26 X s 2101 796 m 53 X s 2128 835 m 26 X s 2128 875 m 26 X s 2128 915 m 26 X s 2128 954 m 26 X s 2101 994 m 53 X
 s 2128 1033 m 26 X s 2128 1073 m 26 X s 2128 1113 m 26 X s 2128 1152 m 26 X s 2101 1192 m 53 X s 2128 1231 m 26 X s 2128 1271 m 26 X s 2128 1311 m 26 X s 2128 1350 m 26 X s 2101 1390 m 53 X s 2101 1390 m 53 X s 2128 1429 m 26 X s 2128 1469 m 26 X s
 2128 1509 m 26 X s 0.490196 0.545098 0.615686 c 0.95 0.95 0.95 c 0.490196 0.545098 0.615686 c 680 202 238 1312 bl 238 1312 m 680 X s 918 1312 m 202 Y s 918 1514 m -680 X s 238 1514 m -202 Y s black
 gsave  2268 1682 0 0 C 441.368 1442.05 t 0 r /Times-Italic findfont 76.0979 sf 0 0 m (Signal) show NC gr  0.49 0.6 0.82 c 269 1428 m 143 X 70 Y -143 X f 0 0 0.933333 c 6 lw 269 1498 m 143 X s 269 1428 m 143 X s 412 1428 m 70 Y s 269 1428 m 70 Y s
 black
 gsave  2268 1682 0 0 C 441.368 1343.13 t 0 r /Times-Italic findfont 76.0979 sf 0 0 m (Background) show NC gr  1 0 0 c 3 lw 412 1374 m -47 -47 d s 387 1398 m -70 -71 d s 339 1398 m -70 -71 d s 291 1398 m -22 -23 d s 6 lw 0 0 0.933333 c 1 0 0 c 269
 1398 m 143 X s 269 1327 m 143 X s 412 1327 m 71 Y s 269 1327 m 71 Y s 0 0 0.933333 c 0.49 0.6 0.82 c black 3 lw 0.49 0.6 0.82 c 238 202 m 1093 Y 48 X -476 Y 48 X -157 Y 48 X -142 Y 48 X -11 Y 48 X -2 Y 48 X 165 Y 47 X -311 Y 48 X -159 Y 96 X 461 Y
 48 X -309 Y 48 X -152 Y 144 X 307 Y 48 X -307 Y 95 X 159 Y 48 X -5 Y 48 X -154 Y 144 X 152 Y 48 X 3 Y 48 X -3 Y 48 X 6 Y 48 X -158 Y 47 X 462 Y 48 X -154 Y 48 X -154 Y 48 X 316 Y 48 X -470 Y 48 X 472 Y 48 X -319 Y 48 X 2 Y 48 X 5 Y 48 X -160 Y 143 X
 f 6 lw 0 0 0.933333 c 0.49 0.6 0.82 c 0 0 0.933333 c 238 1295 m 48 X -476 Y 48 X -157 Y 48 X -142 Y 48 X -11 Y 48 X -2 Y 48 X 165 Y 47 X -311 Y 48 X -159 Y 96 X 461 Y 48 X -309 Y 48 X -152 Y 144 X 307 Y 48 X -307 Y 95 X 159 Y 48 X -5 Y 48 X -154 Y
 144 X 152 Y 48 X 3 Y 48 X -3 Y 48 X 6 Y 48 X -158 Y 47 X 462 Y 48 X -154 Y 48 X -154 Y 48 X 316 Y 48 X -470 Y 48 X 472 Y 48 X -319 Y 48 X 2 Y 48 X 5 Y 48 X -160 Y 143 X s 1 0 0 c black 3 lw 1 0 0 c 2154 230 m -28 -28 d s 2154 278 m -76 -76 d s 2149
 321 m -90 -90 d s 2030 202 m s 2101 322 m -42 -43 d s 1982 202 m s 1963 231 m -29 -29 d s 1963 279 m -77 -77 d s 1963 327 m -126 -125 d s 1963 375 m -174 -173 d s 1963 423 m -96 -95 d s 1861 322 m -120 -120 d s 1937 446 m -70 -70 d s 1819 328 m -96
 -96 d s 1693 202 m s 1915 472 m -48 -48 d s 1819 376 m -48 -48 d s 1764 321 m -41 -41 d s 1675 232 m -30 -30 d s 1915 520 m -48 -48 d s 1819 424 m -48 -48 d s 1675 280 m -78 -78 d s 1908 561 m -41 -41 d s 1789 442 m -18 -18 d s 1675 328 m -126 -126
 d s 1675 376 m -174 -174 d s 1675 425 m -222 -223 d s 1645 442 m -209 -209 d s 1404 202 m cl s 1595 440 m -159 -159 d s 1388 233 m -32 -31 d s 1553 447 m -117 -118 d s 1388 281 m -80 -79 d s 1500 441 m -64 -64 d s 1378 320 m -118 -118 d s 1484 473 m
 -48 -47 d s 1332 322 m -120 -120 d s 1484 522 m -48 -48 d s 1283 321 m -119 -119 d s 1484 570 m -48 -48 d s 1244 330 m -128 -128 d s 1484 618 m -48 -48 d s 1244 378 m -176 -176 d s 1484 666 m -48 -48 d s 1244 426 m -96 -95 d s 1138 320 m -118 -118 d
 s 1450 680 m -14 -14 d s 1211 441 m -63 -62 d s 1093 324 m -121 -122 d s 1161 440 m -13 -13 d s 1053 331 m -130 -129 d s 1053 379 m -48 -48 d s 1002 328 m -127 -126 d s 1053 427 m -48 -48 d s 947 321 m -120 -119 d s 1053 475 m -48 -48 d s 899 322 m
 -86 -86 d s 779 202 m s 1053 523 m -48 -48 d s 861 332 m -48 -48 d s 765 236 m -34 -34 d s 1042 561 m -37 -37 d s 861 380 m -48 -48 d s 765 284 m -48 -48 d s 683 202 m s 861 428 m -48 -48 d s 753 321 m -36 -37 d s 669 236 m -34 -34 d s 825 440 m -12
 -12 d s 669 284 m -48 -47 d s 587 202 m cl s 657 320 m -36 -35 d s 573 237 m -34 -35 d s 573 285 m -83 -83 d s 573 333 m -131 -131 d s 573 381 m -179 -179 d s 573 429 m -227 -227 d s 573 477 m -275 -275 d s 573 525 m -47 -48 d s 489 441 m -107 -107
 d s 369 321 m -119 -119 d s 573 573 m -47 -47 d s 478 478 m -96 -96 d s 334 334 m -96 -96 d s 573 622 m -47 -48 d s 478 526 m -48 -48 d s 391 439 m -9 -9 d s 334 382 m -96 -96 d s 573 670 m -47 -48 d s 463 559 m -33 -33 d s 334 430 m -96 -96 d s 537
 681 m -11 -11 d s 334 478 m -96 -96 d s 334 526 m -96 -95 d s 334 574 m -96 -95 d s 334 623 m -96 -96 d s 334 671 m -96 -96 d s 334 719 m -96 -96 d s 334 767 m -96 -96 d s 323 804 m -85 -85 d s 286 815 m -48 -48 d s 286 863 m -48 -48 d s 286 911 m
 -48 -48 d s 286 959 m -48 -47 d s 286 1008 m -48 -48 d s 276 1046 m -38 -38 d s 6 lw 238 1046 m 48 X -242 Y 48 X -483 Y 48 X 118 Y 48 X 120 Y 48 X -118 Y 48 X 240 Y 47 X -479 Y 48 X 118 Y 48 X -118 Y 48 X 119 Y 48 X -119 Y 48 X 238 Y 48 X -118 Y 48
 X -1 Y 48 X 7 Y 48 X 233 Y 48 X -237 Y 47 X -4 Y 48 X 120 Y 48 X 1 Y 48 X -120 Y 48 X 1 Y 48 X -2 Y 48 X -118 Y 48 X 478 Y 48 X -239 Y 48 X 6 Y 47 X -7 Y 48 X 2 Y 48 X -240 Y 48 X 119 Y 48 X 121 Y 48 X -120 Y 48 X 239 Y 48 X -115 Y 48 X -244 Y 96 X
 120 Y 47 X -1 Y 48 X s black 3 lw 238 202 m 1916 X s 238 244 m -42 Y s 276 223 m -21 Y s 315 223 m -21 Y s 353 223 m -21 Y s 391 223 m -21 Y s 430 244 m -42 Y s 468 223 m -21 Y s 506 223 m -21 Y s 545 223 m -21 Y s 583 223 m -21 Y s 621 244 m -42 Y
 s 660 223 m -21 Y s 698 223 m -21 Y s 736 223 m -21 Y s 775 223 m -21 Y s 813 244 m -42 Y s 851 223 m -21 Y s 890 223 m -21 Y s 928 223 m -21 Y s 966 223 m -21 Y s 1005 244 m -42 Y s 1043 223 m -21 Y s 1081 223 m -21 Y s 1120 223 m -21 Y s 1158 223
 m -21 Y s 1196 244 m -42 Y s 1235 223 m -21 Y s 1273 223 m -21 Y s 1311 223 m -21 Y s 1350 223 m -21 Y s 1388 244 m -42 Y s 1426 223 m -21 Y s 1464 223 m -21 Y s 1503 223 m -21 Y s 1541 223 m -21 Y s 1579 244 m -42 Y s 1618 223 m -21 Y s 1656 223 m
 -21 Y s 1694 223 m -21 Y s 1733 223 m -21 Y s 1771 244 m -42 Y s 1809 223 m -21 Y s 1848 223 m -21 Y s 1886 223 m -21 Y s 1924 223 m -21 Y s 1963 244 m -42 Y s 2001 223 m -21 Y s 2039 223 m -21 Y s 2078 223 m -21 Y s 2116 223 m -21 Y s 2154 244 m
 -42 Y s 238 1514 m 1916 X s 238 1471 m 43 Y s 276 1492 m 22 Y s 315 1492 m 22 Y s 353 1492 m 22 Y s 391 1492 m 22 Y s 430 1471 m 43 Y s 468 1492 m 22 Y s 506 1492 m 22 Y s 545 1492 m 22 Y s 583 1492 m 22 Y s 621 1471 m 43 Y s 660 1492 m 22 Y s 698
 1492 m 22 Y s 736 1492 m 22 Y s 775 1492 m 22 Y s 813 1471 m 43 Y s 851 1492 m 22 Y s 890 1492 m 22 Y s 928 1492 m 22 Y s 966 1492 m 22 Y s 1005 1471 m 43 Y s 1043 1492 m 22 Y s 1081 1492 m 22 Y s 1120 1492 m 22 Y s 1158 1492 m 22 Y s 1196 1471 m 43
 Y s 1235 1492 m 22 Y s 1273 1492 m 22 Y s 1311 1492 m 22 Y s 1350 1492 m 22 Y s 1388 1471 m 43 Y s 1426 1492 m 22 Y s 1464 1492 m 22 Y s 1503 1492 m 22 Y s 1541 1492 m 22 Y s 1579 1471 m 43 Y s 1618 1492 m 22 Y s 1656 1492 m 22 Y s 1694 1492 m 22 Y
 s 1733 1492 m 22 Y s 1771 1471 m 43 Y s 1809 1492 m 22 Y s 1848 1492 m 22 Y s 1886 1492 m 22 Y s 1924 1492 m 22 Y s 1963 1471 m 43 Y s 2001 1492 m 22 Y s 2039 1492 m 22 Y s 2078 1492 m 22 Y s 2116 1492 m 22 Y s 2154 1471 m 43 Y s 238 202 m 1312 Y s
 291 202 m -53 X s 265 241 m -27 X s 265 281 m -27 X s 265 321 m -27 X s 265 360 m -27 X s 291 400 m -53 X s 265 439 m -27 X s 265 479 m -27 X s 265 519 m -27 X s 265 558 m -27 X s 291 598 m -53 X s 265 637 m -27 X s 265 677 m -27 X s 265 717 m -27 X
 s 265 756 m -27 X s 291 796 m -53 X s 265 835 m -27 X s 265 875 m -27 X s 265 915 m -27 X s 265 954 m -27 X s 291 994 m -53 X s 265 1033 m -27 X s 265 1073 m -27 X s 265 1113 m -27 X s 265 1152 m -27 X s 291 1192 m -53 X s 265 1231 m -27 X s 265
 1271 m -27 X s 265 1311 m -27 X s 265 1350 m -27 X s 291 1390 m -53 X s 291 1390 m -53 X s 265 1429 m -27 X s 265 1469 m -27 X s 265 1509 m -27 X s 2154 202 m 1312 Y s 2101 202 m 53 X s 2128 241 m 26 X s 2128 281 m 26 X s 2128 321 m 26 X s 2128 360
 m 26 X s 2101 400 m 53 X s 2128 439 m 26 X s 2128 479 m 26 X s 2128 519 m 26 X s 2128 558 m 26 X s 2101 598 m 53 X s 2128 637 m 26 X s 2128 677 m 26 X s 2128 717 m 26 X s 2128 756 m 26 X s 2101 796 m 53 X s 2128 835 m 26 X s 2128 875 m 26 X s 2128
 915 m 26 X s 2128 954 m 26 X s 2101 994 m 53 X s 2128 1033 m 26 X s 2128 1073 m 26 X s 2128 1113 m 26 X s 2128 1152 m 26 X s 2101 1192 m 53 X s 2128 1231 m 26 X s 2128 1271 m 26 X s 2128 1311 m 26 X s 2128 1350 m 26 X s 2101 1390 m 53 X s 2101 1390
 m 53 X s 2128 1429 m 26 X s 2128 1469 m 26 X s 2128 1509 m 26 X s
 gsave  2268 1682 0 0 C 2211.02 193.403 t 90 r /Helvetica-Bold findfont 45.6587 sf 0 0 m (U/O\255flow \(S,B\): \(0.0, 0.0\)% / \(6.2, 0.0\)%) show NC gr  0.490196 0.545098 0.615686 c 0.364706 0.419608 0.490196 c 1415 96 23 1577 bf 0.490196 0.545098
 0.615686 c 23 1577 m 1415 X s 1438 1577 m 96 Y s 1438 1673 m -1415 X s 23 1673 m -96 Y s 1 1 1 c black 1 1 1 c
 gsave  2268 1682 0 0 C 72.293 1605.67 t 0 r /Helvetica-Bold findfont 76.0979 sf 0 0 m (TMVA probability for classifier: MLP) show NC gr 
 gr  gr showpage
end
%%EOF
