%!PS-Adobe-2.0 EPSF-2.0
%%BoundingBox:  0 0 567 420
%%Title: plots/rarity_CFMlpANN.eps: TMVA Rarity CFMlpANN
%%Creator: ROOT Version 5.34/09
%%CreationDate: Sat Jan  4 23:56:00 2014
%%EndComments
%%BeginProlog
80 dict begin
/s {stroke} def /l {lineto} def /m {moveto} def /t {translate} def
/r {rotate} def /rl {roll}  def /R {repeat} def
/d {rlineto} def /rm {rmoveto} def /gr {grestore} def /f {eofill} def
/c {setrgbcolor} def /black {0 setgray} def /sd {setdash} def
/cl {closepath} def /sf {scalefont setfont} def /lw {setlinewidth} def
/box {m dup 0 exch d exch 0 d 0 exch neg d cl} def
/NC{systemdict begin initclip end}def/C{NC box clip newpath}def
/bl {box s} def /bf {box f} def /Y { 0 exch d} def /X { 0 d} def 
/K {{pop pop 0 moveto} exch kshow} bind def
/ita {/ang 15 def gsave [1 0 ang dup sin exch cos div 1 0 0] concat} def 
/mp {newpath /y exch def /x exch def} def
/side {[w .77 mul w .23 mul] .385 w mul sd w 0 l currentpoint t -144 r} def
/mr {mp x y w2 0 360 arc} def /m24 {mr s} def /m20 {mr f} def
/mb {mp x y w2 add m w2 neg 0 d 0 w neg d w 0 d 0 w d cl} def
/mt {mp x y w2 add m w2 neg w neg d w 0 d cl} def
/m21 {mb f} def /m25 {mb s} def /m22 {mt f} def /m26{mt s} def
/m23 {mp x y w2 sub m w2 w d w neg 0 d cl f} def
/m27 {mp x y w2 add m w3 neg w2 neg d w3 w2 neg d w3 w2 d cl s} def
/m28 {mp x w2 sub y w2 sub w3 add m w3 0 d  0 w3 neg d w3 0 d 0 w3 d w3 0 d  0 w3 d w3 neg 0 d 0 w3 d w3 neg 0 d 0 w3 neg d w3 neg 0 d cl s } def
/m29 {mp gsave x w2 sub y w2 add w3 sub m currentpoint t 4 {side} repeat cl fill gr} def
/m30 {mp gsave x w2 sub y w2 add w3 sub m currentpoint t 4 {side} repeat cl s gr} def
/m31 {mp x y w2 sub m 0 w d x w2 sub y m w 0 d x w2 sub y w2 add m w w neg d x w2 sub y w2 sub m w w d s} def
/m32 {mp x y w2 sub m w2 w d w neg 0 d cl s} def
/m33 {mp x y w2 add m w3 neg w2 neg d w3 w2 neg d w3 w2 d cl f} def
/m34 {mp x w2 sub y w2 sub w3 add m w3 0 d  0 w3 neg d w3 0 d 0 w3 d w3 0 d  0 w3 d w3 neg 0 d 0 w3 d w3 neg 0 d 0 w3 neg d w3 neg 0 d cl f } def
/m2 {mp x y w2 sub m 0 w d x w2 sub y m w 0 d s} def
/m5 {mp x w2 sub y w2 sub m w w d x w2 sub y w2 add m w w neg d s} def
/reEncode {exch findfont dup length dict begin {1 index /FID eq  {pop pop} {def} ifelse } forall /Encoding exch def currentdict end dup /FontName get exch definefont pop } def [/Times-Bold /Times-Italic /Times-BoldItalic /Helvetica /Helvetica-Oblique
 /Helvetica-Bold /Helvetica-BoldOblique /Courier /Courier-Oblique /Courier-Bold /Courier-BoldOblique /Times-Roman /AvantGarde-Book /AvantGarde-BookOblique /AvantGarde-Demi /AvantGarde-DemiOblique /Bookman-Demi /Bookman-DemiItalic /Bookman-Light
 /Bookman-LightItalic /Helvetica-Narrow /Helvetica-Narrow-Bold /Helvetica-Narrow-BoldOblique /Helvetica-Narrow-Oblique /NewCenturySchlbk-Roman /NewCenturySchlbk-Bold /NewCenturySchlbk-BoldItalic /NewCenturySchlbk-Italic /Palatino-Bold
 /Palatino-BoldItalic /Palatino-Italic /Palatino-Roman ] {ISOLatin1Encoding reEncode } forall
%%EndProlog
%%BeginSetup
%%EndSetup
newpath  gsave  .25 .25 scale  gsave  0 0 t 0.490196 0.545098 0.615686 c[  ] 0 sd 3 lw 0.941176 0.941176 0.941176 c 2268 1682 0 0 bf black 1 1 0.992157 c 1916 1312 238 202 bf black 1916 1312 238 202 bl 1 1 0.992157 c 1916 1312 238 202 bf black 1916
 1312 238 202 bl 238 202 m 1916 X s
 gsave  2268 1682 0 0 C 1735.03 30.4391 t 0 r /Helvetica-Bold findfont 72.293 sf 0 0 m (Signal rarity) show NC gr  238 244 m -42 Y s 276 223 m -21 Y s 315 223 m -21 Y s 353 223 m -21 Y s 391 223 m -21 Y s 430 244 m -42 Y s 468 223 m -21 Y s 506 223 m
 -21 Y s 545 223 m -21 Y s 583 223 m -21 Y s 621 244 m -42 Y s 660 223 m -21 Y s 698 223 m -21 Y s 736 223 m -21 Y s 775 223 m -21 Y s 813 244 m -42 Y s 851 223 m -21 Y s 890 223 m -21 Y s 928 223 m -21 Y s 966 223 m -21 Y s 1005 244 m -42 Y s 1043
 223 m -21 Y s 1081 223 m -21 Y s 1120 223 m -21 Y s 1158 223 m -21 Y s 1196 244 m -42 Y s 1235 223 m -21 Y s 1273 223 m -21 Y s 1311 223 m -21 Y s 1350 223 m -21 Y s 1388 244 m -42 Y s 1426 223 m -21 Y s 1464 223 m -21 Y s 1503 223 m -21 Y s 1541
 223 m -21 Y s 1579 244 m -42 Y s 1618 223 m -21 Y s 1656 223 m -21 Y s 1694 223 m -21 Y s 1733 223 m -21 Y s 1771 244 m -42 Y s 1809 223 m -21 Y s 1848 223 m -21 Y s 1886 223 m -21 Y s 1924 223 m -21 Y s 1963 244 m -42 Y s 2001 223 m -21 Y s 2039
 223 m -21 Y s 2078 223 m -21 Y s 2116 223 m -21 Y s 2154 244 m -42 Y s
 gsave  2268 1682 0 0 C 216.879 129.366 t 0 r /Helvetica-Bold findfont 64.6832 sf 0 0 m (0) show NC gr 
 gsave  2268 1682 0 0 C 384.294 129.366 t 0 r /Helvetica-Bold findfont 64.6832 sf 0 0 m (0.1) show NC gr 
 gsave  2268 1682 0 0 C 574.539 129.366 t 0 r /Helvetica-Bold findfont 64.6832 sf 0 0 m (0.2) show NC gr 
 gsave  2268 1682 0 0 C 764.784 129.366 t 0 r /Helvetica-Bold findfont 64.6832 sf 0 0 m (0.3) show NC gr 
 gsave  2268 1682 0 0 C 958.833 129.366 t 0 r /Helvetica-Bold findfont 64.6832 sf 0 0 m (0.4) show NC gr 
 gsave  2268 1682 0 0 C 1149.08 129.366 t 0 r /Helvetica-Bold findfont 64.6832 sf 0 0 m (0.5) show NC gr 
 gsave  2268 1682 0 0 C 1339.32 129.366 t 0 r /Helvetica-Bold findfont 64.6832 sf 0 0 m (0.6) show NC gr 
 gsave  2268 1682 0 0 C 1533.37 129.366 t 0 r /Helvetica-Bold findfont 64.6832 sf 0 0 m (0.7) show NC gr 
 gsave  2268 1682 0 0 C 1723.62 129.366 t 0 r /Helvetica-Bold findfont 64.6832 sf 0 0 m (0.8) show NC gr 
 gsave  2268 1682 0 0 C 1913.86 129.366 t 0 r /Helvetica-Bold findfont 64.6832 sf 0 0 m (0.9) show NC gr 
 gsave  2268 1682 0 0 C 2138.35 129.366 t 0 r /Helvetica-Bold findfont 64.6832 sf 0 0 m (1) show NC gr  238 1514 m 1916 X s 238 1471 m 43 Y s 276 1492 m 22 Y s 315 1492 m 22 Y s 353 1492 m 22 Y s 391 1492 m 22 Y s 430 1471 m 43 Y s 468 1492 m 22 Y s
 506 1492 m 22 Y s 545 1492 m 22 Y s 583 1492 m 22 Y s 621 1471 m 43 Y s 660 1492 m 22 Y s 698 1492 m 22 Y s 736 1492 m 22 Y s 775 1492 m 22 Y s 813 1471 m 43 Y s 851 1492 m 22 Y s 890 1492 m 22 Y s 928 1492 m 22 Y s 966 1492 m 22 Y s 1005 1471 m 43
 Y s 1043 1492 m 22 Y s 1081 1492 m 22 Y s 1120 1492 m 22 Y s 1158 1492 m 22 Y s 1196 1471 m 43 Y s 1235 1492 m 22 Y s 1273 1492 m 22 Y s 1311 1492 m 22 Y s 1350 1492 m 22 Y s 1388 1471 m 43 Y s 1426 1492 m 22 Y s 1464 1492 m 22 Y s 1503 1492 m 22 Y
 s 1541 1492 m 22 Y s 1579 1471 m 43 Y s 1618 1492 m 22 Y s 1656 1492 m 22 Y s 1694 1492 m 22 Y s 1733 1492 m 22 Y s 1771 1471 m 43 Y s 1809 1492 m 22 Y s 1848 1492 m 22 Y s 1886 1492 m 22 Y s 1924 1492 m 22 Y s 1963 1471 m 43 Y s 2001 1492 m 22 Y s
 2039 1492 m 22 Y s 2078 1492 m 22 Y s 2116 1492 m 22 Y s 2154 1471 m 43 Y s 238 202 m 1312 Y s
 gsave  2268 1682 0 0 C 64.6832 1430.64 t 90 r /Helvetica-Bold findfont 72.293 sf 0 0 m (dx) show NC gr 
 gsave  2268 1682 0 0 C 30.4391 1411.62 t 90 r /Helvetica-Bold findfont 45.6587 sf 0 0 m ( ) show NC gr 
 gsave  2268 1682 0 0 C 64.6832 1388.79 t 90 r /Helvetica-Bold findfont 72.293 sf 0 0 m (/) show NC gr 
 gsave  2268 1682 0 0 C 30.4391 1369.76 t 90 r /Helvetica-Bold findfont 45.6587 sf 0 0 m ( ) show NC gr 
 gsave  2268 1682 0 0 C 60.8783 1095.81 t 90 r /Helvetica-Bold findfont 72.293 sf 0 0 m (\(1/N\) dN) show NC gr  291 202 m -53 X s 265 247 m -27 X s 265 292 m -27 X s 265 337 m -27 X s 265 382 m -27 X s 291 427 m -53 X s 265 472 m -27 X s 265 517 m
 -27 X s 265 563 m -27 X s 265 608 m -27 X s 291 653 m -53 X s 265 698 m -27 X s 265 743 m -27 X s 265 788 m -27 X s 265 833 m -27 X s 291 878 m -53 X s 265 923 m -27 X s 265 968 m -27 X s 265 1013 m -27 X s 265 1059 m -27 X s 291 1104 m -53 X s 265
 1149 m -27 X s 265 1194 m -27 X s 265 1239 m -27 X s 265 1284 m -27 X s 291 1329 m -53 X s 291 1329 m -53 X s 265 1374 m -27 X s 265 1419 m -27 X s 265 1464 m -27 X s 265 1509 m -27 X s
 gsave  2268 1682 0 0 C 175.025 178.83 t 0 r /Helvetica-Bold findfont 64.6832 sf 0 0 m (0) show NC gr 
 gsave  2268 1682 0 0 C 182.635 403.319 t 0 r /Helvetica-Bold findfont 64.6832 sf 0 0 m (1) show NC gr 
 gsave  2268 1682 0 0 C 175.025 627.807 t 0 r /Helvetica-Bold findfont 64.6832 sf 0 0 m (2) show NC gr 
 gsave  2268 1682 0 0 C 175.025 852.296 t 0 r /Helvetica-Bold findfont 64.6832 sf 0 0 m (3) show NC gr 
 gsave  2268 1682 0 0 C 175.025 1080.59 t 0 r /Helvetica-Bold findfont 64.6832 sf 0 0 m (4) show NC gr 
 gsave  2268 1682 0 0 C 175.025 1305.08 t 0 r /Helvetica-Bold findfont 64.6832 sf 0 0 m (5) show NC gr  2154 202 m 1312 Y s 2101 202 m 53 X s 2128 247 m 26 X s 2128 292 m 26 X s 2128 337 m 26 X s 2128 382 m 26 X s 2101 427 m 53 X s 2128 472 m 26 X s
 2128 517 m 26 X s 2128 563 m 26 X s 2128 608 m 26 X s 2101 653 m 53 X s 2128 698 m 26 X s 2128 743 m 26 X s 2128 788 m 26 X s 2128 833 m 26 X s 2101 878 m 53 X s 2128 923 m 26 X s 2128 968 m 26 X s 2128 1013 m 26 X s 2128 1059 m 26 X s 2101 1104 m
 53 X s 2128 1149 m 26 X s 2128 1194 m 26 X s 2128 1239 m 26 X s 2128 1284 m 26 X s 2101 1329 m 53 X s 2101 1329 m 53 X s 2128 1374 m 26 X s 2128 1419 m 26 X s 2128 1464 m 26 X s 2128 1509 m 26 X s 0.490196 0.545098 0.615686 c 0.95 0.95 0.95 c
 0.490196 0.545098 0.615686 c 680 202 238 1312 bl 238 1312 m 680 X s 918 1312 m 202 Y s 918 1514 m -680 X s 238 1514 m -202 Y s black
 gsave  2268 1682 0 0 C 441.368 1442.05 t 0 r /Times-Italic findfont 76.0979 sf 0 0 m (Signal) show NC gr  0.49 0.6 0.82 c 269 1428 m 143 X 70 Y -143 X f 0 0 0.933333 c 6 lw 269 1498 m 143 X s 269 1428 m 143 X s 412 1428 m 70 Y s 269 1428 m 70 Y s
 black
 gsave  2268 1682 0 0 C 441.368 1343.13 t 0 r /Times-Italic findfont 76.0979 sf 0 0 m (Background) show NC gr  1 0 0 c 3 lw 412 1374 m -47 -47 d s 387 1398 m -70 -71 d s 339 1398 m -70 -71 d s 291 1398 m -22 -23 d s 6 lw 0 0 0.933333 c 1 0 0 c 269
 1398 m 143 X s 269 1327 m 143 X s 412 1327 m 71 Y s 269 1327 m 71 Y s 0 0 0.933333 c 0.49 0.6 0.82 c black 3 lw 0.49 0.6 0.82 c 238 202 m 166 Y 48 X -166 Y 240 X 172 Y 47 X -172 Y 48 X 171 Y 48 X -171 Y 48 X 170 Y 48 X -170 Y 48 X 330 Y 48 X -167 Y
 48 X 657 Y 48 X -326 Y 48 X -331 Y 48 X 504 Y 47 X -340 Y 48 X 339 Y 48 X 4 Y 48 X -170 Y 96 X -170 Y 48 X -2 Y 48 X 174 Y 48 X -161 Y 48 X -9 Y 47 X -168 Y 48 X -164 Y 96 X 333 Y 48 X -167 Y 48 X -166 Y 48 X 191 Y 48 X -191 Y 96 X 170 Y 48 X 8 Y 47
 X -178 Y 48 X f 6 lw 0 0 0.933333 c 0.49 0.6 0.82 c 0 0 0.933333 c 238 368 m 48 X -166 Y 240 X 172 Y 47 X -172 Y 48 X 171 Y 48 X -171 Y 48 X 170 Y 48 X -170 Y 48 X 330 Y 48 X -167 Y 48 X 657 Y 48 X -326 Y 48 X -331 Y 48 X 504 Y 47 X -340 Y 48 X 339
 Y 48 X 4 Y 48 X -170 Y 96 X -170 Y 48 X -2 Y 48 X 174 Y 48 X -161 Y 48 X -9 Y 47 X -168 Y 48 X -164 Y 96 X 333 Y 48 X -167 Y 48 X -166 Y 48 X 191 Y 48 X -191 Y 96 X 170 Y 48 X 8 Y 47 X -178 Y 48 X s 1 0 0 c black 3 lw 1 0 0 c 2154 230 m -28 -28 d s
 2154 278 m -48 -48 d s 2078 202 m s 2154 326 m -48 -48 d s 2030 202 m s 2118 338 m -12 -11 d s 1982 202 m s 1963 231 m -29 -29 d s 1963 279 m -48 -48 d s 1886 202 m cl s 1963 327 m -48 -48 d s 1837 202 m cl s 1925 338 m -10 -11 d s 1819 232 m -30
 -30 d s 1819 280 m -78 -78 d s 1819 328 m -126 -126 d s 1781 338 m -136 -136 d s 1771 376 m -174 -174 d s 1771 424 m -48 -48 d s 1685 338 m -136 -136 d s 1771 472 m -48 -48 d s 1637 338 m -136 -136 d s 1771 520 m -48 -48 d s 1627 377 m -174 -175 d s
 1771 568 m -48 -47 d s 1627 425 m -48 -48 d s 1540 337 m -136 -135 d s 1765 610 m -42 -41 d s 1627 473 m -48 -48 d s 1532 377 m -176 -175 d s 1580 473 m -1 X s 1532 425 m -224 -223 d s 1531 473 m -95 -96 d s 1396 338 m -136 -136 d s 1484 473 m -48
 -47 d s 1350 340 m -138 -138 d s 1438 476 m -2 -2 d s 1300 338 m -136 -136 d s 1292 378 m -176 -176 d s 1292 426 m -224 -224 d s 1292 474 m -272 -272 d s 1292 522 m -320 -320 d s 1292 570 m -48 -47 d s 1196 475 m -273 -273 d s 1292 619 m -48 -48 d s
 1196 523 m -143 -144 d s 1011 337 m -136 -135 d s 1292 667 m -48 -48 d s 1196 571 m -96 -96 d s 1099 474 m -46 -47 d s 1005 379 m -178 -177 d s 1292 715 m -48 -48 d s 1186 609 m -86 -86 d s 1005 427 m -192 -191 d s 779 202 m s 1292 763 m -48 -48 d s
 1148 619 m -48 -48 d s 1005 475 m -192 -191 d s 765 236 m -34 -34 d s 1292 811 m -48 -48 d s 1148 667 m -48 -48 d s 1005 524 m -192 -192 d s 765 284 m -82 -82 d s 1292 859 m -48 -48 d s 1148 715 m -48 -48 d s 1005 572 m -192 -192 d s 765 332 m -130
 -130 d s 1292 907 m -48 -48 d s 1148 763 m -48 -47 d s 1005 620 m -192 -192 d s 765 380 m -178 -178 d s 1292 955 m -48 -48 d s 1148 812 m -48 -48 d s 1005 668 m -192 -192 d s 765 428 m -192 -191 d s 539 202 m cl s 1292 1003 m -48 -48 d s 1148 860 m
 -48 -48 d s 1005 716 m -96 -96 d s 900 611 m -87 -87 d s 764 475 m -191 -190 d s 490 202 m cl s 1292 1052 m -48 -48 d s 1148 908 m -48 -48 d s 986 745 m -77 -77 d s 861 620 m -48 -48 d s 717 477 m -144 -144 d s 442 202 m cl s 1292 1100 m -48 -48 d s
 1148 956 m -48 -48 d s 957 764 m -48 -48 d s 861 668 m -48 -47 d s 717 525 m -144 -144 d s 394 202 m cl s 1292 1148 m -48 -48 d s 1148 1004 m -48 -48 d s 957 812 m -48 -48 d s 861 717 m -48 -48 d s 717 573 m -48 -48 d s 622 478 m -49 -49 d s 346 202
 m s 1292 1196 m -48 -48 d s 1148 1052 m -48 -48 d s 957 860 m -48 -47 d s 843 747 m -30 -30 d s 713 617 m -44 -44 d s 298 202 m s 1292 1244 m -48 -48 d s 1148 1100 m -48 -48 d s 947 898 m -38 -37 d s 250 202 m cl s 1292 1292 m -48 -48 d s 1148 1148
 m -48 -48 d s 1247 1295 m -3 -3 d s 1106 1154 m -6 -5 d s 6 lw 238 202 m 335 X 275 Y 48 X 1 Y 48 X 139 Y 48 X -142 Y 48 X -273 Y 48 X 545 Y 48 X -136 Y 48 X 287 Y 48 X -153 Y 48 X -408 Y 48 X 137 Y 47 X 680 Y 48 X -545 Y 48 X -134 Y 48 X 820 Y 48 X
 -957 Y 48 X 2 Y 48 X -2 Y 48 X 138 Y 48 X -3 Y 48 X -136 Y 47 X 136 Y 48 X -135 Y 96 X 272 Y 48 X -272 Y 48 X -136 Y 96 X 136 Y 48 X -136 Y 143 X 136 Y 48 X s black 3 lw 238 202 m 1916 X s 238 244 m -42 Y s 276 223 m -21 Y s 315 223 m -21 Y s 353
 223 m -21 Y s 391 223 m -21 Y s 430 244 m -42 Y s 468 223 m -21 Y s 506 223 m -21 Y s 545 223 m -21 Y s 583 223 m -21 Y s 621 244 m -42 Y s 660 223 m -21 Y s 698 223 m -21 Y s 736 223 m -21 Y s 775 223 m -21 Y s 813 244 m -42 Y s 851 223 m -21 Y s
 890 223 m -21 Y s 928 223 m -21 Y s 966 223 m -21 Y s 1005 244 m -42 Y s 1043 223 m -21 Y s 1081 223 m -21 Y s 1120 223 m -21 Y s 1158 223 m -21 Y s 1196 244 m -42 Y s 1235 223 m -21 Y s 1273 223 m -21 Y s 1311 223 m -21 Y s 1350 223 m -21 Y s 1388
 244 m -42 Y s 1426 223 m -21 Y s 1464 223 m -21 Y s 1503 223 m -21 Y s 1541 223 m -21 Y s 1579 244 m -42 Y s 1618 223 m -21 Y s 1656 223 m -21 Y s 1694 223 m -21 Y s 1733 223 m -21 Y s 1771 244 m -42 Y s 1809 223 m -21 Y s 1848 223 m -21 Y s 1886
 223 m -21 Y s 1924 223 m -21 Y s 1963 244 m -42 Y s 2001 223 m -21 Y s 2039 223 m -21 Y s 2078 223 m -21 Y s 2116 223 m -21 Y s 2154 244 m -42 Y s 238 1514 m 1916 X s 238 1471 m 43 Y s 276 1492 m 22 Y s 315 1492 m 22 Y s 353 1492 m 22 Y s 391 1492 m
 22 Y s 430 1471 m 43 Y s 468 1492 m 22 Y s 506 1492 m 22 Y s 545 1492 m 22 Y s 583 1492 m 22 Y s 621 1471 m 43 Y s 660 1492 m 22 Y s 698 1492 m 22 Y s 736 1492 m 22 Y s 775 1492 m 22 Y s 813 1471 m 43 Y s 851 1492 m 22 Y s 890 1492 m 22 Y s 928 1492
 m 22 Y s 966 1492 m 22 Y s 1005 1471 m 43 Y s 1043 1492 m 22 Y s 1081 1492 m 22 Y s 1120 1492 m 22 Y s 1158 1492 m 22 Y s 1196 1471 m 43 Y s 1235 1492 m 22 Y s 1273 1492 m 22 Y s 1311 1492 m 22 Y s 1350 1492 m 22 Y s 1388 1471 m 43 Y s 1426 1492 m
 22 Y s 1464 1492 m 22 Y s 1503 1492 m 22 Y s 1541 1492 m 22 Y s 1579 1471 m 43 Y s 1618 1492 m 22 Y s 1656 1492 m 22 Y s 1694 1492 m 22 Y s 1733 1492 m 22 Y s 1771 1471 m 43 Y s 1809 1492 m 22 Y s 1848 1492 m 22 Y s 1886 1492 m 22 Y s 1924 1492 m 22
 Y s 1963 1471 m 43 Y s 2001 1492 m 22 Y s 2039 1492 m 22 Y s 2078 1492 m 22 Y s 2116 1492 m 22 Y s 2154 1471 m 43 Y s 238 202 m 1312 Y s 291 202 m -53 X s 265 247 m -27 X s 265 292 m -27 X s 265 337 m -27 X s 265 382 m -27 X s 291 427 m -53 X s 265
 472 m -27 X s 265 517 m -27 X s 265 563 m -27 X s 265 608 m -27 X s 291 653 m -53 X s 265 698 m -27 X s 265 743 m -27 X s 265 788 m -27 X s 265 833 m -27 X s 291 878 m -53 X s 265 923 m -27 X s 265 968 m -27 X s 265 1013 m -27 X s 265 1059 m -27 X s
 291 1104 m -53 X s 265 1149 m -27 X s 265 1194 m -27 X s 265 1239 m -27 X s 265 1284 m -27 X s 291 1329 m -53 X s 291 1329 m -53 X s 265 1374 m -27 X s 265 1419 m -27 X s 265 1464 m -27 X s 265 1509 m -27 X s 2154 202 m 1312 Y s 2101 202 m 53 X s
 2128 247 m 26 X s 2128 292 m 26 X s 2128 337 m 26 X s 2128 382 m 26 X s 2101 427 m 53 X s 2128 472 m 26 X s 2128 517 m 26 X s 2128 563 m 26 X s 2128 608 m 26 X s 2101 653 m 53 X s 2128 698 m 26 X s 2128 743 m 26 X s 2128 788 m 26 X s 2128 833 m 26 X
 s 2101 878 m 53 X s 2128 923 m 26 X s 2128 968 m 26 X s 2128 1013 m 26 X s 2128 1059 m 26 X s 2101 1104 m 53 X s 2128 1149 m 26 X s 2128 1194 m 26 X s 2128 1239 m 26 X s 2128 1284 m 26 X s 2101 1329 m 53 X s 2101 1329 m 53 X s 2128 1374 m 26 X s
 2128 1419 m 26 X s 2128 1464 m 26 X s 2128 1509 m 26 X s
 gsave  2268 1682 0 0 C 2211.02 193.403 t 90 r /Helvetica-Bold findfont 45.6587 sf 0 0 m (U/O\255flow \(S,B\): \(0.0, 0.0\)% / \(0.0, 0.0\)%) show NC gr  0.490196 0.545098 0.615686 c 0.364706 0.419608 0.490196 c 1479 96 23 1577 bf 0.490196 0.545098
 0.615686 c 23 1577 m 1479 X s 1502 1577 m 96 Y s 1502 1673 m -1479 X s 23 1673 m -96 Y s 1 1 1 c black 1 1 1 c
 gsave  2268 1682 0 0 C 76.0979 1605.67 t 0 r /Helvetica-Bold findfont 76.0979 sf 0 0 m (TMVA Rarity for classifier: CFMlpANN) show NC gr 
 gr  gr showpage
end
%%EOF
