%!PS-Adobe-2.0 EPSF-2.0
%%BoundingBox:  0 0 567 420
%%Title: plots/rarity_TMlpANN.eps: TMVA Rarity TMlpANN
%%Creator: ROOT Version 5.34/09
%%CreationDate: Sat Jan  4 23:56:00 2014
%%EndComments
%%BeginProlog
80 dict begin
/s {stroke} def /l {lineto} def /m {moveto} def /t {translate} def
/r {rotate} def /rl {roll}  def /R {repeat} def
/d {rlineto} def /rm {rmoveto} def /gr {grestore} def /f {eofill} def
/c {setrgbcolor} def /black {0 setgray} def /sd {setdash} def
/cl {closepath} def /sf {scalefont setfont} def /lw {setlinewidth} def
/box {m dup 0 exch d exch 0 d 0 exch neg d cl} def
/NC{systemdict begin initclip end}def/C{NC box clip newpath}def
/bl {box s} def /bf {box f} def /Y { 0 exch d} def /X { 0 d} def 
/K {{pop pop 0 moveto} exch kshow} bind def
/ita {/ang 15 def gsave [1 0 ang dup sin exch cos div 1 0 0] concat} def 
/mp {newpath /y exch def /x exch def} def
/side {[w .77 mul w .23 mul] .385 w mul sd w 0 l currentpoint t -144 r} def
/mr {mp x y w2 0 360 arc} def /m24 {mr s} def /m20 {mr f} def
/mb {mp x y w2 add m w2 neg 0 d 0 w neg d w 0 d 0 w d cl} def
/mt {mp x y w2 add m w2 neg w neg d w 0 d cl} def
/m21 {mb f} def /m25 {mb s} def /m22 {mt f} def /m26{mt s} def
/m23 {mp x y w2 sub m w2 w d w neg 0 d cl f} def
/m27 {mp x y w2 add m w3 neg w2 neg d w3 w2 neg d w3 w2 d cl s} def
/m28 {mp x w2 sub y w2 sub w3 add m w3 0 d  0 w3 neg d w3 0 d 0 w3 d w3 0 d  0 w3 d w3 neg 0 d 0 w3 d w3 neg 0 d 0 w3 neg d w3 neg 0 d cl s } def
/m29 {mp gsave x w2 sub y w2 add w3 sub m currentpoint t 4 {side} repeat cl fill gr} def
/m30 {mp gsave x w2 sub y w2 add w3 sub m currentpoint t 4 {side} repeat cl s gr} def
/m31 {mp x y w2 sub m 0 w d x w2 sub y m w 0 d x w2 sub y w2 add m w w neg d x w2 sub y w2 sub m w w d s} def
/m32 {mp x y w2 sub m w2 w d w neg 0 d cl s} def
/m33 {mp x y w2 add m w3 neg w2 neg d w3 w2 neg d w3 w2 d cl f} def
/m34 {mp x w2 sub y w2 sub w3 add m w3 0 d  0 w3 neg d w3 0 d 0 w3 d w3 0 d  0 w3 d w3 neg 0 d 0 w3 d w3 neg 0 d 0 w3 neg d w3 neg 0 d cl f } def
/m2 {mp x y w2 sub m 0 w d x w2 sub y m w 0 d s} def
/m5 {mp x w2 sub y w2 sub m w w d x w2 sub y w2 add m w w neg d s} def
/reEncode {exch findfont dup length dict begin {1 index /FID eq  {pop pop} {def} ifelse } forall /Encoding exch def currentdict end dup /FontName get exch definefont pop } def [/Times-Bold /Times-Italic /Times-BoldItalic /Helvetica /Helvetica-Oblique
 /Helvetica-Bold /Helvetica-BoldOblique /Courier /Courier-Oblique /Courier-Bold /Courier-BoldOblique /Times-Roman /AvantGarde-Book /AvantGarde-BookOblique /AvantGarde-Demi /AvantGarde-DemiOblique /Bookman-Demi /Bookman-DemiItalic /Bookman-Light
 /Bookman-LightItalic /Helvetica-Narrow /Helvetica-Narrow-Bold /Helvetica-Narrow-BoldOblique /Helvetica-Narrow-Oblique /NewCenturySchlbk-Roman /NewCenturySchlbk-Bold /NewCenturySchlbk-BoldItalic /NewCenturySchlbk-Italic /Palatino-Bold
 /Palatino-BoldItalic /Palatino-Italic /Palatino-Roman ] {ISOLatin1Encoding reEncode } forall
%%EndProlog
%%BeginSetup
%%EndSetup
newpath  gsave  .25 .25 scale  gsave  0 0 t 0.490196 0.545098 0.615686 c[  ] 0 sd 3 lw 0.941176 0.941176 0.941176 c 2268 1682 0 0 bf black 1 1 0.992157 c 1916 1312 238 202 bf black 1916 1312 238 202 bl 1 1 0.992157 c 1916 1312 238 202 bf black 1916
 1312 238 202 bl 238 202 m 1916 X s
 gsave  2268 1682 0 0 C 1735.03 30.4391 t 0 r /Helvetica-Bold findfont 72.293 sf 0 0 m (Signal rarity) show NC gr  238 244 m -42 Y s 276 223 m -21 Y s 315 223 m -21 Y s 353 223 m -21 Y s 391 223 m -21 Y s 430 244 m -42 Y s 468 223 m -21 Y s 506 223 m
 -21 Y s 545 223 m -21 Y s 583 223 m -21 Y s 621 244 m -42 Y s 660 223 m -21 Y s 698 223 m -21 Y s 736 223 m -21 Y s 775 223 m -21 Y s 813 244 m -42 Y s 851 223 m -21 Y s 890 223 m -21 Y s 928 223 m -21 Y s 966 223 m -21 Y s 1005 244 m -42 Y s 1043
 223 m -21 Y s 1081 223 m -21 Y s 1120 223 m -21 Y s 1158 223 m -21 Y s 1196 244 m -42 Y s 1235 223 m -21 Y s 1273 223 m -21 Y s 1311 223 m -21 Y s 1350 223 m -21 Y s 1388 244 m -42 Y s 1426 223 m -21 Y s 1464 223 m -21 Y s 1503 223 m -21 Y s 1541
 223 m -21 Y s 1579 244 m -42 Y s 1618 223 m -21 Y s 1656 223 m -21 Y s 1694 223 m -21 Y s 1733 223 m -21 Y s 1771 244 m -42 Y s 1809 223 m -21 Y s 1848 223 m -21 Y s 1886 223 m -21 Y s 1924 223 m -21 Y s 1963 244 m -42 Y s 2001 223 m -21 Y s 2039
 223 m -21 Y s 2078 223 m -21 Y s 2116 223 m -21 Y s 2154 244 m -42 Y s
 gsave  2268 1682 0 0 C 216.879 129.366 t 0 r /Helvetica-Bold findfont 64.6832 sf 0 0 m (0) show NC gr 
 gsave  2268 1682 0 0 C 384.294 129.366 t 0 r /Helvetica-Bold findfont 64.6832 sf 0 0 m (0.1) show NC gr 
 gsave  2268 1682 0 0 C 574.539 129.366 t 0 r /Helvetica-Bold findfont 64.6832 sf 0 0 m (0.2) show NC gr 
 gsave  2268 1682 0 0 C 764.784 129.366 t 0 r /Helvetica-Bold findfont 64.6832 sf 0 0 m (0.3) show NC gr 
 gsave  2268 1682 0 0 C 958.833 129.366 t 0 r /Helvetica-Bold findfont 64.6832 sf 0 0 m (0.4) show NC gr 
 gsave  2268 1682 0 0 C 1149.08 129.366 t 0 r /Helvetica-Bold findfont 64.6832 sf 0 0 m (0.5) show NC gr 
 gsave  2268 1682 0 0 C 1339.32 129.366 t 0 r /Helvetica-Bold findfont 64.6832 sf 0 0 m (0.6) show NC gr 
 gsave  2268 1682 0 0 C 1533.37 129.366 t 0 r /Helvetica-Bold findfont 64.6832 sf 0 0 m (0.7) show NC gr 
 gsave  2268 1682 0 0 C 1723.62 129.366 t 0 r /Helvetica-Bold findfont 64.6832 sf 0 0 m (0.8) show NC gr 
 gsave  2268 1682 0 0 C 1913.86 129.366 t 0 r /Helvetica-Bold findfont 64.6832 sf 0 0 m (0.9) show NC gr 
 gsave  2268 1682 0 0 C 2138.35 129.366 t 0 r /Helvetica-Bold findfont 64.6832 sf 0 0 m (1) show NC gr  238 1514 m 1916 X s 238 1471 m 43 Y s 276 1492 m 22 Y s 315 1492 m 22 Y s 353 1492 m 22 Y s 391 1492 m 22 Y s 430 1471 m 43 Y s 468 1492 m 22 Y s
 506 1492 m 22 Y s 545 1492 m 22 Y s 583 1492 m 22 Y s 621 1471 m 43 Y s 660 1492 m 22 Y s 698 1492 m 22 Y s 736 1492 m 22 Y s 775 1492 m 22 Y s 813 1471 m 43 Y s 851 1492 m 22 Y s 890 1492 m 22 Y s 928 1492 m 22 Y s 966 1492 m 22 Y s 1005 1471 m 43
 Y s 1043 1492 m 22 Y s 1081 1492 m 22 Y s 1120 1492 m 22 Y s 1158 1492 m 22 Y s 1196 1471 m 43 Y s 1235 1492 m 22 Y s 1273 1492 m 22 Y s 1311 1492 m 22 Y s 1350 1492 m 22 Y s 1388 1471 m 43 Y s 1426 1492 m 22 Y s 1464 1492 m 22 Y s 1503 1492 m 22 Y
 s 1541 1492 m 22 Y s 1579 1471 m 43 Y s 1618 1492 m 22 Y s 1656 1492 m 22 Y s 1694 1492 m 22 Y s 1733 1492 m 22 Y s 1771 1471 m 43 Y s 1809 1492 m 22 Y s 1848 1492 m 22 Y s 1886 1492 m 22 Y s 1924 1492 m 22 Y s 1963 1471 m 43 Y s 2001 1492 m 22 Y s
 2039 1492 m 22 Y s 2078 1492 m 22 Y s 2116 1492 m 22 Y s 2154 1471 m 43 Y s 238 202 m 1312 Y s
 gsave  2268 1682 0 0 C 64.6832 1430.64 t 90 r /Helvetica-Bold findfont 72.293 sf 0 0 m (dx) show NC gr 
 gsave  2268 1682 0 0 C 30.4391 1411.62 t 90 r /Helvetica-Bold findfont 45.6587 sf 0 0 m ( ) show NC gr 
 gsave  2268 1682 0 0 C 64.6832 1388.79 t 90 r /Helvetica-Bold findfont 72.293 sf 0 0 m (/) show NC gr 
 gsave  2268 1682 0 0 C 30.4391 1369.76 t 90 r /Helvetica-Bold findfont 45.6587 sf 0 0 m ( ) show NC gr 
 gsave  2268 1682 0 0 C 60.8783 1095.81 t 90 r /Helvetica-Bold findfont 72.293 sf 0 0 m (\(1/N\) dN) show NC gr  291 202 m -53 X s 265 261 m -27 X s 265 320 m -27 X s 265 380 m -27 X s 291 439 m -53 X s 265 498 m -27 X s 265 557 m -27 X s 265 617 m
 -27 X s 291 676 m -53 X s 265 735 m -27 X s 265 794 m -27 X s 265 854 m -27 X s 291 913 m -53 X s 265 972 m -27 X s 265 1031 m -27 X s 265 1091 m -27 X s 291 1150 m -53 X s 265 1209 m -27 X s 265 1268 m -27 X s 265 1328 m -27 X s 291 1387 m -53 X s
 291 1387 m -53 X s 265 1446 m -27 X s 265 1505 m -27 X s
 gsave  2268 1682 0 0 C 175.025 178.83 t 0 r /Helvetica-Bold findfont 64.6832 sf 0 0 m (0) show NC gr 
 gsave  2268 1682 0 0 C 175.025 414.733 t 0 r /Helvetica-Bold findfont 64.6832 sf 0 0 m (2) show NC gr 
 gsave  2268 1682 0 0 C 175.025 650.637 t 0 r /Helvetica-Bold findfont 64.6832 sf 0 0 m (4) show NC gr 
 gsave  2268 1682 0 0 C 175.025 886.54 t 0 r /Helvetica-Bold findfont 64.6832 sf 0 0 m (6) show NC gr 
 gsave  2268 1682 0 0 C 175.025 1126.25 t 0 r /Helvetica-Bold findfont 64.6832 sf 0 0 m (8) show NC gr 
 gsave  2268 1682 0 0 C 136.976 1362.15 t 0 r /Helvetica-Bold findfont 64.6832 sf 0 0 m (10) show NC gr  2154 202 m 1312 Y s 2101 202 m 53 X s 2128 261 m 26 X s 2128 320 m 26 X s 2128 380 m 26 X s 2101 439 m 53 X s 2128 498 m 26 X s 2128 557 m 26 X s
 2128 617 m 26 X s 2101 676 m 53 X s 2128 735 m 26 X s 2128 794 m 26 X s 2128 854 m 26 X s 2101 913 m 53 X s 2128 972 m 26 X s 2128 1031 m 26 X s 2128 1091 m 26 X s 2101 1150 m 53 X s 2128 1209 m 26 X s 2128 1268 m 26 X s 2128 1328 m 26 X s 2101 1387
 m 53 X s 2101 1387 m 53 X s 2128 1446 m 26 X s 2128 1505 m 26 X s 0.490196 0.545098 0.615686 c 0.95 0.95 0.95 c 0.490196 0.545098 0.615686 c 680 202 238 1312 bl 238 1312 m 680 X s 918 1312 m 202 Y s 918 1514 m -680 X s 238 1514 m -202 Y s black
 gsave  2268 1682 0 0 C 441.368 1442.05 t 0 r /Times-Italic findfont 76.0979 sf 0 0 m (Signal) show NC gr  0.49 0.6 0.82 c 269 1428 m 143 X 70 Y -143 X f 0 0 0.933333 c 6 lw 269 1498 m 143 X s 269 1428 m 143 X s 412 1428 m 70 Y s 269 1428 m 70 Y s
 black
 gsave  2268 1682 0 0 C 441.368 1343.13 t 0 r /Times-Italic findfont 76.0979 sf 0 0 m (Background) show NC gr  1 0 0 c 3 lw 412 1374 m -47 -47 d s 387 1398 m -70 -71 d s 339 1398 m -70 -71 d s 291 1398 m -22 -23 d s 6 lw 0 0 0.933333 c 1 0 0 c 269
 1398 m 143 X s 269 1327 m 143 X s 412 1327 m 71 Y s 269 1327 m 71 Y s 0 0 0.933333 c 0.49 0.6 0.82 c black 3 lw 0.49 0.6 0.82 c 238 202 m 267 Y 48 X -267 Y 96 X 87 Y 48 X -87 Y 143 X 87 Y 48 X -1 Y 48 X 1 Y 48 X -87 Y 48 X 258 Y 48 X -171 Y 96 X 88
 Y 48 X -89 Y 96 X -86 Y 47 X 93 Y 48 X -8 Y 48 X 1 Y 48 X 89 Y 48 X -89 Y 96 X 178 Y 48 X -89 Y 48 X -86 Y 48 X 87 Y 47 X -90 Y 48 X -86 Y 48 X 90 Y 48 X -1 Y 48 X 86 Y 48 X -1 Y 48 X -87 Y 48 X 2 Y 48 X 11 Y 48 X 250 Y 48 X -177 Y 47 X 438 Y 48 X
 -611 Y f 6 lw 0 0 0.933333 c 0.49 0.6 0.82 c 0 0 0.933333 c 238 469 m 48 X -267 Y 96 X 87 Y 48 X -87 Y 143 X 87 Y 48 X -1 Y 48 X 1 Y 48 X -87 Y 48 X 258 Y 48 X -171 Y 96 X 88 Y 48 X -89 Y 96 X -86 Y 47 X 93 Y 48 X -8 Y 48 X 1 Y 48 X 89 Y 48 X -89 Y
 96 X 178 Y 48 X -89 Y 48 X -86 Y 48 X 87 Y 47 X -90 Y 48 X -86 Y 48 X 90 Y 48 X -1 Y 48 X 86 Y 48 X -1 Y 48 X -87 Y 48 X 2 Y 48 X 11 Y 48 X 250 Y 48 X -177 Y 47 X 438 Y 48 X s 1 0 0 c black 3 lw 1 0 0 c 2154 230 m -28 -28 d s 2154 278 m -76 -76 d s
 2154 326 m -124 -124 d s 2154 374 m -172 -172 d s 2154 423 m -220 -221 d s 2154 471 m -95 -96 d s 2032 348 m -117 -117 d s 1886 202 m cl s 2154 519 m -95 -96 d s 2011 375 m -96 -96 d s 1867 231 m -30 -29 d s 2154 567 m -95 -96 d s 2011 423 m -96 -96
 d s 1867 279 m -78 -77 d s 2154 615 m -95 -96 d s 2011 471 m -96 -96 d s 1867 328 m -48 -48 d s 1814 274 m -73 -72 d s 2154 663 m -95 -96 d s 1986 495 m -23 -24 d s 1916 425 m -1 -1 d s 1867 376 m -48 -48 d s 1767 275 m -74 -73 d s 2154 711 m -95
 -96 d s 1863 420 m -44 -44 d s 1717 274 m -42 -42 d s 1645 202 m cl s 2154 759 m -95 -96 d s 1597 202 m s 2154 807 m -95 -95 d s 1549 202 m s 2154 855 m -48 -47 d s 2080 782 m -21 -22 d s 1501 202 m cl s 2154 904 m -48 -48 d s 1484 233 m -31 -31 d s
 2154 952 m -48 -48 d s 1479 277 m -75 -75 d s 2154 1000 m -48 -48 d s 1436 281 m -80 -79 d s 2154 1048 m -48 -48 d s 1436 329 m -128 -127 d s 2154 1096 m -48 -48 d s 1436 377 m -96 -95 d s 1333 274 m -41 -40 d s 1260 202 m cl s 2154 1144 m -48 -48 d
 s 1429 419 m -41 -41 d s 1359 349 m -19 -19 d s 1244 234 m -32 -32 d s 2154 1192 m -48 -48 d s 1237 275 m -73 -73 d s 2154 1240 m -48 -48 d s 1188 274 m -72 -72 d s 2154 1288 m -48 -47 d s 1140 274 m -40 -39 d s 1068 202 m cl s 2113 1295 m -7 -6 d s
 1053 235 m -33 -33 d s 1045 276 m -40 -41 d s 972 202 m s 957 235 m -34 -33 d s 949 275 m -74 -73 d s 909 283 m -82 -81 d s 909 332 m -130 -130 d s 876 347 m -111 -111 d s 731 202 m s 828 347 m -63 -63 d s 717 236 m -34 -34 d s 780 347 m -15 -15 d s
 709 276 m -74 -74 d s 659 275 m -72 -73 d s 621 285 m -48 -48 d s 539 202 m cl s 621 333 m -48 -48 d s 490 202 m cl s 589 348 m -16 -15 d s 478 237 m -36 -35 d s 467 275 m -37 -38 d s 394 202 m cl s 346 202 m s 298 202 m s 286 238 m -36 -36 d s 286
 286 m -48 -48 d s 286 334 m -48 -48 d s 286 382 m -48 -48 d s 286 430 m -48 -48 d s 286 478 m -48 -47 d s 252 493 m -14 -14 d s 6 lw 238 493 m 48 X -291 Y 144 X 73 Y 48 X -73 Y 95 X 146 Y 48 X -73 Y 48 X 1 Y 48 X -74 Y 48 X 145 Y 144 X -72 Y 48 X
 -73 Y 48 X 74 Y 48 X -74 Y 47 X 72 Y 96 X 1 Y 48 X -73 Y 48 X 72 Y 48 X 75 Y 48 X 70 Y 48 X -142 Y 48 X -75 Y 191 X 72 Y 48 X 1 Y 48 X -1 Y 48 X 146 Y 48 X -218 Y 48 X 223 Y 48 X 70 Y 48 X -147 Y 48 X 434 Y 47 X 513 Y 48 X s black 3 lw 238 202 m
 1916 X s 238 244 m -42 Y s 276 223 m -21 Y s 315 223 m -21 Y s 353 223 m -21 Y s 391 223 m -21 Y s 430 244 m -42 Y s 468 223 m -21 Y s 506 223 m -21 Y s 545 223 m -21 Y s 583 223 m -21 Y s 621 244 m -42 Y s 660 223 m -21 Y s 698 223 m -21 Y s 736
 223 m -21 Y s 775 223 m -21 Y s 813 244 m -42 Y s 851 223 m -21 Y s 890 223 m -21 Y s 928 223 m -21 Y s 966 223 m -21 Y s 1005 244 m -42 Y s 1043 223 m -21 Y s 1081 223 m -21 Y s 1120 223 m -21 Y s 1158 223 m -21 Y s 1196 244 m -42 Y s 1235 223 m
 -21 Y s 1273 223 m -21 Y s 1311 223 m -21 Y s 1350 223 m -21 Y s 1388 244 m -42 Y s 1426 223 m -21 Y s 1464 223 m -21 Y s 1503 223 m -21 Y s 1541 223 m -21 Y s 1579 244 m -42 Y s 1618 223 m -21 Y s 1656 223 m -21 Y s 1694 223 m -21 Y s 1733 223 m
 -21 Y s 1771 244 m -42 Y s 1809 223 m -21 Y s 1848 223 m -21 Y s 1886 223 m -21 Y s 1924 223 m -21 Y s 1963 244 m -42 Y s 2001 223 m -21 Y s 2039 223 m -21 Y s 2078 223 m -21 Y s 2116 223 m -21 Y s 2154 244 m -42 Y s 238 1514 m 1916 X s 238 1471 m
 43 Y s 276 1492 m 22 Y s 315 1492 m 22 Y s 353 1492 m 22 Y s 391 1492 m 22 Y s 430 1471 m 43 Y s 468 1492 m 22 Y s 506 1492 m 22 Y s 545 1492 m 22 Y s 583 1492 m 22 Y s 621 1471 m 43 Y s 660 1492 m 22 Y s 698 1492 m 22 Y s 736 1492 m 22 Y s 775 1492
 m 22 Y s 813 1471 m 43 Y s 851 1492 m 22 Y s 890 1492 m 22 Y s 928 1492 m 22 Y s 966 1492 m 22 Y s 1005 1471 m 43 Y s 1043 1492 m 22 Y s 1081 1492 m 22 Y s 1120 1492 m 22 Y s 1158 1492 m 22 Y s 1196 1471 m 43 Y s 1235 1492 m 22 Y s 1273 1492 m 22 Y
 s 1311 1492 m 22 Y s 1350 1492 m 22 Y s 1388 1471 m 43 Y s 1426 1492 m 22 Y s 1464 1492 m 22 Y s 1503 1492 m 22 Y s 1541 1492 m 22 Y s 1579 1471 m 43 Y s 1618 1492 m 22 Y s 1656 1492 m 22 Y s 1694 1492 m 22 Y s 1733 1492 m 22 Y s 1771 1471 m 43 Y s
 1809 1492 m 22 Y s 1848 1492 m 22 Y s 1886 1492 m 22 Y s 1924 1492 m 22 Y s 1963 1471 m 43 Y s 2001 1492 m 22 Y s 2039 1492 m 22 Y s 2078 1492 m 22 Y s 2116 1492 m 22 Y s 2154 1471 m 43 Y s 238 202 m 1312 Y s 291 202 m -53 X s 265 261 m -27 X s 265
 320 m -27 X s 265 380 m -27 X s 291 439 m -53 X s 265 498 m -27 X s 265 557 m -27 X s 265 617 m -27 X s 291 676 m -53 X s 265 735 m -27 X s 265 794 m -27 X s 265 854 m -27 X s 291 913 m -53 X s 265 972 m -27 X s 265 1031 m -27 X s 265 1091 m -27 X s
 291 1150 m -53 X s 265 1209 m -27 X s 265 1268 m -27 X s 265 1328 m -27 X s 291 1387 m -53 X s 291 1387 m -53 X s 265 1446 m -27 X s 265 1505 m -27 X s 2154 202 m 1312 Y s 2101 202 m 53 X s 2128 261 m 26 X s 2128 320 m 26 X s 2128 380 m 26 X s 2101
 439 m 53 X s 2128 498 m 26 X s 2128 557 m 26 X s 2128 617 m 26 X s 2101 676 m 53 X s 2128 735 m 26 X s 2128 794 m 26 X s 2128 854 m 26 X s 2101 913 m 53 X s 2128 972 m 26 X s 2128 1031 m 26 X s 2128 1091 m 26 X s 2101 1150 m 53 X s 2128 1209 m 26 X
 s 2128 1268 m 26 X s 2128 1328 m 26 X s 2101 1387 m 53 X s 2101 1387 m 53 X s 2128 1446 m 26 X s 2128 1505 m 26 X s
 gsave  2268 1682 0 0 C 2211.02 193.403 t 90 r /Helvetica-Bold findfont 45.6587 sf 0 0 m (U/O\255flow \(S,B\): \(0.0, 0.0\)% / \(0.0, 1.5\)%) show NC gr  0.490196 0.545098 0.615686 c 0.364706 0.419608 0.490196 c 1422 96 23 1577 bf 0.490196 0.545098
 0.615686 c 23 1577 m 1422 X s 1445 1577 m 96 Y s 1445 1673 m -1422 X s 23 1673 m -96 Y s 1 1 1 c black 1 1 1 c
 gsave  2268 1682 0 0 C 72.293 1605.67 t 0 r /Helvetica-Bold findfont 76.0979 sf 0 0 m (TMVA Rarity for classifier: TMlpANN) show NC gr 
 gr  gr showpage
end
%%EOF
