%!PS-Adobe-2.0 EPSF-2.0
%%BoundingBox:  0 0 567 420
%%Title: plots/rarity_LD.eps: TMVA Rarity LD
%%Creator: ROOT Version 5.34/09
%%CreationDate: Sat Jan  4 23:55:59 2014
%%EndComments
%%BeginProlog
80 dict begin
/s {stroke} def /l {lineto} def /m {moveto} def /t {translate} def
/r {rotate} def /rl {roll}  def /R {repeat} def
/d {rlineto} def /rm {rmoveto} def /gr {grestore} def /f {eofill} def
/c {setrgbcolor} def /black {0 setgray} def /sd {setdash} def
/cl {closepath} def /sf {scalefont setfont} def /lw {setlinewidth} def
/box {m dup 0 exch d exch 0 d 0 exch neg d cl} def
/NC{systemdict begin initclip end}def/C{NC box clip newpath}def
/bl {box s} def /bf {box f} def /Y { 0 exch d} def /X { 0 d} def 
/K {{pop pop 0 moveto} exch kshow} bind def
/ita {/ang 15 def gsave [1 0 ang dup sin exch cos div 1 0 0] concat} def 
/mp {newpath /y exch def /x exch def} def
/side {[w .77 mul w .23 mul] .385 w mul sd w 0 l currentpoint t -144 r} def
/mr {mp x y w2 0 360 arc} def /m24 {mr s} def /m20 {mr f} def
/mb {mp x y w2 add m w2 neg 0 d 0 w neg d w 0 d 0 w d cl} def
/mt {mp x y w2 add m w2 neg w neg d w 0 d cl} def
/m21 {mb f} def /m25 {mb s} def /m22 {mt f} def /m26{mt s} def
/m23 {mp x y w2 sub m w2 w d w neg 0 d cl f} def
/m27 {mp x y w2 add m w3 neg w2 neg d w3 w2 neg d w3 w2 d cl s} def
/m28 {mp x w2 sub y w2 sub w3 add m w3 0 d  0 w3 neg d w3 0 d 0 w3 d w3 0 d  0 w3 d w3 neg 0 d 0 w3 d w3 neg 0 d 0 w3 neg d w3 neg 0 d cl s } def
/m29 {mp gsave x w2 sub y w2 add w3 sub m currentpoint t 4 {side} repeat cl fill gr} def
/m30 {mp gsave x w2 sub y w2 add w3 sub m currentpoint t 4 {side} repeat cl s gr} def
/m31 {mp x y w2 sub m 0 w d x w2 sub y m w 0 d x w2 sub y w2 add m w w neg d x w2 sub y w2 sub m w w d s} def
/m32 {mp x y w2 sub m w2 w d w neg 0 d cl s} def
/m33 {mp x y w2 add m w3 neg w2 neg d w3 w2 neg d w3 w2 d cl f} def
/m34 {mp x w2 sub y w2 sub w3 add m w3 0 d  0 w3 neg d w3 0 d 0 w3 d w3 0 d  0 w3 d w3 neg 0 d 0 w3 d w3 neg 0 d 0 w3 neg d w3 neg 0 d cl f } def
/m2 {mp x y w2 sub m 0 w d x w2 sub y m w 0 d s} def
/m5 {mp x w2 sub y w2 sub m w w d x w2 sub y w2 add m w w neg d s} def
/reEncode {exch findfont dup length dict begin {1 index /FID eq  {pop pop} {def} ifelse } forall /Encoding exch def currentdict end dup /FontName get exch definefont pop } def [/Times-Bold /Times-Italic /Times-BoldItalic /Helvetica /Helvetica-Oblique
 /Helvetica-Bold /Helvetica-BoldOblique /Courier /Courier-Oblique /Courier-Bold /Courier-BoldOblique /Times-Roman /AvantGarde-Book /AvantGarde-BookOblique /AvantGarde-Demi /AvantGarde-DemiOblique /Bookman-Demi /Bookman-DemiItalic /Bookman-Light
 /Bookman-LightItalic /Helvetica-Narrow /Helvetica-Narrow-Bold /Helvetica-Narrow-BoldOblique /Helvetica-Narrow-Oblique /NewCenturySchlbk-Roman /NewCenturySchlbk-Bold /NewCenturySchlbk-BoldItalic /NewCenturySchlbk-Italic /Palatino-Bold
 /Palatino-BoldItalic /Palatino-Italic /Palatino-Roman ] {ISOLatin1Encoding reEncode } forall
%%EndProlog
%%BeginSetup
%%EndSetup
newpath  gsave  .25 .25 scale  gsave  0 0 t 0.490196 0.545098 0.615686 c[  ] 0 sd 3 lw 0.941176 0.941176 0.941176 c 2268 1682 0 0 bf black 1 1 0.992157 c 1916 1312 238 202 bf black 1916 1312 238 202 bl 1 1 0.992157 c 1916 1312 238 202 bf black 1916
 1312 238 202 bl 238 202 m 1916 X s
 gsave  2268 1682 0 0 C 1735.03 30.4391 t 0 r /Helvetica-Bold findfont 72.293 sf 0 0 m (Signal rarity) show NC gr  238 244 m -42 Y s 276 223 m -21 Y s 315 223 m -21 Y s 353 223 m -21 Y s 391 223 m -21 Y s 430 244 m -42 Y s 468 223 m -21 Y s 506 223 m
 -21 Y s 545 223 m -21 Y s 583 223 m -21 Y s 621 244 m -42 Y s 660 223 m -21 Y s 698 223 m -21 Y s 736 223 m -21 Y s 775 223 m -21 Y s 813 244 m -42 Y s 851 223 m -21 Y s 890 223 m -21 Y s 928 223 m -21 Y s 966 223 m -21 Y s 1005 244 m -42 Y s 1043
 223 m -21 Y s 1081 223 m -21 Y s 1120 223 m -21 Y s 1158 223 m -21 Y s 1196 244 m -42 Y s 1235 223 m -21 Y s 1273 223 m -21 Y s 1311 223 m -21 Y s 1350 223 m -21 Y s 1388 244 m -42 Y s 1426 223 m -21 Y s 1464 223 m -21 Y s 1503 223 m -21 Y s 1541
 223 m -21 Y s 1579 244 m -42 Y s 1618 223 m -21 Y s 1656 223 m -21 Y s 1694 223 m -21 Y s 1733 223 m -21 Y s 1771 244 m -42 Y s 1809 223 m -21 Y s 1848 223 m -21 Y s 1886 223 m -21 Y s 1924 223 m -21 Y s 1963 244 m -42 Y s 2001 223 m -21 Y s 2039
 223 m -21 Y s 2078 223 m -21 Y s 2116 223 m -21 Y s 2154 244 m -42 Y s
 gsave  2268 1682 0 0 C 216.879 129.366 t 0 r /Helvetica-Bold findfont 64.6832 sf 0 0 m (0) show NC gr 
 gsave  2268 1682 0 0 C 384.294 129.366 t 0 r /Helvetica-Bold findfont 64.6832 sf 0 0 m (0.1) show NC gr 
 gsave  2268 1682 0 0 C 574.539 129.366 t 0 r /Helvetica-Bold findfont 64.6832 sf 0 0 m (0.2) show NC gr 
 gsave  2268 1682 0 0 C 764.784 129.366 t 0 r /Helvetica-Bold findfont 64.6832 sf 0 0 m (0.3) show NC gr 
 gsave  2268 1682 0 0 C 958.833 129.366 t 0 r /Helvetica-Bold findfont 64.6832 sf 0 0 m (0.4) show NC gr 
 gsave  2268 1682 0 0 C 1149.08 129.366 t 0 r /Helvetica-Bold findfont 64.6832 sf 0 0 m (0.5) show NC gr 
 gsave  2268 1682 0 0 C 1339.32 129.366 t 0 r /Helvetica-Bold findfont 64.6832 sf 0 0 m (0.6) show NC gr 
 gsave  2268 1682 0 0 C 1533.37 129.366 t 0 r /Helvetica-Bold findfont 64.6832 sf 0 0 m (0.7) show NC gr 
 gsave  2268 1682 0 0 C 1723.62 129.366 t 0 r /Helvetica-Bold findfont 64.6832 sf 0 0 m (0.8) show NC gr 
 gsave  2268 1682 0 0 C 1913.86 129.366 t 0 r /Helvetica-Bold findfont 64.6832 sf 0 0 m (0.9) show NC gr 
 gsave  2268 1682 0 0 C 2138.35 129.366 t 0 r /Helvetica-Bold findfont 64.6832 sf 0 0 m (1) show NC gr  238 1514 m 1916 X s 238 1471 m 43 Y s 276 1492 m 22 Y s 315 1492 m 22 Y s 353 1492 m 22 Y s 391 1492 m 22 Y s 430 1471 m 43 Y s 468 1492 m 22 Y s
 506 1492 m 22 Y s 545 1492 m 22 Y s 583 1492 m 22 Y s 621 1471 m 43 Y s 660 1492 m 22 Y s 698 1492 m 22 Y s 736 1492 m 22 Y s 775 1492 m 22 Y s 813 1471 m 43 Y s 851 1492 m 22 Y s 890 1492 m 22 Y s 928 1492 m 22 Y s 966 1492 m 22 Y s 1005 1471 m 43
 Y s 1043 1492 m 22 Y s 1081 1492 m 22 Y s 1120 1492 m 22 Y s 1158 1492 m 22 Y s 1196 1471 m 43 Y s 1235 1492 m 22 Y s 1273 1492 m 22 Y s 1311 1492 m 22 Y s 1350 1492 m 22 Y s 1388 1471 m 43 Y s 1426 1492 m 22 Y s 1464 1492 m 22 Y s 1503 1492 m 22 Y
 s 1541 1492 m 22 Y s 1579 1471 m 43 Y s 1618 1492 m 22 Y s 1656 1492 m 22 Y s 1694 1492 m 22 Y s 1733 1492 m 22 Y s 1771 1471 m 43 Y s 1809 1492 m 22 Y s 1848 1492 m 22 Y s 1886 1492 m 22 Y s 1924 1492 m 22 Y s 1963 1471 m 43 Y s 2001 1492 m 22 Y s
 2039 1492 m 22 Y s 2078 1492 m 22 Y s 2116 1492 m 22 Y s 2154 1471 m 43 Y s 238 202 m 1312 Y s
 gsave  2268 1682 0 0 C 64.6832 1430.64 t 90 r /Helvetica-Bold findfont 72.293 sf 0 0 m (dx) show NC gr 
 gsave  2268 1682 0 0 C 30.4391 1411.62 t 90 r /Helvetica-Bold findfont 45.6587 sf 0 0 m ( ) show NC gr 
 gsave  2268 1682 0 0 C 64.6832 1388.79 t 90 r /Helvetica-Bold findfont 72.293 sf 0 0 m (/) show NC gr 
 gsave  2268 1682 0 0 C 30.4391 1369.76 t 90 r /Helvetica-Bold findfont 45.6587 sf 0 0 m ( ) show NC gr 
 gsave  2268 1682 0 0 C 60.8783 1095.81 t 90 r /Helvetica-Bold findfont 72.293 sf 0 0 m (\(1/N\) dN) show NC gr  291 202 m -53 X s 265 250 m -27 X s 265 299 m -27 X s 265 347 m -27 X s 265 396 m -27 X s 291 444 m -53 X s 265 492 m -27 X s 265 541 m
 -27 X s 265 589 m -27 X s 265 638 m -27 X s 291 686 m -53 X s 265 735 m -27 X s 265 783 m -27 X s 265 832 m -27 X s 265 880 m -27 X s 291 928 m -53 X s 265 977 m -27 X s 265 1025 m -27 X s 265 1074 m -27 X s 265 1122 m -27 X s 291 1171 m -53 X s 265
 1219 m -27 X s 265 1267 m -27 X s 265 1316 m -27 X s 265 1364 m -27 X s 291 1413 m -53 X s 291 1413 m -53 X s 265 1461 m -27 X s 265 1510 m -27 X s
 gsave  2268 1682 0 0 C 175.025 178.83 t 0 r /Helvetica-Bold findfont 64.6832 sf 0 0 m (0) show NC gr 
 gsave  2268 1682 0 0 C 182.635 418.538 t 0 r /Helvetica-Bold findfont 64.6832 sf 0 0 m (1) show NC gr 
 gsave  2268 1682 0 0 C 175.025 662.051 t 0 r /Helvetica-Bold findfont 64.6832 sf 0 0 m (2) show NC gr 
 gsave  2268 1682 0 0 C 175.025 901.76 t 0 r /Helvetica-Bold findfont 64.6832 sf 0 0 m (3) show NC gr 
 gsave  2268 1682 0 0 C 175.025 1145.27 t 0 r /Helvetica-Bold findfont 64.6832 sf 0 0 m (4) show NC gr 
 gsave  2268 1682 0 0 C 175.025 1388.79 t 0 r /Helvetica-Bold findfont 64.6832 sf 0 0 m (5) show NC gr  2154 202 m 1312 Y s 2101 202 m 53 X s 2128 250 m 26 X s 2128 299 m 26 X s 2128 347 m 26 X s 2128 396 m 26 X s 2101 444 m 53 X s 2128 492 m 26 X s
 2128 541 m 26 X s 2128 589 m 26 X s 2128 638 m 26 X s 2101 686 m 53 X s 2128 735 m 26 X s 2128 783 m 26 X s 2128 832 m 26 X s 2128 880 m 26 X s 2101 928 m 53 X s 2128 977 m 26 X s 2128 1025 m 26 X s 2128 1074 m 26 X s 2128 1122 m 26 X s 2101 1171 m
 53 X s 2128 1219 m 26 X s 2128 1267 m 26 X s 2128 1316 m 26 X s 2128 1364 m 26 X s 2101 1413 m 53 X s 2101 1413 m 53 X s 2128 1461 m 26 X s 2128 1510 m 26 X s 0.490196 0.545098 0.615686 c 0.95 0.95 0.95 c 0.490196 0.545098 0.615686 c 680 202 238
 1312 bl 238 1312 m 680 X s 918 1312 m 202 Y s 918 1514 m -680 X s 238 1514 m -202 Y s black
 gsave  2268 1682 0 0 C 441.368 1442.05 t 0 r /Times-Italic findfont 76.0979 sf 0 0 m (Signal) show NC gr  0.49 0.6 0.82 c 269 1428 m 143 X 70 Y -143 X f 0 0 0.933333 c 6 lw 269 1498 m 143 X s 269 1428 m 143 X s 412 1428 m 70 Y s 269 1428 m 70 Y s
 black
 gsave  2268 1682 0 0 C 441.368 1343.13 t 0 r /Times-Italic findfont 76.0979 sf 0 0 m (Background) show NC gr  1 0 0 c 3 lw 412 1374 m -47 -47 d s 387 1398 m -70 -71 d s 339 1398 m -70 -71 d s 291 1398 m -22 -23 d s 6 lw 0 0 0.933333 c 1 0 0 c 269
 1398 m 143 X s 269 1327 m 143 X s 412 1327 m 71 Y s 269 1327 m 71 Y s 0 0 0.933333 c 0.49 0.6 0.82 c black 3 lw 0.49 0.6 0.82 c 238 202 m 734 Y 48 X -734 Y 144 X 180 Y 48 X -180 Y 48 X 180 Y 47 X 186 Y 48 X -186 Y 48 X 547 Y 48 X -548 Y 48 X -1 Y 48
 X -178 Y 96 X 181 Y 48 X -181 Y 48 X 184 Y 48 X -184 Y 47 X 547 Y 48 X -547 Y 96 X 185 Y 48 X 908 Y 48 X -547 Y 48 X -546 Y 48 X 185 Y 48 X -5 Y 48 X 1 Y 47 X 182 Y 48 X -7 Y 48 X -178 Y 48 X 370 Y 48 X 2 Y 48 X -190 Y 48 X -360 Y 96 X 545 Y 48 X
 -545 Y 95 X 774 Y 48 X -774 Y f 6 lw 0 0 0.933333 c 0.49 0.6 0.82 c 0 0 0.933333 c 238 936 m 48 X -734 Y 144 X 180 Y 48 X -180 Y 48 X 180 Y 47 X 186 Y 48 X -186 Y 48 X 547 Y 48 X -548 Y 48 X -1 Y 48 X -178 Y 96 X 181 Y 48 X -181 Y 48 X 184 Y 48 X
 -184 Y 47 X 547 Y 48 X -547 Y 96 X 185 Y 48 X 908 Y 48 X -547 Y 48 X -546 Y 48 X 185 Y 48 X -5 Y 48 X 1 Y 47 X 182 Y 48 X -7 Y 48 X -178 Y 48 X 370 Y 48 X 2 Y 48 X -190 Y 48 X -360 Y 96 X 545 Y 48 X -545 Y 95 X 774 Y 48 X s 1 0 0 c black 3 lw 1 0 0
 c 2154 230 m -28 -28 d s 2154 278 m -48 -48 d s 2078 202 m s 2154 326 m -48 -48 d s 2059 231 m -29 -29 d s 2154 374 m -48 -47 d s 2059 279 m -77 -77 d s 2154 423 m -48 -48 d s 2059 327 m -125 -125 d s 2154 471 m -48 -48 d s 2031 347 m -116 -116 d s
 1886 202 m cl s 2132 496 m -26 -25 d s 1985 349 m -70 -70 d s 1867 231 m -30 -29 d s 1935 348 m -20 -21 d s 1867 279 m -78 -77 d s 1867 328 m -126 -126 d s 1867 376 m -174 -174 d s 1867 424 m -48 -48 d s 1791 348 m -146 -146 d s 1867 472 m -48 -48 d
 s 1771 376 m -144 -144 d s 1597 202 m s 1842 495 m -23 -23 d s 1771 424 m -48 -48 d s 1696 349 m -69 -69 d s 1579 233 m -30 -31 d s 1771 472 m -48 -48 d s 1675 376 m -48 -47 d s 1579 281 m -78 -79 d s 1771 520 m -48 -48 d s 1675 425 m -48 -48 d s
 1579 329 m -126 -127 d s 1771 568 m -48 -47 d s 1675 473 m -48 -48 d s 1550 347 m -146 -145 d s 1771 617 m -48 -48 d s 1653 499 m -26 -26 d s 1532 377 m -176 -175 d s 1745 638 m -22 -21 d s 1532 425 m -224 -223 d s 1532 473 m -96 -96 d s 1405 347 m
 -145 -145 d s 1532 521 m -96 -95 d s 1388 378 m -176 -176 d s 1532 569 m -96 -95 d s 1388 426 m -224 -224 d s 1532 618 m -96 -96 d s 1388 474 m -96 -96 d s 1261 347 m -145 -145 d s 1532 666 m -96 -96 d s 1361 495 m -69 -69 d s 1244 378 m -176 -176 d
 s 1532 714 m -48 -48 d s 1458 640 m -22 -22 d s 1310 492 m -18 -18 d s 1244 426 m -224 -224 d s 1532 762 m -48 -48 d s 1244 474 m -272 -272 d s 1510 789 m -26 -27 d s 1244 523 m -287 -288 d s 923 202 m cl s 1244 571 m -48 -48 d s 1168 495 m -115
 -116 d s 1021 347 m -64 -64 d s 909 235 m -34 -33 d s 1244 619 m -48 -48 d s 1117 492 m -64 -65 d s 973 348 m -16 -17 d s 909 283 m -82 -81 d s 1244 667 m -48 -48 d s 1071 493 m -18 -18 d s 909 332 m -130 -130 d s 1244 715 m -48 -48 d s 909 380 m
 -178 -178 d s 1244 763 m -48 -48 d s 909 428 m -48 -48 d s 827 346 m -144 -144 d s 1221 788 m -25 -25 d s 909 476 m -48 -48 d s 780 347 m -145 -145 d s 909 524 m -48 -48 d s 765 380 m -178 -178 d s 909 572 m -48 -48 d s 765 428 m -226 -226 d s 909
 620 m -48 -48 d s 765 476 m -239 -239 d s 490 202 m cl s 880 640 m -19 -20 d s 765 525 m -239 -240 d s 478 237 m -36 -35 d s 765 573 m -48 -48 d s 691 499 m -165 -166 d s 478 285 m -84 -83 d s 765 621 m -48 -48 d s 641 496 m -115 -115 d s 478 333 m
 -132 -131 d s 738 642 m -21 -21 d s 621 525 m -95 -96 d s 478 381 m -180 -179 d s 621 573 m -95 -96 d s 478 430 m -48 -48 d s 398 350 m -148 -148 d s 621 621 m -95 -95 d s 478 478 m -48 -48 d s 348 348 m -110 -110 d s 600 648 m -74 -74 d s 454 503 m
 -24 -25 d s 334 382 m -96 -96 d s 549 645 m -23 -23 d s 334 430 m -96 -96 d s 334 478 m -96 -96 d s 309 502 m -71 -71 d s 256 496 m -18 -17 d s 6 lw 238 496 m 48 X 6 Y 48 X -154 Y 48 X 2 Y 48 X 153 Y 48 X -301 Y 48 X 443 Y 47 X 3 Y 48 X -152 Y 48 X
 3 Y 48 X 143 Y 48 X -295 Y 48 X -1 Y 48 X 294 Y 48 X -438 Y 48 X 146 Y 48 X -1 Y 48 X 146 Y 47 X -1 Y 48 X 3 Y 48 X 293 Y 48 X -441 Y 48 X 145 Y 48 X 3 Y 48 X -148 Y 48 X 293 Y 48 X 149 Y 48 X -442 Y 47 X -145 Y 48 X 297 Y 48 X -150 Y 48 X 289 Y 48
 X -290 Y 48 X 147 Y 48 X -293 Y 48 X 146 Y 48 X 1 Y 48 X -2 Y 48 X -145 Y 47 X 294 Y 48 X s black 3 lw 238 202 m 1916 X s 238 244 m -42 Y s 276 223 m -21 Y s 315 223 m -21 Y s 353 223 m -21 Y s 391 223 m -21 Y s 430 244 m -42 Y s 468 223 m -21 Y s
 506 223 m -21 Y s 545 223 m -21 Y s 583 223 m -21 Y s 621 244 m -42 Y s 660 223 m -21 Y s 698 223 m -21 Y s 736 223 m -21 Y s 775 223 m -21 Y s 813 244 m -42 Y s 851 223 m -21 Y s 890 223 m -21 Y s 928 223 m -21 Y s 966 223 m -21 Y s 1005 244 m -42
 Y s 1043 223 m -21 Y s 1081 223 m -21 Y s 1120 223 m -21 Y s 1158 223 m -21 Y s 1196 244 m -42 Y s 1235 223 m -21 Y s 1273 223 m -21 Y s 1311 223 m -21 Y s 1350 223 m -21 Y s 1388 244 m -42 Y s 1426 223 m -21 Y s 1464 223 m -21 Y s 1503 223 m -21 Y
 s 1541 223 m -21 Y s 1579 244 m -42 Y s 1618 223 m -21 Y s 1656 223 m -21 Y s 1694 223 m -21 Y s 1733 223 m -21 Y s 1771 244 m -42 Y s 1809 223 m -21 Y s 1848 223 m -21 Y s 1886 223 m -21 Y s 1924 223 m -21 Y s 1963 244 m -42 Y s 2001 223 m -21 Y s
 2039 223 m -21 Y s 2078 223 m -21 Y s 2116 223 m -21 Y s 2154 244 m -42 Y s 238 1514 m 1916 X s 238 1471 m 43 Y s 276 1492 m 22 Y s 315 1492 m 22 Y s 353 1492 m 22 Y s 391 1492 m 22 Y s 430 1471 m 43 Y s 468 1492 m 22 Y s 506 1492 m 22 Y s 545 1492
 m 22 Y s 583 1492 m 22 Y s 621 1471 m 43 Y s 660 1492 m 22 Y s 698 1492 m 22 Y s 736 1492 m 22 Y s 775 1492 m 22 Y s 813 1471 m 43 Y s 851 1492 m 22 Y s 890 1492 m 22 Y s 928 1492 m 22 Y s 966 1492 m 22 Y s 1005 1471 m 43 Y s 1043 1492 m 22 Y s 1081
 1492 m 22 Y s 1120 1492 m 22 Y s 1158 1492 m 22 Y s 1196 1471 m 43 Y s 1235 1492 m 22 Y s 1273 1492 m 22 Y s 1311 1492 m 22 Y s 1350 1492 m 22 Y s 1388 1471 m 43 Y s 1426 1492 m 22 Y s 1464 1492 m 22 Y s 1503 1492 m 22 Y s 1541 1492 m 22 Y s 1579
 1471 m 43 Y s 1618 1492 m 22 Y s 1656 1492 m 22 Y s 1694 1492 m 22 Y s 1733 1492 m 22 Y s 1771 1471 m 43 Y s 1809 1492 m 22 Y s 1848 1492 m 22 Y s 1886 1492 m 22 Y s 1924 1492 m 22 Y s 1963 1471 m 43 Y s 2001 1492 m 22 Y s 2039 1492 m 22 Y s 2078
 1492 m 22 Y s 2116 1492 m 22 Y s 2154 1471 m 43 Y s 238 202 m 1312 Y s 291 202 m -53 X s 265 250 m -27 X s 265 299 m -27 X s 265 347 m -27 X s 265 396 m -27 X s 291 444 m -53 X s 265 492 m -27 X s 265 541 m -27 X s 265 589 m -27 X s 265 638 m -27 X
 s 291 686 m -53 X s 265 735 m -27 X s 265 783 m -27 X s 265 832 m -27 X s 265 880 m -27 X s 291 928 m -53 X s 265 977 m -27 X s 265 1025 m -27 X s 265 1074 m -27 X s 265 1122 m -27 X s 291 1171 m -53 X s 265 1219 m -27 X s 265 1267 m -27 X s 265
 1316 m -27 X s 265 1364 m -27 X s 291 1413 m -53 X s 291 1413 m -53 X s 265 1461 m -27 X s 265 1510 m -27 X s 2154 202 m 1312 Y s 2101 202 m 53 X s 2128 250 m 26 X s 2128 299 m 26 X s 2128 347 m 26 X s 2128 396 m 26 X s 2101 444 m 53 X s 2128 492 m
 26 X s 2128 541 m 26 X s 2128 589 m 26 X s 2128 638 m 26 X s 2101 686 m 53 X s 2128 735 m 26 X s 2128 783 m 26 X s 2128 832 m 26 X s 2128 880 m 26 X s 2101 928 m 53 X s 2128 977 m 26 X s 2128 1025 m 26 X s 2128 1074 m 26 X s 2128 1122 m 26 X s 2101
 1171 m 53 X s 2128 1219 m 26 X s 2128 1267 m 26 X s 2128 1316 m 26 X s 2128 1364 m 26 X s 2101 1413 m 53 X s 2101 1413 m 53 X s 2128 1461 m 26 X s 2128 1510 m 26 X s
 gsave  2268 1682 0 0 C 2211.02 193.403 t 90 r /Helvetica-Bold findfont 45.6587 sf 0 0 m (U/O\255flow \(S,B\): \(0.0, 0.0\)% / \(1.9, 0.0\)%) show NC gr  0.490196 0.545098 0.615686 c 0.364706 0.419608 0.490196 c 1171 96 23 1577 bf 0.490196 0.545098
 0.615686 c 23 1577 m 1171 X s 1194 1577 m 96 Y s 1194 1673 m -1171 X s 23 1673 m -96 Y s 1 1 1 c black 1 1 1 c
 gsave  2268 1682 0 0 C 68.4881 1605.67 t 0 r /Helvetica-Bold findfont 76.0979 sf 0 0 m (TMVA Rarity for classifier: LD) show NC gr 
 gr  gr showpage
end
%%EOF
