%!PS-Adobe-2.0 EPSF-2.0
%%BoundingBox:  0 0 567 420
%%Title: plots/rarity_MLP.eps: TMVA Rarity MLP
%%Creator: ROOT Version 5.34/09
%%CreationDate: Sat Jan  4 23:56:00 2014
%%EndComments
%%BeginProlog
80 dict begin
/s {stroke} def /l {lineto} def /m {moveto} def /t {translate} def
/r {rotate} def /rl {roll}  def /R {repeat} def
/d {rlineto} def /rm {rmoveto} def /gr {grestore} def /f {eofill} def
/c {setrgbcolor} def /black {0 setgray} def /sd {setdash} def
/cl {closepath} def /sf {scalefont setfont} def /lw {setlinewidth} def
/box {m dup 0 exch d exch 0 d 0 exch neg d cl} def
/NC{systemdict begin initclip end}def/C{NC box clip newpath}def
/bl {box s} def /bf {box f} def /Y { 0 exch d} def /X { 0 d} def 
/K {{pop pop 0 moveto} exch kshow} bind def
/ita {/ang 15 def gsave [1 0 ang dup sin exch cos div 1 0 0] concat} def 
/mp {newpath /y exch def /x exch def} def
/side {[w .77 mul w .23 mul] .385 w mul sd w 0 l currentpoint t -144 r} def
/mr {mp x y w2 0 360 arc} def /m24 {mr s} def /m20 {mr f} def
/mb {mp x y w2 add m w2 neg 0 d 0 w neg d w 0 d 0 w d cl} def
/mt {mp x y w2 add m w2 neg w neg d w 0 d cl} def
/m21 {mb f} def /m25 {mb s} def /m22 {mt f} def /m26{mt s} def
/m23 {mp x y w2 sub m w2 w d w neg 0 d cl f} def
/m27 {mp x y w2 add m w3 neg w2 neg d w3 w2 neg d w3 w2 d cl s} def
/m28 {mp x w2 sub y w2 sub w3 add m w3 0 d  0 w3 neg d w3 0 d 0 w3 d w3 0 d  0 w3 d w3 neg 0 d 0 w3 d w3 neg 0 d 0 w3 neg d w3 neg 0 d cl s } def
/m29 {mp gsave x w2 sub y w2 add w3 sub m currentpoint t 4 {side} repeat cl fill gr} def
/m30 {mp gsave x w2 sub y w2 add w3 sub m currentpoint t 4 {side} repeat cl s gr} def
/m31 {mp x y w2 sub m 0 w d x w2 sub y m w 0 d x w2 sub y w2 add m w w neg d x w2 sub y w2 sub m w w d s} def
/m32 {mp x y w2 sub m w2 w d w neg 0 d cl s} def
/m33 {mp x y w2 add m w3 neg w2 neg d w3 w2 neg d w3 w2 d cl f} def
/m34 {mp x w2 sub y w2 sub w3 add m w3 0 d  0 w3 neg d w3 0 d 0 w3 d w3 0 d  0 w3 d w3 neg 0 d 0 w3 d w3 neg 0 d 0 w3 neg d w3 neg 0 d cl f } def
/m2 {mp x y w2 sub m 0 w d x w2 sub y m w 0 d s} def
/m5 {mp x w2 sub y w2 sub m w w d x w2 sub y w2 add m w w neg d s} def
/reEncode {exch findfont dup length dict begin {1 index /FID eq  {pop pop} {def} ifelse } forall /Encoding exch def currentdict end dup /FontName get exch definefont pop } def [/Times-Bold /Times-Italic /Times-BoldItalic /Helvetica /Helvetica-Oblique
 /Helvetica-Bold /Helvetica-BoldOblique /Courier /Courier-Oblique /Courier-Bold /Courier-BoldOblique /Times-Roman /AvantGarde-Book /AvantGarde-BookOblique /AvantGarde-Demi /AvantGarde-DemiOblique /Bookman-Demi /Bookman-DemiItalic /Bookman-Light
 /Bookman-LightItalic /Helvetica-Narrow /Helvetica-Narrow-Bold /Helvetica-Narrow-BoldOblique /Helvetica-Narrow-Oblique /NewCenturySchlbk-Roman /NewCenturySchlbk-Bold /NewCenturySchlbk-BoldItalic /NewCenturySchlbk-Italic /Palatino-Bold
 /Palatino-BoldItalic /Palatino-Italic /Palatino-Roman ] {ISOLatin1Encoding reEncode } forall
%%EndProlog
%%BeginSetup
%%EndSetup
newpath  gsave  .25 .25 scale  gsave  0 0 t 0.490196 0.545098 0.615686 c[  ] 0 sd 3 lw 0.941176 0.941176 0.941176 c 2268 1682 0 0 bf black 1 1 0.992157 c 1916 1312 238 202 bf black 1916 1312 238 202 bl 1 1 0.992157 c 1916 1312 238 202 bf black 1916
 1312 238 202 bl 238 202 m 1916 X s
 gsave  2268 1682 0 0 C 1735.03 30.4391 t 0 r /Helvetica-Bold findfont 72.293 sf 0 0 m (Signal rarity) show NC gr  238 244 m -42 Y s 276 223 m -21 Y s 315 223 m -21 Y s 353 223 m -21 Y s 391 223 m -21 Y s 430 244 m -42 Y s 468 223 m -21 Y s 506 223 m
 -21 Y s 545 223 m -21 Y s 583 223 m -21 Y s 621 244 m -42 Y s 660 223 m -21 Y s 698 223 m -21 Y s 736 223 m -21 Y s 775 223 m -21 Y s 813 244 m -42 Y s 851 223 m -21 Y s 890 223 m -21 Y s 928 223 m -21 Y s 966 223 m -21 Y s 1005 244 m -42 Y s 1043
 223 m -21 Y s 1081 223 m -21 Y s 1120 223 m -21 Y s 1158 223 m -21 Y s 1196 244 m -42 Y s 1235 223 m -21 Y s 1273 223 m -21 Y s 1311 223 m -21 Y s 1350 223 m -21 Y s 1388 244 m -42 Y s 1426 223 m -21 Y s 1464 223 m -21 Y s 1503 223 m -21 Y s 1541
 223 m -21 Y s 1579 244 m -42 Y s 1618 223 m -21 Y s 1656 223 m -21 Y s 1694 223 m -21 Y s 1733 223 m -21 Y s 1771 244 m -42 Y s 1809 223 m -21 Y s 1848 223 m -21 Y s 1886 223 m -21 Y s 1924 223 m -21 Y s 1963 244 m -42 Y s 2001 223 m -21 Y s 2039
 223 m -21 Y s 2078 223 m -21 Y s 2116 223 m -21 Y s 2154 244 m -42 Y s
 gsave  2268 1682 0 0 C 216.879 129.366 t 0 r /Helvetica-Bold findfont 64.6832 sf 0 0 m (0) show NC gr 
 gsave  2268 1682 0 0 C 384.294 129.366 t 0 r /Helvetica-Bold findfont 64.6832 sf 0 0 m (0.1) show NC gr 
 gsave  2268 1682 0 0 C 574.539 129.366 t 0 r /Helvetica-Bold findfont 64.6832 sf 0 0 m (0.2) show NC gr 
 gsave  2268 1682 0 0 C 764.784 129.366 t 0 r /Helvetica-Bold findfont 64.6832 sf 0 0 m (0.3) show NC gr 
 gsave  2268 1682 0 0 C 958.833 129.366 t 0 r /Helvetica-Bold findfont 64.6832 sf 0 0 m (0.4) show NC gr 
 gsave  2268 1682 0 0 C 1149.08 129.366 t 0 r /Helvetica-Bold findfont 64.6832 sf 0 0 m (0.5) show NC gr 
 gsave  2268 1682 0 0 C 1339.32 129.366 t 0 r /Helvetica-Bold findfont 64.6832 sf 0 0 m (0.6) show NC gr 
 gsave  2268 1682 0 0 C 1533.37 129.366 t 0 r /Helvetica-Bold findfont 64.6832 sf 0 0 m (0.7) show NC gr 
 gsave  2268 1682 0 0 C 1723.62 129.366 t 0 r /Helvetica-Bold findfont 64.6832 sf 0 0 m (0.8) show NC gr 
 gsave  2268 1682 0 0 C 1913.86 129.366 t 0 r /Helvetica-Bold findfont 64.6832 sf 0 0 m (0.9) show NC gr 
 gsave  2268 1682 0 0 C 2138.35 129.366 t 0 r /Helvetica-Bold findfont 64.6832 sf 0 0 m (1) show NC gr  238 1514 m 1916 X s 238 1471 m 43 Y s 276 1492 m 22 Y s 315 1492 m 22 Y s 353 1492 m 22 Y s 391 1492 m 22 Y s 430 1471 m 43 Y s 468 1492 m 22 Y s
 506 1492 m 22 Y s 545 1492 m 22 Y s 583 1492 m 22 Y s 621 1471 m 43 Y s 660 1492 m 22 Y s 698 1492 m 22 Y s 736 1492 m 22 Y s 775 1492 m 22 Y s 813 1471 m 43 Y s 851 1492 m 22 Y s 890 1492 m 22 Y s 928 1492 m 22 Y s 966 1492 m 22 Y s 1005 1471 m 43
 Y s 1043 1492 m 22 Y s 1081 1492 m 22 Y s 1120 1492 m 22 Y s 1158 1492 m 22 Y s 1196 1471 m 43 Y s 1235 1492 m 22 Y s 1273 1492 m 22 Y s 1311 1492 m 22 Y s 1350 1492 m 22 Y s 1388 1471 m 43 Y s 1426 1492 m 22 Y s 1464 1492 m 22 Y s 1503 1492 m 22 Y
 s 1541 1492 m 22 Y s 1579 1471 m 43 Y s 1618 1492 m 22 Y s 1656 1492 m 22 Y s 1694 1492 m 22 Y s 1733 1492 m 22 Y s 1771 1471 m 43 Y s 1809 1492 m 22 Y s 1848 1492 m 22 Y s 1886 1492 m 22 Y s 1924 1492 m 22 Y s 1963 1471 m 43 Y s 2001 1492 m 22 Y s
 2039 1492 m 22 Y s 2078 1492 m 22 Y s 2116 1492 m 22 Y s 2154 1471 m 43 Y s 238 202 m 1312 Y s
 gsave  2268 1682 0 0 C 64.6832 1430.64 t 90 r /Helvetica-Bold findfont 72.293 sf 0 0 m (dx) show NC gr 
 gsave  2268 1682 0 0 C 30.4391 1411.62 t 90 r /Helvetica-Bold findfont 45.6587 sf 0 0 m ( ) show NC gr 
 gsave  2268 1682 0 0 C 64.6832 1388.79 t 90 r /Helvetica-Bold findfont 72.293 sf 0 0 m (/) show NC gr 
 gsave  2268 1682 0 0 C 30.4391 1369.76 t 90 r /Helvetica-Bold findfont 45.6587 sf 0 0 m ( ) show NC gr 
 gsave  2268 1682 0 0 C 60.8783 1095.81 t 90 r /Helvetica-Bold findfont 72.293 sf 0 0 m (\(1/N\) dN) show NC gr  291 202 m -53 X s 265 230 m -27 X s 265 259 m -27 X s 265 287 m -27 X s 265 316 m -27 X s 291 344 m -53 X s 265 373 m -27 X s 265 401 m
 -27 X s 265 429 m -27 X s 265 458 m -27 X s 291 486 m -53 X s 265 515 m -27 X s 265 543 m -27 X s 265 572 m -27 X s 265 600 m -27 X s 291 629 m -53 X s 265 657 m -27 X s 265 685 m -27 X s 265 714 m -27 X s 265 742 m -27 X s 291 771 m -53 X s 265 799
 m -27 X s 265 828 m -27 X s 265 856 m -27 X s 265 885 m -27 X s 291 913 m -53 X s 265 941 m -27 X s 265 970 m -27 X s 265 998 m -27 X s 265 1027 m -27 X s 291 1055 m -53 X s 265 1084 m -27 X s 265 1112 m -27 X s 265 1141 m -27 X s 265 1169 m -27 X s
 291 1198 m -53 X s 265 1226 m -27 X s 265 1254 m -27 X s 265 1283 m -27 X s 265 1311 m -27 X s 291 1340 m -53 X s 265 1368 m -27 X s 265 1397 m -27 X s 265 1425 m -27 X s 265 1454 m -27 X s 291 1482 m -53 X s 291 1482 m -53 X s 265 1510 m -27 X s
 gsave  2268 1682 0 0 C 175.025 178.83 t 0 r /Helvetica-Bold findfont 64.6832 sf 0 0 m (0) show NC gr 
 gsave  2268 1682 0 0 C 121.757 319.611 t 0 r /Helvetica-Bold findfont 64.6832 sf 0 0 m (0.5) show NC gr 
 gsave  2268 1682 0 0 C 182.635 460.392 t 0 r /Helvetica-Bold findfont 64.6832 sf 0 0 m (1) show NC gr 
 gsave  2268 1682 0 0 C 121.757 604.978 t 0 r /Helvetica-Bold findfont 64.6832 sf 0 0 m (1.5) show NC gr 
 gsave  2268 1682 0 0 C 175.025 745.759 t 0 r /Helvetica-Bold findfont 64.6832 sf 0 0 m (2) show NC gr 
 gsave  2268 1682 0 0 C 121.757 886.54 t 0 r /Helvetica-Bold findfont 64.6832 sf 0 0 m (2.5) show NC gr 
 gsave  2268 1682 0 0 C 175.025 1031.13 t 0 r /Helvetica-Bold findfont 64.6832 sf 0 0 m (3) show NC gr 
 gsave  2268 1682 0 0 C 121.757 1171.91 t 0 r /Helvetica-Bold findfont 64.6832 sf 0 0 m (3.5) show NC gr 
 gsave  2268 1682 0 0 C 175.025 1316.49 t 0 r /Helvetica-Bold findfont 64.6832 sf 0 0 m (4) show NC gr 
 gsave  2268 1682 0 0 C 121.757 1457.27 t 0 r /Helvetica-Bold findfont 64.6832 sf 0 0 m (4.5) show NC gr  2154 202 m 1312 Y s 2101 202 m 53 X s 2128 230 m 26 X s 2128 259 m 26 X s 2128 287 m 26 X s 2128 316 m 26 X s 2101 344 m 53 X s 2128 373 m 26 X
 s 2128 401 m 26 X s 2128 429 m 26 X s 2128 458 m 26 X s 2101 486 m 53 X s 2128 515 m 26 X s 2128 543 m 26 X s 2128 572 m 26 X s 2128 600 m 26 X s 2101 629 m 53 X s 2128 657 m 26 X s 2128 685 m 26 X s 2128 714 m 26 X s 2128 742 m 26 X s 2101 771 m 53
 X s 2128 799 m 26 X s 2128 828 m 26 X s 2128 856 m 26 X s 2128 885 m 26 X s 2101 913 m 53 X s 2128 941 m 26 X s 2128 970 m 26 X s 2128 998 m 26 X s 2128 1027 m 26 X s 2101 1055 m 53 X s 2128 1084 m 26 X s 2128 1112 m 26 X s 2128 1141 m 26 X s 2128
 1169 m 26 X s 2101 1198 m 53 X s 2128 1226 m 26 X s 2128 1254 m 26 X s 2128 1283 m 26 X s 2128 1311 m 26 X s 2101 1340 m 53 X s 2128 1368 m 26 X s 2128 1397 m 26 X s 2128 1425 m 26 X s 2128 1454 m 26 X s 2101 1482 m 53 X s 2101 1482 m 53 X s 2128
 1510 m 26 X s 0.490196 0.545098 0.615686 c 0.95 0.95 0.95 c 0.490196 0.545098 0.615686 c 680 202 238 1312 bl 238 1312 m 680 X s 918 1312 m 202 Y s 918 1514 m -680 X s 238 1514 m -202 Y s black
 gsave  2268 1682 0 0 C 441.368 1442.05 t 0 r /Times-Italic findfont 76.0979 sf 0 0 m (Signal) show NC gr  0.49 0.6 0.82 c 269 1428 m 143 X 70 Y -143 X f 0 0 0.933333 c 6 lw 269 1498 m 143 X s 269 1428 m 143 X s 412 1428 m 70 Y s 269 1428 m 70 Y s
 black
 gsave  2268 1682 0 0 C 441.368 1343.13 t 0 r /Times-Italic findfont 76.0979 sf 0 0 m (Background) show NC gr  1 0 0 c 3 lw 412 1374 m -47 -47 d s 387 1398 m -70 -71 d s 339 1398 m -70 -71 d s 291 1398 m -22 -23 d s 6 lw 0 0 0.933333 c 1 0 0 c 269
 1398 m 143 X s 269 1327 m 143 X s 412 1327 m 71 Y s 269 1327 m 71 Y s 0 0 0.933333 c 0.49 0.6 0.82 c black 3 lw 0.49 0.6 0.82 c 238 202 m 240 X 205 Y 48 X 436 Y 47 X -220 Y 48 X -210 Y 48 X -211 Y 144 X 630 Y 48 X -425 Y 48 X 417 Y 48 X -622 Y 48 X
 224 Y 48 X 397 Y 47 X -621 Y 48 X 413 Y 48 X -202 Y 48 X 429 Y 48 X -640 Y 48 X 415 Y 96 X -415 Y 48 X 206 Y 48 X 3 Y 47 X -209 Y 48 X 424 Y 48 X -424 Y 96 X 206 Y 48 X 209 Y 48 X -201 Y 48 X 623 Y 48 X 214 Y 48 X -412 Y 48 X -432 Y 47 X 886 Y 48 X
 -1093 Y f 6 lw 0 0 0.933333 c 0.49 0.6 0.82 c 0 0 0.933333 c 238 202 m 240 X 205 Y 48 X 436 Y 47 X -220 Y 48 X -210 Y 48 X -211 Y 144 X 630 Y 48 X -425 Y 48 X 417 Y 48 X -622 Y 48 X 224 Y 48 X 397 Y 47 X -621 Y 48 X 413 Y 48 X -202 Y 48 X 429 Y 48 X
 -640 Y 48 X 415 Y 96 X -415 Y 48 X 206 Y 48 X 3 Y 47 X -209 Y 48 X 424 Y 48 X -424 Y 96 X 206 Y 48 X 209 Y 48 X -201 Y 48 X 623 Y 48 X 214 Y 48 X -412 Y 48 X -432 Y 47 X 886 Y 48 X s 1 0 0 c black 3 lw 1 0 0 c 2154 230 m -28 -28 d s 2154 278 m -76
 -76 d s 2154 326 m -124 -124 d s 2154 374 m -172 -172 d s 2154 423 m -220 -221 d s 2154 471 m -268 -269 d s 2154 519 m -317 -317 d s 2154 567 m -143 -144 d s 1964 376 m -175 -174 d s 2154 615 m -143 -144 d s 1963 423 m -192 -191 d s 1741 202 m cl s
 2154 663 m -143 -144 d s 1963 471 m -192 -191 d s 1723 232 m -30 -30 d s 2154 711 m -143 -144 d s 1963 520 m -192 -192 d s 1723 280 m -78 -78 d s 2154 759 m -143 -143 d s 1963 568 m -192 -192 d s 1723 328 m -96 -96 d s 1597 202 m s 2154 807 m -143
 -143 d s 1963 616 m -192 -192 d s 1723 376 m -96 -96 d s 1579 233 m -30 -31 d s 2154 855 m -95 -95 d s 2026 728 m -15 -16 d s 1963 664 m -192 -192 d s 1723 424 m -96 -95 d s 1579 281 m -78 -79 d s 2154 904 m -95 -96 d s 1963 712 m -144 -144 d s 1801
 550 m -30 -30 d s 1723 472 m -96 -95 d s 1579 329 m -126 -127 d s 2109 906 m -3 -2 d s 2105 903 m -46 -47 d s 1927 724 m -108 -108 d s 1723 521 m -96 -96 d s 1579 377 m -143 -144 d s 1404 202 m cl s 1915 760 m -96 -96 d s 1723 569 m -96 -96 d s 1579
 425 m -47 -48 d s 1531 376 m -95 -95 d s 1388 233 m -32 -31 d s 1915 808 m -48 -48 d s 1831 725 m -12 -12 d s 1723 617 m -48 -48 d s 1656 550 m -29 -29 d s 1579 473 m -47 -48 d s 1484 377 m -48 -48 d s 1388 281 m -80 -79 d s 1915 856 m -48 -47 d s
 1723 665 m -48 -48 d s 1579 521 m -47 -48 d s 1484 425 m -48 -48 d s 1388 330 m -96 -96 d s 1260 202 m cl s 1915 905 m -48 -48 d s 1723 713 m -48 -48 d s 1579 569 m -47 -48 d s 1484 473 m -48 -47 d s 1385 375 m -93 -93 d s 1244 234 m -32 -32 d s
 1915 953 m -48 -48 d s 1685 723 m -10 -10 d s 1579 617 m -47 -48 d s 1484 522 m -48 -48 d s 1336 374 m -44 -44 d s 1244 282 m -80 -80 d s 1915 1001 m -48 -48 d s 1579 665 m -47 -47 d s 1484 570 m -48 -48 d s 1244 330 m -128 -128 d s 1915 1049 m -48
 -48 d s 1579 714 m -47 -48 d s 1484 618 m -48 -48 d s 1244 378 m -176 -176 d s 1902 1084 m -35 -35 d s 1579 762 m -47 -48 d s 1484 666 m -48 -48 d s 1244 426 m -224 -224 d s 1579 810 m -47 -48 d s 1484 714 m -48 -48 d s 1244 474 m -96 -95 d s 1145
 375 m -173 -173 d s 1579 858 m -47 -48 d s 1446 724 m -10 -10 d s 1244 523 m -96 -96 d s 1100 379 m -143 -144 d s 923 202 m cl s 1579 906 m -47 -48 d s 1244 571 m -96 -96 d s 1100 427 m -47 -48 d s 1049 375 m -92 -92 d s 909 235 m -34 -33 d s 1536
 911 m -4 -5 d s 1244 619 m -48 -48 d s 1176 550 m -28 -27 d s 1100 475 m -47 -48 d s 1001 375 m -44 -44 d s 909 283 m -82 -81 d s 1244 667 m -48 -48 d s 1100 523 m -47 -48 d s 909 332 m -130 -130 d s 1244 715 m -48 -48 d s 1100 571 m -47 -48 d s 904
 375 m -139 -139 d s 731 202 m s 1205 724 m -9 -9 d s 1100 619 m -47 -48 d s 861 380 m -96 -96 d s 717 236 m -34 -34 d s 1100 667 m -47 -47 d s 861 428 m -48 -48 d s 809 376 m -44 -44 d s 717 284 m -82 -82 d s 1100 716 m -47 -48 d s 861 476 m -48 -48
 d s 717 332 m -130 -130 d s 1060 724 m -7 -8 d s 861 524 m -48 -48 d s 714 378 m -141 -141 d s 539 202 m cl s 861 572 m -48 -48 d s 666 378 m -93 -93 d s 490 202 m cl s 861 620 m -48 -48 d s 621 381 m -48 -48 d s 478 237 m -36 -35 d s 861 668 m -48
 -47 d s 621 429 m -48 -48 d s 478 285 m -84 -83 d s 861 717 m -48 -48 d s 621 477 m -48 -48 d s 478 333 m -96 -95 d s 346 202 m s 861 765 m -48 -48 d s 621 525 m -48 -48 d s 476 380 m -94 -94 d s 334 238 m -36 -36 d s 861 813 m -48 -48 d s 601 553 m
 -28 -28 d s 426 378 m -44 -44 d s 334 286 m -48 -48 d s 250 202 m cl s 861 861 m -48 -48 d s 334 334 m -48 -48 d s 859 908 m -46 -47 d s 334 382 m -48 -48 d s 334 430 m -48 -48 d s 334 478 m -48 -48 d s 334 526 m -48 -48 d s 316 557 m -30 -30 d s 6
 lw 238 202 m 48 X 355 Y 48 X -355 Y 48 X 176 Y 48 X 2 Y 48 X -178 Y 95 X 351 Y 48 X -175 Y 96 X -176 Y 48 X 174 Y 48 X 532 Y 48 X -533 Y 48 X -173 Y 48 X 173 Y 96 X 349 Y 47 X -349 Y 48 X 175 Y 48 X 174 Y 48 X -522 Y 48 X 172 Y 48 X 1 Y 48 X -173 Y
 48 X 522 Y 48 X -348 Y 48 X 535 Y 47 X -709 Y 48 X 348 Y 48 X 173 Y 48 X -521 Y 48 X 348 Y 48 X 175 Y 48 X 359 Y 48 X -360 Y 48 X -348 Y 48 X 352 Y 48 X 175 Y 47 X 3 Y 48 X s black 3 lw 238 202 m 1916 X s 238 244 m -42 Y s 276 223 m -21 Y s 315 223
 m -21 Y s 353 223 m -21 Y s 391 223 m -21 Y s 430 244 m -42 Y s 468 223 m -21 Y s 506 223 m -21 Y s 545 223 m -21 Y s 583 223 m -21 Y s 621 244 m -42 Y s 660 223 m -21 Y s 698 223 m -21 Y s 736 223 m -21 Y s 775 223 m -21 Y s 813 244 m -42 Y s 851
 223 m -21 Y s 890 223 m -21 Y s 928 223 m -21 Y s 966 223 m -21 Y s 1005 244 m -42 Y s 1043 223 m -21 Y s 1081 223 m -21 Y s 1120 223 m -21 Y s 1158 223 m -21 Y s 1196 244 m -42 Y s 1235 223 m -21 Y s 1273 223 m -21 Y s 1311 223 m -21 Y s 1350 223 m
 -21 Y s 1388 244 m -42 Y s 1426 223 m -21 Y s 1464 223 m -21 Y s 1503 223 m -21 Y s 1541 223 m -21 Y s 1579 244 m -42 Y s 1618 223 m -21 Y s 1656 223 m -21 Y s 1694 223 m -21 Y s 1733 223 m -21 Y s 1771 244 m -42 Y s 1809 223 m -21 Y s 1848 223 m
 -21 Y s 1886 223 m -21 Y s 1924 223 m -21 Y s 1963 244 m -42 Y s 2001 223 m -21 Y s 2039 223 m -21 Y s 2078 223 m -21 Y s 2116 223 m -21 Y s 2154 244 m -42 Y s 238 1514 m 1916 X s 238 1471 m 43 Y s 276 1492 m 22 Y s 315 1492 m 22 Y s 353 1492 m 22 Y
 s 391 1492 m 22 Y s 430 1471 m 43 Y s 468 1492 m 22 Y s 506 1492 m 22 Y s 545 1492 m 22 Y s 583 1492 m 22 Y s 621 1471 m 43 Y s 660 1492 m 22 Y s 698 1492 m 22 Y s 736 1492 m 22 Y s 775 1492 m 22 Y s 813 1471 m 43 Y s 851 1492 m 22 Y s 890 1492 m 22
 Y s 928 1492 m 22 Y s 966 1492 m 22 Y s 1005 1471 m 43 Y s 1043 1492 m 22 Y s 1081 1492 m 22 Y s 1120 1492 m 22 Y s 1158 1492 m 22 Y s 1196 1471 m 43 Y s 1235 1492 m 22 Y s 1273 1492 m 22 Y s 1311 1492 m 22 Y s 1350 1492 m 22 Y s 1388 1471 m 43 Y s
 1426 1492 m 22 Y s 1464 1492 m 22 Y s 1503 1492 m 22 Y s 1541 1492 m 22 Y s 1579 1471 m 43 Y s 1618 1492 m 22 Y s 1656 1492 m 22 Y s 1694 1492 m 22 Y s 1733 1492 m 22 Y s 1771 1471 m 43 Y s 1809 1492 m 22 Y s 1848 1492 m 22 Y s 1886 1492 m 22 Y s
 1924 1492 m 22 Y s 1963 1471 m 43 Y s 2001 1492 m 22 Y s 2039 1492 m 22 Y s 2078 1492 m 22 Y s 2116 1492 m 22 Y s 2154 1471 m 43 Y s 238 202 m 1312 Y s 291 202 m -53 X s 265 230 m -27 X s 265 259 m -27 X s 265 287 m -27 X s 265 316 m -27 X s 291 344
 m -53 X s 265 373 m -27 X s 265 401 m -27 X s 265 429 m -27 X s 265 458 m -27 X s 291 486 m -53 X s 265 515 m -27 X s 265 543 m -27 X s 265 572 m -27 X s 265 600 m -27 X s 291 629 m -53 X s 265 657 m -27 X s 265 685 m -27 X s 265 714 m -27 X s 265
 742 m -27 X s 291 771 m -53 X s 265 799 m -27 X s 265 828 m -27 X s 265 856 m -27 X s 265 885 m -27 X s 291 913 m -53 X s 265 941 m -27 X s 265 970 m -27 X s 265 998 m -27 X s 265 1027 m -27 X s 291 1055 m -53 X s 265 1084 m -27 X s 265 1112 m -27 X
 s 265 1141 m -27 X s 265 1169 m -27 X s 291 1198 m -53 X s 265 1226 m -27 X s 265 1254 m -27 X s 265 1283 m -27 X s 265 1311 m -27 X s 291 1340 m -53 X s 265 1368 m -27 X s 265 1397 m -27 X s 265 1425 m -27 X s 265 1454 m -27 X s 291 1482 m -53 X s
 291 1482 m -53 X s 265 1510 m -27 X s 2154 202 m 1312 Y s 2101 202 m 53 X s 2128 230 m 26 X s 2128 259 m 26 X s 2128 287 m 26 X s 2128 316 m 26 X s 2101 344 m 53 X s 2128 373 m 26 X s 2128 401 m 26 X s 2128 429 m 26 X s 2128 458 m 26 X s 2101 486 m
 53 X s 2128 515 m 26 X s 2128 543 m 26 X s 2128 572 m 26 X s 2128 600 m 26 X s 2101 629 m 53 X s 2128 657 m 26 X s 2128 685 m 26 X s 2128 714 m 26 X s 2128 742 m 26 X s 2101 771 m 53 X s 2128 799 m 26 X s 2128 828 m 26 X s 2128 856 m 26 X s 2128 885
 m 26 X s 2101 913 m 53 X s 2128 941 m 26 X s 2128 970 m 26 X s 2128 998 m 26 X s 2128 1027 m 26 X s 2101 1055 m 53 X s 2128 1084 m 26 X s 2128 1112 m 26 X s 2128 1141 m 26 X s 2128 1169 m 26 X s 2101 1198 m 53 X s 2128 1226 m 26 X s 2128 1254 m 26 X
 s 2128 1283 m 26 X s 2128 1311 m 26 X s 2101 1340 m 53 X s 2128 1368 m 26 X s 2128 1397 m 26 X s 2128 1425 m 26 X s 2128 1454 m 26 X s 2101 1482 m 53 X s 2101 1482 m 53 X s 2128 1510 m 26 X s
 gsave  2268 1682 0 0 C 2211.02 193.403 t 90 r /Helvetica-Bold findfont 45.6587 sf 0 0 m (U/O\255flow \(S,B\): \(0.0, 0.0\)% / \(0.0, 1.5\)%) show NC gr  0.490196 0.545098 0.615686 c 0.364706 0.419608 0.490196 c 1232 96 23 1577 bf 0.490196 0.545098
 0.615686 c 23 1577 m 1232 X s 1255 1577 m 96 Y s 1255 1673 m -1232 X s 23 1673 m -96 Y s 1 1 1 c black 1 1 1 c
 gsave  2268 1682 0 0 C 68.4881 1605.67 t 0 r /Helvetica-Bold findfont 76.0979 sf 0 0 m (TMVA Rarity for classifier: MLP) show NC gr 
 gr  gr showpage
end
%%EOF
