%!PS-Adobe-2.0 EPSF-2.0
%%BoundingBox:  0 0 567 295
%%Title: plots/variables_gauss_deco_c2.eps: Input variables 'Gauss_Deco'-transformed (training sample)
%%Creator: ROOT Version 5.34/09
%%CreationDate: Sat Jan  4 23:53:58 2014
%%EndComments
%%BeginProlog
80 dict begin
/s {stroke} def /l {lineto} def /m {moveto} def /t {translate} def
/r {rotate} def /rl {roll}  def /R {repeat} def
/d {rlineto} def /rm {rmoveto} def /gr {grestore} def /f {eofill} def
/c {setrgbcolor} def /black {0 setgray} def /sd {setdash} def
/cl {closepath} def /sf {scalefont setfont} def /lw {setlinewidth} def
/box {m dup 0 exch d exch 0 d 0 exch neg d cl} def
/NC{systemdict begin initclip end}def/C{NC box clip newpath}def
/bl {box s} def /bf {box f} def /Y { 0 exch d} def /X { 0 d} def 
/K {{pop pop 0 moveto} exch kshow} bind def
/ita {/ang 15 def gsave [1 0 ang dup sin exch cos div 1 0 0] concat} def 
/mp {newpath /y exch def /x exch def} def
/side {[w .77 mul w .23 mul] .385 w mul sd w 0 l currentpoint t -144 r} def
/mr {mp x y w2 0 360 arc} def /m24 {mr s} def /m20 {mr f} def
/mb {mp x y w2 add m w2 neg 0 d 0 w neg d w 0 d 0 w d cl} def
/mt {mp x y w2 add m w2 neg w neg d w 0 d cl} def
/m21 {mb f} def /m25 {mb s} def /m22 {mt f} def /m26{mt s} def
/m23 {mp x y w2 sub m w2 w d w neg 0 d cl f} def
/m27 {mp x y w2 add m w3 neg w2 neg d w3 w2 neg d w3 w2 d cl s} def
/m28 {mp x w2 sub y w2 sub w3 add m w3 0 d  0 w3 neg d w3 0 d 0 w3 d w3 0 d  0 w3 d w3 neg 0 d 0 w3 d w3 neg 0 d 0 w3 neg d w3 neg 0 d cl s } def
/m29 {mp gsave x w2 sub y w2 add w3 sub m currentpoint t 4 {side} repeat cl fill gr} def
/m30 {mp gsave x w2 sub y w2 add w3 sub m currentpoint t 4 {side} repeat cl s gr} def
/m31 {mp x y w2 sub m 0 w d x w2 sub y m w 0 d x w2 sub y w2 add m w w neg d x w2 sub y w2 sub m w w d s} def
/m32 {mp x y w2 sub m w2 w d w neg 0 d cl s} def
/m33 {mp x y w2 add m w3 neg w2 neg d w3 w2 neg d w3 w2 d cl f} def
/m34 {mp x w2 sub y w2 sub w3 add m w3 0 d  0 w3 neg d w3 0 d 0 w3 d w3 0 d  0 w3 d w3 neg 0 d 0 w3 d w3 neg 0 d 0 w3 neg d w3 neg 0 d cl f } def
/m2 {mp x y w2 sub m 0 w d x w2 sub y m w 0 d s} def
/m5 {mp x w2 sub y w2 sub m w w d x w2 sub y w2 add m w w neg d s} def
/reEncode {exch findfont dup length dict begin {1 index /FID eq  {pop pop} {def} ifelse } forall /Encoding exch def currentdict end dup /FontName get exch definefont pop } def [/Times-Bold /Times-Italic /Times-BoldItalic /Helvetica /Helvetica-Oblique
 /Helvetica-Bold /Helvetica-BoldOblique /Courier /Courier-Oblique /Courier-Bold /Courier-BoldOblique /Times-Roman /AvantGarde-Book /AvantGarde-BookOblique /AvantGarde-Demi /AvantGarde-DemiOblique /Bookman-Demi /Bookman-DemiItalic /Bookman-Light
 /Bookman-LightItalic /Helvetica-Narrow /Helvetica-Narrow-Bold /Helvetica-Narrow-BoldOblique /Helvetica-Narrow-Oblique /NewCenturySchlbk-Roman /NewCenturySchlbk-Bold /NewCenturySchlbk-BoldItalic /NewCenturySchlbk-Italic /Palatino-Bold
 /Palatino-BoldItalic /Palatino-Italic /Palatino-Roman ] {ISOLatin1Encoding reEncode } forall
%%EndProlog
%%BeginSetup
%%EndSetup
newpath  gsave  .25 .25 scale  gsave  0 0 t 0.490196 0.545098 0.615686 c[  ] 0 sd 3 lw 0.941176 0.941176 0.941176 c 2268 1179 0 0 bf 0.490196 0.545098 0.615686 c 0.941176 0.941176 0.941176 c 710 566 23 602 bf black 1 1 0.992157 c 548 428 143 683 bf
 black 548 428 143 683 bl 1 1 0.992157 c 548 428 143 683 bf black 548 428 143 683 bl 0 0 0.933333 c 6 lw 0.49 0.6 0.82 c black 3 lw 0.49 0.6 0.82 c 143 683 m 45 Y 14 X -45 Y 151 X 135 Y 13 X -45 Y 14 X 44 Y 14 X 135 Y 13 X 2 Y 14 X 98 Y 14 X -142 Y
 13 X -2 Y 14 X 49 Y 27 X -140 Y 14 X -89 Y 14 X -45 Y 13 X 46 Y 14 X -46 Y 192 X f 6 lw 0 0 0.933333 c 0.49 0.6 0.82 c 0 0 0.933333 c 143 728 m 14 X -45 Y 151 X 135 Y 13 X -45 Y 14 X 44 Y 14 X 135 Y 13 X 2 Y 14 X 98 Y 14 X -142 Y 13 X -2 Y 14 X 49 Y
 27 X -140 Y 14 X -89 Y 14 X -45 Y 13 X 46 Y 14 X -46 Y 192 X s black 3 lw 143 683 m 548 X s
 gsave  710 566 23 602 C 347.565 615.36 t 0 r /Helvetica findfont 28.5925 sf 0 0 m (GTND_gold \(Gauss_Deco\)) show NC gr  184 696 m -13 Y s 210 690 m -7 Y s 237 690 m -7 Y s 263 690 m -7 Y s 290 696 m -13 Y s 316 690 m -7 Y s 343 690 m -7 Y s 369 690
 m -7 Y s 396 696 m -13 Y s 422 690 m -7 Y s 449 690 m -7 Y s 476 690 m -7 Y s 502 696 m -13 Y s 529 690 m -7 Y s 555 690 m -7 Y s 582 690 m -7 Y s 608 696 m -13 Y s 184 696 m -13 Y s 157 690 m -7 Y s 608 696 m -13 Y s 635 690 m -7 Y s 661 690 m -7 Y
 s 688 690 m -7 Y s
 gsave  710 566 23 602 C 170.933 655.245 t 0 r /Helvetica findfont 25.7332 sf 0 0 m (\2554) show NC gr 
 gsave  710 566 23 602 C 276.342 655.245 t 0 r /Helvetica findfont 25.7332 sf 0 0 m (\2552) show NC gr 
 gsave  710 566 23 602 C 384.6 655.245 t 0 r /Helvetica findfont 25.7332 sf 0 0 m (0) show NC gr 
 gsave  710 566 23 602 C 492.858 655.245 t 0 r /Helvetica findfont 25.7332 sf 0 0 m (2) show NC gr 
 gsave  710 566 23 602 C 598.267 655.245 t 0 r /Helvetica findfont 25.7332 sf 0 0 m (4) show NC gr  143 1111 m 548 X s 184 1098 m 13 Y s 210 1104 m 7 Y s 237 1104 m 7 Y s 263 1104 m 7 Y s 290 1098 m 13 Y s 316 1104 m 7 Y s 343 1104 m 7 Y s 369 1104 m
 7 Y s 396 1098 m 13 Y s 422 1104 m 7 Y s 449 1104 m 7 Y s 476 1104 m 7 Y s 502 1098 m 13 Y s 529 1104 m 7 Y s 555 1104 m 7 Y s 582 1104 m 7 Y s 608 1098 m 13 Y s 184 1098 m 13 Y s 157 1104 m 7 Y s 608 1098 m 13 Y s 635 1104 m 7 Y s 661 1104 m 7 Y s
 688 1104 m 7 Y s 143 683 m 428 Y s
 gsave  710 566 23 602 C 45.5822 1031.3 t 90 r /Helvetica findfont 28.5925 sf 0 0 m (0.258 ) show NC gr 
 gsave  710 566 23 602 C 31.3378 1025.6 t 90 r /Helvetica findfont 20.0147 sf 0 0 m ( ) show NC gr 
 gsave  710 566 23 602 C 45.5822 1014.2 t 90 r /Helvetica findfont 28.5925 sf 0 0 m (/) show NC gr 
 gsave  710 566 23 602 C 54.1289 1008.51 t 90 r /Helvetica findfont 20.0147 sf 0 0 m ( ) show NC gr 
 gsave  710 566 23 602 C 45.5822 900.249 t 90 r /Helvetica findfont 28.5925 sf 0 0 m (\(1/N\) dN) show NC gr  160 683 m -17 X s 152 696 m -9 X s 152 709 m -9 X s 152 722 m -9 X s 152 735 m -9 X s 160 748 m -17 X s 152 761 m -9 X s 152 775 m -9 X s
 152 788 m -9 X s 152 801 m -9 X s 160 814 m -17 X s 152 827 m -9 X s 152 840 m -9 X s 152 853 m -9 X s 152 866 m -9 X s 160 879 m -17 X s 152 892 m -9 X s 152 905 m -9 X s 152 918 m -9 X s 152 931 m -9 X s 160 944 m -17 X s 152 958 m -9 X s 152 971
 m -9 X s 152 984 m -9 X s 152 997 m -9 X s 160 1010 m -17 X s 152 1023 m -9 X s 152 1036 m -9 X s 152 1049 m -9 X s 152 1062 m -9 X s 160 1075 m -17 X s 160 1075 m -17 X s 152 1088 m -9 X s 152 1101 m -9 X s
 gsave  710 566 23 602 C 119.653 672.338 t 0 r /Helvetica findfont 25.7332 sf 0 0 m (0) show NC gr 
 gsave  710 566 23 602 C 102.56 737.863 t 0 r /Helvetica findfont 25.7332 sf 0 0 m (0.1) show NC gr 
 gsave  710 566 23 602 C 96.8623 803.387 t 0 r /Helvetica findfont 25.7332 sf 0 0 m (0.2) show NC gr 
 gsave  710 566 23 602 C 96.8623 868.911 t 0 r /Helvetica findfont 25.7332 sf 0 0 m (0.3) show NC gr 
 gsave  710 566 23 602 C 96.8623 934.436 t 0 r /Helvetica findfont 25.7332 sf 0 0 m (0.4) show NC gr 
 gsave  710 566 23 602 C 96.8623 999.96 t 0 r /Helvetica findfont 25.7332 sf 0 0 m (0.5) show NC gr 
 gsave  710 566 23 602 C 96.8623 1065.48 t 0 r /Helvetica findfont 25.7332 sf 0 0 m (0.6) show NC gr  691 683 m 428 Y s 674 683 m 17 X s 683 696 m 8 X s 683 709 m 8 X s 683 722 m 8 X s 683 735 m 8 X s 674 748 m 17 X s 683 761 m 8 X s 683 775 m 8 X s
 683 788 m 8 X s 683 801 m 8 X s 674 814 m 17 X s 683 827 m 8 X s 683 840 m 8 X s 683 853 m 8 X s 683 866 m 8 X s 674 879 m 17 X s 683 892 m 8 X s 683 905 m 8 X s 683 918 m 8 X s 683 931 m 8 X s 674 944 m 17 X s 683 958 m 8 X s 683 971 m 8 X s 683
 984 m 8 X s 683 997 m 8 X s 674 1010 m 17 X s 683 1023 m 8 X s 683 1036 m 8 X s 683 1049 m 8 X s 683 1062 m 8 X s 674 1075 m 17 X s 674 1075 m 17 X s 683 1088 m 8 X s 683 1101 m 8 X s 1 0 0 c 6 lw black 3 lw 1 0 0 c 691 697 m -14 -14 d s 676 683 m s
 691 712 m -14 -13 d s 661 683 m s 679 716 m -2 -2 d s 646 683 m s 631 683 m s 616 683 m s 601 683 m s 586 683 m s 571 683 m s 556 683 m s 541 683 m s 526 684 m -1 Y s 526 699 m -15 -16 d s 526 714 m -27 -27 d s 496 683 m s 513 716 m -1 Y s 513 715 m
 -14 -13 d s 485 688 m -4 -5 d s 485 703 m -20 -20 d s 483 715 m -33 -32 d s 472 720 m -37 -37 d s 472 735 m -14 -14 d s 452 715 m -32 -32 d s 472 750 m -14 -14 d s 444 722 m -39 -39 d s 472 765 m -14 -14 d s 444 738 m -54 -55 d s 472 780 m -14 -13 d
 s 444 753 m -69 -70 d s 444 768 m -84 -85 d s 444 783 m -99 -100 d s 444 798 m -114 -115 d s 444 813 m -123 -123 d s 315 683 m s 444 829 m -123 -124 d s 308 691 m -8 -8 d s 444 844 m -123 -124 d s 308 706 m -14 -14 d s 285 683 m s 444 859 m -123
 -124 d s 308 721 m -14 -13 d s 270 683 m cl s 444 874 m -123 -124 d s 308 737 m -14 -14 d s 254 683 m s 444 889 m -41 -41 d s 399 844 m -78 -79 d s 308 752 m -14 -14 d s 239 683 m cl s 444 904 m -41 -41 d s 390 849 m -28 -27 d s 354 813 m -19 -19 d
 s 308 767 m -14 -14 d s 224 683 m s 444 920 m -41 -42 d s 390 865 m -28 -28 d s 349 823 m -14 -13 d s 307 781 m -13 -13 d s 209 683 m s 444 935 m -41 -42 d s 390 880 m -28 -28 d s 349 838 m -14 -13 d s 194 683 m s 444 950 m -41 -41 d s 390 895 m -28
 -28 d s 342 846 m -7 -6 d s 179 683 m s 444 965 m -41 -41 d s 390 910 m -28 -27 d s 164 683 m cl s 444 980 m -41 -41 d s 390 925 m -28 -27 d s 149 683 m s 444 995 m -13 -13 d s 425 976 m -22 -22 d s 390 940 m -28 -27 d s 444 1010 m -13 -13 d s 417
 983 m -14 -14 d s 376 942 m -14 -14 d s 417 998 m -14 -14 d s 376 957 m -14 -14 d s 417 1013 m -14 -13 d s 376 972 m -14 -14 d s 417 1029 m -14 -14 d s 376 987 m -14 -13 d s 417 1044 m -14 -14 d s 376 1002 m -14 -13 d s 417 1059 m -14 -14 d s 376
 1018 m -14 -14 d s 415 1072 m -12 -12 d s 376 1033 m -14 -14 d s 370 1042 m -8 -8 d s 6 lw 143 683 m 151 X 98 Y 14 X -98 Y 13 X 97 Y 14 X 66 Y 14 X -33 Y 13 X 229 Y 14 X -100 Y 14 X -98 Y 13 X 228 Y 14 X -96 Y 14 X 34 Y 13 X -295 Y 14 X 65 Y 14 X
 -65 Y 13 X -32 Y 14 X 32 Y 14 X 1 Y 13 X -33 Y 151 X 33 Y 14 X s black 3 lw 143 683 m 548 X s 184 696 m -13 Y s 210 690 m -7 Y s 237 690 m -7 Y s 263 690 m -7 Y s 290 696 m -13 Y s 316 690 m -7 Y s 343 690 m -7 Y s 369 690 m -7 Y s 396 696 m -13 Y s
 422 690 m -7 Y s 449 690 m -7 Y s 476 690 m -7 Y s 502 696 m -13 Y s 529 690 m -7 Y s 555 690 m -7 Y s 582 690 m -7 Y s 608 696 m -13 Y s 184 696 m -13 Y s 157 690 m -7 Y s 608 696 m -13 Y s 635 690 m -7 Y s 661 690 m -7 Y s 688 690 m -7 Y s 143
 1111 m 548 X s 184 1098 m 13 Y s 210 1104 m 7 Y s 237 1104 m 7 Y s 263 1104 m 7 Y s 290 1098 m 13 Y s 316 1104 m 7 Y s 343 1104 m 7 Y s 369 1104 m 7 Y s 396 1098 m 13 Y s 422 1104 m 7 Y s 449 1104 m 7 Y s 476 1104 m 7 Y s 502 1098 m 13 Y s 529 1104
 m 7 Y s 555 1104 m 7 Y s 582 1104 m 7 Y s 608 1098 m 13 Y s 184 1098 m 13 Y s 157 1104 m 7 Y s 608 1098 m 13 Y s 635 1104 m 7 Y s 661 1104 m 7 Y s 688 1104 m 7 Y s 143 683 m 428 Y s 160 683 m -17 X s 152 696 m -9 X s 152 709 m -9 X s 152 722 m -9 X
 s 152 735 m -9 X s 160 748 m -17 X s 152 761 m -9 X s 152 775 m -9 X s 152 788 m -9 X s 152 801 m -9 X s 160 814 m -17 X s 152 827 m -9 X s 152 840 m -9 X s 152 853 m -9 X s 152 866 m -9 X s 160 879 m -17 X s 152 892 m -9 X s 152 905 m -9 X s 152
 918 m -9 X s 152 931 m -9 X s 160 944 m -17 X s 152 958 m -9 X s 152 971 m -9 X s 152 984 m -9 X s 152 997 m -9 X s 160 1010 m -17 X s 152 1023 m -9 X s 152 1036 m -9 X s 152 1049 m -9 X s 152 1062 m -9 X s 160 1075 m -17 X s 160 1075 m -17 X s 152
 1088 m -9 X s 152 1101 m -9 X s 691 683 m 428 Y s 674 683 m 17 X s 683 696 m 8 X s 683 709 m 8 X s 683 722 m 8 X s 683 735 m 8 X s 674 748 m 17 X s 683 761 m 8 X s 683 775 m 8 X s 683 788 m 8 X s 683 801 m 8 X s 674 814 m 17 X s 683 827 m 8 X s 683
 840 m 8 X s 683 853 m 8 X s 683 866 m 8 X s 674 879 m 17 X s 683 892 m 8 X s 683 905 m 8 X s 683 918 m 8 X s 683 931 m 8 X s 674 944 m 17 X s 683 958 m 8 X s 683 971 m 8 X s 683 984 m 8 X s 683 997 m 8 X s 674 1010 m 17 X s 683 1023 m 8 X s 683 1036
 m 8 X s 683 1049 m 8 X s 683 1062 m 8 X s 674 1075 m 17 X s 674 1075 m 17 X s 683 1088 m 8 X s 683 1101 m 8 X s
 gsave  710 566 23 602 C 719.017 680.773 t 90 r /Helvetica-Bold findfont 20.0147 sf 0 0 m (U/O\255flow \(S,B\): \(0.0, 0.0\)% / \(0.0, 0.0\)%) show NC gr  0.490196 0.545098 0.615686 c 0.364706 0.419608 0.490196 c 497 38 30 1127 bf 0.490196 0.545098
 0.615686 c 30 1127 m 497 X s 527 1127 m 38 Y s 527 1165 m -497 X s 30 1165 m -38 Y s 1 1 1 c black 1 1 1 c
 gsave  710 566 23 602 C 19.9422 1139.56 t 0 r /Helvetica-Bold findfont 20.0147 sf 0 0 m (Input variable'Gauss_Deco'\255transformed : GTND_gold) show NC gr  0.490196 0.545098 0.615686 c 0.941176 0.941176 0.941176 c 710 566 779 602 bf black 1 1
 0.992157 c 548 428 899 683 bf black 548 428 899 683 bl 1 1 0.992157 c 548 428 899 683 bf black 548 428 899 683 bl 0 0 0.933333 c 6 lw 0.49 0.6 0.82 c black 3 lw 0.49 0.6 0.82 c 899 683 m 137 X 54 Y 28 X 109 Y 13 X -56 Y 14 X 107 Y 14 X -106 Y 13 X
 269 Y 14 X -2 Y 14 X -160 Y 13 X 164 Y 14 X -108 Y 14 X 118 Y 13 X -172 Y 14 X -217 Y 27 X 106 Y 14 X -106 Y 192 X f 6 lw 0 0 0.933333 c 0.49 0.6 0.82 c 0 0 0.933333 c 899 683 m 137 X 54 Y 28 X 109 Y 13 X -56 Y 14 X 107 Y 14 X -106 Y 13 X 269 Y 14 X
 -2 Y 14 X -160 Y 13 X 164 Y 14 X -108 Y 14 X 118 Y 13 X -172 Y 14 X -217 Y 27 X 106 Y 14 X -106 Y 192 X s black 3 lw 899 683 m 548 X s
 gsave  710 566 779 602 C 1065.48 615.36 t 0 r /Helvetica findfont 28.5925 sf 0 0 m (GTND_holiday \(Gauss_Deco\)) show NC gr  923 696 m -13 Y s 934 690 m -7 Y s 945 690 m -7 Y s 956 690 m -7 Y s 967 690 m -7 Y s 978 696 m -13 Y s 990 690 m -7 Y s
 1001 690 m -7 Y s 1012 690 m -7 Y s 1023 690 m -7 Y s 1034 696 m -13 Y s 1045 690 m -7 Y s 1057 690 m -7 Y s 1068 690 m -7 Y s 1079 690 m -7 Y s 1090 696 m -13 Y s 1101 690 m -7 Y s 1113 690 m -7 Y s 1124 690 m -7 Y s 1135 690 m -7 Y s 1146 696 m
 -13 Y s 1157 690 m -7 Y s 1168 690 m -7 Y s 1180 690 m -7 Y s 1191 690 m -7 Y s 1202 696 m -13 Y s 1213 690 m -7 Y s 1224 690 m -7 Y s 1235 690 m -7 Y s 1247 690 m -7 Y s 1258 696 m -13 Y s 1269 690 m -7 Y s 1280 690 m -7 Y s 1291 690 m -7 Y s 1303
 690 m -7 Y s 1314 696 m -13 Y s 1325 690 m -7 Y s 1336 690 m -7 Y s 1347 690 m -7 Y s 1358 690 m -7 Y s 1370 696 m -13 Y s 1381 690 m -7 Y s 1392 690 m -7 Y s 1403 690 m -7 Y s 1414 690 m -7 Y s 1425 696 m -13 Y s 923 696 m -13 Y s 911 690 m -7 Y s
 900 690 m -7 Y s 1425 696 m -13 Y s 1437 690 m -7 Y s
 gsave  710 566 779 602 C 908.796 655.245 t 0 r /Helvetica findfont 25.7332 sf 0 0 m (\2554) show NC gr 
 gsave  710 566 779 602 C 965.774 655.245 t 0 r /Helvetica findfont 25.7332 sf 0 0 m (\2553) show NC gr 
 gsave  710 566 779 602 C 1022.75 655.245 t 0 r /Helvetica findfont 25.7332 sf 0 0 m (\2552) show NC gr 
 gsave  710 566 779 602 C 1076.88 655.245 t 0 r /Helvetica findfont 25.7332 sf 0 0 m (\2551) show NC gr 
 gsave  710 566 779 602 C 1136.71 655.245 t 0 r /Helvetica findfont 25.7332 sf 0 0 m (0) show NC gr 
 gsave  710 566 779 602 C 1193.68 655.245 t 0 r /Helvetica findfont 25.7332 sf 0 0 m (1) show NC gr 
 gsave  710 566 779 602 C 1247.81 655.245 t 0 r /Helvetica findfont 25.7332 sf 0 0 m (2) show NC gr 
 gsave  710 566 779 602 C 1304.79 655.245 t 0 r /Helvetica findfont 25.7332 sf 0 0 m (3) show NC gr 
 gsave  710 566 779 602 C 1358.92 655.245 t 0 r /Helvetica findfont 25.7332 sf 0 0 m (4) show NC gr 
 gsave  710 566 779 602 C 1415.9 655.245 t 0 r /Helvetica findfont 25.7332 sf 0 0 m (5) show NC gr  899 1111 m 548 X s 923 1098 m 13 Y s 934 1104 m 7 Y s 945 1104 m 7 Y s 956 1104 m 7 Y s 967 1104 m 7 Y s 978 1098 m 13 Y s 990 1104 m 7 Y s 1001 1104
 m 7 Y s 1012 1104 m 7 Y s 1023 1104 m 7 Y s 1034 1098 m 13 Y s 1045 1104 m 7 Y s 1057 1104 m 7 Y s 1068 1104 m 7 Y s 1079 1104 m 7 Y s 1090 1098 m 13 Y s 1101 1104 m 7 Y s 1113 1104 m 7 Y s 1124 1104 m 7 Y s 1135 1104 m 7 Y s 1146 1098 m 13 Y s 1157
 1104 m 7 Y s 1168 1104 m 7 Y s 1180 1104 m 7 Y s 1191 1104 m 7 Y s 1202 1098 m 13 Y s 1213 1104 m 7 Y s 1224 1104 m 7 Y s 1235 1104 m 7 Y s 1247 1104 m 7 Y s 1258 1098 m 13 Y s 1269 1104 m 7 Y s 1280 1104 m 7 Y s 1291 1104 m 7 Y s 1303 1104 m 7 Y s
 1314 1098 m 13 Y s 1325 1104 m 7 Y s 1336 1104 m 7 Y s 1347 1104 m 7 Y s 1358 1104 m 7 Y s 1370 1098 m 13 Y s 1381 1104 m 7 Y s 1392 1104 m 7 Y s 1403 1104 m 7 Y s 1414 1104 m 7 Y s 1425 1098 m 13 Y s 923 1098 m 13 Y s 911 1104 m 7 Y s 900 1104 m 7
 Y s 1425 1098 m 13 Y s 1437 1104 m 7 Y s 899 683 m 428 Y s
 gsave  710 566 779 602 C 803.387 1031.3 t 90 r /Helvetica findfont 28.5925 sf 0 0 m (0.245 ) show NC gr 
 gsave  710 566 779 602 C 789.143 1025.6 t 90 r /Helvetica findfont 20.0147 sf 0 0 m ( ) show NC gr 
 gsave  710 566 779 602 C 803.387 1014.2 t 90 r /Helvetica findfont 28.5925 sf 0 0 m (/) show NC gr 
 gsave  710 566 779 602 C 811.934 1008.51 t 90 r /Helvetica findfont 20.0147 sf 0 0 m ( ) show NC gr 
 gsave  710 566 779 602 C 803.387 900.249 t 90 r /Helvetica findfont 28.5925 sf 0 0 m (\(1/N\) dN) show NC gr  915 683 m -16 X s 907 698 m -8 X s 907 713 m -8 X s 907 728 m -8 X s 907 742 m -8 X s 915 757 m -16 X s 907 772 m -8 X s 907 787 m -8 X s
 907 802 m -8 X s 907 817 m -8 X s 915 831 m -16 X s 907 846 m -8 X s 907 861 m -8 X s 907 876 m -8 X s 907 891 m -8 X s 915 905 m -16 X s 907 920 m -8 X s 907 935 m -8 X s 907 950 m -8 X s 907 965 m -8 X s 915 980 m -16 X s 907 994 m -8 X s 907 1009
 m -8 X s 907 1024 m -8 X s 907 1039 m -8 X s 915 1054 m -16 X s 915 1054 m -16 X s 907 1069 m -8 X s 907 1083 m -8 X s 907 1098 m -8 X s
 gsave  710 566 779 602 C 874.609 672.338 t 0 r /Helvetica findfont 25.7332 sf 0 0 m (0) show NC gr 
 gsave  710 566 779 602 C 857.516 746.409 t 0 r /Helvetica findfont 25.7332 sf 0 0 m (0.1) show NC gr 
 gsave  710 566 779 602 C 851.818 820.48 t 0 r /Helvetica findfont 25.7332 sf 0 0 m (0.2) show NC gr 
 gsave  710 566 779 602 C 851.818 894.552 t 0 r /Helvetica findfont 25.7332 sf 0 0 m (0.3) show NC gr 
 gsave  710 566 779 602 C 851.818 968.623 t 0 r /Helvetica findfont 25.7332 sf 0 0 m (0.4) show NC gr 
 gsave  710 566 779 602 C 851.818 1042.69 t 0 r /Helvetica findfont 25.7332 sf 0 0 m (0.5) show NC gr  1447 683 m 428 Y s 1430 683 m 17 X s 1438 698 m 9 X s 1438 713 m 9 X s 1438 728 m 9 X s 1438 742 m 9 X s 1430 757 m 17 X s 1438 772 m 9 X s 1438
 787 m 9 X s 1438 802 m 9 X s 1438 817 m 9 X s 1430 831 m 17 X s 1438 846 m 9 X s 1438 861 m 9 X s 1438 876 m 9 X s 1438 891 m 9 X s 1430 905 m 17 X s 1438 920 m 9 X s 1438 935 m 9 X s 1438 950 m 9 X s 1438 965 m 9 X s 1430 980 m 17 X s 1438 994 m 9
 X s 1438 1009 m 9 X s 1438 1024 m 9 X s 1438 1039 m 9 X s 1430 1054 m 17 X s 1430 1054 m 17 X s 1438 1069 m 9 X s 1438 1083 m 9 X s 1438 1098 m 9 X s 1 0 0 c 6 lw black 3 lw 1 0 0 c 1447 697 m -14 -14 d s 1433 683 m s 1447 712 m -14 -14 d s 1418 683
 m s 1441 722 m -8 -9 d s 1403 683 m s 1388 683 m s 1372 683 m s 1357 683 m s 1342 683 m s 1327 683 m s 1312 683 m s 1297 683 m s 1296 697 m -14 -14 d s 1282 683 m s 1296 712 m -14 -13 d s 1269 685 m -2 -2 d s 1291 722 m -9 -8 d s 1269 700 m -14 -14
 d s 1252 683 m s 1269 715 m -14 -14 d s 1241 688 m -4 -5 d s 1262 724 m -7 -8 d s 1241 703 m -19 -20 d s 1241 718 m -34 -35 d s 1230 722 m -38 -39 d s 1215 721 m -39 -38 d s 1214 736 m -53 -53 d s 1214 751 m -68 -68 d s 1214 766 m -83 -83 d s 1214
 781 m -98 -98 d s 1214 796 m -113 -113 d s 1214 811 m -128 -128 d s 1214 826 m -143 -143 d s 1214 841 m -150 -150 d s 1056 683 m s 1214 857 m -14 -14 d s 1196 838 m -132 -132 d s 1050 692 m -9 -9 d s 1214 872 m -14 -14 d s 1187 844 m -123 -123 d s
 1050 707 m -14 -14 d s 1026 683 m cl s 1214 887 m -14 -14 d s 1187 859 m -123 -123 d s 1050 722 m -14 -13 d s 1011 683 m s 1214 902 m -14 -14 d s 1187 874 m -110 -109 d s 1073 760 m -9 -9 d s 1050 737 m -14 -13 d s 996 683 m s 1213 916 m -13 -13 d s
 1187 890 m -110 -110 d s 1050 752 m -14 -13 d s 981 683 m cl s 1187 905 m -110 -110 d s 1043 761 m -7 -7 d s 965 683 m s 1187 920 m -110 -110 d s 950 683 m s 1187 935 m -110 -110 d s 935 683 m s 1187 950 m -110 -110 d s 920 683 m s 1176 954 m -99
 -99 d s 913 691 m -8 -8 d s 1173 966 m -82 -82 d s 1086 879 m -9 -8 d s 913 706 m -14 -14 d s 1173 982 m -82 -83 d s 913 721 m -14 -14 d s 1170 994 m -24 -25 d s 1133 957 m -1 -1 d s 1131 954 m -26 -26 d s 1091 915 m -1 Y s 1159 998 m -13 -14 d s
 1118 957 m -13 -14 d s 1159 1013 m -13 -14 d s 1118 972 m -13 -14 d s 1159 1028 m -13 -13 d s 1118 987 m -13 -14 d s 1159 1043 m -13 -13 d s 1109 993 m -4 -4 d s 1159 1058 m -13 -13 d s 1156 1070 m -10 -10 d s 6 lw 899 722 m 14 X -39 Y 123 X 78 Y 14
 X -78 Y 14 X 77 Y 13 X 119 Y 14 X 36 Y 14 X 78 Y 13 X -39 Y 14 X 3 Y 14 X 113 Y 13 X -76 Y 14 X -40 Y 14 X -116 Y 13 X 78 Y 14 X -195 Y 14 X 1 Y 13 X -39 Y 14 X 41 Y 14 X -41 Y 13 X 39 Y 14 X -39 Y 137 X 39 Y 14 X -39 Y s black 3 lw 899 683 m 548 X
 s 923 696 m -13 Y s 934 690 m -7 Y s 945 690 m -7 Y s 956 690 m -7 Y s 967 690 m -7 Y s 978 696 m -13 Y s 990 690 m -7 Y s 1001 690 m -7 Y s 1012 690 m -7 Y s 1023 690 m -7 Y s 1034 696 m -13 Y s 1045 690 m -7 Y s 1057 690 m -7 Y s 1068 690 m -7 Y s
 1079 690 m -7 Y s 1090 696 m -13 Y s 1101 690 m -7 Y s 1113 690 m -7 Y s 1124 690 m -7 Y s 1135 690 m -7 Y s 1146 696 m -13 Y s 1157 690 m -7 Y s 1168 690 m -7 Y s 1180 690 m -7 Y s 1191 690 m -7 Y s 1202 696 m -13 Y s 1213 690 m -7 Y s 1224 690 m
 -7 Y s 1235 690 m -7 Y s 1247 690 m -7 Y s 1258 696 m -13 Y s 1269 690 m -7 Y s 1280 690 m -7 Y s 1291 690 m -7 Y s 1303 690 m -7 Y s 1314 696 m -13 Y s 1325 690 m -7 Y s 1336 690 m -7 Y s 1347 690 m -7 Y s 1358 690 m -7 Y s 1370 696 m -13 Y s 1381
 690 m -7 Y s 1392 690 m -7 Y s 1403 690 m -7 Y s 1414 690 m -7 Y s 1425 696 m -13 Y s 923 696 m -13 Y s 911 690 m -7 Y s 900 690 m -7 Y s 1425 696 m -13 Y s 1437 690 m -7 Y s 899 1111 m 548 X s 923 1098 m 13 Y s 934 1104 m 7 Y s 945 1104 m 7 Y s 956
 1104 m 7 Y s 967 1104 m 7 Y s 978 1098 m 13 Y s 990 1104 m 7 Y s 1001 1104 m 7 Y s 1012 1104 m 7 Y s 1023 1104 m 7 Y s 1034 1098 m 13 Y s 1045 1104 m 7 Y s 1057 1104 m 7 Y s 1068 1104 m 7 Y s 1079 1104 m 7 Y s 1090 1098 m 13 Y s 1101 1104 m 7 Y s
 1113 1104 m 7 Y s 1124 1104 m 7 Y s 1135 1104 m 7 Y s 1146 1098 m 13 Y s 1157 1104 m 7 Y s 1168 1104 m 7 Y s 1180 1104 m 7 Y s 1191 1104 m 7 Y s 1202 1098 m 13 Y s 1213 1104 m 7 Y s 1224 1104 m 7 Y s 1235 1104 m 7 Y s 1247 1104 m 7 Y s 1258 1098 m
 13 Y s 1269 1104 m 7 Y s 1280 1104 m 7 Y s 1291 1104 m 7 Y s 1303 1104 m 7 Y s 1314 1098 m 13 Y s 1325 1104 m 7 Y s 1336 1104 m 7 Y s 1347 1104 m 7 Y s 1358 1104 m 7 Y s 1370 1098 m 13 Y s 1381 1104 m 7 Y s 1392 1104 m 7 Y s 1403 1104 m 7 Y s 1414
 1104 m 7 Y s 1425 1098 m 13 Y s 923 1098 m 13 Y s 911 1104 m 7 Y s 900 1104 m 7 Y s 1425 1098 m 13 Y s 1437 1104 m 7 Y s 899 683 m 428 Y s 915 683 m -16 X s 907 698 m -8 X s 907 713 m -8 X s 907 728 m -8 X s 907 742 m -8 X s 915 757 m -16 X s 907
 772 m -8 X s 907 787 m -8 X s 907 802 m -8 X s 907 817 m -8 X s 915 831 m -16 X s 907 846 m -8 X s 907 861 m -8 X s 907 876 m -8 X s 907 891 m -8 X s 915 905 m -16 X s 907 920 m -8 X s 907 935 m -8 X s 907 950 m -8 X s 907 965 m -8 X s 915 980 m -16
 X s 907 994 m -8 X s 907 1009 m -8 X s 907 1024 m -8 X s 907 1039 m -8 X s 915 1054 m -16 X s 915 1054 m -16 X s 907 1069 m -8 X s 907 1083 m -8 X s 907 1098 m -8 X s 1447 683 m 428 Y s 1430 683 m 17 X s 1438 698 m 9 X s 1438 713 m 9 X s 1438 728 m
 9 X s 1438 742 m 9 X s 1430 757 m 17 X s 1438 772 m 9 X s 1438 787 m 9 X s 1438 802 m 9 X s 1438 817 m 9 X s 1430 831 m 17 X s 1438 846 m 9 X s 1438 861 m 9 X s 1438 876 m 9 X s 1438 891 m 9 X s 1430 905 m 17 X s 1438 920 m 9 X s 1438 935 m 9 X s
 1438 950 m 9 X s 1438 965 m 9 X s 1430 980 m 17 X s 1438 994 m 9 X s 1438 1009 m 9 X s 1438 1024 m 9 X s 1438 1039 m 9 X s 1430 1054 m 17 X s 1430 1054 m 17 X s 1438 1069 m 9 X s 1438 1083 m 9 X s 1438 1098 m 9 X s
 gsave  710 566 779 602 C 1474.92 680.773 t 90 r /Helvetica-Bold findfont 20.0147 sf 0 0 m (U/O\255flow \(S,B\): \(0.0, 0.0\)% / \(0.0, 0.0\)%) show NC gr  0.490196 0.545098 0.615686 c 0.364706 0.419608 0.490196 c 497 38 786 1127 bf 0.490196 0.545098
 0.615686 c 786 1127 m 497 X s 1283 1127 m 38 Y s 1283 1165 m -497 X s 786 1165 m -38 Y s 1 1 1 c black 1 1 1 c
 gsave  710 566 779 602 C 803.387 1142.4 t 0 r /Helvetica-Bold findfont 17.1555 sf 0 0 m (Input variable'Gauss_Deco'\255transformed : GTND_holiday) show NC gr  0.490196 0.545098 0.615686 c 0.941176 0.941176 0.941176 c 711 566 1534 602 bf black 1 1
 0.992157 c 547 428 1655 683 bf black 547 428 1655 683 bl 1 1 0.992157 c 547 428 1655 683 bf black 547 428 1655 683 bl 0 0 0.933333 c 6 lw 0.49 0.6 0.82 c black 3 lw 0.49 0.6 0.82 c 1655 683 m 164 X 45 Y 28 X 91 Y 13 X 44 Y 14 X 1 Y 14 X 179 Y 13 X
 -127 Y 14 X -7 Y 14 X 93 Y 14 X -47 Y 13 X -45 Y 14 X -44 Y 14 X -183 Y 13 X 46 Y 14 X -46 Y 14 X 45 Y 13 X -45 Y 151 X 47 Y 13 X -47 Y f 6 lw 0 0 0.933333 c 0.49 0.6 0.82 c 0 0 0.933333 c 1655 683 m 164 X 45 Y 28 X 91 Y 13 X 44 Y 14 X 1 Y 14 X 179
 Y 13 X -127 Y 14 X -7 Y 14 X 93 Y 14 X -47 Y 13 X -45 Y 14 X -44 Y 14 X -183 Y 13 X 46 Y 14 X -46 Y 14 X 45 Y 13 X -45 Y 151 X 47 Y 13 X s black 3 lw 1655 683 m 547 X s
 gsave  711 566 1534 602 C 1817.59 615.36 t 0 r /Helvetica findfont 28.5925 sf 0 0 m (GTND_inflation \(Gauss_Deco\)) show NC gr  1701 696 m -13 Y s 1728 690 m -7 Y s 1755 690 m -7 Y s 1782 690 m -7 Y s 1809 696 m -13 Y s 1836 690 m -7 Y s 1863 690 m
 -7 Y s 1889 690 m -7 Y s 1916 696 m -13 Y s 1943 690 m -7 Y s 1970 690 m -7 Y s 1997 690 m -7 Y s 2024 696 m -13 Y s 2051 690 m -7 Y s 2078 690 m -7 Y s 2105 690 m -7 Y s 2132 696 m -13 Y s 1701 696 m -13 Y s 1674 690 m -7 Y s 2132 696 m -13 Y s
 2159 690 m -7 Y s 2186 690 m -7 Y s
 gsave  711 566 1534 602 C 1689.39 655.245 t 0 r /Helvetica findfont 25.7332 sf 0 0 m (\2554) show NC gr 
 gsave  711 566 1534 602 C 1794.8 655.245 t 0 r /Helvetica findfont 25.7332 sf 0 0 m (\2552) show NC gr 
 gsave  711 566 1534 602 C 1905.91 655.245 t 0 r /Helvetica findfont 25.7332 sf 0 0 m (0) show NC gr 
 gsave  711 566 1534 602 C 2014.17 655.245 t 0 r /Helvetica findfont 25.7332 sf 0 0 m (2) show NC gr 
 gsave  711 566 1534 602 C 2122.42 655.245 t 0 r /Helvetica findfont 25.7332 sf 0 0 m (4) show NC gr  1655 1111 m 547 X s 1701 1098 m 13 Y s 1728 1104 m 7 Y s 1755 1104 m 7 Y s 1782 1104 m 7 Y s 1809 1098 m 13 Y s 1836 1104 m 7 Y s 1863 1104 m 7 Y s
 1889 1104 m 7 Y s 1916 1098 m 13 Y s 1943 1104 m 7 Y s 1970 1104 m 7 Y s 1997 1104 m 7 Y s 2024 1098 m 13 Y s 2051 1104 m 7 Y s 2078 1104 m 7 Y s 2105 1104 m 7 Y s 2132 1098 m 13 Y s 1701 1098 m 13 Y s 1674 1104 m 7 Y s 2132 1098 m 13 Y s 2159 1104
 m 7 Y s 2186 1104 m 7 Y s 1655 683 m 428 Y s
 gsave  711 566 1534 602 C 1558.34 1031.3 t 90 r /Helvetica findfont 28.5925 sf 0 0 m (0.254 ) show NC gr 
 gsave  711 566 1534 602 C 1544.1 1025.6 t 90 r /Helvetica findfont 20.0147 sf 0 0 m ( ) show NC gr 
 gsave  711 566 1534 602 C 1558.34 1014.2 t 90 r /Helvetica findfont 28.5925 sf 0 0 m (/) show NC gr 
 gsave  711 566 1534 602 C 1566.89 1008.51 t 90 r /Helvetica findfont 20.0147 sf 0 0 m ( ) show NC gr 
 gsave  711 566 1534 602 C 1558.34 900.249 t 90 r /Helvetica findfont 28.5925 sf 0 0 m (\(1/N\) dN) show NC gr  1671 683 m -16 X s 1663 696 m -8 X s 1663 709 m -8 X s 1663 722 m -8 X s 1663 735 m -8 X s 1671 748 m -16 X s 1663 761 m -8 X s 1663 774 m
 -8 X s 1663 786 m -8 X s 1663 799 m -8 X s 1671 812 m -16 X s 1663 825 m -8 X s 1663 838 m -8 X s 1663 851 m -8 X s 1663 864 m -8 X s 1671 877 m -16 X s 1663 890 m -8 X s 1663 903 m -8 X s 1663 916 m -8 X s 1663 929 m -8 X s 1671 942 m -16 X s 1663
 955 m -8 X s 1663 967 m -8 X s 1663 980 m -8 X s 1663 993 m -8 X s 1671 1006 m -16 X s 1663 1019 m -8 X s 1663 1032 m -8 X s 1663 1045 m -8 X s 1663 1058 m -8 X s 1671 1071 m -16 X s 1671 1071 m -16 X s 1663 1084 m -8 X s 1663 1097 m -8 X s 1663
 1110 m -8 X s
 gsave  711 566 1534 602 C 1632.41 672.338 t 0 r /Helvetica findfont 25.7332 sf 0 0 m (0) show NC gr 
 gsave  711 566 1534 602 C 1615.32 737.863 t 0 r /Helvetica findfont 25.7332 sf 0 0 m (0.1) show NC gr 
 gsave  711 566 1534 602 C 1609.62 803.387 t 0 r /Helvetica findfont 25.7332 sf 0 0 m (0.2) show NC gr 
 gsave  711 566 1534 602 C 1609.62 866.063 t 0 r /Helvetica findfont 25.7332 sf 0 0 m (0.3) show NC gr 
 gsave  711 566 1534 602 C 1609.62 931.587 t 0 r /Helvetica findfont 25.7332 sf 0 0 m (0.4) show NC gr 
 gsave  711 566 1534 602 C 1609.62 997.112 t 0 r /Helvetica findfont 25.7332 sf 0 0 m (0.5) show NC gr 
 gsave  711 566 1534 602 C 1609.62 1059.79 t 0 r /Helvetica findfont 25.7332 sf 0 0 m (0.6) show NC gr  2202 683 m 428 Y s 2186 683 m 16 X s 2194 696 m 8 X s 2194 709 m 8 X s 2194 722 m 8 X s 2194 735 m 8 X s 2186 748 m 16 X s 2194 761 m 8 X s 2194
 774 m 8 X s 2194 786 m 8 X s 2194 799 m 8 X s 2186 812 m 16 X s 2194 825 m 8 X s 2194 838 m 8 X s 2194 851 m 8 X s 2194 864 m 8 X s 2186 877 m 16 X s 2194 890 m 8 X s 2194 903 m 8 X s 2194 916 m 8 X s 2194 929 m 8 X s 2186 942 m 16 X s 2194 955 m 8
 X s 2194 967 m 8 X s 2194 980 m 8 X s 2194 993 m 8 X s 2186 1006 m 16 X s 2194 1019 m 8 X s 2194 1032 m 8 X s 2194 1045 m 8 X s 2194 1058 m 8 X s 2186 1071 m 16 X s 2186 1071 m 16 X s 2194 1084 m 8 X s 2194 1097 m 8 X s 2194 1110 m 8 X s 1 0 0 c 6
 lw black 3 lw 1 0 0 c 2188 683 m s 2173 683 m s 2158 683 m s 2143 683 m s 2128 683 m s 2113 683 m s 2098 683 m s 2083 683 m s 2068 683 m s 2053 683 m s 2052 697 m -14 -14 d s 2052 713 m -27 -28 d s 2022 683 m s 2040 716 m -15 -16 d s 2011 687 m -4
 -4 d s 2025 715 m s 2011 702 m -19 -19 d s 2009 715 m -32 -32 d s 1997 718 m -35 -35 d s 1997 733 m -50 -50 d s 1997 749 m -65 -66 d s 1997 764 m -80 -81 d s 1997 779 m -95 -96 d s 1997 794 m -13 -14 d s 1983 780 m -96 -97 d s 1997 809 m -13 -14 d s
 1970 782 m -98 -99 d s 1997 824 m -13 -13 d s 1970 797 m -113 -114 d s 1997 840 m -13 -14 d s 1970 812 m -27 -27 d s 1939 781 m -97 -98 d s 1991 849 m -7 -8 d s 1970 827 m -27 -27 d s 1929 786 m -102 -103 d s 1970 842 m -27 -27 d s 1929 801 m -82
 -82 d s 1844 716 m -33 -33 d s 1970 858 m -27 -28 d s 1929 816 m -82 -82 d s 1833 720 m -37 -37 d s 1970 873 m -14 -14 d s 1929 831 m -82 -82 d s 1833 735 m -14 -14 d s 1815 717 m -23 -23 d s 1781 683 m cl s 1970 888 m -14 -14 d s 1929 847 m -82 -83
 d s 1833 750 m -14 -13 d s 1799 716 m -7 -7 d s 1766 683 m s 1970 903 m -14 -14 d s 1929 862 m -82 -83 d s 1833 765 m -14 -13 d s 1751 683 m cl s 1962 911 m -6 -7 d s 1929 877 m -28 -28 d s 1898 846 m -51 -52 d s 1833 780 m -14 -13 d s 1736 683 m s
 1917 880 m -16 -15 d s 1888 851 m -28 -28 d s 1850 812 m -3 -2 d s 1721 683 m s 1915 893 m -14 -13 d s 1888 866 m -28 -28 d s 1706 683 m cl s 1915 909 m -14 -14 d s 1888 881 m -28 -27 d s 1691 683 m s 1915 924 m -14 -14 d s 1888 896 m -28 -27 d s
 1676 683 m cl s 1915 939 m -14 -14 d s 1888 911 m -28 -27 d s 1661 683 m cl s 1915 954 m -14 -14 d s 1888 927 m -28 -28 d s 1915 969 m -14 -13 d s 1888 942 m -28 -28 d s 1915 984 m -14 -13 d s 1888 957 m -28 -28 d s 1915 1000 m -14 -14 d s 1888 972
 m -28 -27 d s 1915 1015 m -14 -14 d s 1888 987 m -28 -27 d s 1915 1030 m -14 -14 d s 1888 1002 m -14 -13 d s 1862 977 m -2 -2 d s 1915 1045 m -14 -14 d s 1880 1010 m -6 -6 d s 1915 1060 m -14 -13 d s 1912 1072 m -11 -10 d s 6 lw 1655 683 m 137 X 33
 Y 14 X 1 Y 13 X 63 Y 14 X -64 Y 14 X 96 Y 13 X 165 Y 14 X 33 Y 14 X -164 Y 13 X 226 Y 14 X -192 Y 14 X -99 Y 14 X 64 Y 13 X 66 Y 14 X -131 Y 14 X 69 Y 13 X -134 Y 14 X -32 Y 14 X 32 Y 13 X 1 Y 14 X -33 Y 150 X s black 3 lw 1655 683 m 547 X s 1701
 696 m -13 Y s 1728 690 m -7 Y s 1755 690 m -7 Y s 1782 690 m -7 Y s 1809 696 m -13 Y s 1836 690 m -7 Y s 1863 690 m -7 Y s 1889 690 m -7 Y s 1916 696 m -13 Y s 1943 690 m -7 Y s 1970 690 m -7 Y s 1997 690 m -7 Y s 2024 696 m -13 Y s 2051 690 m -7 Y
 s 2078 690 m -7 Y s 2105 690 m -7 Y s 2132 696 m -13 Y s 1701 696 m -13 Y s 1674 690 m -7 Y s 2132 696 m -13 Y s 2159 690 m -7 Y s 2186 690 m -7 Y s 1655 1111 m 547 X s 1701 1098 m 13 Y s 1728 1104 m 7 Y s 1755 1104 m 7 Y s 1782 1104 m 7 Y s 1809
 1098 m 13 Y s 1836 1104 m 7 Y s 1863 1104 m 7 Y s 1889 1104 m 7 Y s 1916 1098 m 13 Y s 1943 1104 m 7 Y s 1970 1104 m 7 Y s 1997 1104 m 7 Y s 2024 1098 m 13 Y s 2051 1104 m 7 Y s 2078 1104 m 7 Y s 2105 1104 m 7 Y s 2132 1098 m 13 Y s 1701 1098 m 13 Y
 s 1674 1104 m 7 Y s 2132 1098 m 13 Y s 2159 1104 m 7 Y s 2186 1104 m 7 Y s 1655 683 m 428 Y s 1671 683 m -16 X s 1663 696 m -8 X s 1663 709 m -8 X s 1663 722 m -8 X s 1663 735 m -8 X s 1671 748 m -16 X s 1663 761 m -8 X s 1663 774 m -8 X s 1663 786
 m -8 X s 1663 799 m -8 X s 1671 812 m -16 X s 1663 825 m -8 X s 1663 838 m -8 X s 1663 851 m -8 X s 1663 864 m -8 X s 1671 877 m -16 X s 1663 890 m -8 X s 1663 903 m -8 X s 1663 916 m -8 X s 1663 929 m -8 X s 1671 942 m -16 X s 1663 955 m -8 X s
 1663 967 m -8 X s 1663 980 m -8 X s 1663 993 m -8 X s 1671 1006 m -16 X s 1663 1019 m -8 X s 1663 1032 m -8 X s 1663 1045 m -8 X s 1663 1058 m -8 X s 1671 1071 m -16 X s 1671 1071 m -16 X s 1663 1084 m -8 X s 1663 1097 m -8 X s 1663 1110 m -8 X s
 2202 683 m 428 Y s 2186 683 m 16 X s 2194 696 m 8 X s 2194 709 m 8 X s 2194 722 m 8 X s 2194 735 m 8 X s 2186 748 m 16 X s 2194 761 m 8 X s 2194 774 m 8 X s 2194 786 m 8 X s 2194 799 m 8 X s 2186 812 m 16 X s 2194 825 m 8 X s 2194 838 m 8 X s 2194
 851 m 8 X s 2194 864 m 8 X s 2186 877 m 16 X s 2194 890 m 8 X s 2194 903 m 8 X s 2194 916 m 8 X s 2194 929 m 8 X s 2186 942 m 16 X s 2194 955 m 8 X s 2194 967 m 8 X s 2194 980 m 8 X s 2194 993 m 8 X s 2186 1006 m 16 X s 2194 1019 m 8 X s 2194 1032 m
 8 X s 2194 1045 m 8 X s 2194 1058 m 8 X s 2186 1071 m 16 X s 2186 1071 m 16 X s 2194 1084 m 8 X s 2194 1097 m 8 X s 2194 1110 m 8 X s
 gsave  711 566 1534 602 C 2230.83 680.773 t 90 r /Helvetica-Bold findfont 20.0147 sf 0 0 m (U/O\255flow \(S,B\): \(0.0, 0.0\)% / \(0.0, 0.0\)%) show NC gr  0.490196 0.545098 0.615686 c 0.364706 0.419608 0.490196 c 497 38 1542 1127 bf 0.490196
 0.545098 0.615686 c 1542 1127 m 497 X s 2039 1127 m 38 Y s 2039 1165 m -497 X s 1542 1165 m -38 Y s 1 1 1 c black 1 1 1 c
 gsave  711 566 1534 602 C 1552.65 1142.4 t 0 r /Helvetica-Bold findfont 17.1555 sf 0 0 m (Input variable'Gauss_Deco'\255transformed : GTND_inflation) show NC gr  0.490196 0.545098 0.615686 c 0.941176 0.941176 0.941176 c 710 566 23 12 bf black 1 1
 0.992157 c 548 428 143 93 bf black 548 428 143 93 bl 1 1 0.992157 c 548 428 143 93 bf black 548 428 143 93 bl 0 0 0.933333 c 6 lw 0.49 0.6 0.82 c black 3 lw 0.49 0.6 0.82 c 143 93 m 124 X 55 Y 13 X -55 Y 28 X 55 Y 13 X 55 Y 14 X -46 Y 14 X 154 Y 13
 X -52 Y 14 X 223 Y 14 X -116 Y 13 X 2 Y 14 X -220 Y 14 X 331 Y 13 X -273 Y 14 X 164 Y 14 X 58 Y 13 X -280 Y 14 X -55 Y 14 X 110 Y 13 X -54 Y 14 X -56 Y 14 X 55 Y 13 X -55 Y 110 X 60 Y 14 X -60 Y f 6 lw 0 0 0.933333 c 0.49 0.6 0.82 c 0 0 0.933333 c
 143 93 m 124 X 55 Y 13 X -55 Y 28 X 55 Y 13 X 55 Y 14 X -46 Y 14 X 154 Y 13 X -52 Y 14 X 223 Y 14 X -116 Y 13 X 2 Y 14 X -220 Y 14 X 331 Y 13 X -273 Y 14 X 164 Y 14 X 58 Y 13 X -280 Y 14 X -55 Y 14 X 110 Y 13 X -54 Y 14 X -56 Y 14 X 55 Y 13 X -55 Y
 110 X 60 Y 14 X s black 3 lw 143 93 m 548 X s
 gsave  710 566 23 12 C 301.982 25.64 t 0 r /Helvetica findfont 28.5925 sf 0 0 m (GTND_markets \(Gauss_Deco\)) show NC gr  162 106 m -13 Y s 174 100 m -7 Y s 187 100 m -7 Y s 199 100 m -7 Y s 212 100 m -7 Y s 224 106 m -13 Y s 237 100 m -7 Y s 249
 100 m -7 Y s 262 100 m -7 Y s 274 100 m -7 Y s 287 106 m -13 Y s 299 100 m -7 Y s 311 100 m -7 Y s 324 100 m -7 Y s 336 100 m -7 Y s 349 106 m -13 Y s 361 100 m -7 Y s 374 100 m -7 Y s 386 100 m -7 Y s 399 100 m -7 Y s 411 106 m -13 Y s 424 100 m -7
 Y s 436 100 m -7 Y s 449 100 m -7 Y s 461 100 m -7 Y s 474 106 m -13 Y s 486 100 m -7 Y s 499 100 m -7 Y s 511 100 m -7 Y s 524 100 m -7 Y s 536 106 m -13 Y s 549 100 m -7 Y s 561 100 m -7 Y s 574 100 m -7 Y s 586 100 m -7 Y s 599 106 m -13 Y s 611
 100 m -7 Y s 624 100 m -7 Y s 636 100 m -7 Y s 649 100 m -7 Y s 661 106 m -13 Y s 162 106 m -13 Y s 149 100 m -7 Y s 661 106 m -13 Y s 674 100 m -7 Y s 686 100 m -7 Y s
 gsave  710 566 23 12 C 148.142 65.5245 t 0 r /Helvetica findfont 25.7332 sf 0 0 m (\2554) show NC gr 
 gsave  710 566 23 12 C 210.818 65.5245 t 0 r /Helvetica findfont 25.7332 sf 0 0 m (\2553) show NC gr 
 gsave  710 566 23 12 C 273.493 65.5245 t 0 r /Helvetica findfont 25.7332 sf 0 0 m (\2552) show NC gr 
 gsave  710 566 23 12 C 336.169 65.5245 t 0 r /Helvetica findfont 25.7332 sf 0 0 m (\2551) show NC gr 
 gsave  710 566 23 12 C 401.694 65.5245 t 0 r /Helvetica findfont 25.7332 sf 0 0 m (0) show NC gr 
 gsave  710 566 23 12 C 467.218 65.5245 t 0 r /Helvetica findfont 25.7332 sf 0 0 m (1) show NC gr 
 gsave  710 566 23 12 C 527.045 65.5245 t 0 r /Helvetica findfont 25.7332 sf 0 0 m (2) show NC gr 
 gsave  710 566 23 12 C 589.72 65.5245 t 0 r /Helvetica findfont 25.7332 sf 0 0 m (3) show NC gr 
 gsave  710 566 23 12 C 652.396 65.5245 t 0 r /Helvetica findfont 25.7332 sf 0 0 m (4) show NC gr  143 521 m 548 X s 162 508 m 13 Y s 174 515 m 6 Y s 187 515 m 6 Y s 199 515 m 6 Y s 212 515 m 6 Y s 224 508 m 13 Y s 237 515 m 6 Y s 249 515 m 6 Y s 262
 515 m 6 Y s 274 515 m 6 Y s 287 508 m 13 Y s 299 515 m 6 Y s 311 515 m 6 Y s 324 515 m 6 Y s 336 515 m 6 Y s 349 508 m 13 Y s 361 515 m 6 Y s 374 515 m 6 Y s 386 515 m 6 Y s 399 515 m 6 Y s 411 508 m 13 Y s 424 515 m 6 Y s 436 515 m 6 Y s 449 515 m
 6 Y s 461 515 m 6 Y s 474 508 m 13 Y s 486 515 m 6 Y s 499 515 m 6 Y s 511 515 m 6 Y s 524 515 m 6 Y s 536 508 m 13 Y s 549 515 m 6 Y s 561 515 m 6 Y s 574 515 m 6 Y s 586 515 m 6 Y s 599 508 m 13 Y s 611 515 m 6 Y s 624 515 m 6 Y s 636 515 m 6 Y s
 649 515 m 6 Y s 661 508 m 13 Y s 162 508 m 13 Y s 149 515 m 6 Y s 661 508 m 13 Y s 674 515 m 6 Y s 686 515 m 6 Y s 143 93 m 428 Y s
 gsave  710 566 23 12 C 45.5822 441.578 t 90 r /Helvetica findfont 28.5925 sf 0 0 m (0.219 ) show NC gr 
 gsave  710 566 23 12 C 31.3378 435.88 t 90 r /Helvetica findfont 20.0147 sf 0 0 m ( ) show NC gr 
 gsave  710 566 23 12 C 45.5822 424.485 t 90 r /Helvetica findfont 28.5925 sf 0 0 m (/) show NC gr 
 gsave  710 566 23 12 C 54.1289 418.787 t 90 r /Helvetica findfont 20.0147 sf 0 0 m ( ) show NC gr 
 gsave  710 566 23 12 C 45.5822 310.529 t 90 r /Helvetica findfont 28.5925 sf 0 0 m (\(1/N\) dN) show NC gr  160 93 m -17 X s 152 107 m -9 X s 152 120 m -9 X s 152 134 m -9 X s 152 148 m -9 X s 160 161 m -17 X s 152 175 m -9 X s 152 188 m -9 X s 152
 202 m -9 X s 152 216 m -9 X s 160 229 m -17 X s 152 243 m -9 X s 152 256 m -9 X s 152 270 m -9 X s 152 283 m -9 X s 160 297 m -17 X s 152 311 m -9 X s 152 324 m -9 X s 152 338 m -9 X s 152 351 m -9 X s 160 365 m -17 X s 152 379 m -9 X s 152 392 m -9
 X s 152 406 m -9 X s 152 419 m -9 X s 160 433 m -17 X s 152 446 m -9 X s 152 460 m -9 X s 152 474 m -9 X s 152 487 m -9 X s 160 501 m -17 X s 160 501 m -17 X s 152 514 m -9 X s
 gsave  710 566 23 12 C 119.653 82.6178 t 0 r /Helvetica findfont 25.7332 sf 0 0 m (0) show NC gr 
 gsave  710 566 23 12 C 102.56 150.991 t 0 r /Helvetica findfont 25.7332 sf 0 0 m (0.1) show NC gr 
 gsave  710 566 23 12 C 96.8623 219.365 t 0 r /Helvetica findfont 25.7332 sf 0 0 m (0.2) show NC gr 
 gsave  710 566 23 12 C 96.8623 287.738 t 0 r /Helvetica findfont 25.7332 sf 0 0 m (0.3) show NC gr 
 gsave  710 566 23 12 C 96.8623 356.111 t 0 r /Helvetica findfont 25.7332 sf 0 0 m (0.4) show NC gr 
 gsave  710 566 23 12 C 96.8623 421.636 t 0 r /Helvetica findfont 25.7332 sf 0 0 m (0.5) show NC gr 
 gsave  710 566 23 12 C 96.8623 490.009 t 0 r /Helvetica findfont 25.7332 sf 0 0 m (0.6) show NC gr  691 93 m 428 Y s 674 93 m 17 X s 683 107 m 8 X s 683 120 m 8 X s 683 134 m 8 X s 683 148 m 8 X s 674 161 m 17 X s 683 175 m 8 X s 683 188 m 8 X s 683
 202 m 8 X s 683 216 m 8 X s 674 229 m 17 X s 683 243 m 8 X s 683 256 m 8 X s 683 270 m 8 X s 683 283 m 8 X s 674 297 m 17 X s 683 311 m 8 X s 683 324 m 8 X s 683 338 m 8 X s 683 351 m 8 X s 674 365 m 17 X s 683 379 m 8 X s 683 392 m 8 X s 683 406 m
 8 X s 683 419 m 8 X s 674 433 m 17 X s 683 446 m 8 X s 683 460 m 8 X s 683 474 m 8 X s 683 487 m 8 X s 674 501 m 17 X s 674 501 m 17 X s 683 514 m 8 X s 1 0 0 c 6 lw black 3 lw 1 0 0 c 676 93 m s 661 93 m s 646 93 m cl s 631 93 m s 616 93 m s 601 93
 m cl s 586 93 m s 571 93 m s 567 105 m -11 -12 d s 567 120 m -13 -14 d s 541 93 m s 567 135 m -13 -13 d s 526 94 m -1 Y s 526 109 m -15 -16 d s 526 124 m -30 -31 d s 520 133 m -39 -40 d s 513 141 m -48 -48 d s 513 156 m -14 -14 d s 490 133 m -40 -40
 d s 513 171 m -14 -14 d s 485 144 m -50 -51 d s 485 159 m -65 -66 d s 484 172 m -79 -79 d s 472 175 m -82 -82 d s 472 191 m -97 -98 d s 472 206 m -112 -113 d s 472 221 m -127 -128 d s 472 236 m -142 -143 d s 472 251 m -157 -158 d s 472 266 m -172
 -173 d s 472 282 m -187 -189 d s 466 291 m -145 -146 d s 311 135 m -41 -42 d s 458 298 m -137 -137 d s 295 134 m -28 -28 d s 254 93 m s 458 313 m -137 -137 d s 281 135 m -1 -1 d s 279 133 m -12 -12 d s 239 93 m cl s 458 328 m -68 -68 d s 382 252 m
 -61 -61 d s 224 93 m cl s 445 330 m -55 -55 d s 376 261 m -41 -41 d s 329 214 m -8 -8 d s 209 93 m s 432 332 m -42 -42 d s 376 276 m -41 -41 d s 194 93 m s 431 346 m -41 -41 d s 376 291 m -41 -41 d s 179 93 m s 431 362 m -28 -28 d s 400 331 m -10
 -11 d s 376 307 m -41 -42 d s 164 93 m cl s 426 372 m -23 -23 d s 376 322 m -41 -42 d s 149 93 m s 417 378 m -14 -14 d s 376 337 m -41 -41 d s 417 393 m -14 -13 d s 376 352 m -14 -14 d s 354 330 m -19 -19 d s 417 409 m -14 -14 d s 376 367 m -14 -14
 d s 349 340 m -14 -14 d s 376 382 m -14 -13 d s 349 355 m -14 -14 d s 376 398 m -14 -14 d s 349 370 m -14 -14 d s 376 413 m -14 -14 d s 336 372 m -1 -1 d s 376 428 m -14 -14 d s 376 443 m -14 -14 d s 368 450 m -6 -6 d s 6 lw 143 93 m 124 X 40 Y 13 X
 2 Y 14 X -1 Y 14 X 1 Y 13 X 79 Y 14 X 158 Y 14 X -42 Y 13 X 120 Y 14 X -198 Y 14 X 79 Y 13 X 78 Y 14 X -37 Y 14 X -40 Y 13 X -2 Y 14 X -39 Y 14 X -119 Y 13 X -39 Y 14 X 39 Y 14 X -39 Y 13 X -40 Y 28 X 42 Y 13 X -42 Y 124 X s black 3 lw 143 93 m 548
 X s 162 106 m -13 Y s 174 100 m -7 Y s 187 100 m -7 Y s 199 100 m -7 Y s 212 100 m -7 Y s 224 106 m -13 Y s 237 100 m -7 Y s 249 100 m -7 Y s 262 100 m -7 Y s 274 100 m -7 Y s 287 106 m -13 Y s 299 100 m -7 Y s 311 100 m -7 Y s 324 100 m -7 Y s 336
 100 m -7 Y s 349 106 m -13 Y s 361 100 m -7 Y s 374 100 m -7 Y s 386 100 m -7 Y s 399 100 m -7 Y s 411 106 m -13 Y s 424 100 m -7 Y s 436 100 m -7 Y s 449 100 m -7 Y s 461 100 m -7 Y s 474 106 m -13 Y s 486 100 m -7 Y s 499 100 m -7 Y s 511 100 m -7
 Y s 524 100 m -7 Y s 536 106 m -13 Y s 549 100 m -7 Y s 561 100 m -7 Y s 574 100 m -7 Y s 586 100 m -7 Y s 599 106 m -13 Y s 611 100 m -7 Y s 624 100 m -7 Y s 636 100 m -7 Y s 649 100 m -7 Y s 661 106 m -13 Y s 162 106 m -13 Y s 149 100 m -7 Y s 661
 106 m -13 Y s 674 100 m -7 Y s 686 100 m -7 Y s 143 521 m 548 X s 162 508 m 13 Y s 174 515 m 6 Y s 187 515 m 6 Y s 199 515 m 6 Y s 212 515 m 6 Y s 224 508 m 13 Y s 237 515 m 6 Y s 249 515 m 6 Y s 262 515 m 6 Y s 274 515 m 6 Y s 287 508 m 13 Y s 299
 515 m 6 Y s 311 515 m 6 Y s 324 515 m 6 Y s 336 515 m 6 Y s 349 508 m 13 Y s 361 515 m 6 Y s 374 515 m 6 Y s 386 515 m 6 Y s 399 515 m 6 Y s 411 508 m 13 Y s 424 515 m 6 Y s 436 515 m 6 Y s 449 515 m 6 Y s 461 515 m 6 Y s 474 508 m 13 Y s 486 515 m
 6 Y s 499 515 m 6 Y s 511 515 m 6 Y s 524 515 m 6 Y s 536 508 m 13 Y s 549 515 m 6 Y s 561 515 m 6 Y s 574 515 m 6 Y s 586 515 m 6 Y s 599 508 m 13 Y s 611 515 m 6 Y s 624 515 m 6 Y s 636 515 m 6 Y s 649 515 m 6 Y s 661 508 m 13 Y s 162 508 m 13 Y s
 149 515 m 6 Y s 661 508 m 13 Y s 674 515 m 6 Y s 686 515 m 6 Y s 143 93 m 428 Y s 160 93 m -17 X s 152 107 m -9 X s 152 120 m -9 X s 152 134 m -9 X s 152 148 m -9 X s 160 161 m -17 X s 152 175 m -9 X s 152 188 m -9 X s 152 202 m -9 X s 152 216 m -9
 X s 160 229 m -17 X s 152 243 m -9 X s 152 256 m -9 X s 152 270 m -9 X s 152 283 m -9 X s 160 297 m -17 X s 152 311 m -9 X s 152 324 m -9 X s 152 338 m -9 X s 152 351 m -9 X s 160 365 m -17 X s 152 379 m -9 X s 152 392 m -9 X s 152 406 m -9 X s 152
 419 m -9 X s 160 433 m -17 X s 152 446 m -9 X s 152 460 m -9 X s 152 474 m -9 X s 152 487 m -9 X s 160 501 m -17 X s 160 501 m -17 X s 152 514 m -9 X s 691 93 m 428 Y s 674 93 m 17 X s 683 107 m 8 X s 683 120 m 8 X s 683 134 m 8 X s 683 148 m 8 X s
 674 161 m 17 X s 683 175 m 8 X s 683 188 m 8 X s 683 202 m 8 X s 683 216 m 8 X s 674 229 m 17 X s 683 243 m 8 X s 683 256 m 8 X s 683 270 m 8 X s 683 283 m 8 X s 674 297 m 17 X s 683 311 m 8 X s 683 324 m 8 X s 683 338 m 8 X s 683 351 m 8 X s 674
 365 m 17 X s 683 379 m 8 X s 683 392 m 8 X s 683 406 m 8 X s 683 419 m 8 X s 674 433 m 17 X s 683 446 m 8 X s 683 460 m 8 X s 683 474 m 8 X s 683 487 m 8 X s 674 501 m 17 X s 674 501 m 17 X s 683 514 m 8 X s
 gsave  710 566 23 12 C 719.017 91.0528 t 90 r /Helvetica-Bold findfont 20.0147 sf 0 0 m (U/O\255flow \(S,B\): \(0.0, 0.0\)% / \(0.0, 0.0\)%) show NC gr  0.490196 0.545098 0.615686 c 0.364706 0.419608 0.490196 c 497 38 30 537 bf 0.490196 0.545098
 0.615686 c 30 537 m 497 X s 527 537 m 38 Y s 527 575 m -497 X s 30 575 m -38 Y s 1 1 1 c black 1 1 1 c
 gsave  710 566 23 12 C 42.7334 552.685 t 0 r /Helvetica-Bold findfont 17.1555 sf 0 0 m (Input variable'Gauss_Deco'\255transformed : GTND_markets) show NC gr  0.490196 0.545098 0.615686 c 0.941176 0.941176 0.941176 c 710 566 779 12 bf black 1 1
 0.992157 c 548 428 899 93 bf black 548 428 899 93 bl 1 1 0.992157 c 548 428 899 93 bf black 548 428 899 93 bl 0 0 0.933333 c 6 lw 0.49 0.6 0.82 c black 3 lw 0.49 0.6 0.82 c 899 93 m 137 X 112 Y 14 X -112 Y 14 X 279 Y 13 X -169 Y 14 X 121 Y 14 X -120
 Y 13 X -56 Y 14 X 171 Y 14 X 54 Y 41 X 109 Y 13 X -56 Y 14 X -333 Y 14 X 55 Y 13 X 1 Y 14 X 57 Y 14 X -56 Y 13 X 55 Y 14 X -112 Y 137 X 61 Y 14 X -61 Y f 6 lw 0 0 0.933333 c 0.49 0.6 0.82 c 0 0 0.933333 c 899 93 m 137 X 112 Y 14 X -112 Y 14 X 279 Y
 13 X -169 Y 14 X 121 Y 14 X -120 Y 13 X -56 Y 14 X 171 Y 14 X 54 Y 41 X 109 Y 13 X -56 Y 14 X -333 Y 14 X 55 Y 13 X 1 Y 14 X 57 Y 14 X -56 Y 13 X 55 Y 14 X -112 Y 137 X 61 Y 14 X s black 3 lw 899 93 m 548 X s
 gsave  710 566 779 12 C 1076.88 25.64 t 0 r /Helvetica findfont 28.5925 sf 0 0 m (GTND_stocks \(Gauss_Deco\)) show NC gr  956 106 m -13 Y s 970 100 m -7 Y s 983 100 m -7 Y s 997 100 m -7 Y s 1010 100 m -7 Y s 1024 106 m -13 Y s 1037 100 m -7 Y s
 1051 100 m -7 Y s 1064 100 m -7 Y s 1078 100 m -7 Y s 1091 106 m -13 Y s 1105 100 m -7 Y s 1118 100 m -7 Y s 1132 100 m -7 Y s 1145 100 m -7 Y s 1159 106 m -13 Y s 1172 100 m -7 Y s 1186 100 m -7 Y s 1199 100 m -7 Y s 1213 100 m -7 Y s 1226 106 m
 -13 Y s 1240 100 m -7 Y s 1253 100 m -7 Y s 1267 100 m -7 Y s 1280 100 m -7 Y s 1294 106 m -13 Y s 1307 100 m -7 Y s 1321 100 m -7 Y s 1334 100 m -7 Y s 1348 100 m -7 Y s 1361 106 m -13 Y s 1375 100 m -7 Y s 1388 100 m -7 Y s 1402 100 m -7 Y s 1415
 100 m -7 Y s 1429 106 m -13 Y s 956 106 m -13 Y s 942 100 m -7 Y s 929 100 m -7 Y s 915 100 m -7 Y s 902 100 m -7 Y s 1429 106 m -13 Y s 1442 100 m -7 Y s
 gsave  710 566 779 12 C 942.983 65.5245 t 0 r /Helvetica findfont 25.7332 sf 0 0 m (\2553) show NC gr 
 gsave  710 566 779 12 C 1011.36 65.5245 t 0 r /Helvetica findfont 25.7332 sf 0 0 m (\2552) show NC gr 
 gsave  710 566 779 12 C 1076.88 65.5245 t 0 r /Helvetica findfont 25.7332 sf 0 0 m (\2551) show NC gr 
 gsave  710 566 779 12 C 1148.1 65.5245 t 0 r /Helvetica findfont 25.7332 sf 0 0 m (0) show NC gr 
 gsave  710 566 779 12 C 1219.32 65.5245 t 0 r /Helvetica findfont 25.7332 sf 0 0 m (1) show NC gr 
 gsave  710 566 779 12 C 1284.85 65.5245 t 0 r /Helvetica findfont 25.7332 sf 0 0 m (2) show NC gr 
 gsave  710 566 779 12 C 1350.37 65.5245 t 0 r /Helvetica findfont 25.7332 sf 0 0 m (3) show NC gr 
 gsave  710 566 779 12 C 1418.75 65.5245 t 0 r /Helvetica findfont 25.7332 sf 0 0 m (4) show NC gr  899 521 m 548 X s 956 508 m 13 Y s 970 515 m 6 Y s 983 515 m 6 Y s 997 515 m 6 Y s 1010 515 m 6 Y s 1024 508 m 13 Y s 1037 515 m 6 Y s 1051 515 m 6 Y
 s 1064 515 m 6 Y s 1078 515 m 6 Y s 1091 508 m 13 Y s 1105 515 m 6 Y s 1118 515 m 6 Y s 1132 515 m 6 Y s 1145 515 m 6 Y s 1159 508 m 13 Y s 1172 515 m 6 Y s 1186 515 m 6 Y s 1199 515 m 6 Y s 1213 515 m 6 Y s 1226 508 m 13 Y s 1240 515 m 6 Y s 1253
 515 m 6 Y s 1267 515 m 6 Y s 1280 515 m 6 Y s 1294 508 m 13 Y s 1307 515 m 6 Y s 1321 515 m 6 Y s 1334 515 m 6 Y s 1348 515 m 6 Y s 1361 508 m 13 Y s 1375 515 m 6 Y s 1388 515 m 6 Y s 1402 515 m 6 Y s 1415 515 m 6 Y s 1429 508 m 13 Y s 956 508 m 13
 Y s 942 515 m 6 Y s 929 515 m 6 Y s 915 515 m 6 Y s 902 515 m 6 Y s 1429 508 m 13 Y s 1442 515 m 6 Y s 899 93 m 428 Y s
 gsave  710 566 779 12 C 803.387 441.578 t 90 r /Helvetica findfont 28.5925 sf 0 0 m (0.202 ) show NC gr 
 gsave  710 566 779 12 C 789.143 435.88 t 90 r /Helvetica findfont 20.0147 sf 0 0 m ( ) show NC gr 
 gsave  710 566 779 12 C 803.387 424.485 t 90 r /Helvetica findfont 28.5925 sf 0 0 m (/) show NC gr 
 gsave  710 566 779 12 C 811.934 418.787 t 90 r /Helvetica findfont 20.0147 sf 0 0 m ( ) show NC gr 
 gsave  710 566 779 12 C 803.387 310.529 t 90 r /Helvetica findfont 28.5925 sf 0 0 m (\(1/N\) dN) show NC gr  915 93 m -16 X s 907 106 m -8 X s 907 119 m -8 X s 907 131 m -8 X s 907 144 m -8 X s 915 157 m -16 X s 907 169 m -8 X s 907 182 m -8 X s 907
 195 m -8 X s 907 208 m -8 X s 915 220 m -16 X s 907 233 m -8 X s 907 246 m -8 X s 907 258 m -8 X s 907 271 m -8 X s 915 284 m -16 X s 907 296 m -8 X s 907 309 m -8 X s 907 322 m -8 X s 907 334 m -8 X s 915 347 m -16 X s 907 360 m -8 X s 907 373 m -8
 X s 907 385 m -8 X s 907 398 m -8 X s 915 411 m -16 X s 907 423 m -8 X s 907 436 m -8 X s 907 449 m -8 X s 907 461 m -8 X s 915 474 m -16 X s 915 474 m -16 X s 907 487 m -8 X s 907 500 m -8 X s 907 512 m -8 X s
 gsave  710 566 779 12 C 874.609 82.6178 t 0 r /Helvetica findfont 25.7332 sf 0 0 m (0) show NC gr 
 gsave  710 566 779 12 C 857.516 148.142 t 0 r /Helvetica findfont 25.7332 sf 0 0 m (0.1) show NC gr 
 gsave  710 566 779 12 C 851.818 210.818 t 0 r /Helvetica findfont 25.7332 sf 0 0 m (0.2) show NC gr 
 gsave  710 566 779 12 C 851.818 273.493 t 0 r /Helvetica findfont 25.7332 sf 0 0 m (0.3) show NC gr 
 gsave  710 566 779 12 C 851.818 336.169 t 0 r /Helvetica findfont 25.7332 sf 0 0 m (0.4) show NC gr 
 gsave  710 566 779 12 C 851.818 401.694 t 0 r /Helvetica findfont 25.7332 sf 0 0 m (0.5) show NC gr 
 gsave  710 566 779 12 C 851.818 464.369 t 0 r /Helvetica findfont 25.7332 sf 0 0 m (0.6) show NC gr  1447 93 m 428 Y s 1430 93 m 17 X s 1438 106 m 9 X s 1438 119 m 9 X s 1438 131 m 9 X s 1438 144 m 9 X s 1430 157 m 17 X s 1438 169 m 9 X s 1438 182 m
 9 X s 1438 195 m 9 X s 1438 208 m 9 X s 1430 220 m 17 X s 1438 233 m 9 X s 1438 246 m 9 X s 1438 258 m 9 X s 1438 271 m 9 X s 1430 284 m 17 X s 1438 296 m 9 X s 1438 309 m 9 X s 1438 322 m 9 X s 1438 334 m 9 X s 1430 347 m 17 X s 1438 360 m 9 X s
 1438 373 m 9 X s 1438 385 m 9 X s 1438 398 m 9 X s 1430 411 m 17 X s 1438 423 m 9 X s 1438 436 m 9 X s 1438 449 m 9 X s 1438 461 m 9 X s 1430 474 m 17 X s 1430 474 m 17 X s 1438 487 m 9 X s 1438 500 m 9 X s 1438 512 m 9 X s 1 0 0 c 6 lw black 3 lw 1
 0 0 c 1433 93 m s 1418 93 m s 1403 93 m s 1388 93 m s 1372 93 m s 1357 93 m s 1342 93 m s 1327 93 m s 1312 93 m s 1297 93 m s 1282 94 m -1 Y s 1282 109 m -15 -16 d s 1282 124 m -30 -31 d s 1282 139 m -45 -46 d s 1282 154 m -60 -61 d s 1282 169 m -75
 -76 d s 1282 184 m -90 -91 d s 1282 199 m -13 -13 d s 1256 173 m -80 -80 d s 1282 215 m -13 -14 d s 1255 187 m -14 -14 d s 1241 173 m -80 -80 d s 1282 230 m -13 -14 d s 1255 202 m -14 -13 d s 1228 175 m -82 -82 d s 1282 245 m -13 -14 d s 1251 213 m
 -10 -9 d s 1228 190 m -97 -97 d s 1282 260 m -13 -14 d s 1228 205 m -112 -112 d s 1282 275 m -13 -14 d s 1228 220 m -127 -127 d s 1282 290 m -13 -14 d s 1228 235 m -142 -142 d s 1273 296 m -4 -5 d s 1228 250 m -157 -157 d s 1219 256 m -163 -163 d s
 1214 267 m -41 -41 d s 1160 213 m -119 -120 d s 1214 282 m -27 -27 d s 1186 254 m -13 -13 d s 1159 227 m -123 -123 d s 1026 93 m s 1214 297 m -27 -27 d s 1159 242 m -95 -96 d s 1051 134 m -15 -15 d s 1011 93 m s 1214 312 m -27 -27 d s 1159 257 m -95
 -96 d s 1050 148 m -14 -14 d s 1009 107 m -13 -14 d s 1214 327 m -27 -27 d s 1159 272 m -13 -13 d s 1140 253 m -76 -77 d s 1050 163 m -14 -14 d s 1009 122 m -14 -14 d s 981 93 m s 1205 334 m -18 -19 d s 1159 288 m -13 -14 d s 1132 260 m -41 -41 d s
 1087 215 m -23 -23 d s 1050 178 m -14 -14 d s 1006 134 m -11 -11 d s 965 93 m cl s 1190 333 m -3 -3 d s 1159 303 m -13 -14 d s 1132 275 m -41 -41 d s 1071 214 m -7 -7 d s 1050 193 m -14 -14 d s 950 93 m s 1159 318 m -13 -14 d s 1132 290 m -27 -27 d
 s 1097 256 m -6 -7 d s 1050 208 m -14 -14 d s 935 93 m cl s 1159 333 m -13 -14 d s 1132 305 m -27 -27 d s 1041 214 m -5 -5 d s 920 93 m s 1159 348 m -13 -14 d s 1132 321 m -27 -28 d s 905 93 m s 1159 363 m -13 -14 d s 1132 336 m -27 -28 d s 1159 378
 m -13 -14 d s 1132 351 m -27 -28 d s 1159 393 m -13 -13 d s 1132 366 m -27 -28 d s 1159 408 m -13 -13 d s 1132 381 m -27 -27 d s 1159 423 m -13 -13 d s 1132 396 m -14 -14 d s 1109 373 m -4 -4 d s 1159 439 m -13 -14 d s 1132 411 m -14 -14 d s 1159
 453 m -13 -13 d s 1122 416 m -4 -3 d s 6 lw 899 93 m 96 X 41 Y 14 X -41 Y 27 X 121 Y 14 X -80 Y 14 X 80 Y 13 X 1 Y 14 X 41 Y 14 X 117 Y 13 X 43 Y 14 X -163 Y 14 X 200 Y 13 X -240 Y 14 X 41 Y 14 X 79 Y 13 X 1 Y 14 X -78 Y 14 X -83 Y 13 X 40 Y 14 X
 -40 Y 14 X 123 Y 13 X -203 Y 165 X s black 3 lw 899 93 m 548 X s 956 106 m -13 Y s 970 100 m -7 Y s 983 100 m -7 Y s 997 100 m -7 Y s 1010 100 m -7 Y s 1024 106 m -13 Y s 1037 100 m -7 Y s 1051 100 m -7 Y s 1064 100 m -7 Y s 1078 100 m -7 Y s 1091
 106 m -13 Y s 1105 100 m -7 Y s 1118 100 m -7 Y s 1132 100 m -7 Y s 1145 100 m -7 Y s 1159 106 m -13 Y s 1172 100 m -7 Y s 1186 100 m -7 Y s 1199 100 m -7 Y s 1213 100 m -7 Y s 1226 106 m -13 Y s 1240 100 m -7 Y s 1253 100 m -7 Y s 1267 100 m -7 Y s
 1280 100 m -7 Y s 1294 106 m -13 Y s 1307 100 m -7 Y s 1321 100 m -7 Y s 1334 100 m -7 Y s 1348 100 m -7 Y s 1361 106 m -13 Y s 1375 100 m -7 Y s 1388 100 m -7 Y s 1402 100 m -7 Y s 1415 100 m -7 Y s 1429 106 m -13 Y s 956 106 m -13 Y s 942 100 m -7
 Y s 929 100 m -7 Y s 915 100 m -7 Y s 902 100 m -7 Y s 1429 106 m -13 Y s 1442 100 m -7 Y s 899 521 m 548 X s 956 508 m 13 Y s 970 515 m 6 Y s 983 515 m 6 Y s 997 515 m 6 Y s 1010 515 m 6 Y s 1024 508 m 13 Y s 1037 515 m 6 Y s 1051 515 m 6 Y s 1064
 515 m 6 Y s 1078 515 m 6 Y s 1091 508 m 13 Y s 1105 515 m 6 Y s 1118 515 m 6 Y s 1132 515 m 6 Y s 1145 515 m 6 Y s 1159 508 m 13 Y s 1172 515 m 6 Y s 1186 515 m 6 Y s 1199 515 m 6 Y s 1213 515 m 6 Y s 1226 508 m 13 Y s 1240 515 m 6 Y s 1253 515 m 6
 Y s 1267 515 m 6 Y s 1280 515 m 6 Y s 1294 508 m 13 Y s 1307 515 m 6 Y s 1321 515 m 6 Y s 1334 515 m 6 Y s 1348 515 m 6 Y s 1361 508 m 13 Y s 1375 515 m 6 Y s 1388 515 m 6 Y s 1402 515 m 6 Y s 1415 515 m 6 Y s 1429 508 m 13 Y s 956 508 m 13 Y s 942
 515 m 6 Y s 929 515 m 6 Y s 915 515 m 6 Y s 902 515 m 6 Y s 1429 508 m 13 Y s 1442 515 m 6 Y s 899 93 m 428 Y s 915 93 m -16 X s 907 106 m -8 X s 907 119 m -8 X s 907 131 m -8 X s 907 144 m -8 X s 915 157 m -16 X s 907 169 m -8 X s 907 182 m -8 X s
 907 195 m -8 X s 907 208 m -8 X s 915 220 m -16 X s 907 233 m -8 X s 907 246 m -8 X s 907 258 m -8 X s 907 271 m -8 X s 915 284 m -16 X s 907 296 m -8 X s 907 309 m -8 X s 907 322 m -8 X s 907 334 m -8 X s 915 347 m -16 X s 907 360 m -8 X s 907 373
 m -8 X s 907 385 m -8 X s 907 398 m -8 X s 915 411 m -16 X s 907 423 m -8 X s 907 436 m -8 X s 907 449 m -8 X s 907 461 m -8 X s 915 474 m -16 X s 915 474 m -16 X s 907 487 m -8 X s 907 500 m -8 X s 907 512 m -8 X s 1447 93 m 428 Y s 1430 93 m 17 X
 s 1438 106 m 9 X s 1438 119 m 9 X s 1438 131 m 9 X s 1438 144 m 9 X s 1430 157 m 17 X s 1438 169 m 9 X s 1438 182 m 9 X s 1438 195 m 9 X s 1438 208 m 9 X s 1430 220 m 17 X s 1438 233 m 9 X s 1438 246 m 9 X s 1438 258 m 9 X s 1438 271 m 9 X s 1430
 284 m 17 X s 1438 296 m 9 X s 1438 309 m 9 X s 1438 322 m 9 X s 1438 334 m 9 X s 1430 347 m 17 X s 1438 360 m 9 X s 1438 373 m 9 X s 1438 385 m 9 X s 1438 398 m 9 X s 1430 411 m 17 X s 1438 423 m 9 X s 1438 436 m 9 X s 1438 449 m 9 X s 1438 461 m 9
 X s 1430 474 m 17 X s 1430 474 m 17 X s 1438 487 m 9 X s 1438 500 m 9 X s 1438 512 m 9 X s
 gsave  710 566 779 12 C 1474.92 91.0528 t 90 r /Helvetica-Bold findfont 20.0147 sf 0 0 m (U/O\255flow \(S,B\): \(0.0, 0.0\)% / \(0.0, 0.0\)%) show NC gr  0.490196 0.545098 0.615686 c 0.364706 0.419608 0.490196 c 497 38 786 537 bf 0.490196 0.545098
 0.615686 c 786 537 m 497 X s 1283 537 m 38 Y s 1283 575 m -497 X s 786 575 m -38 Y s 1 1 1 c black 1 1 1 c
 gsave  710 566 779 12 C 806.236 552.685 t 0 r /Helvetica-Bold findfont 17.1555 sf 0 0 m (Input variable'Gauss_Deco'\255transformed : GTND_stocks) show NC gr  0.490196 0.545098 0.615686 c 0.941176 0.941176 0.941176 c 711 566 1534 12 bf black 1 1
 0.992157 c 547 428 1655 93 bf black 547 428 1655 93 bl 1 1 0.992157 c 547 428 1655 93 bf black 547 428 1655 93 bl 0 0 0.933333 c 6 lw 0.49 0.6 0.82 c black 3 lw 0.49 0.6 0.82 c 1655 93 m 110 X 40 Y 13 X -40 Y 14 X 84 Y 14 X -84 Y 13 X 116 Y 14 X -77
 Y 14 X 158 Y 13 X 192 Y 14 X -155 Y 14 X -39 Y 13 X 76 Y 14 X -193 Y 14 X 116 Y 14 X -116 Y 13 X 38 Y 14 X -35 Y 14 X -2 Y 13 X -79 Y 205 X f 6 lw 0 0 0.933333 c 0.49 0.6 0.82 c 0 0 0.933333 c 1655 93 m 110 X 40 Y 13 X -40 Y 14 X 84 Y 14 X -84 Y 13
 X 116 Y 14 X -77 Y 14 X 158 Y 13 X 192 Y 14 X -155 Y 14 X -39 Y 13 X 76 Y 14 X -193 Y 14 X 116 Y 14 X -116 Y 13 X 38 Y 14 X -35 Y 14 X -2 Y 13 X -79 Y 205 X s black 3 lw 1655 93 m 547 X s
 gsave  711 566 1534 12 C 1817.59 25.64 t 0 r /Helvetica findfont 28.5925 sf 0 0 m (GTND_terrorist \(Gauss_Deco\)) show NC gr  1667 106 m -13 Y s 1679 100 m -7 Y s 1690 100 m -7 Y s 1701 100 m -7 Y s 1713 100 m -7 Y s 1724 106 m -13 Y s 1735 100 m -7
 Y s 1747 100 m -7 Y s 1758 100 m -7 Y s 1769 100 m -7 Y s 1780 106 m -13 Y s 1792 100 m -7 Y s 1803 100 m -7 Y s 1814 100 m -7 Y s 1826 100 m -7 Y s 1837 106 m -13 Y s 1848 100 m -7 Y s 1860 100 m -7 Y s 1871 100 m -7 Y s 1882 100 m -7 Y s 1894 106
 m -13 Y s 1905 100 m -7 Y s 1916 100 m -7 Y s 1927 100 m -7 Y s 1939 100 m -7 Y s 1950 106 m -13 Y s 1961 100 m -7 Y s 1973 100 m -7 Y s 1984 100 m -7 Y s 1995 100 m -7 Y s 2007 106 m -13 Y s 2018 100 m -7 Y s 2029 100 m -7 Y s 2041 100 m -7 Y s
 2052 100 m -7 Y s 2063 106 m -13 Y s 2075 100 m -7 Y s 2086 100 m -7 Y s 2097 100 m -7 Y s 2108 100 m -7 Y s 2120 106 m -13 Y s 2131 100 m -7 Y s 2142 100 m -7 Y s 2154 100 m -7 Y s 2165 100 m -7 Y s 2176 106 m -13 Y s 1667 106 m -13 Y s 1656 100 m
 -7 Y s 2176 106 m -13 Y s 2188 100 m -7 Y s 2199 100 m -7 Y s
 gsave  711 566 1534 12 C 1655.21 65.5245 t 0 r /Helvetica findfont 25.7332 sf 0 0 m (\2554) show NC gr 
 gsave  711 566 1534 12 C 1712.18 65.5245 t 0 r /Helvetica findfont 25.7332 sf 0 0 m (\2553) show NC gr 
 gsave  711 566 1534 12 C 1766.31 65.5245 t 0 r /Helvetica findfont 25.7332 sf 0 0 m (\2552) show NC gr 
 gsave  711 566 1534 12 C 1823.29 65.5245 t 0 r /Helvetica findfont 25.7332 sf 0 0 m (\2551) show NC gr 
 gsave  711 566 1534 12 C 1883.12 65.5245 t 0 r /Helvetica findfont 25.7332 sf 0 0 m (0) show NC gr 
 gsave  711 566 1534 12 C 1942.94 65.5245 t 0 r /Helvetica findfont 25.7332 sf 0 0 m (1) show NC gr 
 gsave  711 566 1534 12 C 1997.07 65.5245 t 0 r /Helvetica findfont 25.7332 sf 0 0 m (2) show NC gr 
 gsave  711 566 1534 12 C 2054.05 65.5245 t 0 r /Helvetica findfont 25.7332 sf 0 0 m (3) show NC gr 
 gsave  711 566 1534 12 C 2111.03 65.5245 t 0 r /Helvetica findfont 25.7332 sf 0 0 m (4) show NC gr 
 gsave  711 566 1534 12 C 2165.16 65.5245 t 0 r /Helvetica findfont 25.7332 sf 0 0 m (5) show NC gr  1655 521 m 547 X s 1667 508 m 13 Y s 1679 515 m 6 Y s 1690 515 m 6 Y s 1701 515 m 6 Y s 1713 515 m 6 Y s 1724 508 m 13 Y s 1735 515 m 6 Y s 1747 515
 m 6 Y s 1758 515 m 6 Y s 1769 515 m 6 Y s 1780 508 m 13 Y s 1792 515 m 6 Y s 1803 515 m 6 Y s 1814 515 m 6 Y s 1826 515 m 6 Y s 1837 508 m 13 Y s 1848 515 m 6 Y s 1860 515 m 6 Y s 1871 515 m 6 Y s 1882 515 m 6 Y s 1894 508 m 13 Y s 1905 515 m 6 Y s
 1916 515 m 6 Y s 1927 515 m 6 Y s 1939 515 m 6 Y s 1950 508 m 13 Y s 1961 515 m 6 Y s 1973 515 m 6 Y s 1984 515 m 6 Y s 1995 515 m 6 Y s 2007 508 m 13 Y s 2018 515 m 6 Y s 2029 515 m 6 Y s 2041 515 m 6 Y s 2052 515 m 6 Y s 2063 508 m 13 Y s 2075 515
 m 6 Y s 2086 515 m 6 Y s 2097 515 m 6 Y s 2108 515 m 6 Y s 2120 508 m 13 Y s 2131 515 m 6 Y s 2142 515 m 6 Y s 2154 515 m 6 Y s 2165 515 m 6 Y s 2176 508 m 13 Y s 1667 508 m 13 Y s 1656 515 m 6 Y s 2176 508 m 13 Y s 2188 515 m 6 Y s 2199 515 m 6 Y s
 1655 93 m 428 Y s
 gsave  711 566 1534 12 C 1558.34 441.578 t 90 r /Helvetica findfont 28.5925 sf 0 0 m (0.242 ) show NC gr 
 gsave  711 566 1534 12 C 1544.1 435.88 t 90 r /Helvetica findfont 20.0147 sf 0 0 m ( ) show NC gr 
 gsave  711 566 1534 12 C 1558.34 424.485 t 90 r /Helvetica findfont 28.5925 sf 0 0 m (/) show NC gr 
 gsave  711 566 1534 12 C 1566.89 418.787 t 90 r /Helvetica findfont 20.0147 sf 0 0 m ( ) show NC gr 
 gsave  711 566 1534 12 C 1558.34 310.529 t 90 r /Helvetica findfont 28.5925 sf 0 0 m (\(1/N\) dN) show NC gr  1671 93 m -16 X s 1663 104 m -8 X s 1663 114 m -8 X s 1663 125 m -8 X s 1663 136 m -8 X s 1671 146 m -16 X s 1663 157 m -8 X s 1663 167 m
 -8 X s 1663 178 m -8 X s 1663 188 m -8 X s 1671 199 m -16 X s 1663 210 m -8 X s 1663 220 m -8 X s 1663 231 m -8 X s 1663 241 m -8 X s 1671 252 m -16 X s 1663 262 m -8 X s 1663 273 m -8 X s 1663 284 m -8 X s 1663 294 m -8 X s 1671 305 m -16 X s 1663
 315 m -8 X s 1663 326 m -8 X s 1663 336 m -8 X s 1663 347 m -8 X s 1671 358 m -16 X s 1663 368 m -8 X s 1663 379 m -8 X s 1663 389 m -8 X s 1663 400 m -8 X s 1671 410 m -16 X s 1663 421 m -8 X s 1663 431 m -8 X s 1663 442 m -8 X s 1663 453 m -8 X s
 1671 463 m -16 X s 1663 474 m -8 X s 1663 484 m -8 X s 1663 495 m -8 X s 1663 505 m -8 X s 1671 516 m -16 X s 1671 516 m -16 X s
 gsave  711 566 1534 12 C 1632.41 82.6178 t 0 r /Helvetica findfont 25.7332 sf 0 0 m (0) show NC gr 
 gsave  711 566 1534 12 C 1615.32 136.747 t 0 r /Helvetica findfont 25.7332 sf 0 0 m (0.1) show NC gr 
 gsave  711 566 1534 12 C 1609.62 188.027 t 0 r /Helvetica findfont 25.7332 sf 0 0 m (0.2) show NC gr 
 gsave  711 566 1534 12 C 1609.62 242.156 t 0 r /Helvetica findfont 25.7332 sf 0 0 m (0.3) show NC gr 
 gsave  711 566 1534 12 C 1609.62 293.436 t 0 r /Helvetica findfont 25.7332 sf 0 0 m (0.4) show NC gr 
 gsave  711 566 1534 12 C 1609.62 347.565 t 0 r /Helvetica findfont 25.7332 sf 0 0 m (0.5) show NC gr 
 gsave  711 566 1534 12 C 1609.62 401.694 t 0 r /Helvetica findfont 25.7332 sf 0 0 m (0.6) show NC gr 
 gsave  711 566 1534 12 C 1609.62 452.974 t 0 r /Helvetica findfont 25.7332 sf 0 0 m (0.7) show NC gr 
 gsave  711 566 1534 12 C 1609.62 507.102 t 0 r /Helvetica findfont 25.7332 sf 0 0 m (0.8) show NC gr  2202 93 m 428 Y s 2186 93 m 16 X s 2194 104 m 8 X s 2194 114 m 8 X s 2194 125 m 8 X s 2194 136 m 8 X s 2186 146 m 16 X s 2194 157 m 8 X s 2194 167
 m 8 X s 2194 178 m 8 X s 2194 188 m 8 X s 2186 199 m 16 X s 2194 210 m 8 X s 2194 220 m 8 X s 2194 231 m 8 X s 2194 241 m 8 X s 2186 252 m 16 X s 2194 262 m 8 X s 2194 273 m 8 X s 2194 284 m 8 X s 2194 294 m 8 X s 2186 305 m 16 X s 2194 315 m 8 X s
 2194 326 m 8 X s 2194 336 m 8 X s 2194 347 m 8 X s 2186 358 m 16 X s 2194 368 m 8 X s 2194 379 m 8 X s 2194 389 m 8 X s 2194 400 m 8 X s 2186 410 m 16 X s 2194 421 m 8 X s 2194 431 m 8 X s 2194 442 m 8 X s 2194 453 m 8 X s 2186 463 m 16 X s 2194 474
 m 8 X s 2194 484 m 8 X s 2194 495 m 8 X s 2194 505 m 8 X s 2186 516 m 16 X s 2186 516 m 16 X s 1 0 0 c 6 lw black 3 lw 1 0 0 c 2202 108 m -13 -14 d s 2188 93 m s 2201 121 m -12 -12 d s 2173 93 m s 2158 93 m s 2143 93 m s 2128 93 m s 2113 93 m s 2098
 93 m s 2083 93 m s 2068 93 m s 2053 93 m s 2038 94 m -1 Y s 2038 109 m -13 -14 d s 2022 93 m s 2035 121 m -10 -10 d s 2011 97 m -4 -4 d s 2011 112 m -14 -14 d s 1992 93 m s 2011 127 m -14 -14 d s 1984 100 m -7 -7 d s 2011 142 m -14 -13 d s 1984 115
 m -22 -22 d s 2004 150 m -7 -6 d s 1975 122 m -28 -29 d s 1970 131 m -38 -38 d s 1970 147 m -53 -54 d s 1970 162 m -68 -69 d s 1970 177 m -83 -84 d s 1970 192 m -98 -99 d s 1968 205 m -12 -12 d s 1943 180 m -86 -87 d s 1943 195 m -101 -102 d s 1943
 210 m -83 -83 d s 1854 121 m -27 -28 d s 1943 225 m -14 -14 d s 1922 204 m -62 -61 d s 1847 129 m -36 -36 d s 1943 240 m -14 -13 d s 1915 213 m -55 -55 d s 1847 144 m -51 -51 d s 1943 255 m -14 -13 d s 1915 228 m -55 -55 d s 1847 159 m -28 -27 d s
 1809 122 m -28 -29 d s 1943 271 m -14 -14 d s 1915 243 m -55 -55 d s 1847 174 m -28 -27 d s 1794 121 m -16 -15 d s 1766 93 m s 1943 286 m -14 -14 d s 1915 258 m -55 -55 d s 1847 189 m -28 -27 d s 1779 121 m -1 X s 1751 93 m s 1930 289 m -1 -2 d s
 1915 273 m -55 -55 d s 1847 205 m -14 -14 d s 1821 179 m -2 -2 d s 1736 93 m s 1915 289 m -14 -14 d s 1889 262 m -29 -28 d s 1847 220 m -14 -14 d s 1721 93 m s 1915 304 m -14 -14 d s 1888 276 m -28 -27 d s 1847 235 m -14 -14 d s 1706 93 m s 1915 319
 m -14 -14 d s 1888 291 m -28 -27 d s 1847 250 m -14 -14 d s 1691 93 m s 1915 334 m -14 -14 d s 1888 307 m -28 -28 d s 1847 265 m -14 -13 d s 1676 93 m s 1915 349 m -14 -13 d s 1888 322 m -28 -28 d s 1847 280 m -14 -13 d s 1669 102 m -8 -9 d s 1915
 364 m -14 -13 d s 1888 337 m -14 -14 d s 1870 319 m -10 -10 d s 1847 296 m -14 -14 d s 1669 117 m -14 -14 d s 1915 380 m -14 -14 d s 1888 352 m -14 -14 d s 1847 311 m -14 -14 d s 1658 121 m -3 -3 d s 1915 395 m -14 -14 d s 1888 367 m -14 -14 d s
 1838 317 m -5 -5 d s 1915 410 m -14 -14 d s 1888 382 m -14 -13 d s 1915 425 m -14 -14 d s 1888 398 m -14 -14 d s 1902 427 m -1 -1 d s 1888 413 m -14 -14 d s 1888 428 m -14 -14 d s 1888 443 m -14 -14 d s 1886 456 m -12 -12 d s 6 lw 1655 121 m 14 X
 -28 Y 109 X 28 Y 28 X 1 Y 13 X 57 Y 14 X 138 Y 14 X -196 Y 13 X 198 Y 14 X 137 Y 14 X -194 Y 13 X 165 Y 14 X -223 Y 14 X 85 Y 14 X -110 Y 13 X 26 Y 14 X -83 Y 14 X -29 Y 13 X 57 Y 14 X -57 Y 14 X 28 Y 13 X -28 Y 151 X 28 Y 13 X s black 3 lw 1655 93
 m 547 X s 1667 106 m -13 Y s 1679 100 m -7 Y s 1690 100 m -7 Y s 1701 100 m -7 Y s 1713 100 m -7 Y s 1724 106 m -13 Y s 1735 100 m -7 Y s 1747 100 m -7 Y s 1758 100 m -7 Y s 1769 100 m -7 Y s 1780 106 m -13 Y s 1792 100 m -7 Y s 1803 100 m -7 Y s
 1814 100 m -7 Y s 1826 100 m -7 Y s 1837 106 m -13 Y s 1848 100 m -7 Y s 1860 100 m -7 Y s 1871 100 m -7 Y s 1882 100 m -7 Y s 1894 106 m -13 Y s 1905 100 m -7 Y s 1916 100 m -7 Y s 1927 100 m -7 Y s 1939 100 m -7 Y s 1950 106 m -13 Y s 1961 100 m
 -7 Y s 1973 100 m -7 Y s 1984 100 m -7 Y s 1995 100 m -7 Y s 2007 106 m -13 Y s 2018 100 m -7 Y s 2029 100 m -7 Y s 2041 100 m -7 Y s 2052 100 m -7 Y s 2063 106 m -13 Y s 2075 100 m -7 Y s 2086 100 m -7 Y s 2097 100 m -7 Y s 2108 100 m -7 Y s 2120
 106 m -13 Y s 2131 100 m -7 Y s 2142 100 m -7 Y s 2154 100 m -7 Y s 2165 100 m -7 Y s 2176 106 m -13 Y s 1667 106 m -13 Y s 1656 100 m -7 Y s 2176 106 m -13 Y s 2188 100 m -7 Y s 2199 100 m -7 Y s 1655 521 m 547 X s 1667 508 m 13 Y s 1679 515 m 6 Y
 s 1690 515 m 6 Y s 1701 515 m 6 Y s 1713 515 m 6 Y s 1724 508 m 13 Y s 1735 515 m 6 Y s 1747 515 m 6 Y s 1758 515 m 6 Y s 1769 515 m 6 Y s 1780 508 m 13 Y s 1792 515 m 6 Y s 1803 515 m 6 Y s 1814 515 m 6 Y s 1826 515 m 6 Y s 1837 508 m 13 Y s 1848
 515 m 6 Y s 1860 515 m 6 Y s 1871 515 m 6 Y s 1882 515 m 6 Y s 1894 508 m 13 Y s 1905 515 m 6 Y s 1916 515 m 6 Y s 1927 515 m 6 Y s 1939 515 m 6 Y s 1950 508 m 13 Y s 1961 515 m 6 Y s 1973 515 m 6 Y s 1984 515 m 6 Y s 1995 515 m 6 Y s 2007 508 m 13
 Y s 2018 515 m 6 Y s 2029 515 m 6 Y s 2041 515 m 6 Y s 2052 515 m 6 Y s 2063 508 m 13 Y s 2075 515 m 6 Y s 2086 515 m 6 Y s 2097 515 m 6 Y s 2108 515 m 6 Y s 2120 508 m 13 Y s 2131 515 m 6 Y s 2142 515 m 6 Y s 2154 515 m 6 Y s 2165 515 m 6 Y s 2176
 508 m 13 Y s 1667 508 m 13 Y s 1656 515 m 6 Y s 2176 508 m 13 Y s 2188 515 m 6 Y s 2199 515 m 6 Y s 1655 93 m 428 Y s 1671 93 m -16 X s 1663 104 m -8 X s 1663 114 m -8 X s 1663 125 m -8 X s 1663 136 m -8 X s 1671 146 m -16 X s 1663 157 m -8 X s 1663
 167 m -8 X s 1663 178 m -8 X s 1663 188 m -8 X s 1671 199 m -16 X s 1663 210 m -8 X s 1663 220 m -8 X s 1663 231 m -8 X s 1663 241 m -8 X s 1671 252 m -16 X s 1663 262 m -8 X s 1663 273 m -8 X s 1663 284 m -8 X s 1663 294 m -8 X s 1671 305 m -16 X s
 1663 315 m -8 X s 1663 326 m -8 X s 1663 336 m -8 X s 1663 347 m -8 X s 1671 358 m -16 X s 1663 368 m -8 X s 1663 379 m -8 X s 1663 389 m -8 X s 1663 400 m -8 X s 1671 410 m -16 X s 1663 421 m -8 X s 1663 431 m -8 X s 1663 442 m -8 X s 1663 453 m -8
 X s 1671 463 m -16 X s 1663 474 m -8 X s 1663 484 m -8 X s 1663 495 m -8 X s 1663 505 m -8 X s 1671 516 m -16 X s 1671 516 m -16 X s 2202 93 m 428 Y s 2186 93 m 16 X s 2194 104 m 8 X s 2194 114 m 8 X s 2194 125 m 8 X s 2194 136 m 8 X s 2186 146 m 16
 X s 2194 157 m 8 X s 2194 167 m 8 X s 2194 178 m 8 X s 2194 188 m 8 X s 2186 199 m 16 X s 2194 210 m 8 X s 2194 220 m 8 X s 2194 231 m 8 X s 2194 241 m 8 X s 2186 252 m 16 X s 2194 262 m 8 X s 2194 273 m 8 X s 2194 284 m 8 X s 2194 294 m 8 X s 2186
 305 m 16 X s 2194 315 m 8 X s 2194 326 m 8 X s 2194 336 m 8 X s 2194 347 m 8 X s 2186 358 m 16 X s 2194 368 m 8 X s 2194 379 m 8 X s 2194 389 m 8 X s 2194 400 m 8 X s 2186 410 m 16 X s 2194 421 m 8 X s 2194 431 m 8 X s 2194 442 m 8 X s 2194 453 m 8
 X s 2186 463 m 16 X s 2194 474 m 8 X s 2194 484 m 8 X s 2194 495 m 8 X s 2194 505 m 8 X s 2186 516 m 16 X s 2186 516 m 16 X s
 gsave  711 566 1534 12 C 2230.83 91.0528 t 90 r /Helvetica-Bold findfont 20.0147 sf 0 0 m (U/O\255flow \(S,B\): \(0.0, 0.0\)% / \(0.0, 0.0\)%) show NC gr  0.490196 0.545098 0.615686 c 0.364706 0.419608 0.490196 c 497 38 1542 537 bf 0.490196 0.545098
 0.615686 c 1542 537 m 497 X s 2039 537 m 38 Y s 2039 575 m -497 X s 1542 575 m -38 Y s 1 1 1 c black 1 1 1 c
 gsave  711 566 1534 12 C 1555.49 552.685 t 0 r /Helvetica-Bold findfont 17.1555 sf 0 0 m (Input variable'Gauss_Deco'\255transformed : GTND_terrorist) show NC gr 
 gr  gr showpage
end
%%EOF
