%!PS-Adobe-2.0 EPSF-2.0
%%BoundingBox:  0 0 567 295
%%Title: plots/variables_pca_c1.eps: Input variables 'PCA'-transformed (training sample)
%%Creator: ROOT Version 5.34/09
%%CreationDate: Sat Jan  4 23:53:43 2014
%%EndComments
%%BeginProlog
80 dict begin
/s {stroke} def /l {lineto} def /m {moveto} def /t {translate} def
/r {rotate} def /rl {roll}  def /R {repeat} def
/d {rlineto} def /rm {rmoveto} def /gr {grestore} def /f {eofill} def
/c {setrgbcolor} def /black {0 setgray} def /sd {setdash} def
/cl {closepath} def /sf {scalefont setfont} def /lw {setlinewidth} def
/box {m dup 0 exch d exch 0 d 0 exch neg d cl} def
/NC{systemdict begin initclip end}def/C{NC box clip newpath}def
/bl {box s} def /bf {box f} def /Y { 0 exch d} def /X { 0 d} def 
/K {{pop pop 0 moveto} exch kshow} bind def
/ita {/ang 15 def gsave [1 0 ang dup sin exch cos div 1 0 0] concat} def 
/mp {newpath /y exch def /x exch def} def
/side {[w .77 mul w .23 mul] .385 w mul sd w 0 l currentpoint t -144 r} def
/mr {mp x y w2 0 360 arc} def /m24 {mr s} def /m20 {mr f} def
/mb {mp x y w2 add m w2 neg 0 d 0 w neg d w 0 d 0 w d cl} def
/mt {mp x y w2 add m w2 neg w neg d w 0 d cl} def
/m21 {mb f} def /m25 {mb s} def /m22 {mt f} def /m26{mt s} def
/m23 {mp x y w2 sub m w2 w d w neg 0 d cl f} def
/m27 {mp x y w2 add m w3 neg w2 neg d w3 w2 neg d w3 w2 d cl s} def
/m28 {mp x w2 sub y w2 sub w3 add m w3 0 d  0 w3 neg d w3 0 d 0 w3 d w3 0 d  0 w3 d w3 neg 0 d 0 w3 d w3 neg 0 d 0 w3 neg d w3 neg 0 d cl s } def
/m29 {mp gsave x w2 sub y w2 add w3 sub m currentpoint t 4 {side} repeat cl fill gr} def
/m30 {mp gsave x w2 sub y w2 add w3 sub m currentpoint t 4 {side} repeat cl s gr} def
/m31 {mp x y w2 sub m 0 w d x w2 sub y m w 0 d x w2 sub y w2 add m w w neg d x w2 sub y w2 sub m w w d s} def
/m32 {mp x y w2 sub m w2 w d w neg 0 d cl s} def
/m33 {mp x y w2 add m w3 neg w2 neg d w3 w2 neg d w3 w2 d cl f} def
/m34 {mp x w2 sub y w2 sub w3 add m w3 0 d  0 w3 neg d w3 0 d 0 w3 d w3 0 d  0 w3 d w3 neg 0 d 0 w3 d w3 neg 0 d 0 w3 neg d w3 neg 0 d cl f } def
/m2 {mp x y w2 sub m 0 w d x w2 sub y m w 0 d s} def
/m5 {mp x w2 sub y w2 sub m w w d x w2 sub y w2 add m w w neg d s} def
/reEncode {exch findfont dup length dict begin {1 index /FID eq  {pop pop} {def} ifelse } forall /Encoding exch def currentdict end dup /FontName get exch definefont pop } def [/Times-Bold /Times-Italic /Times-BoldItalic /Helvetica /Helvetica-Oblique
 /Helvetica-Bold /Helvetica-BoldOblique /Courier /Courier-Oblique /Courier-Bold /Courier-BoldOblique /Times-Roman /AvantGarde-Book /AvantGarde-BookOblique /AvantGarde-Demi /AvantGarde-DemiOblique /Bookman-Demi /Bookman-DemiItalic /Bookman-Light
 /Bookman-LightItalic /Helvetica-Narrow /Helvetica-Narrow-Bold /Helvetica-Narrow-BoldOblique /Helvetica-Narrow-Oblique /NewCenturySchlbk-Roman /NewCenturySchlbk-Bold /NewCenturySchlbk-BoldItalic /NewCenturySchlbk-Italic /Palatino-Bold
 /Palatino-BoldItalic /Palatino-Italic /Palatino-Roman ] {ISOLatin1Encoding reEncode } forall
%%EndProlog
%%BeginSetup
%%EndSetup
newpath  gsave  .25 .25 scale  gsave  0 0 t 0.490196 0.545098 0.615686 c[  ] 0 sd 3 lw 0.941176 0.941176 0.941176 c 2268 1179 0 0 bf 0.490196 0.545098 0.615686 c 0.941176 0.941176 0.941176 c 710 566 23 602 bf black 1 1 0.992157 c 548 428 143 683 bf
 black 548 428 143 683 bl 1 1 0.992157 c 548 428 143 683 bf black 548 428 143 683 bl 0 0 0.933333 c 6 lw 0.49 0.6 0.82 c black 3 lw 0.49 0.6 0.82 c 143 683 m 55 X 37 Y 28 X -37 Y 41 X 73 Y 13 X -36 Y 14 X -37 Y 14 X 74 Y 13 X 73 Y 14 X -35 Y 14 X 77
 Y 13 X -38 Y 14 X -78 Y 14 X 113 Y 13 X 143 Y 14 X -219 Y 14 X -37 Y 13 X 38 Y 14 X -37 Y 14 X -37 Y 13 X 114 Y 14 X -114 Y 14 X -37 Y 54 X 39 Y 14 X -39 Y 110 X f 6 lw 0 0 0.933333 c 0.49 0.6 0.82 c 0 0 0.933333 c 143 683 m 55 X 37 Y 28 X -37 Y 41
 X 73 Y 13 X -36 Y 14 X -37 Y 14 X 74 Y 13 X 73 Y 14 X -35 Y 14 X 77 Y 13 X -38 Y 14 X -78 Y 14 X 113 Y 13 X 143 Y 14 X -219 Y 14 X -37 Y 13 X 38 Y 14 X -37 Y 14 X -37 Y 13 X 114 Y 14 X -114 Y 14 X -37 Y 54 X 39 Y 14 X -39 Y 110 X s black 3 lw 143
 683 m 548 X s
 gsave  710 566 23 602 C 421.636 615.36 t 0 r /Helvetica findfont 28.5925 sf 0 0 m (GTND_bubble \(PCA\)) show NC gr  223 696 m -13 Y s 243 690 m -7 Y s 264 690 m -7 Y s 285 690 m -7 Y s 305 696 m -13 Y s 326 690 m -7 Y s 347 690 m -7 Y s 368 690 m -7
 Y s 388 696 m -13 Y s 409 690 m -7 Y s 430 690 m -7 Y s 451 690 m -7 Y s 471 696 m -13 Y s 492 690 m -7 Y s 513 690 m -7 Y s 534 690 m -7 Y s 554 696 m -13 Y s 575 690 m -7 Y s 596 690 m -7 Y s 616 690 m -7 Y s 637 696 m -13 Y s 223 696 m -13 Y s
 202 690 m -7 Y s 181 690 m -7 Y s 160 690 m -7 Y s 637 696 m -13 Y s 658 690 m -7 Y s 679 690 m -7 Y s
 gsave  710 566 23 602 C 202.271 655.245 t 0 r /Helvetica findfont 25.7332 sf 0 0 m (\25540) show NC gr 
 gsave  710 566 23 602 C 284.889 655.245 t 0 r /Helvetica findfont 25.7332 sf 0 0 m (\25520) show NC gr 
 gsave  710 566 23 602 C 378.902 655.245 t 0 r /Helvetica findfont 25.7332 sf 0 0 m (0) show NC gr 
 gsave  710 566 23 602 C 455.822 655.245 t 0 r /Helvetica findfont 25.7332 sf 0 0 m (20) show NC gr 
 gsave  710 566 23 602 C 538.44 655.245 t 0 r /Helvetica findfont 25.7332 sf 0 0 m (40) show NC gr 
 gsave  710 566 23 602 C 621.058 655.245 t 0 r /Helvetica findfont 25.7332 sf 0 0 m (60) show NC gr  143 1111 m 548 X s 223 1098 m 13 Y s 243 1104 m 7 Y s 264 1104 m 7 Y s 285 1104 m 7 Y s 305 1098 m 13 Y s 326 1104 m 7 Y s 347 1104 m 7 Y s 368 1104
 m 7 Y s 388 1098 m 13 Y s 409 1104 m 7 Y s 430 1104 m 7 Y s 451 1104 m 7 Y s 471 1098 m 13 Y s 492 1104 m 7 Y s 513 1104 m 7 Y s 534 1104 m 7 Y s 554 1098 m 13 Y s 575 1104 m 7 Y s 596 1104 m 7 Y s 616 1104 m 7 Y s 637 1098 m 13 Y s 223 1098 m 13 Y
 s 202 1104 m 7 Y s 181 1104 m 7 Y s 160 1104 m 7 Y s 637 1098 m 13 Y s 658 1104 m 7 Y s 679 1104 m 7 Y s 143 683 m 428 Y s
 gsave  710 566 23 602 C 45.5822 1062.64 t 90 r /Helvetica findfont 28.5925 sf 0 0 m (3.3 ) show NC gr 
 gsave  710 566 23 602 C 31.3378 1056.94 t 90 r /Helvetica findfont 20.0147 sf 0 0 m ( ) show NC gr 
 gsave  710 566 23 602 C 45.5822 1045.54 t 90 r /Helvetica findfont 28.5925 sf 0 0 m (/) show NC gr 
 gsave  710 566 23 602 C 54.1289 1039.84 t 90 r /Helvetica findfont 20.0147 sf 0 0 m ( ) show NC gr 
 gsave  710 566 23 602 C 45.5822 931.587 t 90 r /Helvetica findfont 28.5925 sf 0 0 m (\(1/N\) dN) show NC gr  160 683 m -17 X s 152 697 m -9 X s 152 710 m -9 X s 152 724 m -9 X s 152 738 m -9 X s 160 751 m -17 X s 152 765 m -9 X s 152 779 m -9 X s
 152 793 m -9 X s 152 806 m -9 X s 160 820 m -17 X s 152 834 m -9 X s 152 847 m -9 X s 152 861 m -9 X s 152 875 m -9 X s 160 888 m -17 X s 152 902 m -9 X s 152 916 m -9 X s 152 929 m -9 X s 152 943 m -9 X s 160 957 m -17 X s 152 971 m -9 X s 152 984
 m -9 X s 152 998 m -9 X s 152 1012 m -9 X s 160 1025 m -17 X s 152 1039 m -9 X s 152 1053 m -9 X s 152 1066 m -9 X s 152 1080 m -9 X s 160 1094 m -17 X s 160 1094 m -17 X s 152 1107 m -9 X s
 gsave  710 566 23 602 C 119.653 672.338 t 0 r /Helvetica findfont 25.7332 sf 0 0 m (0) show NC gr 
 gsave  710 566 23 602 C 88.3156 740.711 t 0 r /Helvetica findfont 25.7332 sf 0 0 m (0.01) show NC gr 
 gsave  710 566 23 602 C 82.6178 809.085 t 0 r /Helvetica findfont 25.7332 sf 0 0 m (0.02) show NC gr 
 gsave  710 566 23 602 C 82.6178 877.458 t 0 r /Helvetica findfont 25.7332 sf 0 0 m (0.03) show NC gr 
 gsave  710 566 23 602 C 82.6178 945.831 t 0 r /Helvetica findfont 25.7332 sf 0 0 m (0.04) show NC gr 
 gsave  710 566 23 602 C 82.6178 1014.2 t 0 r /Helvetica findfont 25.7332 sf 0 0 m (0.05) show NC gr 
 gsave  710 566 23 602 C 82.6178 1082.58 t 0 r /Helvetica findfont 25.7332 sf 0 0 m (0.06) show NC gr  691 683 m 428 Y s 674 683 m 17 X s 683 697 m 8 X s 683 710 m 8 X s 683 724 m 8 X s 683 738 m 8 X s 674 751 m 17 X s 683 765 m 8 X s 683 779 m 8 X s
 683 793 m 8 X s 683 806 m 8 X s 674 820 m 17 X s 683 834 m 8 X s 683 847 m 8 X s 683 861 m 8 X s 683 875 m 8 X s 674 888 m 17 X s 683 902 m 8 X s 683 916 m 8 X s 683 929 m 8 X s 683 943 m 8 X s 674 957 m 17 X s 683 971 m 8 X s 683 984 m 8 X s 683
 998 m 8 X s 683 1012 m 8 X s 674 1025 m 17 X s 683 1039 m 8 X s 683 1053 m 8 X s 683 1066 m 8 X s 683 1080 m 8 X s 674 1094 m 17 X s 674 1094 m 17 X s 683 1107 m 8 X s 1 0 0 c 6 lw black 3 lw 1 0 0 c 676 683 m s 661 683 m s 646 683 m s 631 683 m s
 616 683 m s 601 683 m s 586 683 m s 571 683 m s 556 683 m s 541 683 m s 526 684 m -1 Y s 526 699 m -15 -16 d s 523 711 m -27 -28 d s 507 709 m -26 -26 d s 499 717 m -34 -34 d s 499 732 m -49 -49 d s 489 737 m -54 -54 d s 474 737 m -54 -54 d s 472
 750 m -67 -67 d s 469 762 m -79 -79 d s 458 767 m -83 -84 d s 458 782 m -98 -99 d s 450 789 m -105 -106 d s 444 798 m -114 -115 d s 444 813 m -13 -13 d s 420 789 m -105 -106 d s 432 816 m -1 -1 d s 417 801 m -117 -118 d s 417 816 m -132 -133 d s 417
 831 m -147 -148 d s 414 843 m -120 -120 d s 281 709 m -27 -26 d s 403 848 m -27 -28 d s 371 816 m -77 -78 d s 266 709 m -13 -12 d s 239 683 m s 403 863 m -27 -27 d s 362 822 m -27 -28 d s 330 789 m -36 -36 d s 224 683 m s 403 878 m -27 -27 d s 362
 837 m -13 -14 d s 341 815 m -6 -5 d s 321 796 m -27 -28 d s 212 686 m -3 -3 d s 403 893 m -13 -13 d s 380 870 m -4 -4 d s 362 852 m -13 -14 d s 321 811 m -13 -14 d s 300 790 m -6 -7 d s 212 701 m -14 -14 d s 194 683 m s 362 867 m -13 -13 d s 311 816
 m -3 -4 d s 206 710 m -8 -8 d s 179 683 m s 362 883 m -13 -14 d s 164 683 m s 361 897 m -12 -13 d s 149 683 m s 6 lw 143 683 m 55 X 27 Y 14 X -27 Y 41 X 26 Y 14 X 1 Y 13 X -1 Y 14 X 81 Y 14 X 26 Y 13 X -27 Y 14 X 26 Y 14 X 82 Y 13 X -81 Y 14 X 54 Y
 14 X 25 Y 13 X -52 Y 14 X -54 Y 14 X 27 Y 13 X -27 Y 14 X -27 Y 14 X -25 Y 27 X -28 Y 14 X 2 Y 13 X -28 Y 165 X s 0.490196 0.545098 0.615686 c 3 lw 0.95 0.95 0.95 c 0.490196 0.545098 0.615686 c 285 85 143 1026 bl 143 1026 m 285 X s 428 1026 m 85 Y s
 428 1111 m -285 X s 143 1111 m -85 Y s black
 gsave  710 566 23 602 C 227.911 1079.73 t 0 r /Times-Italic findfont 31.4517 sf 0 0 m (Signal) show NC gr  0.49 0.6 0.82 c 156 1075 m 60 X 30 Y -60 X f 0 0 0.933333 c 6 lw 156 1105 m 60 X s 156 1075 m 60 X s 216 1075 m 30 Y s 156 1075 m 30 Y s black
 gsave  710 566 23 602 C 227.911 1037 t 0 r /Times-Italic findfont 31.4517 sf 0 0 m (Background) show NC gr  1 0 0 c 3 lw 216 1039 m -6 -7 d s 216 1054 m -21 -22 d s 209 1062 m -29 -30 d s 194 1062 m -29 -30 d s 179 1062 m -23 -23 d s 164 1062 m -8
 -8 d s 6 lw 0 0 0.933333 c 1 0 0 c 156 1062 m 60 X s 156 1032 m 60 X s 216 1032 m 30 Y s 156 1032 m 30 Y s black 3 lw 143 683 m 548 X s 223 696 m -13 Y s 243 690 m -7 Y s 264 690 m -7 Y s 285 690 m -7 Y s 305 696 m -13 Y s 326 690 m -7 Y s 347 690 m
 -7 Y s 368 690 m -7 Y s 388 696 m -13 Y s 409 690 m -7 Y s 430 690 m -7 Y s 451 690 m -7 Y s 471 696 m -13 Y s 492 690 m -7 Y s 513 690 m -7 Y s 534 690 m -7 Y s 554 696 m -13 Y s 575 690 m -7 Y s 596 690 m -7 Y s 616 690 m -7 Y s 637 696 m -13 Y s
 223 696 m -13 Y s 202 690 m -7 Y s 181 690 m -7 Y s 160 690 m -7 Y s 637 696 m -13 Y s 658 690 m -7 Y s 679 690 m -7 Y s 143 1111 m 548 X s 223 1098 m 13 Y s 243 1104 m 7 Y s 264 1104 m 7 Y s 285 1104 m 7 Y s 305 1098 m 13 Y s 326 1104 m 7 Y s 347
 1104 m 7 Y s 368 1104 m 7 Y s 388 1098 m 13 Y s 409 1104 m 7 Y s 430 1104 m 7 Y s 451 1104 m 7 Y s 471 1098 m 13 Y s 492 1104 m 7 Y s 513 1104 m 7 Y s 534 1104 m 7 Y s 554 1098 m 13 Y s 575 1104 m 7 Y s 596 1104 m 7 Y s 616 1104 m 7 Y s 637 1098 m
 13 Y s 223 1098 m 13 Y s 202 1104 m 7 Y s 181 1104 m 7 Y s 160 1104 m 7 Y s 637 1098 m 13 Y s 658 1104 m 7 Y s 679 1104 m 7 Y s 143 683 m 428 Y s 160 683 m -17 X s 152 697 m -9 X s 152 710 m -9 X s 152 724 m -9 X s 152 738 m -9 X s 160 751 m -17 X s
 152 765 m -9 X s 152 779 m -9 X s 152 793 m -9 X s 152 806 m -9 X s 160 820 m -17 X s 152 834 m -9 X s 152 847 m -9 X s 152 861 m -9 X s 152 875 m -9 X s 160 888 m -17 X s 152 902 m -9 X s 152 916 m -9 X s 152 929 m -9 X s 152 943 m -9 X s 160 957 m
 -17 X s 152 971 m -9 X s 152 984 m -9 X s 152 998 m -9 X s 152 1012 m -9 X s 160 1025 m -17 X s 152 1039 m -9 X s 152 1053 m -9 X s 152 1066 m -9 X s 152 1080 m -9 X s 160 1094 m -17 X s 160 1094 m -17 X s 152 1107 m -9 X s 691 683 m 428 Y s 674 683
 m 17 X s 683 697 m 8 X s 683 710 m 8 X s 683 724 m 8 X s 683 738 m 8 X s 674 751 m 17 X s 683 765 m 8 X s 683 779 m 8 X s 683 793 m 8 X s 683 806 m 8 X s 674 820 m 17 X s 683 834 m 8 X s 683 847 m 8 X s 683 861 m 8 X s 683 875 m 8 X s 674 888 m 17 X
 s 683 902 m 8 X s 683 916 m 8 X s 683 929 m 8 X s 683 943 m 8 X s 674 957 m 17 X s 683 971 m 8 X s 683 984 m 8 X s 683 998 m 8 X s 683 1012 m 8 X s 674 1025 m 17 X s 683 1039 m 8 X s 683 1053 m 8 X s 683 1066 m 8 X s 683 1080 m 8 X s 674 1094 m 17 X
 s 674 1094 m 17 X s 683 1107 m 8 X s
 gsave  710 566 23 602 C 719.017 680.773 t 90 r /Helvetica-Bold findfont 20.0147 sf 0 0 m (U/O\255flow \(S,B\): \(0.0, 0.0\)% / \(0.0, 0.0\)%) show NC gr  0.490196 0.545098 0.615686 c 0.364706 0.419608 0.490196 c 497 38 30 1127 bf 0.490196 0.545098
 0.615686 c 30 1127 m 497 X s 527 1127 m 38 Y s 527 1165 m -497 X s 30 1165 m -38 Y s 1 1 1 c black 1 1 1 c
 gsave  710 566 23 602 C 48.4311 1139.56 t 0 r /Helvetica-Bold findfont 20.0147 sf 0 0 m (Input variable'PCA'\255transformed : GTND_bubble) show NC gr  0.490196 0.545098 0.615686 c 0.941176 0.941176 0.941176 c 710 566 779 602 bf black 1 1 0.992157 c
 548 428 899 683 bf black 548 428 899 683 bl 1 1 0.992157 c 548 428 899 683 bf black 548 428 899 683 bl 0 0 0.933333 c 6 lw 0.49 0.6 0.82 c black 3 lw 0.49 0.6 0.82 c 899 683 m 64 Y 14 X -64 Y 55 X 65 Y 13 X -65 Y 41 X 67 Y 14 X 66 Y 14 X -133 Y 14 X
 71 Y 13 X 124 Y 14 X -67 Y 14 X 1 Y 13 X 195 Y 14 X -128 Y 14 X 1 Y 13 X -132 Y 14 X 67 Y 14 X 196 Y 13 X -198 Y 14 X -66 Y 14 X 68 Y 13 X -132 Y 14 X 129 Y 14 X 260 Y 13 X -249 Y 14 X -76 Y 14 X 65 Y 13 X -1 Y 14 X -63 Y 14 X -65 Y 13 X 194 Y 14 X
 -194 Y 69 X f 6 lw 0 0 0.933333 c 0.49 0.6 0.82 c 0 0 0.933333 c 899 747 m 14 X -64 Y 55 X 65 Y 13 X -65 Y 41 X 67 Y 14 X 66 Y 14 X -133 Y 14 X 71 Y 13 X 124 Y 14 X -67 Y 14 X 1 Y 13 X 195 Y 14 X -128 Y 14 X 1 Y 13 X -132 Y 14 X 67 Y 14 X 196 Y 13 X
 -198 Y 14 X -66 Y 14 X 68 Y 13 X -132 Y 14 X 129 Y 14 X 260 Y 13 X -249 Y 14 X -76 Y 14 X 65 Y 13 X -1 Y 14 X -63 Y 14 X -65 Y 13 X 194 Y 14 X -194 Y 69 X s black 3 lw 899 683 m 548 X s
 gsave  710 566 779 602 C 1199.38 615.36 t 0 r /Helvetica findfont 28.5925 sf 0 0 m (GTND_crisis \(PCA\)) show NC gr  921 696 m -13 Y s 935 690 m -7 Y s 948 690 m -7 Y s 962 690 m -7 Y s 976 690 m -7 Y s 990 696 m -13 Y s 1003 690 m -7 Y s 1017 690 m
 -7 Y s 1031 690 m -7 Y s 1045 690 m -7 Y s 1058 696 m -13 Y s 1072 690 m -7 Y s 1086 690 m -7 Y s 1100 690 m -7 Y s 1113 690 m -7 Y s 1127 696 m -13 Y s 1141 690 m -7 Y s 1154 690 m -7 Y s 1168 690 m -7 Y s 1182 690 m -7 Y s 1196 696 m -13 Y s 1209
 690 m -7 Y s 1223 690 m -7 Y s 1237 690 m -7 Y s 1251 690 m -7 Y s 1264 696 m -13 Y s 1278 690 m -7 Y s 1292 690 m -7 Y s 1306 690 m -7 Y s 1319 690 m -7 Y s 1333 696 m -13 Y s 1347 690 m -7 Y s 1361 690 m -7 Y s 1374 690 m -7 Y s 1388 690 m -7 Y s
 1402 696 m -13 Y s 921 696 m -13 Y s 907 690 m -7 Y s 1402 696 m -13 Y s 1416 690 m -7 Y s 1429 690 m -7 Y s 1443 690 m -7 Y s
 gsave  710 566 779 602 C 900.249 655.245 t 0 r /Helvetica findfont 25.7332 sf 0 0 m (\25540) show NC gr 
 gsave  710 566 779 602 C 968.623 655.245 t 0 r /Helvetica findfont 25.7332 sf 0 0 m (\25530) show NC gr 
 gsave  710 566 779 602 C 1037 655.245 t 0 r /Helvetica findfont 25.7332 sf 0 0 m (\25520) show NC gr 
 gsave  710 566 779 602 C 1105.37 655.245 t 0 r /Helvetica findfont 25.7332 sf 0 0 m (\25510) show NC gr 
 gsave  710 566 779 602 C 1185.14 655.245 t 0 r /Helvetica findfont 25.7332 sf 0 0 m (0) show NC gr 
 gsave  710 566 779 602 C 1247.81 655.245 t 0 r /Helvetica findfont 25.7332 sf 0 0 m (10) show NC gr 
 gsave  710 566 779 602 C 1316.19 655.245 t 0 r /Helvetica findfont 25.7332 sf 0 0 m (20) show NC gr 
 gsave  710 566 779 602 C 1387.41 655.245 t 0 r /Helvetica findfont 25.7332 sf 0 0 m (30) show NC gr  899 1111 m 548 X s 921 1098 m 13 Y s 935 1104 m 7 Y s 948 1104 m 7 Y s 962 1104 m 7 Y s 976 1104 m 7 Y s 990 1098 m 13 Y s 1003 1104 m 7 Y s 1017
 1104 m 7 Y s 1031 1104 m 7 Y s 1045 1104 m 7 Y s 1058 1098 m 13 Y s 1072 1104 m 7 Y s 1086 1104 m 7 Y s 1100 1104 m 7 Y s 1113 1104 m 7 Y s 1127 1098 m 13 Y s 1141 1104 m 7 Y s 1154 1104 m 7 Y s 1168 1104 m 7 Y s 1182 1104 m 7 Y s 1196 1098 m 13 Y s
 1209 1104 m 7 Y s 1223 1104 m 7 Y s 1237 1104 m 7 Y s 1251 1104 m 7 Y s 1264 1098 m 13 Y s 1278 1104 m 7 Y s 1292 1104 m 7 Y s 1306 1104 m 7 Y s 1319 1104 m 7 Y s 1333 1098 m 13 Y s 1347 1104 m 7 Y s 1361 1104 m 7 Y s 1374 1104 m 7 Y s 1388 1104 m 7
 Y s 1402 1098 m 13 Y s 921 1098 m 13 Y s 907 1104 m 7 Y s 1402 1098 m 13 Y s 1416 1104 m 7 Y s 1429 1104 m 7 Y s 1443 1104 m 7 Y s 899 683 m 428 Y s
 gsave  710 566 779 602 C 803.387 1048.39 t 90 r /Helvetica findfont 28.5925 sf 0 0 m (1.99 ) show NC gr 
 gsave  710 566 779 602 C 789.143 1042.69 t 90 r /Helvetica findfont 20.0147 sf 0 0 m ( ) show NC gr 
 gsave  710 566 779 602 C 803.387 1031.3 t 90 r /Helvetica findfont 28.5925 sf 0 0 m (/) show NC gr 
 gsave  710 566 779 602 C 811.934 1025.6 t 90 r /Helvetica findfont 20.0147 sf 0 0 m ( ) show NC gr 
 gsave  710 566 779 602 C 803.387 917.343 t 90 r /Helvetica findfont 28.5925 sf 0 0 m (\(1/N\) dN) show NC gr  915 683 m -16 X s 907 698 m -8 X s 907 712 m -8 X s 907 727 m -8 X s 907 741 m -8 X s 915 756 m -16 X s 907 770 m -8 X s 907 785 m -8 X s
 907 800 m -8 X s 907 814 m -8 X s 915 829 m -16 X s 907 843 m -8 X s 907 858 m -8 X s 907 872 m -8 X s 907 887 m -8 X s 915 902 m -16 X s 907 916 m -8 X s 907 931 m -8 X s 907 945 m -8 X s 907 960 m -8 X s 915 974 m -16 X s 907 989 m -8 X s 907 1004
 m -8 X s 907 1018 m -8 X s 907 1033 m -8 X s 915 1047 m -16 X s 915 1047 m -16 X s 907 1062 m -8 X s 907 1076 m -8 X s 907 1091 m -8 X s 907 1106 m -8 X s
 gsave  710 566 779 602 C 874.609 672.338 t 0 r /Helvetica findfont 25.7332 sf 0 0 m (0) show NC gr 
 gsave  710 566 779 602 C 843.271 746.409 t 0 r /Helvetica findfont 25.7332 sf 0 0 m (0.01) show NC gr 
 gsave  710 566 779 602 C 837.574 817.631 t 0 r /Helvetica findfont 25.7332 sf 0 0 m (0.02) show NC gr 
 gsave  710 566 779 602 C 837.574 891.703 t 0 r /Helvetica findfont 25.7332 sf 0 0 m (0.03) show NC gr 
 gsave  710 566 779 602 C 837.574 965.774 t 0 r /Helvetica findfont 25.7332 sf 0 0 m (0.04) show NC gr 
 gsave  710 566 779 602 C 837.574 1037 t 0 r /Helvetica findfont 25.7332 sf 0 0 m (0.05) show NC gr  1447 683 m 428 Y s 1430 683 m 17 X s 1438 698 m 9 X s 1438 712 m 9 X s 1438 727 m 9 X s 1438 741 m 9 X s 1430 756 m 17 X s 1438 770 m 9 X s 1438 785
 m 9 X s 1438 800 m 9 X s 1438 814 m 9 X s 1430 829 m 17 X s 1438 843 m 9 X s 1438 858 m 9 X s 1438 872 m 9 X s 1438 887 m 9 X s 1430 902 m 17 X s 1438 916 m 9 X s 1438 931 m 9 X s 1438 945 m 9 X s 1438 960 m 9 X s 1430 974 m 17 X s 1438 989 m 9 X s
 1438 1004 m 9 X s 1438 1018 m 9 X s 1438 1033 m 9 X s 1430 1047 m 17 X s 1430 1047 m 17 X s 1438 1062 m 9 X s 1438 1076 m 9 X s 1438 1091 m 9 X s 1438 1106 m 9 X s 1 0 0 c 6 lw black 3 lw 1 0 0 c 1433 683 m s 1418 683 m s 1405 686 m -2 -3 d s 1405
 701 m -13 -14 d s 1388 683 m s 1405 716 m -13 -14 d s 1372 683 m s 1405 730 m -13 -12 d s 1357 683 m s 1351 692 m -9 -9 d s 1351 707 m -14 -14 d s 1327 683 m s 1351 722 m -14 -14 d s 1323 694 m -11 -11 d s 1351 737 m -14 -14 d s 1323 709 m -26 -26 d
 s 1351 752 m -14 -14 d s 1323 725 m -41 -42 d s 1351 767 m -14 -14 d s 1314 730 m -47 -47 d s 1346 778 m -9 -10 d s 1310 741 m -58 -58 d s 1310 756 m -73 -73 d s 1310 771 m -28 -27 d s 1269 730 m -47 -47 d s 1299 776 m -17 -17 d s 1269 745 m -62 -62
 d s 1296 788 m -14 -14 d s 1269 760 m -77 -77 d s 1296 803 m -14 -14 d s 1269 775 m -93 -92 d s 1296 818 m -14 -14 d s 1269 791 m -108 -108 d s 1296 833 m -14 -14 d s 1269 806 m -123 -123 d s 1296 848 m -14 -14 d s 1269 821 m -138 -138 d s 1296 863
 m -14 -13 d s 1269 836 m -153 -153 d s 1287 869 m -5 -4 d s 1269 851 m -168 -168 d s 1269 866 m -41 -41 d s 1227 825 m -141 -142 d s 1269 881 m -41 -41 d s 1211 823 m -134 -134 d s 1071 683 m s 1269 896 m -41 -41 d s 1196 824 m -119 -120 d s 1056
 683 m s 1269 911 m -41 -41 d s 1187 829 m -110 -110 d s 1041 683 m cl s 1269 926 m -41 -41 d s 1187 844 m -110 -109 d s 1026 683 m s 1269 942 m -41 -42 d s 1187 859 m -110 -109 d s 1022 695 m -11 -12 d s 1269 957 m -41 -41 d s 1182 870 m -91 -92 d s
 1089 777 m -12 -12 d s 1022 710 m -13 -14 d s 996 683 m s 1269 972 m -41 -41 d s 1173 876 m -82 -82 d s 1022 725 m -13 -14 d s 981 684 m -1 Y s 1269 987 m -41 -41 d s 1173 891 m -82 -82 d s 1013 730 m -4 -4 d s 981 699 m -16 -16 d s 1269 1002 m -41
 -41 d s 1173 906 m -68 -68 d s 981 714 m -27 -27 d s 950 683 m cl s 1262 1010 m -34 -34 d s 1170 919 m -38 -39 d s 1122 871 m -17 -18 d s 981 729 m -27 -27 d s 935 683 m s 1247 1011 m -19 -20 d s 1156 919 m -24 -24 d s 1107 871 m -2 -3 d s 967 730 m
 -13 -13 d s 920 683 m cl s 1236 1014 m -8 -8 d s 1146 924 m -14 -14 d s 905 683 m cl s 1146 939 m -14 -14 d s 1146 954 m -14 -14 d s 1146 969 m -14 -13 d s 1146 984 m -14 -13 d s 1146 999 m -14 -13 d s 1143 1012 m -11 -11 d s 6 lw 899 683 m 55 X 47
 Y 14 X -1 Y 13 X -46 Y 28 X 47 Y 13 X -47 Y 55 X 94 Y 14 X 46 Y 14 X 48 Y 27 X 141 Y 14 X -93 Y 27 X -49 Y 14 X -46 Y 13 X -1 Y 14 X 2 Y 14 X 189 Y 13 X -3 Y 14 X -1 Y 14 X -280 Y 13 X 139 Y 14 X -93 Y 14 X -46 Y 13 X -47 Y 14 X 95 Y 14 X -95 Y 41 X
 47 Y 13 X -47 Y 42 X s black 3 lw 899 683 m 548 X s 921 696 m -13 Y s 935 690 m -7 Y s 948 690 m -7 Y s 962 690 m -7 Y s 976 690 m -7 Y s 990 696 m -13 Y s 1003 690 m -7 Y s 1017 690 m -7 Y s 1031 690 m -7 Y s 1045 690 m -7 Y s 1058 696 m -13 Y s
 1072 690 m -7 Y s 1086 690 m -7 Y s 1100 690 m -7 Y s 1113 690 m -7 Y s 1127 696 m -13 Y s 1141 690 m -7 Y s 1154 690 m -7 Y s 1168 690 m -7 Y s 1182 690 m -7 Y s 1196 696 m -13 Y s 1209 690 m -7 Y s 1223 690 m -7 Y s 1237 690 m -7 Y s 1251 690 m -7
 Y s 1264 696 m -13 Y s 1278 690 m -7 Y s 1292 690 m -7 Y s 1306 690 m -7 Y s 1319 690 m -7 Y s 1333 696 m -13 Y s 1347 690 m -7 Y s 1361 690 m -7 Y s 1374 690 m -7 Y s 1388 690 m -7 Y s 1402 696 m -13 Y s 921 696 m -13 Y s 907 690 m -7 Y s 1402 696
 m -13 Y s 1416 690 m -7 Y s 1429 690 m -7 Y s 1443 690 m -7 Y s 899 1111 m 548 X s 921 1098 m 13 Y s 935 1104 m 7 Y s 948 1104 m 7 Y s 962 1104 m 7 Y s 976 1104 m 7 Y s 990 1098 m 13 Y s 1003 1104 m 7 Y s 1017 1104 m 7 Y s 1031 1104 m 7 Y s 1045
 1104 m 7 Y s 1058 1098 m 13 Y s 1072 1104 m 7 Y s 1086 1104 m 7 Y s 1100 1104 m 7 Y s 1113 1104 m 7 Y s 1127 1098 m 13 Y s 1141 1104 m 7 Y s 1154 1104 m 7 Y s 1168 1104 m 7 Y s 1182 1104 m 7 Y s 1196 1098 m 13 Y s 1209 1104 m 7 Y s 1223 1104 m 7 Y s
 1237 1104 m 7 Y s 1251 1104 m 7 Y s 1264 1098 m 13 Y s 1278 1104 m 7 Y s 1292 1104 m 7 Y s 1306 1104 m 7 Y s 1319 1104 m 7 Y s 1333 1098 m 13 Y s 1347 1104 m 7 Y s 1361 1104 m 7 Y s 1374 1104 m 7 Y s 1388 1104 m 7 Y s 1402 1098 m 13 Y s 921 1098 m
 13 Y s 907 1104 m 7 Y s 1402 1098 m 13 Y s 1416 1104 m 7 Y s 1429 1104 m 7 Y s 1443 1104 m 7 Y s 899 683 m 428 Y s 915 683 m -16 X s 907 698 m -8 X s 907 712 m -8 X s 907 727 m -8 X s 907 741 m -8 X s 915 756 m -16 X s 907 770 m -8 X s 907 785 m -8
 X s 907 800 m -8 X s 907 814 m -8 X s 915 829 m -16 X s 907 843 m -8 X s 907 858 m -8 X s 907 872 m -8 X s 907 887 m -8 X s 915 902 m -16 X s 907 916 m -8 X s 907 931 m -8 X s 907 945 m -8 X s 907 960 m -8 X s 915 974 m -16 X s 907 989 m -8 X s 907
 1004 m -8 X s 907 1018 m -8 X s 907 1033 m -8 X s 915 1047 m -16 X s 915 1047 m -16 X s 907 1062 m -8 X s 907 1076 m -8 X s 907 1091 m -8 X s 907 1106 m -8 X s 1447 683 m 428 Y s 1430 683 m 17 X s 1438 698 m 9 X s 1438 712 m 9 X s 1438 727 m 9 X s
 1438 741 m 9 X s 1430 756 m 17 X s 1438 770 m 9 X s 1438 785 m 9 X s 1438 800 m 9 X s 1438 814 m 9 X s 1430 829 m 17 X s 1438 843 m 9 X s 1438 858 m 9 X s 1438 872 m 9 X s 1438 887 m 9 X s 1430 902 m 17 X s 1438 916 m 9 X s 1438 931 m 9 X s 1438 945
 m 9 X s 1438 960 m 9 X s 1430 974 m 17 X s 1438 989 m 9 X s 1438 1004 m 9 X s 1438 1018 m 9 X s 1438 1033 m 9 X s 1430 1047 m 17 X s 1430 1047 m 17 X s 1438 1062 m 9 X s 1438 1076 m 9 X s 1438 1091 m 9 X s 1438 1106 m 9 X s
 gsave  710 566 779 602 C 1474.92 680.773 t 90 r /Helvetica-Bold findfont 20.0147 sf 0 0 m (U/O\255flow \(S,B\): \(0.0, 0.0\)% / \(0.0, 0.0\)%) show NC gr  0.490196 0.545098 0.615686 c 0.364706 0.419608 0.490196 c 497 38 786 1127 bf 0.490196 0.545098
 0.615686 c 786 1127 m 497 X s 1283 1127 m 38 Y s 1283 1165 m -497 X s 786 1165 m -38 Y s 1 1 1 c black 1 1 1 c
 gsave  710 566 779 602 C 780.596 1139.56 t 0 r /Helvetica-Bold findfont 22.874 sf 0 0 m (Input variable'PCA'\255transformed : GTND_crisis) show NC gr  0.490196 0.545098 0.615686 c 0.941176 0.941176 0.941176 c 711 566 1534 602 bf black 1 1 0.992157 c
 547 428 1655 683 bf black 547 428 1655 683 bl 1 1 0.992157 c 547 428 1655 683 bf black 547 428 1655 683 bl 0 0 0.933333 c 6 lw 0.49 0.6 0.82 c black 3 lw 0.49 0.6 0.82 c 1655 683 m 55 X 67 Y 14 X -67 Y 27 X 133 Y 14 X -133 Y 13 X 65 Y 28 X 65 Y 13 X
 13 Y 14 X 246 Y 14 X -259 Y 13 X 65 Y 14 X -195 Y 14 X 201 Y 13 X -72 Y 14 X 66 Y 14 X 132 Y 14 X -62 Y 13 X 64 Y 14 X -264 Y 14 X 65 Y 13 X -65 Y 28 X 66 Y 13 X -1 Y 14 X -66 Y 14 X 2 Y 13 X -66 Y 14 X 67 Y 14 X -67 Y 13 X 132 Y 14 X -132 Y 68 X f
 6 lw 0 0 0.933333 c 0.49 0.6 0.82 c 0 0 0.933333 c 1655 683 m 55 X 67 Y 14 X -67 Y 27 X 133 Y 14 X -133 Y 13 X 65 Y 28 X 65 Y 13 X 13 Y 14 X 246 Y 14 X -259 Y 13 X 65 Y 14 X -195 Y 14 X 201 Y 13 X -72 Y 14 X 66 Y 14 X 132 Y 14 X -62 Y 13 X 64 Y 14 X
 -264 Y 14 X 65 Y 13 X -65 Y 28 X 66 Y 13 X -1 Y 14 X -66 Y 14 X 2 Y 13 X -66 Y 14 X 67 Y 14 X -67 Y 13 X 132 Y 14 X -132 Y 68 X s black 3 lw 1655 683 m 547 X s
 gsave  711 566 1534 602 C 1885.97 615.36 t 0 r /Helvetica findfont 28.5925 sf 0 0 m (GTND_derivatives \(PCA\)) show NC gr  1661 696 m -13 Y s 1678 690 m -7 Y s 1696 690 m -7 Y s 1713 690 m -7 Y s 1731 690 m -7 Y s 1748 696 m -13 Y s 1765 690 m -7 Y
 s 1783 690 m -7 Y s 1800 690 m -7 Y s 1817 690 m -7 Y s 1835 696 m -13 Y s 1852 690 m -7 Y s 1870 690 m -7 Y s 1887 690 m -7 Y s 1904 690 m -7 Y s 1922 696 m -13 Y s 1939 690 m -7 Y s 1956 690 m -7 Y s 1974 690 m -7 Y s 1991 690 m -7 Y s 2009 696 m
 -13 Y s 2026 690 m -7 Y s 2043 690 m -7 Y s 2061 690 m -7 Y s 2078 690 m -7 Y s 2096 696 m -13 Y s 2113 690 m -7 Y s 2130 690 m -7 Y s 2148 690 m -7 Y s 2165 690 m -7 Y s 2182 696 m -13 Y s 1661 696 m -13 Y s 2182 696 m -13 Y s 2200 690 m -7 Y s
 gsave  711 566 1534 602 C 1640.96 655.245 t 0 r /Helvetica findfont 25.7332 sf 0 0 m (\25530) show NC gr 
 gsave  711 566 1534 602 C 1726.43 655.245 t 0 r /Helvetica findfont 25.7332 sf 0 0 m (\25520) show NC gr 
 gsave  711 566 1534 602 C 1814.74 655.245 t 0 r /Helvetica findfont 25.7332 sf 0 0 m (\25510) show NC gr 
 gsave  711 566 1534 602 C 1911.61 655.245 t 0 r /Helvetica findfont 25.7332 sf 0 0 m (0) show NC gr 
 gsave  711 566 1534 602 C 1994.22 655.245 t 0 r /Helvetica findfont 25.7332 sf 0 0 m (10) show NC gr 
 gsave  711 566 1534 602 C 2079.69 655.245 t 0 r /Helvetica findfont 25.7332 sf 0 0 m (20) show NC gr 
 gsave  711 566 1534 602 C 2168.01 655.245 t 0 r /Helvetica findfont 25.7332 sf 0 0 m (30) show NC gr  1655 1111 m 547 X s 1661 1098 m 13 Y s 1678 1104 m 7 Y s 1696 1104 m 7 Y s 1713 1104 m 7 Y s 1731 1104 m 7 Y s 1748 1098 m 13 Y s 1765 1104 m 7 Y s
 1783 1104 m 7 Y s 1800 1104 m 7 Y s 1817 1104 m 7 Y s 1835 1098 m 13 Y s 1852 1104 m 7 Y s 1870 1104 m 7 Y s 1887 1104 m 7 Y s 1904 1104 m 7 Y s 1922 1098 m 13 Y s 1939 1104 m 7 Y s 1956 1104 m 7 Y s 1974 1104 m 7 Y s 1991 1104 m 7 Y s 2009 1098 m
 13 Y s 2026 1104 m 7 Y s 2043 1104 m 7 Y s 2061 1104 m 7 Y s 2078 1104 m 7 Y s 2096 1098 m 13 Y s 2113 1104 m 7 Y s 2130 1104 m 7 Y s 2148 1104 m 7 Y s 2165 1104 m 7 Y s 2182 1098 m 13 Y s 1661 1098 m 13 Y s 2182 1098 m 13 Y s 2200 1104 m 7 Y s 1655
 683 m 428 Y s
 gsave  711 566 1534 602 C 1558.34 1045.54 t 90 r /Helvetica findfont 28.5925 sf 0 0 m (1.57 ) show NC gr 
 gsave  711 566 1534 602 C 1544.1 1039.84 t 90 r /Helvetica findfont 20.0147 sf 0 0 m ( ) show NC gr 
 gsave  711 566 1534 602 C 1558.34 1028.45 t 90 r /Helvetica findfont 28.5925 sf 0 0 m (/) show NC gr 
 gsave  711 566 1534 602 C 1566.89 1022.75 t 90 r /Helvetica findfont 20.0147 sf 0 0 m ( ) show NC gr 
 gsave  711 566 1534 602 C 1558.34 914.494 t 90 r /Helvetica findfont 28.5925 sf 0 0 m (\(1/N\) dN) show NC gr  1671 683 m -16 X s 1663 695 m -8 X s 1663 706 m -8 X s 1663 718 m -8 X s 1663 729 m -8 X s 1671 741 m -16 X s 1663 752 m -8 X s 1663 764 m
 -8 X s 1663 776 m -8 X s 1663 787 m -8 X s 1671 799 m -16 X s 1663 810 m -8 X s 1663 822 m -8 X s 1663 834 m -8 X s 1663 845 m -8 X s 1671 857 m -16 X s 1663 868 m -8 X s 1663 880 m -8 X s 1663 891 m -8 X s 1663 903 m -8 X s 1671 915 m -16 X s 1663
 926 m -8 X s 1663 938 m -8 X s 1663 949 m -8 X s 1663 961 m -8 X s 1671 972 m -16 X s 1663 984 m -8 X s 1663 996 m -8 X s 1663 1007 m -8 X s 1663 1019 m -8 X s 1671 1030 m -16 X s 1663 1042 m -8 X s 1663 1053 m -8 X s 1663 1065 m -8 X s 1663 1077 m
 -8 X s 1671 1088 m -16 X s 1671 1088 m -16 X s 1663 1100 m -8 X s
 gsave  711 566 1534 602 C 1632.41 672.338 t 0 r /Helvetica findfont 25.7332 sf 0 0 m (0) show NC gr 
 gsave  711 566 1534 602 C 1601.08 732.165 t 0 r /Helvetica findfont 25.7332 sf 0 0 m (0.01) show NC gr 
 gsave  711 566 1534 602 C 1595.38 789.143 t 0 r /Helvetica findfont 25.7332 sf 0 0 m (0.02) show NC gr 
 gsave  711 566 1534 602 C 1595.38 846.12 t 0 r /Helvetica findfont 25.7332 sf 0 0 m (0.03) show NC gr 
 gsave  711 566 1534 602 C 1595.38 905.947 t 0 r /Helvetica findfont 25.7332 sf 0 0 m (0.04) show NC gr 
 gsave  711 566 1534 602 C 1595.38 962.925 t 0 r /Helvetica findfont 25.7332 sf 0 0 m (0.05) show NC gr 
 gsave  711 566 1534 602 C 1595.38 1019.9 t 0 r /Helvetica findfont 25.7332 sf 0 0 m (0.06) show NC gr 
 gsave  711 566 1534 602 C 1595.38 1076.88 t 0 r /Helvetica findfont 25.7332 sf 0 0 m (0.07) show NC gr  2202 683 m 428 Y s 2186 683 m 16 X s 2194 695 m 8 X s 2194 706 m 8 X s 2194 718 m 8 X s 2194 729 m 8 X s 2186 741 m 16 X s 2194 752 m 8 X s 2194
 764 m 8 X s 2194 776 m 8 X s 2194 787 m 8 X s 2186 799 m 16 X s 2194 810 m 8 X s 2194 822 m 8 X s 2194 834 m 8 X s 2194 845 m 8 X s 2186 857 m 16 X s 2194 868 m 8 X s 2194 880 m 8 X s 2194 891 m 8 X s 2194 903 m 8 X s 2186 915 m 16 X s 2194 926 m 8
 X s 2194 938 m 8 X s 2194 949 m 8 X s 2194 961 m 8 X s 2186 972 m 16 X s 2194 984 m 8 X s 2194 996 m 8 X s 2194 1007 m 8 X s 2194 1019 m 8 X s 2186 1030 m 16 X s 2194 1042 m 8 X s 2194 1053 m 8 X s 2194 1065 m 8 X s 2194 1077 m 8 X s 2186 1088 m 16
 X s 2186 1088 m 16 X s 2194 1100 m 8 X s 1 0 0 c 6 lw black 3 lw 1 0 0 c 2202 697 m -13 -14 d s 2188 683 m s 2202 712 m -13 -13 d s 2173 683 m s 2202 728 m -13 -14 d s 2158 683 m s 2191 731 m -2 -2 d s 2143 683 m s 2128 683 m s 2113 683 m s 2107 692
 m -9 -9 d s 2107 707 m -24 -24 d s 2107 722 m -39 -39 d s 2107 737 m -54 -54 d s 2107 753 m -69 -70 d s 2107 768 m -28 -28 d s 2069 730 m -47 -47 d s 2107 783 m -28 -28 d s 2066 742 m -59 -59 d s 2107 798 m -14 -14 d s 2086 777 m -7 -6 d s 2066 757
 m -74 -74 d s 2107 813 m -14 -14 d s 2066 772 m -28 -28 d s 2024 730 m -47 -47 d s 2103 825 m -10 -10 d s 2056 778 m -18 -18 d s 2011 732 m -49 -49 d s 2040 777 m -2 -2 d s 2011 747 m -64 -64 d s 2011 762 m -79 -79 d s 2011 778 m -94 -95 d s 2011
 793 m -109 -110 d s 2011 808 m -27 -28 d s 1979 776 m -92 -93 d s 2011 823 m -27 -28 d s 1970 782 m -98 -99 d s 1997 824 m -13 -13 d s 1970 797 m -113 -114 d s 1997 840 m -13 -14 d s 1970 812 m -128 -129 d s 1997 855 m -13 -14 d s 1970 827 m -143
 -144 d s 1997 870 m -13 -14 d s 1970 842 m -159 -159 d s 1997 885 m -13 -14 d s 1970 858 m -27 -28 d s 1938 825 m -37 -36 d s 1892 780 m -96 -97 d s 1997 900 m -13 -14 d s 1968 871 m -25 -26 d s 1923 825 m -22 -21 d s 1888 790 m -107 -107 d s 1997
 915 m -13 -13 d s 1953 871 m -10 -11 d s 1915 833 m -14 -14 d s 1888 805 m -110 -110 d s 1766 683 m s 1997 931 m -13 -14 d s 1915 848 m -14 -14 d s 1888 820 m -82 -82 d s 1797 729 m -19 -19 d s 1765 697 m -14 -14 d s 1997 946 m -13 -14 d s 1915 863
 m -14 -14 d s 1888 836 m -82 -83 d s 1792 739 m -14 -13 d s 1765 712 m -14 -14 d s 1737 684 m -1 -1 d s 1997 961 m -13 -14 d s 1915 878 m -14 -13 d s 1888 851 m -82 -83 d s 1792 754 m -14 -13 d s 1765 727 m -14 -14 d s 1737 699 m -13 -13 d s 1721
 683 m s 1991 970 m -7 -8 d s 1915 893 m -14 -13 d s 1888 866 m -28 -28 d s 1847 825 m -41 -42 d s 1792 770 m -14 -14 d s 1753 730 m -2 -2 d s 1737 715 m -13 -14 d s 1706 683 m s 1915 909 m -14 -14 d s 1888 881 m -28 -27 d s 1847 840 m -14 -14 d s
 1832 825 m -26 -26 d s 1784 777 m -6 -6 d s 1737 730 m -13 -14 d s 1691 683 m cl s 1915 924 m -14 -14 d s 1888 896 m -28 -27 d s 1847 855 m -14 -14 d s 1816 824 m -10 -10 d s 1737 745 m -13 -14 d s 1676 683 m cl s 1915 939 m -14 -14 d s 1888 911 m
 -28 -27 d s 1847 870 m -14 -14 d s 1737 760 m -13 -14 d s 1661 683 m cl s 1915 954 m -14 -14 d s 1888 927 m -28 -28 d s 1847 885 m -14 -13 d s 1737 775 m -13 -13 d s 1911 965 m -10 -9 d s 1888 942 m -14 -14 d s 1865 918 m -5 -4 d s 1847 901 m -14
 -14 d s 1724 777 m s 1888 957 m -14 -14 d s 1847 916 m -14 -14 d s 1882 966 m -8 -8 d s 1847 931 m -14 -14 d s 1847 946 m -14 -14 d s 1847 961 m -14 -14 d s 1835 964 m -2 -1 d s 6 lw 1655 683 m 69 X 94 Y 13 X -94 Y 14 X 47 Y 14 X -47 Y 13 X 94 Y 14
 X -48 Y 14 X 95 Y 13 X 1 Y 14 X 139 Y 14 X -140 Y 13 X 94 Y 14 X 48 Y 14 X -186 Y 13 X 185 Y 14 X -140 Y 28 X 46 Y 27 X -95 Y 14 X 194 Y 13 X -146 Y 14 X -94 Y 27 X 47 Y 14 X 1 Y 14 X -48 Y 13 X 47 Y 14 X 48 Y 14 X -142 Y 82 X 48 Y 13 X s black 3 lw
 1655 683 m 547 X s 1661 696 m -13 Y s 1678 690 m -7 Y s 1696 690 m -7 Y s 1713 690 m -7 Y s 1731 690 m -7 Y s 1748 696 m -13 Y s 1765 690 m -7 Y s 1783 690 m -7 Y s 1800 690 m -7 Y s 1817 690 m -7 Y s 1835 696 m -13 Y s 1852 690 m -7 Y s 1870 690 m
 -7 Y s 1887 690 m -7 Y s 1904 690 m -7 Y s 1922 696 m -13 Y s 1939 690 m -7 Y s 1956 690 m -7 Y s 1974 690 m -7 Y s 1991 690 m -7 Y s 2009 696 m -13 Y s 2026 690 m -7 Y s 2043 690 m -7 Y s 2061 690 m -7 Y s 2078 690 m -7 Y s 2096 696 m -13 Y s 2113
 690 m -7 Y s 2130 690 m -7 Y s 2148 690 m -7 Y s 2165 690 m -7 Y s 2182 696 m -13 Y s 1661 696 m -13 Y s 2182 696 m -13 Y s 2200 690 m -7 Y s 1655 1111 m 547 X s 1661 1098 m 13 Y s 1678 1104 m 7 Y s 1696 1104 m 7 Y s 1713 1104 m 7 Y s 1731 1104 m 7
 Y s 1748 1098 m 13 Y s 1765 1104 m 7 Y s 1783 1104 m 7 Y s 1800 1104 m 7 Y s 1817 1104 m 7 Y s 1835 1098 m 13 Y s 1852 1104 m 7 Y s 1870 1104 m 7 Y s 1887 1104 m 7 Y s 1904 1104 m 7 Y s 1922 1098 m 13 Y s 1939 1104 m 7 Y s 1956 1104 m 7 Y s 1974
 1104 m 7 Y s 1991 1104 m 7 Y s 2009 1098 m 13 Y s 2026 1104 m 7 Y s 2043 1104 m 7 Y s 2061 1104 m 7 Y s 2078 1104 m 7 Y s 2096 1098 m 13 Y s 2113 1104 m 7 Y s 2130 1104 m 7 Y s 2148 1104 m 7 Y s 2165 1104 m 7 Y s 2182 1098 m 13 Y s 1661 1098 m 13 Y
 s 2182 1098 m 13 Y s 2200 1104 m 7 Y s 1655 683 m 428 Y s 1671 683 m -16 X s 1663 695 m -8 X s 1663 706 m -8 X s 1663 718 m -8 X s 1663 729 m -8 X s 1671 741 m -16 X s 1663 752 m -8 X s 1663 764 m -8 X s 1663 776 m -8 X s 1663 787 m -8 X s 1671 799
 m -16 X s 1663 810 m -8 X s 1663 822 m -8 X s 1663 834 m -8 X s 1663 845 m -8 X s 1671 857 m -16 X s 1663 868 m -8 X s 1663 880 m -8 X s 1663 891 m -8 X s 1663 903 m -8 X s 1671 915 m -16 X s 1663 926 m -8 X s 1663 938 m -8 X s 1663 949 m -8 X s
 1663 961 m -8 X s 1671 972 m -16 X s 1663 984 m -8 X s 1663 996 m -8 X s 1663 1007 m -8 X s 1663 1019 m -8 X s 1671 1030 m -16 X s 1663 1042 m -8 X s 1663 1053 m -8 X s 1663 1065 m -8 X s 1663 1077 m -8 X s 1671 1088 m -16 X s 1671 1088 m -16 X s
 1663 1100 m -8 X s 2202 683 m 428 Y s 2186 683 m 16 X s 2194 695 m 8 X s 2194 706 m 8 X s 2194 718 m 8 X s 2194 729 m 8 X s 2186 741 m 16 X s 2194 752 m 8 X s 2194 764 m 8 X s 2194 776 m 8 X s 2194 787 m 8 X s 2186 799 m 16 X s 2194 810 m 8 X s 2194
 822 m 8 X s 2194 834 m 8 X s 2194 845 m 8 X s 2186 857 m 16 X s 2194 868 m 8 X s 2194 880 m 8 X s 2194 891 m 8 X s 2194 903 m 8 X s 2186 915 m 16 X s 2194 926 m 8 X s 2194 938 m 8 X s 2194 949 m 8 X s 2194 961 m 8 X s 2186 972 m 16 X s 2194 984 m 8
 X s 2194 996 m 8 X s 2194 1007 m 8 X s 2194 1019 m 8 X s 2186 1030 m 16 X s 2194 1042 m 8 X s 2194 1053 m 8 X s 2194 1065 m 8 X s 2194 1077 m 8 X s 2186 1088 m 16 X s 2186 1088 m 16 X s 2194 1100 m 8 X s
 gsave  711 566 1534 602 C 2230.83 680.773 t 90 r /Helvetica-Bold findfont 20.0147 sf 0 0 m (U/O\255flow \(S,B\): \(0.0, 0.0\)% / \(0.0, 0.0\)%) show NC gr  0.490196 0.545098 0.615686 c 0.364706 0.419608 0.490196 c 497 38 1542 1127 bf 0.490196
 0.545098 0.615686 c 1542 1127 m 497 X s 2039 1127 m 38 Y s 2039 1165 m -497 X s 1542 1165 m -38 Y s 1 1 1 c black 1 1 1 c
 gsave  711 566 1534 602 C 1541.25 1139.56 t 0 r /Helvetica-Bold findfont 20.0147 sf 0 0 m (Input variable'PCA'\255transformed : GTND_derivatives) show NC gr  0.490196 0.545098 0.615686 c 0.941176 0.941176 0.941176 c 710 566 23 12 bf black 1 1
 0.992157 c 548 428 143 93 bf black 548 428 143 93 bl 1 1 0.992157 c 548 428 143 93 bf black 548 428 143 93 bl 0 0 0.933333 c 6 lw 0.49 0.6 0.82 c black 3 lw 0.49 0.6 0.82 c 143 93 m 65 Y 14 X -10 Y 14 X -55 Y 27 X 112 Y 14 X -57 Y 27 X -55 Y 14 X 60
 Y 14 X 49 Y 13 X 2 Y 14 X 56 Y 14 X -56 Y 13 X 53 Y 14 X 225 Y 14 X -115 Y 13 X 59 Y 14 X -110 Y 14 X -113 Y 13 X 278 Y 14 X -277 Y 14 X -111 Y 41 X 55 Y 13 X -55 Y 28 X 56 Y 13 X -56 Y 14 X 56 Y 14 X -56 Y 96 X 55 Y 13 X -55 Y 28 X f 6 lw 0 0
 0.933333 c 0.49 0.6 0.82 c 0 0 0.933333 c 143 158 m 14 X -10 Y 14 X -55 Y 27 X 112 Y 14 X -57 Y 27 X -55 Y 14 X 60 Y 14 X 49 Y 13 X 2 Y 14 X 56 Y 14 X -56 Y 13 X 53 Y 14 X 225 Y 14 X -115 Y 13 X 59 Y 14 X -110 Y 14 X -113 Y 13 X 278 Y 14 X -277 Y 14
 X -111 Y 41 X 55 Y 13 X -55 Y 28 X 56 Y 13 X -56 Y 14 X 56 Y 14 X -56 Y 96 X 55 Y 13 X -55 Y 28 X s black 3 lw 143 93 m 548 X s
 gsave  710 566 23 12 C 398.845 25.64 t 0 r /Helvetica findfont 28.5925 sf 0 0 m (GTND_earnings \(PCA\)) show NC gr  230 106 m -13 Y s 252 100 m -7 Y s 273 100 m -7 Y s 295 100 m -7 Y s 317 100 m -7 Y s 338 106 m -13 Y s 360 100 m -7 Y s 382 100 m -7
 Y s 403 100 m -7 Y s 425 100 m -7 Y s 447 106 m -13 Y s 468 100 m -7 Y s 490 100 m -7 Y s 512 100 m -7 Y s 533 100 m -7 Y s 555 106 m -13 Y s 577 100 m -7 Y s 598 100 m -7 Y s 620 100 m -7 Y s 642 100 m -7 Y s 663 106 m -13 Y s 230 106 m -13 Y s 208
 100 m -7 Y s 187 100 m -7 Y s 165 100 m -7 Y s 663 106 m -13 Y s 685 100 m -7 Y s
 gsave  710 566 23 12 C 207.969 65.5245 t 0 r /Helvetica findfont 25.7332 sf 0 0 m (\25510) show NC gr 
 gsave  710 566 23 12 C 327.622 65.5245 t 0 r /Helvetica findfont 25.7332 sf 0 0 m (0) show NC gr 
 gsave  710 566 23 12 C 430.182 65.5245 t 0 r /Helvetica findfont 25.7332 sf 0 0 m (10) show NC gr 
 gsave  710 566 23 12 C 538.44 65.5245 t 0 r /Helvetica findfont 25.7332 sf 0 0 m (20) show NC gr 
 gsave  710 566 23 12 C 646.698 65.5245 t 0 r /Helvetica findfont 25.7332 sf 0 0 m (30) show NC gr  143 521 m 548 X s 230 508 m 13 Y s 252 515 m 6 Y s 273 515 m 6 Y s 295 515 m 6 Y s 317 515 m 6 Y s 338 508 m 13 Y s 360 515 m 6 Y s 382 515 m 6 Y s
 403 515 m 6 Y s 425 515 m 6 Y s 447 508 m 13 Y s 468 515 m 6 Y s 490 515 m 6 Y s 512 515 m 6 Y s 533 515 m 6 Y s 555 508 m 13 Y s 577 515 m 6 Y s 598 515 m 6 Y s 620 515 m 6 Y s 642 515 m 6 Y s 663 508 m 13 Y s 230 508 m 13 Y s 208 515 m 6 Y s 187
 515 m 6 Y s 165 515 m 6 Y s 663 508 m 13 Y s 685 515 m 6 Y s 143 93 m 428 Y s
 gsave  710 566 23 12 C 45.5822 455.822 t 90 r /Helvetica findfont 28.5925 sf 0 0 m (1.26 ) show NC gr 
 gsave  710 566 23 12 C 31.3378 450.125 t 90 r /Helvetica findfont 20.0147 sf 0 0 m ( ) show NC gr 
 gsave  710 566 23 12 C 45.5822 438.729 t 90 r /Helvetica findfont 28.5925 sf 0 0 m (/) show NC gr 
 gsave  710 566 23 12 C 54.1289 433.031 t 90 r /Helvetica findfont 20.0147 sf 0 0 m ( ) show NC gr 
 gsave  710 566 23 12 C 45.5822 324.773 t 90 r /Helvetica findfont 28.5925 sf 0 0 m (\(1/N\) dN) show NC gr  160 93 m -17 X s 152 113 m -9 X s 152 133 m -9 X s 152 152 m -9 X s 160 172 m -17 X s 152 191 m -9 X s 152 211 m -9 X s 152 231 m -9 X s 160
 250 m -17 X s 152 270 m -9 X s 152 290 m -9 X s 152 309 m -9 X s 160 329 m -17 X s 152 348 m -9 X s 152 368 m -9 X s 152 388 m -9 X s 160 407 m -17 X s 152 427 m -9 X s 152 447 m -9 X s 152 466 m -9 X s 160 486 m -17 X s 160 486 m -17 X s 152 505 m
 -9 X s
 gsave  710 566 23 12 C 119.653 82.6178 t 0 r /Helvetica findfont 25.7332 sf 0 0 m (0) show NC gr 
 gsave  710 566 23 12 C 82.6178 162.387 t 0 r /Helvetica findfont 25.7332 sf 0 0 m (0.02) show NC gr 
 gsave  710 566 23 12 C 82.6178 239.307 t 0 r /Helvetica findfont 25.7332 sf 0 0 m (0.04) show NC gr 
 gsave  710 566 23 12 C 82.6178 319.076 t 0 r /Helvetica findfont 25.7332 sf 0 0 m (0.06) show NC gr 
 gsave  710 566 23 12 C 82.6178 395.996 t 0 r /Helvetica findfont 25.7332 sf 0 0 m (0.08) show NC gr 
 gsave  710 566 23 12 C 102.56 475.765 t 0 r /Helvetica findfont 25.7332 sf 0 0 m (0.1) show NC gr  691 93 m 428 Y s 674 93 m 17 X s 683 113 m 8 X s 683 133 m 8 X s 683 152 m 8 X s 674 172 m 17 X s 683 191 m 8 X s 683 211 m 8 X s 683 231 m 8 X s 674
 250 m 17 X s 683 270 m 8 X s 683 290 m 8 X s 683 309 m 8 X s 674 329 m 17 X s 683 348 m 8 X s 683 368 m 8 X s 683 388 m 8 X s 674 407 m 17 X s 683 427 m 8 X s 683 447 m 8 X s 683 466 m 8 X s 674 486 m 17 X s 674 486 m 17 X s 683 505 m 8 X s 1 0 0 c
 6 lw black 3 lw 1 0 0 c 691 108 m -14 -14 d s 676 93 m s 691 123 m -14 -14 d s 661 93 m s 686 133 m -9 -9 d s 646 93 m cl s 631 93 m s 616 93 m s 601 93 m s 586 93 m s 571 93 m s 556 93 m s 554 106 m -13 -13 d s 554 122 m -14 -14 d s 526 93 m s 551
 134 m -11 -11 d s 511 93 m s 496 93 m s 481 93 m s 465 93 m s 458 101 m -8 -8 d s 458 116 m -23 -23 d s 458 131 m -38 -38 d s 444 133 m -39 -40 d s 444 148 m -54 -55 d s 444 163 m -69 -70 d s 441 174 m -81 -81 d s 431 180 m -86 -87 d s 431 195 m
 -101 -102 d s 431 210 m -116 -117 d s 419 213 m -119 -120 d s 417 227 m -132 -134 d s 417 242 m -147 -149 d s 413 253 m -37 -37 d s 372 212 m -78 -79 d s 294 133 m -40 -40 d s 403 258 m -27 -27 d s 362 217 m -68 -69 d s 280 134 m -41 -41 d s 403 273
 m -27 -27 d s 362 232 m -68 -69 d s 280 150 m -56 -57 d s 403 289 m -27 -28 d s 362 247 m -68 -68 d s 280 165 m -71 -72 d s 403 304 m -27 -28 d s 362 262 m -68 -68 d s 274 174 m -80 -81 d s 403 319 m -13 -14 d s 376 291 m s 362 278 m -68 -69 d s 258
 173 m -32 -33 d s 218 133 m -39 -40 d s 400 331 m -10 -11 d s 362 293 m -68 -69 d s 253 183 m -27 -28 d s 212 141 m -41 -41 d s 164 93 m cl s 362 308 m -68 -69 d s 253 198 m -27 -28 d s 212 157 m -41 -42 d s 157 102 m -8 -9 d s 362 323 m -27 -27 d s
 333 293 m -25 -25 d s 253 213 m -27 -27 d s 212 172 m -27 -28 d s 173 133 m -2 -2 d s 157 117 m -14 -14 d s 362 338 m -27 -27 d s 316 292 m -8 -9 d s 253 228 m -14 -14 d s 238 213 m -12 -12 d s 201 176 m -16 -17 d s 157 132 m -14 -14 d s 362 353 m
 -27 -27 d s 253 243 m -14 -13 d s 198 188 m -13 -13 d s 157 147 m -14 -14 d s 362 369 m -27 -28 d s 246 252 m -7 -7 d s 198 204 m -13 -14 d s 157 162 m -14 -14 d s 362 384 m -27 -28 d s 192 212 m -7 -7 d s 155 175 m -12 -11 d s 362 399 m -27 -28 d s
 361 413 m -26 -26 d s 349 416 m -14 -14 d s 349 431 m -14 -14 d s 349 446 m -14 -14 d s 338 450 m -3 -3 d s 6 lw 143 175 m 14 X -82 Y 14 X 40 Y 14 X 79 Y 13 X -36 Y 14 X -43 Y 14 X 80 Y 13 X 39 Y 14 X -79 Y 14 X 1 Y 13 X -41 Y 14 X 120 Y 14 X 39 Y
 13 X 1 Y 14 X 157 Y 14 X -37 Y 13 X -201 Y 14 X 79 Y 14 X 40 Y 13 X -78 Y 14 X -40 Y 14 X -39 Y 13 X -41 Y 14 X -40 Y 82 X 41 Y 14 X -41 Y 123 X 40 Y 14 X s black 3 lw 143 93 m 548 X s 230 106 m -13 Y s 252 100 m -7 Y s 273 100 m -7 Y s 295 100 m -7
 Y s 317 100 m -7 Y s 338 106 m -13 Y s 360 100 m -7 Y s 382 100 m -7 Y s 403 100 m -7 Y s 425 100 m -7 Y s 447 106 m -13 Y s 468 100 m -7 Y s 490 100 m -7 Y s 512 100 m -7 Y s 533 100 m -7 Y s 555 106 m -13 Y s 577 100 m -7 Y s 598 100 m -7 Y s 620
 100 m -7 Y s 642 100 m -7 Y s 663 106 m -13 Y s 230 106 m -13 Y s 208 100 m -7 Y s 187 100 m -7 Y s 165 100 m -7 Y s 663 106 m -13 Y s 685 100 m -7 Y s 143 521 m 548 X s 230 508 m 13 Y s 252 515 m 6 Y s 273 515 m 6 Y s 295 515 m 6 Y s 317 515 m 6 Y
 s 338 508 m 13 Y s 360 515 m 6 Y s 382 515 m 6 Y s 403 515 m 6 Y s 425 515 m 6 Y s 447 508 m 13 Y s 468 515 m 6 Y s 490 515 m 6 Y s 512 515 m 6 Y s 533 515 m 6 Y s 555 508 m 13 Y s 577 515 m 6 Y s 598 515 m 6 Y s 620 515 m 6 Y s 642 515 m 6 Y s 663
 508 m 13 Y s 230 508 m 13 Y s 208 515 m 6 Y s 187 515 m 6 Y s 165 515 m 6 Y s 663 508 m 13 Y s 685 515 m 6 Y s 143 93 m 428 Y s 160 93 m -17 X s 152 113 m -9 X s 152 133 m -9 X s 152 152 m -9 X s 160 172 m -17 X s 152 191 m -9 X s 152 211 m -9 X s
 152 231 m -9 X s 160 250 m -17 X s 152 270 m -9 X s 152 290 m -9 X s 152 309 m -9 X s 160 329 m -17 X s 152 348 m -9 X s 152 368 m -9 X s 152 388 m -9 X s 160 407 m -17 X s 152 427 m -9 X s 152 447 m -9 X s 152 466 m -9 X s 160 486 m -17 X s 160 486
 m -17 X s 152 505 m -9 X s 691 93 m 428 Y s 674 93 m 17 X s 683 113 m 8 X s 683 133 m 8 X s 683 152 m 8 X s 674 172 m 17 X s 683 191 m 8 X s 683 211 m 8 X s 683 231 m 8 X s 674 250 m 17 X s 683 270 m 8 X s 683 290 m 8 X s 683 309 m 8 X s 674 329 m
 17 X s 683 348 m 8 X s 683 368 m 8 X s 683 388 m 8 X s 674 407 m 17 X s 683 427 m 8 X s 683 447 m 8 X s 683 466 m 8 X s 674 486 m 17 X s 674 486 m 17 X s 683 505 m 8 X s
 gsave  710 566 23 12 C 719.017 91.0528 t 90 r /Helvetica-Bold findfont 20.0147 sf 0 0 m (U/O\255flow \(S,B\): \(0.0, 0.0\)% / \(0.0, 0.0\)%) show NC gr  0.490196 0.545098 0.615686 c 0.364706 0.419608 0.490196 c 497 38 30 537 bf 0.490196 0.545098
 0.615686 c 30 537 m 497 X s 527 537 m 38 Y s 527 575 m -497 X s 30 575 m -38 Y s 1 1 1 c black 1 1 1 c
 gsave  710 566 23 12 C 39.8845 549.836 t 0 r /Helvetica-Bold findfont 20.0147 sf 0 0 m (Input variable'PCA'\255transformed : GTND_earnings) show NC gr  0.490196 0.545098 0.615686 c 0.941176 0.941176 0.941176 c 710 566 779 12 bf black 1 1 0.992157 c
 548 428 899 93 bf black 548 428 899 93 bl 1 1 0.992157 c 548 428 899 93 bf black 548 428 899 93 bl 0 0 0.933333 c 6 lw 0.49 0.6 0.82 c black 3 lw 0.49 0.6 0.82 c 899 93 m 55 X 49 Y 14 X -49 Y 54 X 49 Y 28 X -49 Y 41 X 48 Y 14 X 106 Y 13 X -9 Y 14 X
 -47 Y 14 X 143 Y 13 X 148 Y 14 X -292 Y 14 X 240 Y 13 X -241 Y 14 X 244 Y 14 X -146 Y 13 X -146 Y 14 X 99 Y 14 X -2 Y 13 X -145 Y 55 X 49 Y 14 X -49 Y 41 X 48 Y 13 X -48 Y 42 X f 6 lw 0 0 0.933333 c 0.49 0.6 0.82 c 0 0 0.933333 c 899 93 m 55 X 49 Y
 14 X -49 Y 54 X 49 Y 28 X -49 Y 41 X 48 Y 14 X 106 Y 13 X -9 Y 14 X -47 Y 14 X 143 Y 13 X 148 Y 14 X -292 Y 14 X 240 Y 13 X -241 Y 14 X 244 Y 14 X -146 Y 13 X -146 Y 14 X 99 Y 14 X -2 Y 13 X -145 Y 55 X 49 Y 14 X -49 Y 41 X 48 Y 13 X -48 Y 42 X s
 black 3 lw 899 93 m 548 X s
 gsave  710 566 779 12 C 1148.1 25.64 t 0 r /Helvetica findfont 28.5925 sf 0 0 m (GTND_economy \(PCA\)) show NC gr  977 106 m -13 Y s 997 100 m -7 Y s 1018 100 m -7 Y s 1038 100 m -7 Y s 1059 100 m -7 Y s 1079 106 m -13 Y s 1099 100 m -7 Y s 1120 100
 m -7 Y s 1140 100 m -7 Y s 1161 100 m -7 Y s 1181 106 m -13 Y s 1202 100 m -7 Y s 1222 100 m -7 Y s 1242 100 m -7 Y s 1263 100 m -7 Y s 1283 106 m -13 Y s 1304 100 m -7 Y s 1324 100 m -7 Y s 1345 100 m -7 Y s 1365 100 m -7 Y s 1385 106 m -13 Y s 977
 106 m -13 Y s 956 100 m -7 Y s 936 100 m -7 Y s 916 100 m -7 Y s 1385 106 m -13 Y s 1406 100 m -7 Y s 1426 100 m -7 Y s
 gsave  710 566 779 12 C 954.378 65.5245 t 0 r /Helvetica findfont 25.7332 sf 0 0 m (\25520) show NC gr 
 gsave  710 566 779 12 C 1056.94 65.5245 t 0 r /Helvetica findfont 25.7332 sf 0 0 m (\25510) show NC gr 
 gsave  710 566 779 12 C 1170.89 65.5245 t 0 r /Helvetica findfont 25.7332 sf 0 0 m (0) show NC gr 
 gsave  710 566 779 12 C 1267.76 65.5245 t 0 r /Helvetica findfont 25.7332 sf 0 0 m (10) show NC gr 
 gsave  710 566 779 12 C 1370.32 65.5245 t 0 r /Helvetica findfont 25.7332 sf 0 0 m (20) show NC gr  899 521 m 548 X s 977 508 m 13 Y s 997 515 m 6 Y s 1018 515 m 6 Y s 1038 515 m 6 Y s 1059 515 m 6 Y s 1079 508 m 13 Y s 1099 515 m 6 Y s 1120 515 m 6
 Y s 1140 515 m 6 Y s 1161 515 m 6 Y s 1181 508 m 13 Y s 1202 515 m 6 Y s 1222 515 m 6 Y s 1242 515 m 6 Y s 1263 515 m 6 Y s 1283 508 m 13 Y s 1304 515 m 6 Y s 1324 515 m 6 Y s 1345 515 m 6 Y s 1365 515 m 6 Y s 1385 508 m 13 Y s 977 508 m 13 Y s 956
 515 m 6 Y s 936 515 m 6 Y s 916 515 m 6 Y s 1385 508 m 13 Y s 1406 515 m 6 Y s 1426 515 m 6 Y s 899 93 m 428 Y s
 gsave  710 566 779 12 C 803.387 455.822 t 90 r /Helvetica findfont 28.5925 sf 0 0 m (1.34 ) show NC gr 
 gsave  710 566 779 12 C 789.143 450.125 t 90 r /Helvetica findfont 20.0147 sf 0 0 m ( ) show NC gr 
 gsave  710 566 779 12 C 803.387 438.729 t 90 r /Helvetica findfont 28.5925 sf 0 0 m (/) show NC gr 
 gsave  710 566 779 12 C 811.934 433.031 t 90 r /Helvetica findfont 20.0147 sf 0 0 m ( ) show NC gr 
 gsave  710 566 779 12 C 803.387 324.773 t 90 r /Helvetica findfont 28.5925 sf 0 0 m (\(1/N\) dN) show NC gr  915 93 m -16 X s 907 112 m -8 X s 907 130 m -8 X s 907 148 m -8 X s 915 166 m -16 X s 907 184 m -8 X s 907 202 m -8 X s 907 221 m -8 X s 915
 239 m -16 X s 907 257 m -8 X s 907 275 m -8 X s 907 293 m -8 X s 915 312 m -16 X s 907 330 m -8 X s 907 348 m -8 X s 907 366 m -8 X s 915 384 m -16 X s 907 403 m -8 X s 907 421 m -8 X s 907 439 m -8 X s 915 457 m -16 X s 915 457 m -16 X s 907 475 m
 -8 X s 907 494 m -8 X s 907 512 m -8 X s
 gsave  710 566 779 12 C 874.609 82.6178 t 0 r /Helvetica findfont 25.7332 sf 0 0 m (0) show NC gr 
 gsave  710 566 779 12 C 837.574 156.689 t 0 r /Helvetica findfont 25.7332 sf 0 0 m (0.02) show NC gr 
 gsave  710 566 779 12 C 837.574 227.911 t 0 r /Helvetica findfont 25.7332 sf 0 0 m (0.04) show NC gr 
 gsave  710 566 779 12 C 837.574 301.982 t 0 r /Helvetica findfont 25.7332 sf 0 0 m (0.06) show NC gr 
 gsave  710 566 779 12 C 837.574 373.205 t 0 r /Helvetica findfont 25.7332 sf 0 0 m (0.08) show NC gr 
 gsave  710 566 779 12 C 857.516 447.276 t 0 r /Helvetica findfont 25.7332 sf 0 0 m (0.1) show NC gr  1447 93 m 428 Y s 1430 93 m 17 X s 1438 112 m 9 X s 1438 130 m 9 X s 1438 148 m 9 X s 1430 166 m 17 X s 1438 184 m 9 X s 1438 202 m 9 X s 1438 221 m
 9 X s 1430 239 m 17 X s 1438 257 m 9 X s 1438 275 m 9 X s 1438 293 m 9 X s 1430 312 m 17 X s 1438 330 m 9 X s 1438 348 m 9 X s 1438 366 m 9 X s 1430 384 m 17 X s 1438 403 m 9 X s 1438 421 m 9 X s 1438 439 m 9 X s 1430 457 m 17 X s 1430 457 m 17 X s
 1438 475 m 9 X s 1438 494 m 9 X s 1438 512 m 9 X s 1 0 0 c 6 lw black 3 lw 1 0 0 c 1433 93 m s 1418 93 m s 1403 93 m s 1388 93 m s 1372 93 m s 1357 93 m s 1342 93 m s 1327 93 m s 1323 105 m -11 -12 d s 1323 120 m -26 -27 d s 1317 128 m -21 -21 d s
 1282 94 m -1 Y s 1310 136 m -14 -14 d s 1282 109 m -15 -16 d s 1310 151 m -14 -13 d s 1282 124 m -30 -31 d s 1306 162 m -10 -9 d s 1271 128 m -34 -35 d s 1269 140 m -47 -47 d s 1269 155 m -62 -62 d s 1269 171 m -77 -78 d s 1269 186 m -93 -93 d s
 1266 198 m -105 -105 d s 1250 197 m -104 -104 d s 1236 199 m -105 -106 d s 1228 205 m -110 -110 d s 1116 93 m s 1228 220 m -110 -110 d s 1101 93 m s 1228 235 m -110 -109 d s 1086 93 m s 1228 250 m -110 -109 d s 1077 100 m -6 -7 d s 1228 265 m -110
 -109 d s 1077 115 m -13 -14 d s 1056 93 m s 1228 281 m -110 -110 d s 1076 128 m -12 -12 d s 1041 93 m s 1228 296 m -110 -110 d s 1036 104 m -10 -11 d s 1228 311 m -110 -110 d s 1036 119 m -14 -14 d s 1011 93 m s 1228 326 m -82 -82 d s 1136 234 m -18
 -18 d s 1030 128 m -8 -8 d s 996 93 m s 1222 336 m -76 -77 d s 1132 245 m -14 -14 d s 995 108 m -14 -14 d s 981 93 m s 1214 342 m -27 -27 d s 1175 303 m -29 -29 d s 1132 260 m -14 -14 d s 995 123 m -14 -14 d s 965 93 m s 1214 357 m -27 -27 d s 1173
 316 m -27 -27 d s 1132 275 m -14 -14 d s 985 128 m -4 -4 d s 954 97 m -4 -4 d s 1214 373 m -27 -28 d s 1173 331 m -27 -27 d s 1132 290 m -14 -13 d s 954 112 m -14 -14 d s 935 93 m cl s 1200 374 m -13 -14 d s 1173 347 m -27 -28 d s 1132 305 m -14 -13
 d s 954 127 m -14 -13 d s 920 93 m s 1200 389 m -13 -14 d s 1173 362 m -27 -28 d s 1132 321 m -14 -14 d s 913 101 m -8 -8 d s 1200 404 m -13 -14 d s 1168 372 m -22 -23 d s 1132 336 m -14 -14 d s 913 116 m -14 -13 d s 1200 419 m -13 -13 d s 1159 378
 m -13 -14 d s 1132 351 m -14 -14 d s 910 128 m -11 -10 d s 1200 434 m -13 -13 d s 1159 393 m -13 -13 d s 1132 366 m -14 -14 d s 1192 441 m -5 -5 d s 1159 408 m -13 -13 d s 1122 371 m -4 -4 d s 6 lw 899 128 m 14 X -35 Y 27 X 35 Y 14 X -35 Y 27 X 35 Y
 14 X -35 Y 27 X 35 Y 14 X -35 Y 28 X 35 Y 13 X -35 Y 41 X 278 Y 14 X -137 Y 14 X 174 Y 13 X -36 Y 14 X -69 Y 14 X 138 Y 13 X -68 Y 14 X -37 Y 14 X -137 Y 13 X -2 Y 14 X 1 Y 14 X -70 Y 13 X -35 Y 14 X 69 Y 14 X -34 Y 13 X -35 Y 124 X s black 3 lw 899
 93 m 548 X s 977 106 m -13 Y s 997 100 m -7 Y s 1018 100 m -7 Y s 1038 100 m -7 Y s 1059 100 m -7 Y s 1079 106 m -13 Y s 1099 100 m -7 Y s 1120 100 m -7 Y s 1140 100 m -7 Y s 1161 100 m -7 Y s 1181 106 m -13 Y s 1202 100 m -7 Y s 1222 100 m -7 Y s
 1242 100 m -7 Y s 1263 100 m -7 Y s 1283 106 m -13 Y s 1304 100 m -7 Y s 1324 100 m -7 Y s 1345 100 m -7 Y s 1365 100 m -7 Y s 1385 106 m -13 Y s 977 106 m -13 Y s 956 100 m -7 Y s 936 100 m -7 Y s 916 100 m -7 Y s 1385 106 m -13 Y s 1406 100 m -7 Y
 s 1426 100 m -7 Y s 899 521 m 548 X s 977 508 m 13 Y s 997 515 m 6 Y s 1018 515 m 6 Y s 1038 515 m 6 Y s 1059 515 m 6 Y s 1079 508 m 13 Y s 1099 515 m 6 Y s 1120 515 m 6 Y s 1140 515 m 6 Y s 1161 515 m 6 Y s 1181 508 m 13 Y s 1202 515 m 6 Y s 1222
 515 m 6 Y s 1242 515 m 6 Y s 1263 515 m 6 Y s 1283 508 m 13 Y s 1304 515 m 6 Y s 1324 515 m 6 Y s 1345 515 m 6 Y s 1365 515 m 6 Y s 1385 508 m 13 Y s 977 508 m 13 Y s 956 515 m 6 Y s 936 515 m 6 Y s 916 515 m 6 Y s 1385 508 m 13 Y s 1406 515 m 6 Y s
 1426 515 m 6 Y s 899 93 m 428 Y s 915 93 m -16 X s 907 112 m -8 X s 907 130 m -8 X s 907 148 m -8 X s 915 166 m -16 X s 907 184 m -8 X s 907 202 m -8 X s 907 221 m -8 X s 915 239 m -16 X s 907 257 m -8 X s 907 275 m -8 X s 907 293 m -8 X s 915 312 m
 -16 X s 907 330 m -8 X s 907 348 m -8 X s 907 366 m -8 X s 915 384 m -16 X s 907 403 m -8 X s 907 421 m -8 X s 907 439 m -8 X s 915 457 m -16 X s 915 457 m -16 X s 907 475 m -8 X s 907 494 m -8 X s 907 512 m -8 X s 1447 93 m 428 Y s 1430 93 m 17 X s
 1438 112 m 9 X s 1438 130 m 9 X s 1438 148 m 9 X s 1430 166 m 17 X s 1438 184 m 9 X s 1438 202 m 9 X s 1438 221 m 9 X s 1430 239 m 17 X s 1438 257 m 9 X s 1438 275 m 9 X s 1438 293 m 9 X s 1430 312 m 17 X s 1438 330 m 9 X s 1438 348 m 9 X s 1438 366
 m 9 X s 1430 384 m 17 X s 1438 403 m 9 X s 1438 421 m 9 X s 1438 439 m 9 X s 1430 457 m 17 X s 1430 457 m 17 X s 1438 475 m 9 X s 1438 494 m 9 X s 1438 512 m 9 X s
 gsave  710 566 779 12 C 1474.92 91.0528 t 90 r /Helvetica-Bold findfont 20.0147 sf 0 0 m (U/O\255flow \(S,B\): \(0.0, 0.0\)% / \(0.0, 0.0\)%) show NC gr  0.490196 0.545098 0.615686 c 0.364706 0.419608 0.490196 c 497 38 786 537 bf 0.490196 0.545098
 0.615686 c 786 537 m 497 X s 1283 537 m 38 Y s 1283 575 m -497 X s 786 575 m -38 Y s 1 1 1 c black 1 1 1 c
 gsave  710 566 779 12 C 794.84 549.836 t 0 r /Helvetica-Bold findfont 20.0147 sf 0 0 m (Input variable'PCA'\255transformed : GTND_economy) show NC gr  0.490196 0.545098 0.615686 c 0.941176 0.941176 0.941176 c 711 566 1534 12 bf black 1 1 0.992157 c
 547 428 1655 93 bf black 547 428 1655 93 bl 1 1 0.992157 c 547 428 1655 93 bf black 547 428 1655 93 bl 0 0 0.933333 c 6 lw 0.49 0.6 0.82 c black 3 lw 0.49 0.6 0.82 c 1655 93 m 110 X 61 Y 13 X -61 Y 14 X 56 Y 14 X -56 Y 41 X 57 Y 13 X -57 Y 28 X 335
 Y 13 X -222 Y 14 X 220 Y 14 X 56 Y 14 X -51 Y 13 X -112 Y 14 X 56 Y 14 X -226 Y 13 X 288 Y 14 X -119 Y 14 X -169 Y 27 X -56 Y 14 X 114 Y 13 X -114 Y 41 X 56 Y 14 X 3 Y 14 X -59 Y 54 X f 6 lw 0 0 0.933333 c 0.49 0.6 0.82 c 0 0 0.933333 c 1655 93 m
 110 X 61 Y 13 X -61 Y 14 X 56 Y 14 X -56 Y 41 X 57 Y 13 X -57 Y 28 X 335 Y 13 X -222 Y 14 X 220 Y 14 X 56 Y 14 X -51 Y 13 X -112 Y 14 X 56 Y 14 X -226 Y 13 X 288 Y 14 X -119 Y 14 X -169 Y 27 X -56 Y 14 X 114 Y 13 X -114 Y 41 X 56 Y 14 X 3 Y 14 X -59
 Y 54 X s black 3 lw 1655 93 m 547 X s
 gsave  711 566 1534 12 C 1962.89 25.64 t 0 r /Helvetica findfont 28.5925 sf 0 0 m (GTND_SPX \(PCA\)) show NC gr  1744 106 m -13 Y s 1766 100 m -7 Y s 1788 100 m -7 Y s 1809 100 m -7 Y s 1831 100 m -7 Y s 1853 106 m -13 Y s 1875 100 m -7 Y s 1897 100
 m -7 Y s 1918 100 m -7 Y s 1940 100 m -7 Y s 1962 106 m -13 Y s 1984 100 m -7 Y s 2006 100 m -7 Y s 2027 100 m -7 Y s 2049 100 m -7 Y s 2071 106 m -13 Y s 2093 100 m -7 Y s 2115 100 m -7 Y s 2136 100 m -7 Y s 2158 100 m -7 Y s 2180 106 m -13 Y s
 1744 106 m -13 Y s 1722 100 m -7 Y s 1700 100 m -7 Y s 1679 100 m -7 Y s 1657 100 m -7 Y s 2180 106 m -13 Y s 2202 100 m -7 Y s
 gsave  711 566 1534 12 C 1723.58 65.5245 t 0 r /Helvetica findfont 25.7332 sf 0 0 m (\25520) show NC gr 
 gsave  711 566 1534 12 C 1831.84 65.5245 t 0 r /Helvetica findfont 25.7332 sf 0 0 m (\25510) show NC gr 
 gsave  711 566 1534 12 C 1951.49 65.5245 t 0 r /Helvetica findfont 25.7332 sf 0 0 m (0) show NC gr 
 gsave  711 566 1534 12 C 2054.05 65.5245 t 0 r /Helvetica findfont 25.7332 sf 0 0 m (10) show NC gr 
 gsave  711 566 1534 12 C 2165.16 65.5245 t 0 r /Helvetica findfont 25.7332 sf 0 0 m (20) show NC gr  1655 521 m 547 X s 1744 508 m 13 Y s 1766 515 m 6 Y s 1788 515 m 6 Y s 1809 515 m 6 Y s 1831 515 m 6 Y s 1853 508 m 13 Y s 1875 515 m 6 Y s 1897 515
 m 6 Y s 1918 515 m 6 Y s 1940 515 m 6 Y s 1962 508 m 13 Y s 1984 515 m 6 Y s 2006 515 m 6 Y s 2027 515 m 6 Y s 2049 515 m 6 Y s 2071 508 m 13 Y s 2093 515 m 6 Y s 2115 515 m 6 Y s 2136 515 m 6 Y s 2158 515 m 6 Y s 2180 508 m 13 Y s 1744 508 m 13 Y s
 1722 515 m 6 Y s 1700 515 m 6 Y s 1679 515 m 6 Y s 1657 515 m 6 Y s 2180 508 m 13 Y s 2202 515 m 6 Y s 1655 93 m 428 Y s
 gsave  711 566 1534 12 C 1558.34 455.822 t 90 r /Helvetica findfont 28.5925 sf 0 0 m (1.25 ) show NC gr 
 gsave  711 566 1534 12 C 1544.1 450.125 t 90 r /Helvetica findfont 20.0147 sf 0 0 m ( ) show NC gr 
 gsave  711 566 1534 12 C 1558.34 438.729 t 90 r /Helvetica findfont 28.5925 sf 0 0 m (/) show NC gr 
 gsave  711 566 1534 12 C 1566.89 433.031 t 90 r /Helvetica findfont 20.0147 sf 0 0 m ( ) show NC gr 
 gsave  711 566 1534 12 C 1558.34 324.773 t 90 r /Helvetica findfont 28.5925 sf 0 0 m (\(1/N\) dN) show NC gr  1671 93 m -16 X s 1663 113 m -8 X s 1663 133 m -8 X s 1663 153 m -8 X s 1671 172 m -16 X s 1663 192 m -8 X s 1663 212 m -8 X s 1663 232 m
 -8 X s 1671 251 m -16 X s 1663 271 m -8 X s 1663 291 m -8 X s 1663 311 m -8 X s 1671 330 m -16 X s 1663 350 m -8 X s 1663 370 m -8 X s 1663 390 m -8 X s 1671 409 m -16 X s 1663 429 m -8 X s 1663 449 m -8 X s 1663 469 m -8 X s 1671 488 m -16 X s 1671
 488 m -16 X s 1663 508 m -8 X s
 gsave  711 566 1534 12 C 1632.41 82.6178 t 0 r /Helvetica findfont 25.7332 sf 0 0 m (0) show NC gr 
 gsave  711 566 1534 12 C 1595.38 162.387 t 0 r /Helvetica findfont 25.7332 sf 0 0 m (0.02) show NC gr 
 gsave  711 566 1534 12 C 1595.38 242.156 t 0 r /Helvetica findfont 25.7332 sf 0 0 m (0.04) show NC gr 
 gsave  711 566 1534 12 C 1595.38 319.076 t 0 r /Helvetica findfont 25.7332 sf 0 0 m (0.06) show NC gr 
 gsave  711 566 1534 12 C 1595.38 398.845 t 0 r /Helvetica findfont 25.7332 sf 0 0 m (0.08) show NC gr 
 gsave  711 566 1534 12 C 1615.32 478.614 t 0 r /Helvetica findfont 25.7332 sf 0 0 m (0.1) show NC gr  2202 93 m 428 Y s 2186 93 m 16 X s 2194 113 m 8 X s 2194 133 m 8 X s 2194 153 m 8 X s 2186 172 m 16 X s 2194 192 m 8 X s 2194 212 m 8 X s 2194 232
 m 8 X s 2186 251 m 16 X s 2194 271 m 8 X s 2194 291 m 8 X s 2194 311 m 8 X s 2186 330 m 16 X s 2194 350 m 8 X s 2194 370 m 8 X s 2194 390 m 8 X s 2186 409 m 16 X s 2194 429 m 8 X s 2194 449 m 8 X s 2194 469 m 8 X s 2186 488 m 16 X s 2186 488 m 16 X
 s 2194 508 m 8 X s 1 0 0 c 6 lw black 3 lw 1 0 0 c 2188 93 m s 2173 93 m s 2158 93 m s 2143 93 m s 2128 93 m s 2113 93 m s 2098 93 m s 2093 104 m -10 -11 d s 2093 119 m -25 -26 d s 2093 134 m -40 -41 d s 2078 134 m -40 -41 d s 2064 135 m -42 -42 d s
 2052 138 m -45 -45 d s 2052 153 m -60 -60 d s 2052 168 m -75 -75 d s 2052 184 m -90 -91 d s 2052 199 m -105 -106 d s 2052 214 m -120 -121 d s 2038 215 m -121 -122 d s 2038 230 m -136 -137 d s 2038 246 m -151 -153 d s 2032 255 m -160 -162 d s 2025
 262 m -168 -169 d s 2025 277 m -178 -178 d s 1842 93 m s 2025 293 m -110 -111 d s 1907 174 m -60 -60 d s 1827 93 m s 2011 294 m -96 -96 d s 1901 184 m -41 -41 d s 1851 133 m -4 -4 d s 1819 101 m -8 -8 d s 2011 309 m -41 -41 d s 1956 254 m -41 -41 d
 s 1901 199 m -41 -41 d s 1819 116 m -13 -13 d s 1796 93 m cl s 2011 324 m -41 -41 d s 1956 269 m -41 -41 d s 1901 214 m -41 -41 d s 1819 132 m -13 -14 d s 1781 93 m s 2011 339 m -41 -41 d s 1956 284 m -27 -27 d s 1927 255 m -12 -12 d s 1901 229 m
 -41 -41 d s 1808 136 m -2 -3 d s 1766 93 m s 2011 355 m -41 -42 d s 1956 300 m -27 -28 d s 1901 245 m -27 -28 d s 1870 213 m -10 -10 d s 1751 93 m s 2011 370 m -41 -42 d s 1956 315 m -27 -28 d s 1901 260 m -27 -28 d s 1736 93 m s 2011 385 m -41 -41
 d s 1956 330 m -27 -28 d s 1901 275 m -27 -28 d s 1721 93 m cl s 2011 400 m -14 -14 d s 1988 377 m -18 -18 d s 1956 345 m -27 -27 d s 1901 290 m -27 -28 d s 1706 93 m s 2011 415 m -14 -14 d s 1973 377 m -3 -3 d s 1956 360 m -13 -14 d s 1932 336 m -3
 -3 d s 1901 305 m -27 -27 d s 1691 93 m s 1998 417 m -1 X s 1955 375 m -12 -13 d s 1901 320 m -27 -27 d s 1676 93 m cl s 1900 334 m -26 -26 d s 1669 102 m -8 -9 d s 1886 335 m -12 -12 d s 1669 117 m -14 -14 d s 1669 132 m -14 -14 d s 1656 134 m -1
 -1 d s 6 lw 1655 134 m 14 X -41 Y 137 X 43 Y 13 X -43 Y 28 X 40 Y 13 X 80 Y 14 X 122 Y 14 X -1 Y 13 X -160 Y 14 X 81 Y 14 X 81 Y 14 X 39 Y 13 X -121 Y 14 X 123 Y 27 X 40 Y 14 X -123 Y 14 X -39 Y 13 X -41 Y 14 X -79 Y 14 X -1 Y 27 X -41 Y 109 X s
 black 3 lw 1655 93 m 547 X s 1744 106 m -13 Y s 1766 100 m -7 Y s 1788 100 m -7 Y s 1809 100 m -7 Y s 1831 100 m -7 Y s 1853 106 m -13 Y s 1875 100 m -7 Y s 1897 100 m -7 Y s 1918 100 m -7 Y s 1940 100 m -7 Y s 1962 106 m -13 Y s 1984 100 m -7 Y s
 2006 100 m -7 Y s 2027 100 m -7 Y s 2049 100 m -7 Y s 2071 106 m -13 Y s 2093 100 m -7 Y s 2115 100 m -7 Y s 2136 100 m -7 Y s 2158 100 m -7 Y s 2180 106 m -13 Y s 1744 106 m -13 Y s 1722 100 m -7 Y s 1700 100 m -7 Y s 1679 100 m -7 Y s 1657 100 m
 -7 Y s 2180 106 m -13 Y s 2202 100 m -7 Y s 1655 521 m 547 X s 1744 508 m 13 Y s 1766 515 m 6 Y s 1788 515 m 6 Y s 1809 515 m 6 Y s 1831 515 m 6 Y s 1853 508 m 13 Y s 1875 515 m 6 Y s 1897 515 m 6 Y s 1918 515 m 6 Y s 1940 515 m 6 Y s 1962 508 m 13
 Y s 1984 515 m 6 Y s 2006 515 m 6 Y s 2027 515 m 6 Y s 2049 515 m 6 Y s 2071 508 m 13 Y s 2093 515 m 6 Y s 2115 515 m 6 Y s 2136 515 m 6 Y s 2158 515 m 6 Y s 2180 508 m 13 Y s 1744 508 m 13 Y s 1722 515 m 6 Y s 1700 515 m 6 Y s 1679 515 m 6 Y s 1657
 515 m 6 Y s 2180 508 m 13 Y s 2202 515 m 6 Y s 1655 93 m 428 Y s 1671 93 m -16 X s 1663 113 m -8 X s 1663 133 m -8 X s 1663 153 m -8 X s 1671 172 m -16 X s 1663 192 m -8 X s 1663 212 m -8 X s 1663 232 m -8 X s 1671 251 m -16 X s 1663 271 m -8 X s
 1663 291 m -8 X s 1663 311 m -8 X s 1671 330 m -16 X s 1663 350 m -8 X s 1663 370 m -8 X s 1663 390 m -8 X s 1671 409 m -16 X s 1663 429 m -8 X s 1663 449 m -8 X s 1663 469 m -8 X s 1671 488 m -16 X s 1671 488 m -16 X s 1663 508 m -8 X s 2202 93 m
 428 Y s 2186 93 m 16 X s 2194 113 m 8 X s 2194 133 m 8 X s 2194 153 m 8 X s 2186 172 m 16 X s 2194 192 m 8 X s 2194 212 m 8 X s 2194 232 m 8 X s 2186 251 m 16 X s 2194 271 m 8 X s 2194 291 m 8 X s 2194 311 m 8 X s 2186 330 m 16 X s 2194 350 m 8 X s
 2194 370 m 8 X s 2194 390 m 8 X s 2186 409 m 16 X s 2194 429 m 8 X s 2194 449 m 8 X s 2194 469 m 8 X s 2186 488 m 16 X s 2186 488 m 16 X s 2194 508 m 8 X s
 gsave  711 566 1534 12 C 2230.83 91.0528 t 90 r /Helvetica-Bold findfont 20.0147 sf 0 0 m (U/O\255flow \(S,B\): \(0.0, 0.0\)% / \(0.0, 0.0\)%) show NC gr  0.490196 0.545098 0.615686 c 0.364706 0.419608 0.490196 c 497 38 1542 537 bf 0.490196 0.545098
 0.615686 c 1542 537 m 497 X s 2039 537 m 38 Y s 2039 575 m -497 X s 1542 575 m -38 Y s 1 1 1 c black 1 1 1 c
 gsave  711 566 1534 12 C 1541.25 549.836 t 0 r /Helvetica-Bold findfont 22.874 sf 0 0 m (Input variable'PCA'\255transformed : GTND_SPX) show NC gr 
 gr  gr showpage
end
%%EOF
