%!PS-Adobe-2.0 EPSF-2.0
%%BoundingBox:  0 0 567 295
%%Title: plots/variables_pca_c3.eps: Input variables 'PCA'-transformed (training sample)
%%Creator: ROOT Version 5.34/09
%%CreationDate: Sat Jan  4 23:53:44 2014
%%EndComments
%%BeginProlog
80 dict begin
/s {stroke} def /l {lineto} def /m {moveto} def /t {translate} def
/r {rotate} def /rl {roll}  def /R {repeat} def
/d {rlineto} def /rm {rmoveto} def /gr {grestore} def /f {eofill} def
/c {setrgbcolor} def /black {0 setgray} def /sd {setdash} def
/cl {closepath} def /sf {scalefont setfont} def /lw {setlinewidth} def
/box {m dup 0 exch d exch 0 d 0 exch neg d cl} def
/NC{systemdict begin initclip end}def/C{NC box clip newpath}def
/bl {box s} def /bf {box f} def /Y { 0 exch d} def /X { 0 d} def 
/K {{pop pop 0 moveto} exch kshow} bind def
/ita {/ang 15 def gsave [1 0 ang dup sin exch cos div 1 0 0] concat} def 
/mp {newpath /y exch def /x exch def} def
/side {[w .77 mul w .23 mul] .385 w mul sd w 0 l currentpoint t -144 r} def
/mr {mp x y w2 0 360 arc} def /m24 {mr s} def /m20 {mr f} def
/mb {mp x y w2 add m w2 neg 0 d 0 w neg d w 0 d 0 w d cl} def
/mt {mp x y w2 add m w2 neg w neg d w 0 d cl} def
/m21 {mb f} def /m25 {mb s} def /m22 {mt f} def /m26{mt s} def
/m23 {mp x y w2 sub m w2 w d w neg 0 d cl f} def
/m27 {mp x y w2 add m w3 neg w2 neg d w3 w2 neg d w3 w2 d cl s} def
/m28 {mp x w2 sub y w2 sub w3 add m w3 0 d  0 w3 neg d w3 0 d 0 w3 d w3 0 d  0 w3 d w3 neg 0 d 0 w3 d w3 neg 0 d 0 w3 neg d w3 neg 0 d cl s } def
/m29 {mp gsave x w2 sub y w2 add w3 sub m currentpoint t 4 {side} repeat cl fill gr} def
/m30 {mp gsave x w2 sub y w2 add w3 sub m currentpoint t 4 {side} repeat cl s gr} def
/m31 {mp x y w2 sub m 0 w d x w2 sub y m w 0 d x w2 sub y w2 add m w w neg d x w2 sub y w2 sub m w w d s} def
/m32 {mp x y w2 sub m w2 w d w neg 0 d cl s} def
/m33 {mp x y w2 add m w3 neg w2 neg d w3 w2 neg d w3 w2 d cl f} def
/m34 {mp x w2 sub y w2 sub w3 add m w3 0 d  0 w3 neg d w3 0 d 0 w3 d w3 0 d  0 w3 d w3 neg 0 d 0 w3 d w3 neg 0 d 0 w3 neg d w3 neg 0 d cl f } def
/m2 {mp x y w2 sub m 0 w d x w2 sub y m w 0 d s} def
/m5 {mp x w2 sub y w2 sub m w w d x w2 sub y w2 add m w w neg d s} def
/reEncode {exch findfont dup length dict begin {1 index /FID eq  {pop pop} {def} ifelse } forall /Encoding exch def currentdict end dup /FontName get exch definefont pop } def [/Times-Bold /Times-Italic /Times-BoldItalic /Helvetica /Helvetica-Oblique
 /Helvetica-Bold /Helvetica-BoldOblique /Courier /Courier-Oblique /Courier-Bold /Courier-BoldOblique /Times-Roman /AvantGarde-Book /AvantGarde-BookOblique /AvantGarde-Demi /AvantGarde-DemiOblique /Bookman-Demi /Bookman-DemiItalic /Bookman-Light
 /Bookman-LightItalic /Helvetica-Narrow /Helvetica-Narrow-Bold /Helvetica-Narrow-BoldOblique /Helvetica-Narrow-Oblique /NewCenturySchlbk-Roman /NewCenturySchlbk-Bold /NewCenturySchlbk-BoldItalic /NewCenturySchlbk-Italic /Palatino-Bold
 /Palatino-BoldItalic /Palatino-Italic /Palatino-Roman ] {ISOLatin1Encoding reEncode } forall
%%EndProlog
%%BeginSetup
%%EndSetup
newpath  gsave  .25 .25 scale  gsave  0 0 t 0.490196 0.545098 0.615686 c[  ] 0 sd 3 lw 0.941176 0.941176 0.941176 c 2268 1179 0 0 bf 0.490196 0.545098 0.615686 c 0.941176 0.941176 0.941176 c 710 566 23 602 bf black 1 1 0.992157 c 548 428 143 683 bf
 black 548 428 143 683 bl 1 1 0.992157 c 548 428 143 683 bf black 548 428 143 683 bl 0 0 0.933333 c 6 lw 0.49 0.6 0.82 c black 3 lw 0.49 0.6 0.82 c 143 683 m 42 Y 14 X -42 Y 110 X 42 Y 13 X -42 Y 69 X 86 Y 13 X 161 Y 14 X -123 Y 14 X 133 Y 13 X -174
 Y 14 X 206 Y 14 X -82 Y 13 X -83 Y 14 X 211 Y 14 X -124 Y 13 X -46 Y 14 X -124 Y 14 X -41 Y 13 X 83 Y 14 X -83 Y 151 X f 6 lw 0 0 0.933333 c 0.49 0.6 0.82 c 0 0 0.933333 c 143 725 m 14 X -42 Y 110 X 42 Y 13 X -42 Y 69 X 86 Y 13 X 161 Y 14 X -123 Y
 14 X 133 Y 13 X -174 Y 14 X 206 Y 14 X -82 Y 13 X -83 Y 14 X 211 Y 14 X -124 Y 13 X -46 Y 14 X -124 Y 14 X -41 Y 13 X 83 Y 14 X -83 Y 151 X s black 3 lw 143 683 m 548 X s
 gsave  710 566 23 602 C 461.52 615.36 t 0 r /Helvetica findfont 28.5925 sf 0 0 m (GTND_war \(PCA\)) show NC gr  171 696 m -13 Y s 185 690 m -7 Y s 198 690 m -7 Y s 211 690 m -7 Y s 225 696 m -13 Y s 238 690 m -7 Y s 251 690 m -7 Y s 265 690 m -7 Y s
 278 696 m -13 Y s 291 690 m -7 Y s 305 690 m -7 Y s 318 690 m -7 Y s 332 696 m -13 Y s 345 690 m -7 Y s 358 690 m -7 Y s 372 690 m -7 Y s 385 696 m -13 Y s 398 690 m -7 Y s 412 690 m -7 Y s 425 690 m -7 Y s 438 696 m -13 Y s 452 690 m -7 Y s 465 690
 m -7 Y s 479 690 m -7 Y s 492 696 m -13 Y s 505 690 m -7 Y s 519 690 m -7 Y s 532 690 m -7 Y s 545 696 m -13 Y s 559 690 m -7 Y s 572 690 m -7 Y s 585 690 m -7 Y s 599 696 m -13 Y s 612 690 m -7 Y s 626 690 m -7 Y s 639 690 m -7 Y s 652 696 m -13 Y
 s 171 696 m -13 Y s 158 690 m -7 Y s 144 690 m -7 Y s 652 696 m -13 Y s 666 690 m -7 Y s 679 690 m -7 Y s
 gsave  710 566 23 602 C 150.991 655.245 t 0 r /Helvetica findfont 25.7332 sf 0 0 m (\25510) show NC gr 
 gsave  710 566 23 602 C 210.818 655.245 t 0 r /Helvetica findfont 25.7332 sf 0 0 m (\2558) show NC gr 
 gsave  710 566 23 602 C 264.947 655.245 t 0 r /Helvetica findfont 25.7332 sf 0 0 m (\2556) show NC gr 
 gsave  710 566 23 602 C 319.076 655.245 t 0 r /Helvetica findfont 25.7332 sf 0 0 m (\2554) show NC gr 
 gsave  710 566 23 602 C 373.205 655.245 t 0 r /Helvetica findfont 25.7332 sf 0 0 m (\2552) show NC gr 
 gsave  710 566 23 602 C 427.334 655.245 t 0 r /Helvetica findfont 25.7332 sf 0 0 m (0) show NC gr 
 gsave  710 566 23 602 C 481.462 655.245 t 0 r /Helvetica findfont 25.7332 sf 0 0 m (2) show NC gr 
 gsave  710 566 23 602 C 535.591 655.245 t 0 r /Helvetica findfont 25.7332 sf 0 0 m (4) show NC gr 
 gsave  710 566 23 602 C 589.72 655.245 t 0 r /Helvetica findfont 25.7332 sf 0 0 m (6) show NC gr 
 gsave  710 566 23 602 C 641 655.245 t 0 r /Helvetica findfont 25.7332 sf 0 0 m (8) show NC gr  143 1111 m 548 X s 171 1098 m 13 Y s 185 1104 m 7 Y s 198 1104 m 7 Y s 211 1104 m 7 Y s 225 1098 m 13 Y s 238 1104 m 7 Y s 251 1104 m 7 Y s 265 1104 m 7 Y
 s 278 1098 m 13 Y s 291 1104 m 7 Y s 305 1104 m 7 Y s 318 1104 m 7 Y s 332 1098 m 13 Y s 345 1104 m 7 Y s 358 1104 m 7 Y s 372 1104 m 7 Y s 385 1098 m 13 Y s 398 1104 m 7 Y s 412 1104 m 7 Y s 425 1104 m 7 Y s 438 1098 m 13 Y s 452 1104 m 7 Y s 465
 1104 m 7 Y s 479 1104 m 7 Y s 492 1098 m 13 Y s 505 1104 m 7 Y s 519 1104 m 7 Y s 532 1104 m 7 Y s 545 1098 m 13 Y s 559 1104 m 7 Y s 572 1104 m 7 Y s 585 1104 m 7 Y s 599 1098 m 13 Y s 612 1104 m 7 Y s 626 1104 m 7 Y s 639 1104 m 7 Y s 652 1098 m
 13 Y s 171 1098 m 13 Y s 158 1104 m 7 Y s 144 1104 m 7 Y s 652 1098 m 13 Y s 666 1104 m 7 Y s 679 1104 m 7 Y s 143 683 m 428 Y s
 gsave  710 566 23 602 C 45.5822 1031.3 t 90 r /Helvetica findfont 28.5925 sf 0 0 m (0.512 ) show NC gr 
 gsave  710 566 23 602 C 31.3378 1025.6 t 90 r /Helvetica findfont 20.0147 sf 0 0 m ( ) show NC gr 
 gsave  710 566 23 602 C 45.5822 1014.2 t 90 r /Helvetica findfont 28.5925 sf 0 0 m (/) show NC gr 
 gsave  710 566 23 602 C 54.1289 1008.51 t 90 r /Helvetica findfont 20.0147 sf 0 0 m ( ) show NC gr 
 gsave  710 566 23 602 C 45.5822 900.249 t 90 r /Helvetica findfont 28.5925 sf 0 0 m (\(1/N\) dN) show NC gr  160 683 m -17 X s 152 695 m -9 X s 152 707 m -9 X s 152 719 m -9 X s 152 731 m -9 X s 160 743 m -17 X s 152 755 m -9 X s 152 767 m -9 X s
 152 779 m -9 X s 152 791 m -9 X s 160 803 m -17 X s 152 814 m -9 X s 152 826 m -9 X s 152 838 m -9 X s 152 850 m -9 X s 160 862 m -17 X s 152 874 m -9 X s 152 886 m -9 X s 152 898 m -9 X s 152 910 m -9 X s 160 922 m -17 X s 152 934 m -9 X s 152 946
 m -9 X s 152 958 m -9 X s 152 970 m -9 X s 160 982 m -17 X s 152 994 m -9 X s 152 1006 m -9 X s 152 1018 m -9 X s 152 1030 m -9 X s 160 1042 m -17 X s 152 1054 m -9 X s 152 1065 m -9 X s 152 1077 m -9 X s 152 1089 m -9 X s 160 1101 m -17 X s 160
 1101 m -17 X s
 gsave  710 566 23 602 C 119.653 672.338 t 0 r /Helvetica findfont 25.7332 sf 0 0 m (0) show NC gr 
 gsave  710 566 23 602 C 82.6178 732.165 t 0 r /Helvetica findfont 25.7332 sf 0 0 m (0.05) show NC gr 
 gsave  710 566 23 602 C 102.56 791.991 t 0 r /Helvetica findfont 25.7332 sf 0 0 m (0.1) show NC gr 
 gsave  710 566 23 602 C 82.6178 851.818 t 0 r /Helvetica findfont 25.7332 sf 0 0 m (0.15) show NC gr 
 gsave  710 566 23 602 C 96.8623 911.645 t 0 r /Helvetica findfont 25.7332 sf 0 0 m (0.2) show NC gr 
 gsave  710 566 23 602 C 82.6178 971.471 t 0 r /Helvetica findfont 25.7332 sf 0 0 m (0.25) show NC gr 
 gsave  710 566 23 602 C 96.8623 1031.3 t 0 r /Helvetica findfont 25.7332 sf 0 0 m (0.3) show NC gr 
 gsave  710 566 23 602 C 82.6178 1091.12 t 0 r /Helvetica findfont 25.7332 sf 0 0 m (0.35) show NC gr  691 683 m 428 Y s 674 683 m 17 X s 683 695 m 8 X s 683 707 m 8 X s 683 719 m 8 X s 683 731 m 8 X s 674 743 m 17 X s 683 755 m 8 X s 683 767 m 8 X s
 683 779 m 8 X s 683 791 m 8 X s 674 803 m 17 X s 683 814 m 8 X s 683 826 m 8 X s 683 838 m 8 X s 683 850 m 8 X s 674 862 m 17 X s 683 874 m 8 X s 683 886 m 8 X s 683 898 m 8 X s 683 910 m 8 X s 674 922 m 17 X s 683 934 m 8 X s 683 946 m 8 X s 683
 958 m 8 X s 683 970 m 8 X s 674 982 m 17 X s 683 994 m 8 X s 683 1006 m 8 X s 683 1018 m 8 X s 683 1030 m 8 X s 674 1042 m 17 X s 683 1054 m 8 X s 683 1065 m 8 X s 683 1077 m 8 X s 683 1089 m 8 X s 674 1101 m 17 X s 674 1101 m 17 X s 1 0 0 c 6 lw
 black 3 lw 1 0 0 c 691 697 m -14 -14 d s 676 683 m s 691 712 m -14 -13 d s 661 683 m s 646 683 m cl s 631 683 m s 616 683 m s 609 690 m -8 -7 d s 609 706 m -14 -14 d s 586 683 m s 601 713 m -6 -6 d s 581 693 m -10 -10 d s 581 708 m -14 -13 d s 556
 683 m s 570 713 m -3 -3 d s 554 696 m -13 -13 d s 554 711 m -28 -27 d s 526 683 m s 540 713 m -14 -14 d s 513 685 m -2 -2 d s 540 728 m -14 -14 d s 513 700 m -17 -17 d s 540 743 m -14 -14 d s 513 715 m -32 -32 d s 513 731 m -48 -48 d s 509 742 m -59
 -59 d s 499 747 m -64 -64 d s 499 762 m -79 -79 d s 495 774 m -90 -91 d s 485 779 m -95 -96 d s 485 794 m -110 -111 d s 485 809 m -125 -126 d s 485 824 m -68 -68 d s 404 742 m -55 -55 d s 345 683 m s 485 840 m -68 -69 d s 403 757 m -54 -55 d s 335
 688 m -5 -5 d s 485 855 m -13 -14 d s 462 831 m -45 -45 d s 403 772 m -27 -27 d s 375 743 m -26 -26 d s 335 703 m -20 -20 d s 485 870 m -13 -14 d s 458 842 m -41 -41 d s 403 787 m -27 -27 d s 359 743 m -10 -11 d s 335 719 m -27 -28 d s 300 683 m s
 485 885 m -13 -14 d s 458 858 m -14 -14 d s 433 833 m -16 -17 d s 403 803 m -27 -28 d s 335 734 m -14 -14 d s 314 713 m -6 -7 d s 285 683 m s 485 900 m -13 -14 d s 458 873 m -14 -14 d s 431 845 m -14 -14 d s 403 818 m -27 -28 d s 329 743 m -8 -8 d s
 270 683 m cl s 485 915 m -13 -13 d s 458 888 m -14 -14 d s 431 860 m -14 -13 d s 403 833 m -27 -28 d s 254 683 m s 477 922 m -5 -5 d s 458 903 m -14 -14 d s 431 876 m -14 -14 d s 403 848 m -27 -28 d s 239 683 m s 458 918 m -14 -14 d s 431 891 m -14
 -14 d s 403 863 m -27 -27 d s 224 683 m s 458 933 m -14 -13 d s 431 906 m -14 -14 d s 403 878 m -27 -27 d s 209 683 m cl s 458 949 m -14 -14 d s 431 921 m -14 -14 d s 403 893 m -27 -27 d s 194 683 m s 458 964 m -14 -14 d s 431 936 m -14 -14 d s 403
 909 m -27 -28 d s 179 683 m cl s 458 979 m -14 -14 d s 431 951 m -14 -13 d s 403 924 m -27 -28 d s 164 683 m cl s 458 994 m -14 -14 d s 431 967 m -14 -14 d s 387 922 m -11 -11 d s 149 683 m cl s 458 1009 m -14 -14 d s 431 982 m -14 -14 d s 445 1011
 m -1 X s 431 997 m -14 -14 d s 431 1012 m -14 -14 d s 431 1027 m -14 -14 d s 431 1042 m -14 -13 d s 431 1057 m -14 -13 d s 430 1072 m -13 -13 d s 6 lw 143 683 m 165 X 30 Y 13 X 30 Y 14 X -60 Y 14 X 60 Y 27 X 179 Y 14 X 3 Y 13 X -183 Y 14 X 330 Y 14
 X -239 Y 13 X 178 Y 14 X -180 Y 14 X 91 Y 13 X -148 Y 14 X -32 Y 14 X -59 Y 13 X 61 Y 14 X -31 Y 14 X -30 Y 13 X 30 Y 14 X -30 Y 14 X 30 Y 14 X -30 Y 68 X 30 Y 14 X -30 Y s black 3 lw 143 683 m 548 X s 171 696 m -13 Y s 185 690 m -7 Y s 198 690 m -7
 Y s 211 690 m -7 Y s 225 696 m -13 Y s 238 690 m -7 Y s 251 690 m -7 Y s 265 690 m -7 Y s 278 696 m -13 Y s 291 690 m -7 Y s 305 690 m -7 Y s 318 690 m -7 Y s 332 696 m -13 Y s 345 690 m -7 Y s 358 690 m -7 Y s 372 690 m -7 Y s 385 696 m -13 Y s 398
 690 m -7 Y s 412 690 m -7 Y s 425 690 m -7 Y s 438 696 m -13 Y s 452 690 m -7 Y s 465 690 m -7 Y s 479 690 m -7 Y s 492 696 m -13 Y s 505 690 m -7 Y s 519 690 m -7 Y s 532 690 m -7 Y s 545 696 m -13 Y s 559 690 m -7 Y s 572 690 m -7 Y s 585 690 m -7
 Y s 599 696 m -13 Y s 612 690 m -7 Y s 626 690 m -7 Y s 639 690 m -7 Y s 652 696 m -13 Y s 171 696 m -13 Y s 158 690 m -7 Y s 144 690 m -7 Y s 652 696 m -13 Y s 666 690 m -7 Y s 679 690 m -7 Y s 143 1111 m 548 X s 171 1098 m 13 Y s 185 1104 m 7 Y s
 198 1104 m 7 Y s 211 1104 m 7 Y s 225 1098 m 13 Y s 238 1104 m 7 Y s 251 1104 m 7 Y s 265 1104 m 7 Y s 278 1098 m 13 Y s 291 1104 m 7 Y s 305 1104 m 7 Y s 318 1104 m 7 Y s 332 1098 m 13 Y s 345 1104 m 7 Y s 358 1104 m 7 Y s 372 1104 m 7 Y s 385 1098
 m 13 Y s 398 1104 m 7 Y s 412 1104 m 7 Y s 425 1104 m 7 Y s 438 1098 m 13 Y s 452 1104 m 7 Y s 465 1104 m 7 Y s 479 1104 m 7 Y s 492 1098 m 13 Y s 505 1104 m 7 Y s 519 1104 m 7 Y s 532 1104 m 7 Y s 545 1098 m 13 Y s 559 1104 m 7 Y s 572 1104 m 7 Y s
 585 1104 m 7 Y s 599 1098 m 13 Y s 612 1104 m 7 Y s 626 1104 m 7 Y s 639 1104 m 7 Y s 652 1098 m 13 Y s 171 1098 m 13 Y s 158 1104 m 7 Y s 144 1104 m 7 Y s 652 1098 m 13 Y s 666 1104 m 7 Y s 679 1104 m 7 Y s 143 683 m 428 Y s 160 683 m -17 X s 152
 695 m -9 X s 152 707 m -9 X s 152 719 m -9 X s 152 731 m -9 X s 160 743 m -17 X s 152 755 m -9 X s 152 767 m -9 X s 152 779 m -9 X s 152 791 m -9 X s 160 803 m -17 X s 152 814 m -9 X s 152 826 m -9 X s 152 838 m -9 X s 152 850 m -9 X s 160 862 m -17
 X s 152 874 m -9 X s 152 886 m -9 X s 152 898 m -9 X s 152 910 m -9 X s 160 922 m -17 X s 152 934 m -9 X s 152 946 m -9 X s 152 958 m -9 X s 152 970 m -9 X s 160 982 m -17 X s 152 994 m -9 X s 152 1006 m -9 X s 152 1018 m -9 X s 152 1030 m -9 X s
 160 1042 m -17 X s 152 1054 m -9 X s 152 1065 m -9 X s 152 1077 m -9 X s 152 1089 m -9 X s 160 1101 m -17 X s 160 1101 m -17 X s 691 683 m 428 Y s 674 683 m 17 X s 683 695 m 8 X s 683 707 m 8 X s 683 719 m 8 X s 683 731 m 8 X s 674 743 m 17 X s 683
 755 m 8 X s 683 767 m 8 X s 683 779 m 8 X s 683 791 m 8 X s 674 803 m 17 X s 683 814 m 8 X s 683 826 m 8 X s 683 838 m 8 X s 683 850 m 8 X s 674 862 m 17 X s 683 874 m 8 X s 683 886 m 8 X s 683 898 m 8 X s 683 910 m 8 X s 674 922 m 17 X s 683 934 m
 8 X s 683 946 m 8 X s 683 958 m 8 X s 683 970 m 8 X s 674 982 m 17 X s 683 994 m 8 X s 683 1006 m 8 X s 683 1018 m 8 X s 683 1030 m 8 X s 674 1042 m 17 X s 683 1054 m 8 X s 683 1065 m 8 X s 683 1077 m 8 X s 683 1089 m 8 X s 674 1101 m 17 X s 674
 1101 m 17 X s
 gsave  710 566 23 602 C 719.017 680.773 t 90 r /Helvetica-Bold findfont 20.0147 sf 0 0 m (U/O\255flow \(S,B\): \(0.0, 0.0\)% / \(0.0, 0.0\)%) show NC gr  0.490196 0.545098 0.615686 c 0.364706 0.419608 0.490196 c 497 38 30 1127 bf 0.490196 0.545098
 0.615686 c 30 1127 m 497 X s 527 1127 m 38 Y s 527 1165 m -497 X s 30 1165 m -38 Y s 1 1 1 c black 1 1 1 c
 gsave  710 566 23 602 C 34.1867 1139.56 t 0 r /Helvetica-Bold findfont 22.874 sf 0 0 m (Input variable'PCA'\255transformed : GTND_war) show NC gr  0.490196 0.545098 0.615686 c 0.941176 0.941176 0.941176 c 710 566 779 602 bf 0.490196 0.545098
 0.615686 c 0.941176 0.941176 0.941176 c 711 566 1534 602 bf 0.490196 0.545098 0.615686 c 0.941176 0.941176 0.941176 c 710 566 23 12 bf 0.490196 0.545098 0.615686 c 0.941176 0.941176 0.941176 c 710 566 779 12 bf 0.490196 0.545098 0.615686 c 0.941176
 0.941176 0.941176 c 711 566 1534 12 bf
 gr  gr showpage
end
%%EOF
