%!PS-Adobe-2.0 EPSF-2.0
%%BoundingBox:  0 0 567 295
%%Title: plots/variables_deco_c3.eps: Input variables 'Deco'-transformed (training sample)
%%Creator: ROOT Version 5.34/09
%%CreationDate: Sat Jan  4 23:53:29 2014
%%EndComments
%%BeginProlog
80 dict begin
/s {stroke} def /l {lineto} def /m {moveto} def /t {translate} def
/r {rotate} def /rl {roll}  def /R {repeat} def
/d {rlineto} def /rm {rmoveto} def /gr {grestore} def /f {eofill} def
/c {setrgbcolor} def /black {0 setgray} def /sd {setdash} def
/cl {closepath} def /sf {scalefont setfont} def /lw {setlinewidth} def
/box {m dup 0 exch d exch 0 d 0 exch neg d cl} def
/NC{systemdict begin initclip end}def/C{NC box clip newpath}def
/bl {box s} def /bf {box f} def /Y { 0 exch d} def /X { 0 d} def 
/K {{pop pop 0 moveto} exch kshow} bind def
/ita {/ang 15 def gsave [1 0 ang dup sin exch cos div 1 0 0] concat} def 
/mp {newpath /y exch def /x exch def} def
/side {[w .77 mul w .23 mul] .385 w mul sd w 0 l currentpoint t -144 r} def
/mr {mp x y w2 0 360 arc} def /m24 {mr s} def /m20 {mr f} def
/mb {mp x y w2 add m w2 neg 0 d 0 w neg d w 0 d 0 w d cl} def
/mt {mp x y w2 add m w2 neg w neg d w 0 d cl} def
/m21 {mb f} def /m25 {mb s} def /m22 {mt f} def /m26{mt s} def
/m23 {mp x y w2 sub m w2 w d w neg 0 d cl f} def
/m27 {mp x y w2 add m w3 neg w2 neg d w3 w2 neg d w3 w2 d cl s} def
/m28 {mp x w2 sub y w2 sub w3 add m w3 0 d  0 w3 neg d w3 0 d 0 w3 d w3 0 d  0 w3 d w3 neg 0 d 0 w3 d w3 neg 0 d 0 w3 neg d w3 neg 0 d cl s } def
/m29 {mp gsave x w2 sub y w2 add w3 sub m currentpoint t 4 {side} repeat cl fill gr} def
/m30 {mp gsave x w2 sub y w2 add w3 sub m currentpoint t 4 {side} repeat cl s gr} def
/m31 {mp x y w2 sub m 0 w d x w2 sub y m w 0 d x w2 sub y w2 add m w w neg d x w2 sub y w2 sub m w w d s} def
/m32 {mp x y w2 sub m w2 w d w neg 0 d cl s} def
/m33 {mp x y w2 add m w3 neg w2 neg d w3 w2 neg d w3 w2 d cl f} def
/m34 {mp x w2 sub y w2 sub w3 add m w3 0 d  0 w3 neg d w3 0 d 0 w3 d w3 0 d  0 w3 d w3 neg 0 d 0 w3 d w3 neg 0 d 0 w3 neg d w3 neg 0 d cl f } def
/m2 {mp x y w2 sub m 0 w d x w2 sub y m w 0 d s} def
/m5 {mp x w2 sub y w2 sub m w w d x w2 sub y w2 add m w w neg d s} def
/reEncode {exch findfont dup length dict begin {1 index /FID eq  {pop pop} {def} ifelse } forall /Encoding exch def currentdict end dup /FontName get exch definefont pop } def [/Times-Bold /Times-Italic /Times-BoldItalic /Helvetica /Helvetica-Oblique
 /Helvetica-Bold /Helvetica-BoldOblique /Courier /Courier-Oblique /Courier-Bold /Courier-BoldOblique /Times-Roman /AvantGarde-Book /AvantGarde-BookOblique /AvantGarde-Demi /AvantGarde-DemiOblique /Bookman-Demi /Bookman-DemiItalic /Bookman-Light
 /Bookman-LightItalic /Helvetica-Narrow /Helvetica-Narrow-Bold /Helvetica-Narrow-BoldOblique /Helvetica-Narrow-Oblique /NewCenturySchlbk-Roman /NewCenturySchlbk-Bold /NewCenturySchlbk-BoldItalic /NewCenturySchlbk-Italic /Palatino-Bold
 /Palatino-BoldItalic /Palatino-Italic /Palatino-Roman ] {ISOLatin1Encoding reEncode } forall
%%EndProlog
%%BeginSetup
%%EndSetup
newpath  gsave  .25 .25 scale  gsave  0 0 t 0.490196 0.545098 0.615686 c[  ] 0 sd 3 lw 0.941176 0.941176 0.941176 c 2268 1179 0 0 bf 0.490196 0.545098 0.615686 c 0.941176 0.941176 0.941176 c 710 566 23 602 bf black 1 1 0.992157 c 548 428 143 683 bf
 black 548 428 143 683 bl 1 1 0.992157 c 548 428 143 683 bf black 548 428 143 683 bl 0 0 0.933333 c 6 lw 0.49 0.6 0.82 c black 3 lw 0.49 0.6 0.82 c 143 683 m 55 X 35 Y 14 X -35 Y 55 X 36 Y 27 X -36 Y 27 X 72 Y 14 X -36 Y 14 X 37 Y 13 X 179 Y 14 X -3
 Y 14 X -107 Y 13 X 111 Y 14 X -2 Y 14 X 4 Y 13 X -219 Y 14 X 36 Y 14 X -72 Y 13 X 72 Y 14 X -37 Y 14 X 1 Y 13 X -36 Y 14 X 36 Y 14 X -36 Y 123 X 42 Y 14 X -42 Y f 6 lw 0 0 0.933333 c 0.49 0.6 0.82 c 0 0 0.933333 c 143 683 m 55 X 35 Y 14 X -35 Y 55 X
 36 Y 27 X -36 Y 27 X 72 Y 14 X -36 Y 14 X 37 Y 13 X 179 Y 14 X -3 Y 14 X -107 Y 13 X 111 Y 14 X -2 Y 14 X 4 Y 13 X -219 Y 14 X 36 Y 14 X -72 Y 13 X 72 Y 14 X -37 Y 14 X 1 Y 13 X -36 Y 14 X 36 Y 14 X -36 Y 123 X 42 Y 14 X s black 3 lw 143 683 m 548 X
 s
 gsave  710 566 23 602 C 452.974 615.36 t 0 r /Helvetica findfont 28.5925 sf 0 0 m (GTND_war \(Deco\)) show NC gr  208 696 m -13 Y s 222 690 m -7 Y s 235 690 m -7 Y s 248 690 m -7 Y s 261 690 m -7 Y s 275 696 m -13 Y s 288 690 m -7 Y s 301 690 m -7 Y
 s 314 690 m -7 Y s 327 690 m -7 Y s 341 696 m -13 Y s 354 690 m -7 Y s 367 690 m -7 Y s 380 690 m -7 Y s 394 690 m -7 Y s 407 696 m -13 Y s 420 690 m -7 Y s 433 690 m -7 Y s 446 690 m -7 Y s 460 690 m -7 Y s 473 696 m -13 Y s 486 690 m -7 Y s 499
 690 m -7 Y s 513 690 m -7 Y s 526 690 m -7 Y s 539 696 m -13 Y s 552 690 m -7 Y s 565 690 m -7 Y s 579 690 m -7 Y s 592 690 m -7 Y s 605 696 m -13 Y s 618 690 m -7 Y s 631 690 m -7 Y s 645 690 m -7 Y s 658 690 m -7 Y s 671 696 m -13 Y s 208 696 m
 -13 Y s 195 690 m -7 Y s 182 690 m -7 Y s 169 690 m -7 Y s 156 690 m -7 Y s 671 696 m -13 Y s 684 690 m -7 Y s
 gsave  710 566 23 602 C 196.573 655.245 t 0 r /Helvetica findfont 25.7332 sf 0 0 m (\2553) show NC gr 
 gsave  710 566 23 602 C 262.098 655.245 t 0 r /Helvetica findfont 25.7332 sf 0 0 m (\2552) show NC gr 
 gsave  710 566 23 602 C 327.622 655.245 t 0 r /Helvetica findfont 25.7332 sf 0 0 m (\2551) show NC gr 
 gsave  710 566 23 602 C 395.996 655.245 t 0 r /Helvetica findfont 25.7332 sf 0 0 m (0) show NC gr 
 gsave  710 566 23 602 C 464.369 655.245 t 0 r /Helvetica findfont 25.7332 sf 0 0 m (1) show NC gr 
 gsave  710 566 23 602 C 529.894 655.245 t 0 r /Helvetica findfont 25.7332 sf 0 0 m (2) show NC gr 
 gsave  710 566 23 602 C 595.418 655.245 t 0 r /Helvetica findfont 25.7332 sf 0 0 m (3) show NC gr 
 gsave  710 566 23 602 C 660.943 655.245 t 0 r /Helvetica findfont 25.7332 sf 0 0 m (4) show NC gr  143 1111 m 548 X s 208 1098 m 13 Y s 222 1104 m 7 Y s 235 1104 m 7 Y s 248 1104 m 7 Y s 261 1104 m 7 Y s 275 1098 m 13 Y s 288 1104 m 7 Y s 301 1104 m
 7 Y s 314 1104 m 7 Y s 327 1104 m 7 Y s 341 1098 m 13 Y s 354 1104 m 7 Y s 367 1104 m 7 Y s 380 1104 m 7 Y s 394 1104 m 7 Y s 407 1098 m 13 Y s 420 1104 m 7 Y s 433 1104 m 7 Y s 446 1104 m 7 Y s 460 1104 m 7 Y s 473 1098 m 13 Y s 486 1104 m 7 Y s
 499 1104 m 7 Y s 513 1104 m 7 Y s 526 1104 m 7 Y s 539 1098 m 13 Y s 552 1104 m 7 Y s 565 1104 m 7 Y s 579 1104 m 7 Y s 592 1104 m 7 Y s 605 1098 m 13 Y s 618 1104 m 7 Y s 631 1104 m 7 Y s 645 1104 m 7 Y s 658 1104 m 7 Y s 671 1098 m 13 Y s 208 1098
 m 13 Y s 195 1104 m 7 Y s 182 1104 m 7 Y s 169 1104 m 7 Y s 156 1104 m 7 Y s 671 1098 m 13 Y s 684 1104 m 7 Y s 143 683 m 428 Y s
 gsave  710 566 23 602 C 45.5822 1031.3 t 90 r /Helvetica findfont 28.5925 sf 0 0 m (0.207 ) show NC gr 
 gsave  710 566 23 602 C 31.3378 1025.6 t 90 r /Helvetica findfont 20.0147 sf 0 0 m ( ) show NC gr 
 gsave  710 566 23 602 C 45.5822 1014.2 t 90 r /Helvetica findfont 28.5925 sf 0 0 m (/) show NC gr 
 gsave  710 566 23 602 C 54.1289 1008.51 t 90 r /Helvetica findfont 20.0147 sf 0 0 m ( ) show NC gr 
 gsave  710 566 23 602 C 45.5822 900.249 t 90 r /Helvetica findfont 28.5925 sf 0 0 m (\(1/N\) dN) show NC gr  160 683 m -17 X s 152 704 m -9 X s 152 725 m -9 X s 152 746 m -9 X s 160 766 m -17 X s 152 787 m -9 X s 152 808 m -9 X s 152 829 m -9 X s
 160 850 m -17 X s 152 871 m -9 X s 152 892 m -9 X s 152 912 m -9 X s 160 933 m -17 X s 152 954 m -9 X s 152 975 m -9 X s 152 996 m -9 X s 160 1017 m -17 X s 152 1038 m -9 X s 152 1058 m -9 X s 152 1079 m -9 X s 160 1100 m -17 X s 160 1100 m -17 X s
 gsave  710 566 23 602 C 119.653 672.338 t 0 r /Helvetica findfont 25.7332 sf 0 0 m (0) show NC gr 
 gsave  710 566 23 602 C 96.8623 757.805 t 0 r /Helvetica findfont 25.7332 sf 0 0 m (0.2) show NC gr 
 gsave  710 566 23 602 C 96.8623 840.423 t 0 r /Helvetica findfont 25.7332 sf 0 0 m (0.4) show NC gr 
 gsave  710 566 23 602 C 96.8623 923.04 t 0 r /Helvetica findfont 25.7332 sf 0 0 m (0.6) show NC gr 
 gsave  710 566 23 602 C 96.8623 1005.66 t 0 r /Helvetica findfont 25.7332 sf 0 0 m (0.8) show NC gr 
 gsave  710 566 23 602 C 122.502 1091.12 t 0 r /Helvetica findfont 25.7332 sf 0 0 m (1) show NC gr  691 683 m 428 Y s 674 683 m 17 X s 683 704 m 8 X s 683 725 m 8 X s 683 746 m 8 X s 674 766 m 17 X s 683 787 m 8 X s 683 808 m 8 X s 683 829 m 8 X s
 674 850 m 17 X s 683 871 m 8 X s 683 892 m 8 X s 683 912 m 8 X s 674 933 m 17 X s 683 954 m 8 X s 683 975 m 8 X s 683 996 m 8 X s 674 1017 m 17 X s 683 1038 m 8 X s 683 1058 m 8 X s 683 1079 m 8 X s 674 1100 m 17 X s 674 1100 m 17 X s 1 0 0 c 6 lw
 black 3 lw 1 0 0 c 676 683 m s 661 683 m s 646 683 m cl s 631 683 m s 616 683 m s 601 683 m s 595 692 m -9 -9 d s 595 707 m -14 -14 d s 571 683 m s 582 709 m -1 -1 d s 556 683 m s 541 683 m s 526 683 m s 511 683 m s 499 687 m -3 -4 d s 499 702 m -18
 -19 d s 499 717 m -34 -34 d s 499 732 m -14 -14 d s 476 709 m -26 -26 d s 486 734 m -1 -1 d s 461 709 m -26 -26 d s 458 721 m -38 -38 d s 458 736 m -53 -53 d s 458 751 m -68 -68 d s 458 767 m -83 -84 d s 458 782 m -98 -99 d s 458 797 m -113 -114 d s
 457 811 m -122 -123 d s 330 683 m s 444 813 m -109 -110 d s 321 690 m -6 -7 d s 444 829 m -109 -110 d s 321 705 m -21 -22 d s 444 844 m -109 -110 d s 321 720 m -36 -37 d s 444 859 m -95 -96 d s 347 761 m -12 -12 d s 321 735 m -51 -52 d s 435 864 m
 -86 -86 d s 308 737 m -14 -14 d s 280 709 m -26 -26 d s 431 876 m -55 -56 d s 368 812 m -19 -19 d s 308 752 m -14 -14 d s 280 724 m -13 -14 d s 265 709 m -12 -12 d s 239 683 m cl s 431 891 m -14 -14 d s 403 863 m -27 -27 d s 353 813 m -4 -5 d s 300
 760 m -6 -7 d s 280 739 m -13 -13 d s 224 683 m cl s 431 906 m -14 -14 d s 403 878 m -13 -13 d s 389 864 m -13 -13 d s 280 754 m -13 -13 d s 209 683 m s 431 921 m -14 -14 d s 399 889 m -9 -9 d s 272 762 m -5 -6 d s 194 683 m s 431 936 m -14 -14 d s
 179 683 m cl s 431 951 m -14 -13 d s 164 683 m cl s 431 967 m -14 -14 d s 157 691 m -8 -8 d s 431 982 m -14 -14 d s 157 706 m -14 -13 d s 431 997 m -14 -14 d s 144 709 m -1 -1 d s 431 1012 m -14 -14 d s 431 1027 m -14 -14 d s 431 1042 m -14 -13 d s
 431 1057 m -14 -13 d s 430 1072 m -13 -13 d s 6 lw 143 709 m 14 X -26 Y 96 X 26 Y 14 X 53 Y 13 X -53 Y 14 X 51 Y 14 X -24 Y 13 X -53 Y 14 X 78 Y 14 X 52 Y 13 X -1 Y 14 X 52 Y 14 X 25 Y 13 X -26 Y 14 X 209 Y 14 X -208 Y 13 X -53 Y 14 X -102 Y 27 X 25
 Y 14 X -51 Y 82 X 26 Y 14 X -26 Y 96 X s black 3 lw 143 683 m 548 X s 208 696 m -13 Y s 222 690 m -7 Y s 235 690 m -7 Y s 248 690 m -7 Y s 261 690 m -7 Y s 275 696 m -13 Y s 288 690 m -7 Y s 301 690 m -7 Y s 314 690 m -7 Y s 327 690 m -7 Y s 341 696
 m -13 Y s 354 690 m -7 Y s 367 690 m -7 Y s 380 690 m -7 Y s 394 690 m -7 Y s 407 696 m -13 Y s 420 690 m -7 Y s 433 690 m -7 Y s 446 690 m -7 Y s 460 690 m -7 Y s 473 696 m -13 Y s 486 690 m -7 Y s 499 690 m -7 Y s 513 690 m -7 Y s 526 690 m -7 Y s
 539 696 m -13 Y s 552 690 m -7 Y s 565 690 m -7 Y s 579 690 m -7 Y s 592 690 m -7 Y s 605 696 m -13 Y s 618 690 m -7 Y s 631 690 m -7 Y s 645 690 m -7 Y s 658 690 m -7 Y s 671 696 m -13 Y s 208 696 m -13 Y s 195 690 m -7 Y s 182 690 m -7 Y s 169 690
 m -7 Y s 156 690 m -7 Y s 671 696 m -13 Y s 684 690 m -7 Y s 143 1111 m 548 X s 208 1098 m 13 Y s 222 1104 m 7 Y s 235 1104 m 7 Y s 248 1104 m 7 Y s 261 1104 m 7 Y s 275 1098 m 13 Y s 288 1104 m 7 Y s 301 1104 m 7 Y s 314 1104 m 7 Y s 327 1104 m 7 Y
 s 341 1098 m 13 Y s 354 1104 m 7 Y s 367 1104 m 7 Y s 380 1104 m 7 Y s 394 1104 m 7 Y s 407 1098 m 13 Y s 420 1104 m 7 Y s 433 1104 m 7 Y s 446 1104 m 7 Y s 460 1104 m 7 Y s 473 1098 m 13 Y s 486 1104 m 7 Y s 499 1104 m 7 Y s 513 1104 m 7 Y s 526
 1104 m 7 Y s 539 1098 m 13 Y s 552 1104 m 7 Y s 565 1104 m 7 Y s 579 1104 m 7 Y s 592 1104 m 7 Y s 605 1098 m 13 Y s 618 1104 m 7 Y s 631 1104 m 7 Y s 645 1104 m 7 Y s 658 1104 m 7 Y s 671 1098 m 13 Y s 208 1098 m 13 Y s 195 1104 m 7 Y s 182 1104 m
 7 Y s 169 1104 m 7 Y s 156 1104 m 7 Y s 671 1098 m 13 Y s 684 1104 m 7 Y s 143 683 m 428 Y s 160 683 m -17 X s 152 704 m -9 X s 152 725 m -9 X s 152 746 m -9 X s 160 766 m -17 X s 152 787 m -9 X s 152 808 m -9 X s 152 829 m -9 X s 160 850 m -17 X s
 152 871 m -9 X s 152 892 m -9 X s 152 912 m -9 X s 160 933 m -17 X s 152 954 m -9 X s 152 975 m -9 X s 152 996 m -9 X s 160 1017 m -17 X s 152 1038 m -9 X s 152 1058 m -9 X s 152 1079 m -9 X s 160 1100 m -17 X s 160 1100 m -17 X s 691 683 m 428 Y s
 674 683 m 17 X s 683 704 m 8 X s 683 725 m 8 X s 683 746 m 8 X s 674 766 m 17 X s 683 787 m 8 X s 683 808 m 8 X s 683 829 m 8 X s 674 850 m 17 X s 683 871 m 8 X s 683 892 m 8 X s 683 912 m 8 X s 674 933 m 17 X s 683 954 m 8 X s 683 975 m 8 X s 683
 996 m 8 X s 674 1017 m 17 X s 683 1038 m 8 X s 683 1058 m 8 X s 683 1079 m 8 X s 674 1100 m 17 X s 674 1100 m 17 X s
 gsave  710 566 23 602 C 719.017 680.773 t 90 r /Helvetica-Bold findfont 20.0147 sf 0 0 m (U/O\255flow \(S,B\): \(0.0, 0.0\)% / \(0.0, 0.0\)%) show NC gr  0.490196 0.545098 0.615686 c 0.364706 0.419608 0.490196 c 497 38 30 1127 bf 0.490196 0.545098
 0.615686 c 30 1127 m 497 X s 527 1127 m 38 Y s 527 1165 m -497 X s 30 1165 m -38 Y s 1 1 1 c black 1 1 1 c
 gsave  710 566 23 602 C 28.4889 1139.56 t 0 r /Helvetica-Bold findfont 22.874 sf 0 0 m (Input variable'Deco'\255transformed : GTND_war) show NC gr  0.490196 0.545098 0.615686 c 0.941176 0.941176 0.941176 c 710 566 779 602 bf 0.490196 0.545098
 0.615686 c 0.941176 0.941176 0.941176 c 711 566 1534 602 bf 0.490196 0.545098 0.615686 c 0.941176 0.941176 0.941176 c 710 566 23 12 bf 0.490196 0.545098 0.615686 c 0.941176 0.941176 0.941176 c 710 566 779 12 bf 0.490196 0.545098 0.615686 c 0.941176
 0.941176 0.941176 c 711 566 1534 12 bf
 gr  gr showpage
end
%%EOF
