%!PS-Adobe-2.0 EPSF-2.0
%%BoundingBox:  0 0 567 295
%%Title: plots/variables_deco_c1.eps: Input variables 'Deco'-transformed (training sample)
%%Creator: ROOT Version 5.34/09
%%CreationDate: Sat Jan  4 23:53:29 2014
%%EndComments
%%BeginProlog
80 dict begin
/s {stroke} def /l {lineto} def /m {moveto} def /t {translate} def
/r {rotate} def /rl {roll}  def /R {repeat} def
/d {rlineto} def /rm {rmoveto} def /gr {grestore} def /f {eofill} def
/c {setrgbcolor} def /black {0 setgray} def /sd {setdash} def
/cl {closepath} def /sf {scalefont setfont} def /lw {setlinewidth} def
/box {m dup 0 exch d exch 0 d 0 exch neg d cl} def
/NC{systemdict begin initclip end}def/C{NC box clip newpath}def
/bl {box s} def /bf {box f} def /Y { 0 exch d} def /X { 0 d} def 
/K {{pop pop 0 moveto} exch kshow} bind def
/ita {/ang 15 def gsave [1 0 ang dup sin exch cos div 1 0 0] concat} def 
/mp {newpath /y exch def /x exch def} def
/side {[w .77 mul w .23 mul] .385 w mul sd w 0 l currentpoint t -144 r} def
/mr {mp x y w2 0 360 arc} def /m24 {mr s} def /m20 {mr f} def
/mb {mp x y w2 add m w2 neg 0 d 0 w neg d w 0 d 0 w d cl} def
/mt {mp x y w2 add m w2 neg w neg d w 0 d cl} def
/m21 {mb f} def /m25 {mb s} def /m22 {mt f} def /m26{mt s} def
/m23 {mp x y w2 sub m w2 w d w neg 0 d cl f} def
/m27 {mp x y w2 add m w3 neg w2 neg d w3 w2 neg d w3 w2 d cl s} def
/m28 {mp x w2 sub y w2 sub w3 add m w3 0 d  0 w3 neg d w3 0 d 0 w3 d w3 0 d  0 w3 d w3 neg 0 d 0 w3 d w3 neg 0 d 0 w3 neg d w3 neg 0 d cl s } def
/m29 {mp gsave x w2 sub y w2 add w3 sub m currentpoint t 4 {side} repeat cl fill gr} def
/m30 {mp gsave x w2 sub y w2 add w3 sub m currentpoint t 4 {side} repeat cl s gr} def
/m31 {mp x y w2 sub m 0 w d x w2 sub y m w 0 d x w2 sub y w2 add m w w neg d x w2 sub y w2 sub m w w d s} def
/m32 {mp x y w2 sub m w2 w d w neg 0 d cl s} def
/m33 {mp x y w2 add m w3 neg w2 neg d w3 w2 neg d w3 w2 d cl f} def
/m34 {mp x w2 sub y w2 sub w3 add m w3 0 d  0 w3 neg d w3 0 d 0 w3 d w3 0 d  0 w3 d w3 neg 0 d 0 w3 d w3 neg 0 d 0 w3 neg d w3 neg 0 d cl f } def
/m2 {mp x y w2 sub m 0 w d x w2 sub y m w 0 d s} def
/m5 {mp x w2 sub y w2 sub m w w d x w2 sub y w2 add m w w neg d s} def
/reEncode {exch findfont dup length dict begin {1 index /FID eq  {pop pop} {def} ifelse } forall /Encoding exch def currentdict end dup /FontName get exch definefont pop } def [/Times-Bold /Times-Italic /Times-BoldItalic /Helvetica /Helvetica-Oblique
 /Helvetica-Bold /Helvetica-BoldOblique /Courier /Courier-Oblique /Courier-Bold /Courier-BoldOblique /Times-Roman /AvantGarde-Book /AvantGarde-BookOblique /AvantGarde-Demi /AvantGarde-DemiOblique /Bookman-Demi /Bookman-DemiItalic /Bookman-Light
 /Bookman-LightItalic /Helvetica-Narrow /Helvetica-Narrow-Bold /Helvetica-Narrow-BoldOblique /Helvetica-Narrow-Oblique /NewCenturySchlbk-Roman /NewCenturySchlbk-Bold /NewCenturySchlbk-BoldItalic /NewCenturySchlbk-Italic /Palatino-Bold
 /Palatino-BoldItalic /Palatino-Italic /Palatino-Roman ] {ISOLatin1Encoding reEncode } forall
%%EndProlog
%%BeginSetup
%%EndSetup
newpath  gsave  .25 .25 scale  gsave  0 0 t 0.490196 0.545098 0.615686 c[  ] 0 sd 3 lw 0.941176 0.941176 0.941176 c 2268 1179 0 0 bf 0.490196 0.545098 0.615686 c 0.941176 0.941176 0.941176 c 710 566 23 602 bf black 1 1 0.992157 c 548 428 143 683 bf
 black 548 428 143 683 bl 1 1 0.992157 c 548 428 143 683 bf black 548 428 143 683 bl 0 0 0.933333 c 6 lw 0.49 0.6 0.82 c black 3 lw 0.49 0.6 0.82 c 143 683 m 42 Y 14 X 1 Y 14 X -43 Y 55 X 125 Y 13 X -125 Y 14 X 124 Y 14 X -124 Y 41 X 41 Y 13 X -41 Y
 14 X 166 Y 14 X -84 Y 13 X 83 Y 14 X -1 Y 14 X 7 Y 13 X 120 Y 14 X -83 Y 14 X -44 Y 13 X 3 Y 14 X -3 Y 14 X -123 Y 41 X 2 Y 13 X -43 Y 41 X 42 Y 14 X -42 Y 110 X f 6 lw 0 0 0.933333 c 0.49 0.6 0.82 c 0 0 0.933333 c 143 725 m 14 X 1 Y 14 X -43 Y 55 X
 125 Y 13 X -125 Y 14 X 124 Y 14 X -124 Y 41 X 41 Y 13 X -41 Y 14 X 166 Y 14 X -84 Y 13 X 83 Y 14 X -1 Y 14 X 7 Y 13 X 120 Y 14 X -83 Y 14 X -44 Y 13 X 3 Y 14 X -3 Y 14 X -123 Y 41 X 2 Y 13 X -43 Y 41 X 42 Y 14 X -42 Y 110 X s black 3 lw 143 683 m
 548 X s
 gsave  710 566 23 602 C 415.938 615.36 t 0 r /Helvetica findfont 28.5925 sf 0 0 m (GTND_bubble \(Deco\)) show NC gr  155 696 m -13 Y s 171 690 m -7 Y s 188 690 m -7 Y s 204 690 m -7 Y s 221 690 m -7 Y s 237 696 m -13 Y s 254 690 m -7 Y s 271 690 m
 -7 Y s 287 690 m -7 Y s 304 690 m -7 Y s 320 696 m -13 Y s 337 690 m -7 Y s 353 690 m -7 Y s 370 690 m -7 Y s 386 690 m -7 Y s 403 696 m -13 Y s 420 690 m -7 Y s 436 690 m -7 Y s 453 690 m -7 Y s 469 690 m -7 Y s 486 696 m -13 Y s 502 690 m -7 Y s
 519 690 m -7 Y s 536 690 m -7 Y s 552 690 m -7 Y s 569 696 m -13 Y s 585 690 m -7 Y s 602 690 m -7 Y s 618 690 m -7 Y s 635 690 m -7 Y s 651 696 m -13 Y s 155 696 m -13 Y s 651 696 m -13 Y s 668 690 m -7 Y s 685 690 m -7 Y s
 gsave  710 566 23 602 C 142.445 655.245 t 0 r /Helvetica findfont 25.7332 sf 0 0 m (\2553) show NC gr 
 gsave  710 566 23 602 C 225.062 655.245 t 0 r /Helvetica findfont 25.7332 sf 0 0 m (\2552) show NC gr 
 gsave  710 566 23 602 C 307.68 655.245 t 0 r /Helvetica findfont 25.7332 sf 0 0 m (\2551) show NC gr 
 gsave  710 566 23 602 C 393.147 655.245 t 0 r /Helvetica findfont 25.7332 sf 0 0 m (0) show NC gr 
 gsave  710 566 23 602 C 478.614 655.245 t 0 r /Helvetica findfont 25.7332 sf 0 0 m (1) show NC gr 
 gsave  710 566 23 602 C 558.382 655.245 t 0 r /Helvetica findfont 25.7332 sf 0 0 m (2) show NC gr 
 gsave  710 566 23 602 C 641 655.245 t 0 r /Helvetica findfont 25.7332 sf 0 0 m (3) show NC gr  143 1111 m 548 X s 155 1098 m 13 Y s 171 1104 m 7 Y s 188 1104 m 7 Y s 204 1104 m 7 Y s 221 1104 m 7 Y s 237 1098 m 13 Y s 254 1104 m 7 Y s 271 1104 m 7 Y
 s 287 1104 m 7 Y s 304 1104 m 7 Y s 320 1098 m 13 Y s 337 1104 m 7 Y s 353 1104 m 7 Y s 370 1104 m 7 Y s 386 1104 m 7 Y s 403 1098 m 13 Y s 420 1104 m 7 Y s 436 1104 m 7 Y s 453 1104 m 7 Y s 469 1104 m 7 Y s 486 1098 m 13 Y s 502 1104 m 7 Y s 519
 1104 m 7 Y s 536 1104 m 7 Y s 552 1104 m 7 Y s 569 1098 m 13 Y s 585 1104 m 7 Y s 602 1104 m 7 Y s 618 1104 m 7 Y s 635 1104 m 7 Y s 651 1098 m 13 Y s 155 1098 m 13 Y s 651 1098 m 13 Y s 668 1104 m 7 Y s 685 1104 m 7 Y s 143 683 m 428 Y s
 gsave  710 566 23 602 C 45.5822 1031.3 t 90 r /Helvetica findfont 28.5925 sf 0 0 m (0.165 ) show NC gr 
 gsave  710 566 23 602 C 31.3378 1025.6 t 90 r /Helvetica findfont 20.0147 sf 0 0 m ( ) show NC gr 
 gsave  710 566 23 602 C 45.5822 1014.2 t 90 r /Helvetica findfont 28.5925 sf 0 0 m (/) show NC gr 
 gsave  710 566 23 602 C 54.1289 1008.51 t 90 r /Helvetica findfont 20.0147 sf 0 0 m ( ) show NC gr 
 gsave  710 566 23 602 C 45.5822 900.249 t 90 r /Helvetica findfont 28.5925 sf 0 0 m (\(1/N\) dN) show NC gr  160 683 m -17 X s 152 702 m -9 X s 152 721 m -9 X s 152 741 m -9 X s 160 760 m -17 X s 152 779 m -9 X s 152 798 m -9 X s 152 817 m -9 X s
 160 837 m -17 X s 152 856 m -9 X s 152 875 m -9 X s 152 894 m -9 X s 160 913 m -17 X s 152 933 m -9 X s 152 952 m -9 X s 152 971 m -9 X s 160 990 m -17 X s 152 1009 m -9 X s 152 1029 m -9 X s 152 1048 m -9 X s 160 1067 m -17 X s 160 1067 m -17 X s
 152 1086 m -9 X s 152 1105 m -9 X s
 gsave  710 566 23 602 C 119.653 672.338 t 0 r /Helvetica findfont 25.7332 sf 0 0 m (0) show NC gr 
 gsave  710 566 23 602 C 96.8623 749.258 t 0 r /Helvetica findfont 25.7332 sf 0 0 m (0.2) show NC gr 
 gsave  710 566 23 602 C 96.8623 826.178 t 0 r /Helvetica findfont 25.7332 sf 0 0 m (0.4) show NC gr 
 gsave  710 566 23 602 C 96.8623 903.098 t 0 r /Helvetica findfont 25.7332 sf 0 0 m (0.6) show NC gr 
 gsave  710 566 23 602 C 96.8623 980.018 t 0 r /Helvetica findfont 25.7332 sf 0 0 m (0.8) show NC gr 
 gsave  710 566 23 602 C 122.502 1056.94 t 0 r /Helvetica findfont 25.7332 sf 0 0 m (1) show NC gr  691 683 m 428 Y s 674 683 m 17 X s 683 702 m 8 X s 683 721 m 8 X s 683 741 m 8 X s 674 760 m 17 X s 683 779 m 8 X s 683 798 m 8 X s 683 817 m 8 X s
 674 837 m 17 X s 683 856 m 8 X s 683 875 m 8 X s 683 894 m 8 X s 674 913 m 17 X s 683 933 m 8 X s 683 952 m 8 X s 683 971 m 8 X s 674 990 m 17 X s 683 1009 m 8 X s 683 1029 m 8 X s 683 1048 m 8 X s 674 1067 m 17 X s 674 1067 m 17 X s 683 1086 m 8 X
 s 683 1105 m 8 X s 1 0 0 c 6 lw black 3 lw 1 0 0 c 691 697 m -14 -14 d s 676 683 m s 691 712 m -14 -13 d s 661 683 m s 650 686 m -4 -3 d s 650 701 m -14 -13 d s 631 683 m s 646 713 m -10 -10 d s 622 689 m -6 -6 d s 622 704 m -13 -14 d s 601 683 m s
 615 713 m -6 -7 d s 586 683 m s 571 683 m s 556 683 m s 554 696 m -13 -13 d s 554 711 m -14 -14 d s 526 684 m -1 Y s 554 726 m -14 -13 d s 526 699 m -15 -16 d s 554 742 m -14 -14 d s 526 714 m -30 -31 d s 541 744 m -1 -1 d s 526 729 m -45 -46 d s
 525 743 m -60 -60 d s 509 742 m -59 -59 d s 499 747 m -64 -64 d s 499 762 m -79 -79 d s 493 772 m -88 -89 d s 479 773 m -89 -90 d s 472 780 m -97 -97 d s 472 795 m -112 -112 d s 472 811 m -127 -128 d s 472 826 m -41 -41 d s 419 773 m -89 -90 d s 463
 832 m -32 -32 d s 405 773 m -84 -83 d s 315 683 m s 446 831 m -15 -16 d s 403 787 m -82 -82 d s 308 691 m -8 -8 d s 444 844 m -13 -14 d s 403 803 m -82 -83 d s 308 706 m -23 -23 d s 444 859 m -13 -14 d s 403 818 m -13 -14 d s 388 802 m -53 -53 d s
 329 743 m -8 -8 d s 299 713 m -19 -19 d s 270 683 m s 444 874 m -13 -14 d s 403 833 m -13 -14 d s 376 805 m -41 -41 d s 294 723 m -14 -14 d s 267 695 m -13 -12 d s 444 889 m -13 -13 d s 403 848 m -13 -14 d s 376 820 m -41 -41 d s 294 738 m -14 -14 d
 s 267 710 m -14 -13 d s 239 683 m s 431 891 m s 403 863 m -13 -14 d s 376 836 m -41 -42 d s 294 753 m -14 -14 d s 254 713 m -1 -1 d s 224 683 m s 403 878 m -13 -13 d s 376 851 m -14 -14 d s 357 831 m -22 -21 d s 294 768 m -14 -14 d s 209 683 m cl s
 403 893 m -13 -13 d s 372 862 m -10 -10 d s 343 833 m -8 -8 d s 294 783 m -14 -13 d s 194 683 m s 403 909 m -13 -14 d s 294 799 m -14 -14 d s 179 683 m s 403 924 m -13 -14 d s 294 814 m -14 -14 d s 164 683 m cl s 403 939 m -13 -14 d s 294 829 m -14
 -14 d s 149 683 m s 403 954 m -13 -14 d s 282 832 m -2 -2 d s 403 969 m -13 -13 d s 403 984 m -13 -13 d s 403 1000 m -13 -14 d s 401 1012 m -11 -11 d s 6 lw 143 683 m 110 X 30 Y 14 X -30 Y 13 X 149 Y 14 X -119 Y 14 X -30 Y 13 X 60 Y 14 X 90 Y 14 X
 -2 Y 13 X 31 Y 14 X -60 Y 14 X 210 Y 13 X -239 Y 28 X 118 Y 13 X -60 Y 14 X 1 Y 14 X -59 Y 13 X -1 Y 14 X -30 Y 14 X 1 Y 13 X -60 Y 14 X 61 Y 14 X -61 Y 55 X 30 Y 13 X -30 Y 14 X 30 Y 14 X -30 Y 27 X 29 Y 14 X -29 Y s 0.490196 0.545098 0.615686 c 3
 lw 0.95 0.95 0.95 c 0.490196 0.545098 0.615686 c 285 85 143 1026 bl 143 1026 m 285 X s 428 1026 m 85 Y s 428 1111 m -285 X s 143 1111 m -85 Y s black
 gsave  710 566 23 602 C 227.911 1079.73 t 0 r /Times-Italic findfont 31.4517 sf 0 0 m (Signal) show NC gr  0.49 0.6 0.82 c 156 1075 m 60 X 30 Y -60 X f 0 0 0.933333 c 6 lw 156 1105 m 60 X s 156 1075 m 60 X s 216 1075 m 30 Y s 156 1075 m 30 Y s black
 gsave  710 566 23 602 C 227.911 1037 t 0 r /Times-Italic findfont 31.4517 sf 0 0 m (Background) show NC gr  1 0 0 c 3 lw 216 1039 m -6 -7 d s 216 1054 m -21 -22 d s 209 1062 m -29 -30 d s 194 1062 m -29 -30 d s 179 1062 m -23 -23 d s 164 1062 m -8
 -8 d s 6 lw 0 0 0.933333 c 1 0 0 c 156 1062 m 60 X s 156 1032 m 60 X s 216 1032 m 30 Y s 156 1032 m 30 Y s black 3 lw 143 683 m 548 X s 155 696 m -13 Y s 171 690 m -7 Y s 188 690 m -7 Y s 204 690 m -7 Y s 221 690 m -7 Y s 237 696 m -13 Y s 254 690 m
 -7 Y s 271 690 m -7 Y s 287 690 m -7 Y s 304 690 m -7 Y s 320 696 m -13 Y s 337 690 m -7 Y s 353 690 m -7 Y s 370 690 m -7 Y s 386 690 m -7 Y s 403 696 m -13 Y s 420 690 m -7 Y s 436 690 m -7 Y s 453 690 m -7 Y s 469 690 m -7 Y s 486 696 m -13 Y s
 502 690 m -7 Y s 519 690 m -7 Y s 536 690 m -7 Y s 552 690 m -7 Y s 569 696 m -13 Y s 585 690 m -7 Y s 602 690 m -7 Y s 618 690 m -7 Y s 635 690 m -7 Y s 651 696 m -13 Y s 155 696 m -13 Y s 651 696 m -13 Y s 668 690 m -7 Y s 685 690 m -7 Y s 143
 1111 m 548 X s 155 1098 m 13 Y s 171 1104 m 7 Y s 188 1104 m 7 Y s 204 1104 m 7 Y s 221 1104 m 7 Y s 237 1098 m 13 Y s 254 1104 m 7 Y s 271 1104 m 7 Y s 287 1104 m 7 Y s 304 1104 m 7 Y s 320 1098 m 13 Y s 337 1104 m 7 Y s 353 1104 m 7 Y s 370 1104 m
 7 Y s 386 1104 m 7 Y s 403 1098 m 13 Y s 420 1104 m 7 Y s 436 1104 m 7 Y s 453 1104 m 7 Y s 469 1104 m 7 Y s 486 1098 m 13 Y s 502 1104 m 7 Y s 519 1104 m 7 Y s 536 1104 m 7 Y s 552 1104 m 7 Y s 569 1098 m 13 Y s 585 1104 m 7 Y s 602 1104 m 7 Y s
 618 1104 m 7 Y s 635 1104 m 7 Y s 651 1098 m 13 Y s 155 1098 m 13 Y s 651 1098 m 13 Y s 668 1104 m 7 Y s 685 1104 m 7 Y s 143 683 m 428 Y s 160 683 m -17 X s 152 702 m -9 X s 152 721 m -9 X s 152 741 m -9 X s 160 760 m -17 X s 152 779 m -9 X s 152
 798 m -9 X s 152 817 m -9 X s 160 837 m -17 X s 152 856 m -9 X s 152 875 m -9 X s 152 894 m -9 X s 160 913 m -17 X s 152 933 m -9 X s 152 952 m -9 X s 152 971 m -9 X s 160 990 m -17 X s 152 1009 m -9 X s 152 1029 m -9 X s 152 1048 m -9 X s 160 1067
 m -17 X s 160 1067 m -17 X s 152 1086 m -9 X s 152 1105 m -9 X s 691 683 m 428 Y s 674 683 m 17 X s 683 702 m 8 X s 683 721 m 8 X s 683 741 m 8 X s 674 760 m 17 X s 683 779 m 8 X s 683 798 m 8 X s 683 817 m 8 X s 674 837 m 17 X s 683 856 m 8 X s 683
 875 m 8 X s 683 894 m 8 X s 674 913 m 17 X s 683 933 m 8 X s 683 952 m 8 X s 683 971 m 8 X s 674 990 m 17 X s 683 1009 m 8 X s 683 1029 m 8 X s 683 1048 m 8 X s 674 1067 m 17 X s 674 1067 m 17 X s 683 1086 m 8 X s 683 1105 m 8 X s
 gsave  710 566 23 602 C 719.017 680.773 t 90 r /Helvetica-Bold findfont 20.0147 sf 0 0 m (U/O\255flow \(S,B\): \(0.0, 0.0\)% / \(0.0, 0.0\)%) show NC gr  0.490196 0.545098 0.615686 c 0.364706 0.419608 0.490196 c 497 38 30 1127 bf 0.490196 0.545098
 0.615686 c 30 1127 m 497 X s 527 1127 m 38 Y s 527 1165 m -497 X s 30 1165 m -38 Y s 1 1 1 c black 1 1 1 c
 gsave  710 566 23 602 C 45.5822 1139.56 t 0 r /Helvetica-Bold findfont 20.0147 sf 0 0 m (Input variable'Deco'\255transformed : GTND_bubble) show NC gr  0.490196 0.545098 0.615686 c 0.941176 0.941176 0.941176 c 710 566 779 602 bf black 1 1 0.992157 c
 548 428 899 683 bf black 548 428 899 683 bl 1 1 0.992157 c 548 428 899 683 bf black 548 428 899 683 bl 0 0 0.933333 c 6 lw 0.49 0.6 0.82 c black 3 lw 0.49 0.6 0.82 c 899 683 m 69 X 39 Y 13 X -5 Y 14 X -34 Y 14 X 135 Y 13 X -33 Y 14 X 101 Y 14 X -1 Y
 14 X 135 Y 13 X -236 Y 14 X 135 Y 14 X -67 Y 13 X -68 Y 14 X 69 Y 14 X -136 Y 13 X -34 Y 28 X 33 Y 13 X -33 Y 247 X f 6 lw 0 0 0.933333 c 0.49 0.6 0.82 c 0 0 0.933333 c 899 683 m 69 X 39 Y 13 X -5 Y 14 X -34 Y 14 X 135 Y 13 X -33 Y 14 X 101 Y 14 X
 -1 Y 14 X 135 Y 13 X -236 Y 14 X 135 Y 14 X -67 Y 13 X -68 Y 14 X 69 Y 14 X -136 Y 13 X -34 Y 28 X 33 Y 13 X -33 Y 247 X s black 3 lw 899 683 m 548 X s
 gsave  710 566 779 602 C 1190.84 615.36 t 0 r /Helvetica findfont 28.5925 sf 0 0 m (GTND_crisis \(Deco\)) show NC gr  986 696 m -13 Y s 1011 690 m -7 Y s 1035 690 m -7 Y s 1060 690 m -7 Y s 1085 696 m -13 Y s 1110 690 m -7 Y s 1135 690 m -7 Y s 1159
 690 m -7 Y s 1184 696 m -13 Y s 1209 690 m -7 Y s 1234 690 m -7 Y s 1259 690 m -7 Y s 1283 696 m -13 Y s 1308 690 m -7 Y s 1333 690 m -7 Y s 1358 690 m -7 Y s 1383 696 m -13 Y s 986 696 m -13 Y s 961 690 m -7 Y s 936 690 m -7 Y s 911 690 m -7 Y s
 1383 696 m -13 Y s 1407 690 m -7 Y s 1432 690 m -7 Y s
 gsave  710 566 779 602 C 974.32 655.245 t 0 r /Helvetica findfont 25.7332 sf 0 0 m (\2552) show NC gr 
 gsave  710 566 779 602 C 1074.03 655.245 t 0 r /Helvetica findfont 25.7332 sf 0 0 m (0) show NC gr 
 gsave  710 566 779 602 C 1173.74 655.245 t 0 r /Helvetica findfont 25.7332 sf 0 0 m (2) show NC gr 
 gsave  710 566 779 602 C 1273.45 655.245 t 0 r /Helvetica findfont 25.7332 sf 0 0 m (4) show NC gr 
 gsave  710 566 779 602 C 1373.17 655.245 t 0 r /Helvetica findfont 25.7332 sf 0 0 m (6) show NC gr  899 1111 m 548 X s 986 1098 m 13 Y s 1011 1104 m 7 Y s 1035 1104 m 7 Y s 1060 1104 m 7 Y s 1085 1098 m 13 Y s 1110 1104 m 7 Y s 1135 1104 m 7 Y s
 1159 1104 m 7 Y s 1184 1098 m 13 Y s 1209 1104 m 7 Y s 1234 1104 m 7 Y s 1259 1104 m 7 Y s 1283 1098 m 13 Y s 1308 1104 m 7 Y s 1333 1104 m 7 Y s 1358 1104 m 7 Y s 1383 1098 m 13 Y s 986 1098 m 13 Y s 961 1104 m 7 Y s 936 1104 m 7 Y s 911 1104 m 7 Y
 s 1383 1098 m 13 Y s 1407 1104 m 7 Y s 1432 1104 m 7 Y s 899 683 m 428 Y s
 gsave  710 566 779 602 C 803.387 1031.3 t 90 r /Helvetica findfont 28.5925 sf 0 0 m (0.276 ) show NC gr 
 gsave  710 566 779 602 C 789.143 1025.6 t 90 r /Helvetica findfont 20.0147 sf 0 0 m ( ) show NC gr 
 gsave  710 566 779 602 C 803.387 1014.2 t 90 r /Helvetica findfont 28.5925 sf 0 0 m (/) show NC gr 
 gsave  710 566 779 602 C 811.934 1008.51 t 90 r /Helvetica findfont 20.0147 sf 0 0 m ( ) show NC gr 
 gsave  710 566 779 602 C 803.387 900.249 t 90 r /Helvetica findfont 28.5925 sf 0 0 m (\(1/N\) dN) show NC gr  915 683 m -16 X s 907 693 m -8 X s 907 704 m -8 X s 907 714 m -8 X s 907 725 m -8 X s 915 735 m -16 X s 907 746 m -8 X s 907 756 m -8 X s
 907 767 m -8 X s 907 777 m -8 X s 915 788 m -16 X s 907 798 m -8 X s 907 808 m -8 X s 907 819 m -8 X s 907 829 m -8 X s 915 840 m -16 X s 907 850 m -8 X s 907 861 m -8 X s 907 871 m -8 X s 907 882 m -8 X s 915 892 m -16 X s 907 902 m -8 X s 907 913
 m -8 X s 907 923 m -8 X s 907 934 m -8 X s 915 944 m -16 X s 907 955 m -8 X s 907 965 m -8 X s 907 976 m -8 X s 907 986 m -8 X s 915 996 m -16 X s 907 1007 m -8 X s 907 1017 m -8 X s 907 1028 m -8 X s 907 1038 m -8 X s 915 1049 m -16 X s 907 1059 m
 -8 X s 907 1070 m -8 X s 907 1080 m -8 X s 907 1091 m -8 X s 915 1101 m -16 X s 915 1101 m -16 X s
 gsave  710 566 779 602 C 874.609 672.338 t 0 r /Helvetica findfont 25.7332 sf 0 0 m (0) show NC gr 
 gsave  710 566 779 602 C 857.516 726.467 t 0 r /Helvetica findfont 25.7332 sf 0 0 m (0.1) show NC gr 
 gsave  710 566 779 602 C 851.818 777.747 t 0 r /Helvetica findfont 25.7332 sf 0 0 m (0.2) show NC gr 
 gsave  710 566 779 602 C 851.818 829.027 t 0 r /Helvetica findfont 25.7332 sf 0 0 m (0.3) show NC gr 
 gsave  710 566 779 602 C 851.818 883.156 t 0 r /Helvetica findfont 25.7332 sf 0 0 m (0.4) show NC gr 
 gsave  710 566 779 602 C 851.818 934.436 t 0 r /Helvetica findfont 25.7332 sf 0 0 m (0.5) show NC gr 
 gsave  710 566 779 602 C 851.818 985.716 t 0 r /Helvetica findfont 25.7332 sf 0 0 m (0.6) show NC gr 
 gsave  710 566 779 602 C 851.818 1039.84 t 0 r /Helvetica findfont 25.7332 sf 0 0 m (0.7) show NC gr 
 gsave  710 566 779 602 C 851.818 1091.12 t 0 r /Helvetica findfont 25.7332 sf 0 0 m (0.8) show NC gr  1447 683 m 428 Y s 1430 683 m 17 X s 1438 693 m 9 X s 1438 704 m 9 X s 1438 714 m 9 X s 1438 725 m 9 X s 1430 735 m 17 X s 1438 746 m 9 X s 1438
 756 m 9 X s 1438 767 m 9 X s 1438 777 m 9 X s 1430 788 m 17 X s 1438 798 m 9 X s 1438 808 m 9 X s 1438 819 m 9 X s 1438 829 m 9 X s 1430 840 m 17 X s 1438 850 m 9 X s 1438 861 m 9 X s 1438 871 m 9 X s 1438 882 m 9 X s 1430 892 m 17 X s 1438 902 m 9
 X s 1438 913 m 9 X s 1438 923 m 9 X s 1438 934 m 9 X s 1430 944 m 17 X s 1438 955 m 9 X s 1438 965 m 9 X s 1438 976 m 9 X s 1438 986 m 9 X s 1430 996 m 17 X s 1438 1007 m 9 X s 1438 1017 m 9 X s 1438 1028 m 9 X s 1438 1038 m 9 X s 1430 1049 m 17 X s
 1438 1059 m 9 X s 1438 1070 m 9 X s 1438 1080 m 9 X s 1438 1091 m 9 X s 1430 1101 m 17 X s 1430 1101 m 17 X s 1 0 0 c 6 lw black 3 lw 1 0 0 c 1433 683 m s 1418 683 m s 1403 683 m s 1388 683 m s 1372 683 m s 1357 683 m s 1351 692 m -9 -9 d s 1351 707
 m -14 -14 d s 1327 683 m s 1312 683 m s 1297 683 m s 1282 683 m s 1282 699 m -13 -14 d s 1267 683 m s 1276 708 m -7 -8 d s 1252 683 m s 1237 683 m s 1222 683 m s 1207 683 m s 1200 692 m -8 -9 d s 1200 707 m -24 -24 d s 1187 708 m -14 -13 d s 1161
 683 m s 1187 723 m -14 -13 d s 1159 696 m -13 -13 d s 1187 739 m -14 -14 d s 1157 708 m -26 -25 d s 1187 754 m -14 -14 d s 1146 712 m -30 -29 d s 1173 755 m s 1146 728 m -45 -45 d s 1146 743 m -60 -60 d s 1144 757 m -12 -13 d s 1120 732 m -49 -49 d
 s 1118 745 m -62 -62 d s 1118 761 m -77 -78 d s 1118 776 m -92 -93 d s 1118 791 m -107 -108 d s 1118 806 m -122 -123 d s 1118 821 m -109 -110 d s 1005 708 m -10 -10 d s 981 684 m -1 Y s 1118 836 m -68 -68 d s 1039 756 m -17 -16 d s 1014 731 m -5 -5
 d s 981 699 m -13 -14 d s 965 683 m s 1118 851 m -68 -68 d s 1036 769 m -14 -14 d s 975 707 m -7 -7 d s 950 683 m s 1118 866 m -68 -68 d s 1036 784 m -14 -14 d s 935 683 m s 1118 881 m -27 -27 d s 1090 853 m -40 -40 d s 1036 799 m -14 -14 d s 920
 683 m cl s 1118 897 m -27 -28 d s 1077 855 m -13 -13 d s 1051 829 m -1 -1 d s 1036 814 m -14 -13 d s 905 683 m cl s 1107 900 m -16 -16 d s 1077 871 m -13 -14 d s 1036 829 m -14 -13 d s 1105 913 m -14 -14 d s 1077 886 m -13 -14 d s 1105 928 m -14 -14
 d s 1077 901 m -13 -14 d s 1105 943 m -14 -13 d s 1077 916 m -13 -14 d s 1105 958 m -14 -13 d s 1077 931 m -13 -14 d s 1105 973 m -14 -13 d s 1077 946 m -13 -14 d s 1105 989 m -14 -14 d s 1077 961 m -13 -14 d s 1105 1004 m -14 -14 d s 1077 976 m -13
 -13 d s 1105 1019 m -14 -14 d s 1077 991 m -13 -13 d s 1105 1034 m -14 -14 d s 1077 1006 m -13 -13 d s 1101 1046 m -10 -11 d s 1077 1022 m -13 -14 d s 1077 1037 m -13 -14 d s 1077 1052 m -13 -14 d s 1077 1067 m -13 -14 d s 1067 1072 m -3 -4 d s 6 lw
 899 683 m 69 X 24 Y 13 X -24 Y 14 X 25 Y 14 X 23 Y 13 X 98 Y 14 X -73 Y 14 X 73 Y 14 X 243 Y 13 X -219 Y 14 X 193 Y 14 X -146 Y 13 X -168 Y 14 X 25 Y 14 X -49 Y 13 X -25 Y 14 X 72 Y 14 X -48 Y 13 X -24 Y 69 X 25 Y 13 X -25 Y 55 X 24 Y 14 X -24 Y 96
 X s black 3 lw 899 683 m 548 X s 986 696 m -13 Y s 1011 690 m -7 Y s 1035 690 m -7 Y s 1060 690 m -7 Y s 1085 696 m -13 Y s 1110 690 m -7 Y s 1135 690 m -7 Y s 1159 690 m -7 Y s 1184 696 m -13 Y s 1209 690 m -7 Y s 1234 690 m -7 Y s 1259 690 m -7 Y
 s 1283 696 m -13 Y s 1308 690 m -7 Y s 1333 690 m -7 Y s 1358 690 m -7 Y s 1383 696 m -13 Y s 986 696 m -13 Y s 961 690 m -7 Y s 936 690 m -7 Y s 911 690 m -7 Y s 1383 696 m -13 Y s 1407 690 m -7 Y s 1432 690 m -7 Y s 899 1111 m 548 X s 986 1098 m
 13 Y s 1011 1104 m 7 Y s 1035 1104 m 7 Y s 1060 1104 m 7 Y s 1085 1098 m 13 Y s 1110 1104 m 7 Y s 1135 1104 m 7 Y s 1159 1104 m 7 Y s 1184 1098 m 13 Y s 1209 1104 m 7 Y s 1234 1104 m 7 Y s 1259 1104 m 7 Y s 1283 1098 m 13 Y s 1308 1104 m 7 Y s 1333
 1104 m 7 Y s 1358 1104 m 7 Y s 1383 1098 m 13 Y s 986 1098 m 13 Y s 961 1104 m 7 Y s 936 1104 m 7 Y s 911 1104 m 7 Y s 1383 1098 m 13 Y s 1407 1104 m 7 Y s 1432 1104 m 7 Y s 899 683 m 428 Y s 915 683 m -16 X s 907 693 m -8 X s 907 704 m -8 X s 907
 714 m -8 X s 907 725 m -8 X s 915 735 m -16 X s 907 746 m -8 X s 907 756 m -8 X s 907 767 m -8 X s 907 777 m -8 X s 915 788 m -16 X s 907 798 m -8 X s 907 808 m -8 X s 907 819 m -8 X s 907 829 m -8 X s 915 840 m -16 X s 907 850 m -8 X s 907 861 m -8
 X s 907 871 m -8 X s 907 882 m -8 X s 915 892 m -16 X s 907 902 m -8 X s 907 913 m -8 X s 907 923 m -8 X s 907 934 m -8 X s 915 944 m -16 X s 907 955 m -8 X s 907 965 m -8 X s 907 976 m -8 X s 907 986 m -8 X s 915 996 m -16 X s 907 1007 m -8 X s 907
 1017 m -8 X s 907 1028 m -8 X s 907 1038 m -8 X s 915 1049 m -16 X s 907 1059 m -8 X s 907 1070 m -8 X s 907 1080 m -8 X s 907 1091 m -8 X s 915 1101 m -16 X s 915 1101 m -16 X s 1447 683 m 428 Y s 1430 683 m 17 X s 1438 693 m 9 X s 1438 704 m 9 X s
 1438 714 m 9 X s 1438 725 m 9 X s 1430 735 m 17 X s 1438 746 m 9 X s 1438 756 m 9 X s 1438 767 m 9 X s 1438 777 m 9 X s 1430 788 m 17 X s 1438 798 m 9 X s 1438 808 m 9 X s 1438 819 m 9 X s 1438 829 m 9 X s 1430 840 m 17 X s 1438 850 m 9 X s 1438 861
 m 9 X s 1438 871 m 9 X s 1438 882 m 9 X s 1430 892 m 17 X s 1438 902 m 9 X s 1438 913 m 9 X s 1438 923 m 9 X s 1438 934 m 9 X s 1430 944 m 17 X s 1438 955 m 9 X s 1438 965 m 9 X s 1438 976 m 9 X s 1438 986 m 9 X s 1430 996 m 17 X s 1438 1007 m 9 X s
 1438 1017 m 9 X s 1438 1028 m 9 X s 1438 1038 m 9 X s 1430 1049 m 17 X s 1438 1059 m 9 X s 1438 1070 m 9 X s 1438 1080 m 9 X s 1438 1091 m 9 X s 1430 1101 m 17 X s 1430 1101 m 17 X s
 gsave  710 566 779 602 C 1474.92 680.773 t 90 r /Helvetica-Bold findfont 20.0147 sf 0 0 m (U/O\255flow \(S,B\): \(0.0, 0.0\)% / \(0.0, 0.0\)%) show NC gr  0.490196 0.545098 0.615686 c 0.364706 0.419608 0.490196 c 497 38 786 1127 bf 0.490196 0.545098
 0.615686 c 786 1127 m 497 X s 1283 1127 m 38 Y s 1283 1165 m -497 X s 786 1165 m -38 Y s 1 1 1 c black 1 1 1 c
 gsave  710 566 779 602 C 809.085 1139.56 t 0 r /Helvetica-Bold findfont 20.0147 sf 0 0 m (Input variable'Deco'\255transformed : GTND_crisis) show NC gr  0.490196 0.545098 0.615686 c 0.941176 0.941176 0.941176 c 711 566 1534 602 bf black 1 1 0.992157
 c 547 428 1655 683 bf black 547 428 1655 683 bl 1 1 0.992157 c 547 428 1655 683 bf black 547 428 1655 683 bl 0 0 0.933333 c 6 lw 0.49 0.6 0.82 c black 3 lw 0.49 0.6 0.82 c 1655 683 m 42 Y 14 X -42 Y 82 X 41 Y 14 X -41 Y 13 X 48 Y 14 X -7 Y 27 X 251
 Y 14 X -42 Y 14 X -1 Y 13 X -82 Y 14 X -44 Y 27 X 126 Y 14 X -82 Y 14 X 42 Y 14 X -167 Y 27 X -1 Y 14 X 41 Y 13 X -82 Y 14 X 42 Y 14 X -42 Y 13 X 41 Y 14 X -41 Y 150 X f 6 lw 0 0 0.933333 c 0.49 0.6 0.82 c 0 0 0.933333 c 1655 725 m 14 X -42 Y 82 X
 41 Y 14 X -41 Y 13 X 48 Y 14 X -7 Y 27 X 251 Y 14 X -42 Y 14 X -1 Y 13 X -82 Y 14 X -44 Y 27 X 126 Y 14 X -82 Y 14 X 42 Y 14 X -167 Y 27 X -1 Y 14 X 41 Y 13 X -82 Y 14 X 42 Y 14 X -42 Y 13 X 41 Y 14 X -41 Y 150 X s black 3 lw 1655 683 m 547 X s
 gsave  711 566 1534 602 C 1877.42 615.36 t 0 r /Helvetica findfont 28.5925 sf 0 0 m (GTND_derivatives \(Deco\)) show NC gr  1679 696 m -13 Y s 1692 690 m -7 Y s 1704 690 m -7 Y s 1717 690 m -7 Y s 1730 690 m -7 Y s 1742 696 m -13 Y s 1755 690 m -7 Y
 s 1767 690 m -7 Y s 1780 690 m -7 Y s 1792 690 m -7 Y s 1805 696 m -13 Y s 1818 690 m -7 Y s 1830 690 m -7 Y s 1843 690 m -7 Y s 1855 690 m -7 Y s 1868 696 m -13 Y s 1881 690 m -7 Y s 1893 690 m -7 Y s 1906 690 m -7 Y s 1918 690 m -7 Y s 1931 696 m
 -13 Y s 1943 690 m -7 Y s 1956 690 m -7 Y s 1969 690 m -7 Y s 1981 690 m -7 Y s 1994 696 m -13 Y s 2006 690 m -7 Y s 2019 690 m -7 Y s 2032 690 m -7 Y s 2044 690 m -7 Y s 2057 696 m -13 Y s 2069 690 m -7 Y s 2082 690 m -7 Y s 2094 690 m -7 Y s 2107
 690 m -7 Y s 2120 696 m -13 Y s 2132 690 m -7 Y s 2145 690 m -7 Y s 2157 690 m -7 Y s 2170 690 m -7 Y s 2183 696 m -13 Y s 1679 696 m -13 Y s 1667 690 m -7 Y s 2183 696 m -13 Y s 2195 690 m -7 Y s
 gsave  711 566 1534 602 C 1666.6 655.245 t 0 r /Helvetica findfont 25.7332 sf 0 0 m (\2553) show NC gr 
 gsave  711 566 1534 602 C 1729.28 655.245 t 0 r /Helvetica findfont 25.7332 sf 0 0 m (\2552) show NC gr 
 gsave  711 566 1534 602 C 1791.95 655.245 t 0 r /Helvetica findfont 25.7332 sf 0 0 m (\2551) show NC gr 
 gsave  711 566 1534 602 C 1857.48 655.245 t 0 r /Helvetica findfont 25.7332 sf 0 0 m (0) show NC gr 
 gsave  711 566 1534 602 C 1923 655.245 t 0 r /Helvetica findfont 25.7332 sf 0 0 m (1) show NC gr 
 gsave  711 566 1534 602 C 1982.83 655.245 t 0 r /Helvetica findfont 25.7332 sf 0 0 m (2) show NC gr 
 gsave  711 566 1534 602 C 2045.5 655.245 t 0 r /Helvetica findfont 25.7332 sf 0 0 m (3) show NC gr 
 gsave  711 566 1534 602 C 2111.03 655.245 t 0 r /Helvetica findfont 25.7332 sf 0 0 m (4) show NC gr 
 gsave  711 566 1534 602 C 2173.7 655.245 t 0 r /Helvetica findfont 25.7332 sf 0 0 m (5) show NC gr  1655 1111 m 547 X s 1679 1098 m 13 Y s 1692 1104 m 7 Y s 1704 1104 m 7 Y s 1717 1104 m 7 Y s 1730 1104 m 7 Y s 1742 1098 m 13 Y s 1755 1104 m 7 Y s
 1767 1104 m 7 Y s 1780 1104 m 7 Y s 1792 1104 m 7 Y s 1805 1098 m 13 Y s 1818 1104 m 7 Y s 1830 1104 m 7 Y s 1843 1104 m 7 Y s 1855 1104 m 7 Y s 1868 1098 m 13 Y s 1881 1104 m 7 Y s 1893 1104 m 7 Y s 1906 1104 m 7 Y s 1918 1104 m 7 Y s 1931 1098 m
 13 Y s 1943 1104 m 7 Y s 1956 1104 m 7 Y s 1969 1104 m 7 Y s 1981 1104 m 7 Y s 1994 1098 m 13 Y s 2006 1104 m 7 Y s 2019 1104 m 7 Y s 2032 1104 m 7 Y s 2044 1104 m 7 Y s 2057 1098 m 13 Y s 2069 1104 m 7 Y s 2082 1104 m 7 Y s 2094 1104 m 7 Y s 2107
 1104 m 7 Y s 2120 1098 m 13 Y s 2132 1104 m 7 Y s 2145 1104 m 7 Y s 2157 1104 m 7 Y s 2170 1104 m 7 Y s 2183 1098 m 13 Y s 1679 1098 m 13 Y s 1667 1104 m 7 Y s 2183 1098 m 13 Y s 2195 1104 m 7 Y s 1655 683 m 428 Y s
 gsave  711 566 1534 602 C 1558.34 1031.3 t 90 r /Helvetica findfont 28.5925 sf 0 0 m (0.217 ) show NC gr 
 gsave  711 566 1534 602 C 1544.1 1025.6 t 90 r /Helvetica findfont 20.0147 sf 0 0 m ( ) show NC gr 
 gsave  711 566 1534 602 C 1558.34 1014.2 t 90 r /Helvetica findfont 28.5925 sf 0 0 m (/) show NC gr 
 gsave  711 566 1534 602 C 1566.89 1008.51 t 90 r /Helvetica findfont 20.0147 sf 0 0 m ( ) show NC gr 
 gsave  711 566 1534 602 C 1558.34 900.249 t 90 r /Helvetica findfont 28.5925 sf 0 0 m (\(1/N\) dN) show NC gr  1671 683 m -16 X s 1663 693 m -8 X s 1663 703 m -8 X s 1663 713 m -8 X s 1663 724 m -8 X s 1671 734 m -16 X s 1663 744 m -8 X s 1663 754 m
 -8 X s 1663 764 m -8 X s 1663 774 m -8 X s 1671 784 m -16 X s 1663 794 m -8 X s 1663 805 m -8 X s 1663 815 m -8 X s 1663 825 m -8 X s 1671 835 m -16 X s 1663 845 m -8 X s 1663 855 m -8 X s 1663 865 m -8 X s 1663 876 m -8 X s 1671 886 m -16 X s 1663
 896 m -8 X s 1663 906 m -8 X s 1663 916 m -8 X s 1663 926 m -8 X s 1671 936 m -16 X s 1663 946 m -8 X s 1663 957 m -8 X s 1663 967 m -8 X s 1663 977 m -8 X s 1671 987 m -16 X s 1663 997 m -8 X s 1663 1007 m -8 X s 1663 1017 m -8 X s 1663 1028 m -8 X
 s 1671 1038 m -16 X s 1663 1048 m -8 X s 1663 1058 m -8 X s 1663 1068 m -8 X s 1663 1078 m -8 X s 1671 1088 m -16 X s 1671 1088 m -16 X s 1663 1098 m -8 X s 1663 1109 m -8 X s
 gsave  711 566 1534 602 C 1632.41 672.338 t 0 r /Helvetica findfont 25.7332 sf 0 0 m (0) show NC gr 
 gsave  711 566 1534 602 C 1615.32 723.618 t 0 r /Helvetica findfont 25.7332 sf 0 0 m (0.1) show NC gr 
 gsave  711 566 1534 602 C 1609.62 774.898 t 0 r /Helvetica findfont 25.7332 sf 0 0 m (0.2) show NC gr 
 gsave  711 566 1534 602 C 1609.62 826.178 t 0 r /Helvetica findfont 25.7332 sf 0 0 m (0.3) show NC gr 
 gsave  711 566 1534 602 C 1609.62 874.609 t 0 r /Helvetica findfont 25.7332 sf 0 0 m (0.4) show NC gr 
 gsave  711 566 1534 602 C 1609.62 925.889 t 0 r /Helvetica findfont 25.7332 sf 0 0 m (0.5) show NC gr 
 gsave  711 566 1534 602 C 1609.62 977.169 t 0 r /Helvetica findfont 25.7332 sf 0 0 m (0.6) show NC gr 
 gsave  711 566 1534 602 C 1609.62 1028.45 t 0 r /Helvetica findfont 25.7332 sf 0 0 m (0.7) show NC gr 
 gsave  711 566 1534 602 C 1609.62 1079.73 t 0 r /Helvetica findfont 25.7332 sf 0 0 m (0.8) show NC gr  2202 683 m 428 Y s 2186 683 m 16 X s 2194 693 m 8 X s 2194 703 m 8 X s 2194 713 m 8 X s 2194 724 m 8 X s 2186 734 m 16 X s 2194 744 m 8 X s 2194
 754 m 8 X s 2194 764 m 8 X s 2194 774 m 8 X s 2186 784 m 16 X s 2194 794 m 8 X s 2194 805 m 8 X s 2194 815 m 8 X s 2194 825 m 8 X s 2186 835 m 16 X s 2194 845 m 8 X s 2194 855 m 8 X s 2194 865 m 8 X s 2194 876 m 8 X s 2186 886 m 16 X s 2194 896 m 8
 X s 2194 906 m 8 X s 2194 916 m 8 X s 2194 926 m 8 X s 2186 936 m 16 X s 2194 946 m 8 X s 2194 957 m 8 X s 2194 967 m 8 X s 2194 977 m 8 X s 2186 987 m 16 X s 2194 997 m 8 X s 2194 1007 m 8 X s 2194 1017 m 8 X s 2194 1028 m 8 X s 2186 1038 m 16 X s
 2194 1048 m 8 X s 2194 1058 m 8 X s 2194 1068 m 8 X s 2194 1078 m 8 X s 2186 1088 m 16 X s 2186 1088 m 16 X s 2194 1098 m 8 X s 2194 1109 m 8 X s 1 0 0 c 6 lw black 3 lw 1 0 0 c 2188 683 m s 2173 683 m s 2158 683 m s 2143 683 m s 2128 683 m s 2113
 683 m s 2098 683 m s 2083 683 m s 2068 683 m s 2053 683 m s 2038 683 m s 2025 685 m -3 -2 d s 2025 700 m -14 -13 d s 2007 683 m s 2022 713 m -11 -11 d s 1997 688 m -5 -5 d s 1997 703 m -13 -14 d s 1977 683 m s 1992 713 m -8 -8 d s 1970 691 m -8 -8 d
 s 1970 706 m -23 -23 d s 1970 721 m -38 -38 d s 1970 736 m -14 -14 d s 1946 713 m -29 -30 d s 1961 742 m -5 -4 d s 1943 724 m -41 -41 d s 1943 739 m -56 -56 d s 1943 754 m -71 -71 d s 1943 769 m -86 -86 d s 1943 785 m -101 -102 d s 1943 800 m -116
 -117 d s 1943 815 m -132 -132 d s 1943 830 m -14 -14 d s 1915 803 m -119 -120 d s 1943 845 m -14 -14 d s 1915 818 m -134 -135 d s 1943 860 m -14 -13 d s 1915 833 m -109 -110 d s 1796 713 m -30 -30 d s 1943 876 m -14 -14 d s 1901 834 m -95 -96 d s
 1792 724 m -27 -27 d s 1751 683 m cl s 1943 891 m -14 -14 d s 1901 849 m -13 -13 d s 1884 832 m -78 -79 d s 1792 739 m -27 -27 d s 1751 698 m -15 -15 d s 1931 894 m -2 -2 d s 1901 865 m -13 -14 d s 1874 837 m -68 -69 d s 1792 754 m -27 -27 d s 1751
 713 m -30 -30 d s 1901 880 m -13 -14 d s 1874 852 m -41 -41 d s 1825 802 m -19 -19 d s 1792 770 m -14 -14 d s 1765 742 m s 1751 728 m -41 -41 d s 1706 683 m s 1898 891 m -10 -10 d s 1874 867 m -41 -41 d s 1810 803 m -4 -4 d s 1780 773 m -2 -2 d s
 1751 743 m -27 -27 d s 1721 713 m -11 -11 d s 1691 683 m s 1874 883 m -41 -42 d s 1736 743 m -12 -12 d s 1676 683 m s 1869 892 m -22 -22 d s 1838 861 m -5 -5 d s 1661 683 m s 1860 899 m -13 -14 d s 1860 914 m -13 -13 d s 1860 929 m -13 -13 d s 1860
 945 m -13 -14 d s 1860 960 m -13 -14 d s 1860 975 m -13 -14 d s 1860 990 m -13 -14 d s 1860 1005 m -13 -14 d s 1860 1020 m -13 -13 d s 1860 1036 m -13 -14 d s 1860 1051 m -13 -14 d s 1860 1066 m -13 -14 d s 1852 1072 m -5 -5 d s 6 lw 1655 683 m 55 X
 30 Y 14 X 30 Y 27 X -60 Y 14 X 59 Y 13 X 31 Y 14 X -60 Y 14 X 90 Y 13 X -1 Y 14 X 59 Y 14 X 211 Y 13 X -180 Y 14 X -60 Y 14 X 59 Y 13 X -58 Y 14 X -32 Y 14 X 93 Y 14 X -181 Y 13 X 29 Y 14 X -59 Y 14 X 30 Y 13 X -30 Y 14 X 30 Y 14 X -30 Y 177 X s
 black 3 lw 1655 683 m 547 X s 1679 696 m -13 Y s 1692 690 m -7 Y s 1704 690 m -7 Y s 1717 690 m -7 Y s 1730 690 m -7 Y s 1742 696 m -13 Y s 1755 690 m -7 Y s 1767 690 m -7 Y s 1780 690 m -7 Y s 1792 690 m -7 Y s 1805 696 m -13 Y s 1818 690 m -7 Y s
 1830 690 m -7 Y s 1843 690 m -7 Y s 1855 690 m -7 Y s 1868 696 m -13 Y s 1881 690 m -7 Y s 1893 690 m -7 Y s 1906 690 m -7 Y s 1918 690 m -7 Y s 1931 696 m -13 Y s 1943 690 m -7 Y s 1956 690 m -7 Y s 1969 690 m -7 Y s 1981 690 m -7 Y s 1994 696 m
 -13 Y s 2006 690 m -7 Y s 2019 690 m -7 Y s 2032 690 m -7 Y s 2044 690 m -7 Y s 2057 696 m -13 Y s 2069 690 m -7 Y s 2082 690 m -7 Y s 2094 690 m -7 Y s 2107 690 m -7 Y s 2120 696 m -13 Y s 2132 690 m -7 Y s 2145 690 m -7 Y s 2157 690 m -7 Y s 2170
 690 m -7 Y s 2183 696 m -13 Y s 1679 696 m -13 Y s 1667 690 m -7 Y s 2183 696 m -13 Y s 2195 690 m -7 Y s 1655 1111 m 547 X s 1679 1098 m 13 Y s 1692 1104 m 7 Y s 1704 1104 m 7 Y s 1717 1104 m 7 Y s 1730 1104 m 7 Y s 1742 1098 m 13 Y s 1755 1104 m 7
 Y s 1767 1104 m 7 Y s 1780 1104 m 7 Y s 1792 1104 m 7 Y s 1805 1098 m 13 Y s 1818 1104 m 7 Y s 1830 1104 m 7 Y s 1843 1104 m 7 Y s 1855 1104 m 7 Y s 1868 1098 m 13 Y s 1881 1104 m 7 Y s 1893 1104 m 7 Y s 1906 1104 m 7 Y s 1918 1104 m 7 Y s 1931 1098
 m 13 Y s 1943 1104 m 7 Y s 1956 1104 m 7 Y s 1969 1104 m 7 Y s 1981 1104 m 7 Y s 1994 1098 m 13 Y s 2006 1104 m 7 Y s 2019 1104 m 7 Y s 2032 1104 m 7 Y s 2044 1104 m 7 Y s 2057 1098 m 13 Y s 2069 1104 m 7 Y s 2082 1104 m 7 Y s 2094 1104 m 7 Y s 2107
 1104 m 7 Y s 2120 1098 m 13 Y s 2132 1104 m 7 Y s 2145 1104 m 7 Y s 2157 1104 m 7 Y s 2170 1104 m 7 Y s 2183 1098 m 13 Y s 1679 1098 m 13 Y s 1667 1104 m 7 Y s 2183 1098 m 13 Y s 2195 1104 m 7 Y s 1655 683 m 428 Y s 1671 683 m -16 X s 1663 693 m -8
 X s 1663 703 m -8 X s 1663 713 m -8 X s 1663 724 m -8 X s 1671 734 m -16 X s 1663 744 m -8 X s 1663 754 m -8 X s 1663 764 m -8 X s 1663 774 m -8 X s 1671 784 m -16 X s 1663 794 m -8 X s 1663 805 m -8 X s 1663 815 m -8 X s 1663 825 m -8 X s 1671 835
 m -16 X s 1663 845 m -8 X s 1663 855 m -8 X s 1663 865 m -8 X s 1663 876 m -8 X s 1671 886 m -16 X s 1663 896 m -8 X s 1663 906 m -8 X s 1663 916 m -8 X s 1663 926 m -8 X s 1671 936 m -16 X s 1663 946 m -8 X s 1663 957 m -8 X s 1663 967 m -8 X s
 1663 977 m -8 X s 1671 987 m -16 X s 1663 997 m -8 X s 1663 1007 m -8 X s 1663 1017 m -8 X s 1663 1028 m -8 X s 1671 1038 m -16 X s 1663 1048 m -8 X s 1663 1058 m -8 X s 1663 1068 m -8 X s 1663 1078 m -8 X s 1671 1088 m -16 X s 1671 1088 m -16 X s
 1663 1098 m -8 X s 1663 1109 m -8 X s 2202 683 m 428 Y s 2186 683 m 16 X s 2194 693 m 8 X s 2194 703 m 8 X s 2194 713 m 8 X s 2194 724 m 8 X s 2186 734 m 16 X s 2194 744 m 8 X s 2194 754 m 8 X s 2194 764 m 8 X s 2194 774 m 8 X s 2186 784 m 16 X s
 2194 794 m 8 X s 2194 805 m 8 X s 2194 815 m 8 X s 2194 825 m 8 X s 2186 835 m 16 X s 2194 845 m 8 X s 2194 855 m 8 X s 2194 865 m 8 X s 2194 876 m 8 X s 2186 886 m 16 X s 2194 896 m 8 X s 2194 906 m 8 X s 2194 916 m 8 X s 2194 926 m 8 X s 2186 936
 m 16 X s 2194 946 m 8 X s 2194 957 m 8 X s 2194 967 m 8 X s 2194 977 m 8 X s 2186 987 m 16 X s 2194 997 m 8 X s 2194 1007 m 8 X s 2194 1017 m 8 X s 2194 1028 m 8 X s 2186 1038 m 16 X s 2194 1048 m 8 X s 2194 1058 m 8 X s 2194 1068 m 8 X s 2194 1078
 m 8 X s 2186 1088 m 16 X s 2186 1088 m 16 X s 2194 1098 m 8 X s 2194 1109 m 8 X s
 gsave  711 566 1534 602 C 2230.83 680.773 t 90 r /Helvetica-Bold findfont 20.0147 sf 0 0 m (U/O\255flow \(S,B\): \(0.0, 0.0\)% / \(0.0, 0.0\)%) show NC gr  0.490196 0.545098 0.615686 c 0.364706 0.419608 0.490196 c 497 38 1542 1127 bf 0.490196
 0.545098 0.615686 c 1542 1127 m 497 X s 2039 1127 m 38 Y s 2039 1165 m -497 X s 1542 1165 m -38 Y s 1 1 1 c black 1 1 1 c
 gsave  711 566 1534 602 C 1538.4 1139.56 t 0 r /Helvetica-Bold findfont 20.0147 sf 0 0 m (Input variable'Deco'\255transformed : GTND_derivatives) show NC gr  0.490196 0.545098 0.615686 c 0.941176 0.941176 0.941176 c 710 566 23 12 bf black 1 1
 0.992157 c 548 428 143 93 bf black 548 428 143 93 bl 1 1 0.992157 c 548 428 143 93 bf black 548 428 143 93 bl 0 0 0.933333 c 6 lw 0.49 0.6 0.82 c black 3 lw 0.49 0.6 0.82 c 143 93 m 64 Y 14 X 67 Y 14 X -64 Y 14 X -2 Y 13 X -65 Y 14 X 195 Y 14 X -195
 Y 13 X 65 Y 14 X 65 Y 14 X 1 Y 13 X 126 Y 14 X -181 Y 14 X 185 Y 13 X -61 Y 14 X 122 Y 14 X 67 Y 13 X -324 Y 28 X 128 Y 13 X -63 Y 14 X -65 Y 27 X 64 Y 14 X 68 Y 14 X -65 Y 13 X -67 Y 14 X -65 Y 14 X 129 Y 13 X -129 Y 28 X 67 Y 13 X -67 Y 124 X f 6
 lw 0 0 0.933333 c 0.49 0.6 0.82 c 0 0 0.933333 c 143 157 m 14 X 67 Y 14 X -64 Y 14 X -2 Y 13 X -65 Y 14 X 195 Y 14 X -195 Y 13 X 65 Y 14 X 65 Y 14 X 1 Y 13 X 126 Y 14 X -181 Y 14 X 185 Y 13 X -61 Y 14 X 122 Y 14 X 67 Y 13 X -324 Y 28 X 128 Y 13 X
 -63 Y 14 X -65 Y 27 X 64 Y 14 X 68 Y 14 X -65 Y 13 X -67 Y 14 X -65 Y 14 X 129 Y 13 X -129 Y 28 X 67 Y 13 X -67 Y 124 X s black 3 lw 143 93 m 548 X s
 gsave  710 566 23 12 C 390.298 25.64 t 0 r /Helvetica findfont 28.5925 sf 0 0 m (GTND_earnings \(Deco\)) show NC gr  144 106 m -13 Y s 164 100 m -7 Y s 184 100 m -7 Y s 204 100 m -7 Y s 223 100 m -7 Y s 243 106 m -13 Y s 263 100 m -7 Y s 283 100 m
 -7 Y s 303 100 m -7 Y s 323 100 m -7 Y s 343 106 m -13 Y s 363 100 m -7 Y s 383 100 m -7 Y s 403 100 m -7 Y s 423 100 m -7 Y s 443 106 m -13 Y s 463 100 m -7 Y s 483 100 m -7 Y s 502 100 m -7 Y s 522 100 m -7 Y s 542 106 m -13 Y s 562 100 m -7 Y s
 582 100 m -7 Y s 602 100 m -7 Y s 622 100 m -7 Y s 642 106 m -13 Y s 144 106 m -13 Y s 642 106 m -13 Y s 662 100 m -7 Y s 682 100 m -7 Y s
 gsave  710 566 23 12 C 131.049 65.5245 t 0 r /Helvetica findfont 25.7332 sf 0 0 m (\2552) show NC gr 
 gsave  710 566 23 12 C 230.76 65.5245 t 0 r /Helvetica findfont 25.7332 sf 0 0 m (\2551) show NC gr 
 gsave  710 566 23 12 C 333.32 65.5245 t 0 r /Helvetica findfont 25.7332 sf 0 0 m (0) show NC gr 
 gsave  710 566 23 12 C 435.88 65.5245 t 0 r /Helvetica findfont 25.7332 sf 0 0 m (1) show NC gr 
 gsave  710 566 23 12 C 532.742 65.5245 t 0 r /Helvetica findfont 25.7332 sf 0 0 m (2) show NC gr 
 gsave  710 566 23 12 C 632.454 65.5245 t 0 r /Helvetica findfont 25.7332 sf 0 0 m (3) show NC gr  143 521 m 548 X s 144 508 m 13 Y s 164 515 m 6 Y s 184 515 m 6 Y s 204 515 m 6 Y s 223 515 m 6 Y s 243 508 m 13 Y s 263 515 m 6 Y s 283 515 m 6 Y s 303
 515 m 6 Y s 323 515 m 6 Y s 343 508 m 13 Y s 363 515 m 6 Y s 383 515 m 6 Y s 403 515 m 6 Y s 423 515 m 6 Y s 443 508 m 13 Y s 463 515 m 6 Y s 483 515 m 6 Y s 502 515 m 6 Y s 522 515 m 6 Y s 542 508 m 13 Y s 562 515 m 6 Y s 582 515 m 6 Y s 602 515 m
 6 Y s 622 515 m 6 Y s 642 508 m 13 Y s 144 508 m 13 Y s 642 508 m 13 Y s 662 515 m 6 Y s 682 515 m 6 Y s 143 93 m 428 Y s
 gsave  710 566 23 12 C 45.5822 441.578 t 90 r /Helvetica findfont 28.5925 sf 0 0 m (0.137 ) show NC gr 
 gsave  710 566 23 12 C 31.3378 435.88 t 90 r /Helvetica findfont 20.0147 sf 0 0 m ( ) show NC gr 
 gsave  710 566 23 12 C 45.5822 424.485 t 90 r /Helvetica findfont 28.5925 sf 0 0 m (/) show NC gr 
 gsave  710 566 23 12 C 54.1289 418.787 t 90 r /Helvetica findfont 20.0147 sf 0 0 m ( ) show NC gr 
 gsave  710 566 23 12 C 45.5822 310.529 t 90 r /Helvetica findfont 28.5925 sf 0 0 m (\(1/N\) dN) show NC gr  160 93 m -17 X s 152 103 m -9 X s 152 113 m -9 X s 152 123 m -9 X s 152 133 m -9 X s 160 143 m -17 X s 152 153 m -9 X s 152 163 m -9 X s 152
 173 m -9 X s 152 183 m -9 X s 160 193 m -17 X s 152 203 m -9 X s 152 213 m -9 X s 152 223 m -9 X s 152 233 m -9 X s 160 243 m -17 X s 152 253 m -9 X s 152 264 m -9 X s 152 274 m -9 X s 152 284 m -9 X s 160 294 m -17 X s 152 304 m -9 X s 152 314 m -9
 X s 152 324 m -9 X s 152 334 m -9 X s 160 344 m -17 X s 152 354 m -9 X s 152 364 m -9 X s 152 374 m -9 X s 152 384 m -9 X s 160 394 m -17 X s 152 404 m -9 X s 152 414 m -9 X s 152 424 m -9 X s 152 434 m -9 X s 160 444 m -17 X s 152 454 m -9 X s 152
 464 m -9 X s 152 474 m -9 X s 152 484 m -9 X s 160 494 m -17 X s 160 494 m -17 X s 152 504 m -9 X s 152 514 m -9 X s
 gsave  710 566 23 12 C 119.653 82.6178 t 0 r /Helvetica findfont 25.7332 sf 0 0 m (0) show NC gr 
 gsave  710 566 23 12 C 102.56 133.898 t 0 r /Helvetica findfont 25.7332 sf 0 0 m (0.1) show NC gr 
 gsave  710 566 23 12 C 96.8623 182.329 t 0 r /Helvetica findfont 25.7332 sf 0 0 m (0.2) show NC gr 
 gsave  710 566 23 12 C 96.8623 233.609 t 0 r /Helvetica findfont 25.7332 sf 0 0 m (0.3) show NC gr 
 gsave  710 566 23 12 C 96.8623 284.889 t 0 r /Helvetica findfont 25.7332 sf 0 0 m (0.4) show NC gr 
 gsave  710 566 23 12 C 96.8623 333.32 t 0 r /Helvetica findfont 25.7332 sf 0 0 m (0.5) show NC gr 
 gsave  710 566 23 12 C 96.8623 384.6 t 0 r /Helvetica findfont 25.7332 sf 0 0 m (0.6) show NC gr 
 gsave  710 566 23 12 C 96.8623 433.031 t 0 r /Helvetica findfont 25.7332 sf 0 0 m (0.7) show NC gr 
 gsave  710 566 23 12 C 96.8623 484.311 t 0 r /Helvetica findfont 25.7332 sf 0 0 m (0.8) show NC gr  691 93 m 428 Y s 674 93 m 17 X s 683 103 m 8 X s 683 113 m 8 X s 683 123 m 8 X s 683 133 m 8 X s 674 143 m 17 X s 683 153 m 8 X s 683 163 m 8 X s 683
 173 m 8 X s 683 183 m 8 X s 674 193 m 17 X s 683 203 m 8 X s 683 213 m 8 X s 683 223 m 8 X s 683 233 m 8 X s 674 243 m 17 X s 683 253 m 8 X s 683 264 m 8 X s 683 274 m 8 X s 683 284 m 8 X s 674 294 m 17 X s 683 304 m 8 X s 683 314 m 8 X s 683 324 m
 8 X s 683 334 m 8 X s 674 344 m 17 X s 683 354 m 8 X s 683 364 m 8 X s 683 374 m 8 X s 683 384 m 8 X s 674 394 m 17 X s 683 404 m 8 X s 683 414 m 8 X s 683 424 m 8 X s 683 434 m 8 X s 674 444 m 17 X s 683 454 m 8 X s 683 464 m 8 X s 683 474 m 8 X s
 683 484 m 8 X s 674 494 m 17 X s 674 494 m 17 X s 683 504 m 8 X s 683 514 m 8 X s 1 0 0 c 6 lw black 3 lw 1 0 0 c 691 108 m -14 -14 d s 676 93 m s 691 123 m -14 -14 d s 661 93 m s 691 138 m -14 -14 d s 646 93 m cl s 679 141 m -2 -2 d s 631 93 m s
 616 93 m s 601 93 m s 586 93 m s 581 104 m -10 -11 d s 581 119 m -25 -26 d s 581 134 m -40 -41 d s 572 140 m -32 -32 d s 526 94 m -1 Y s 557 140 m -17 -17 d s 526 109 m -15 -16 d s 542 140 m -2 -2 d s 526 124 m -30 -31 d s 526 140 m -45 -47 d s 511
 139 m -46 -46 d s 499 142 m -49 -49 d s 499 157 m -55 -55 d s 435 93 m s 499 173 m -27 -28 d s 467 140 m -23 -22 d s 431 104 m -11 -11 d s 499 188 m -27 -28 d s 452 140 m -8 -7 d s 431 119 m -26 -26 d s 499 203 m -14 -14 d s 482 186 m -10 -11 d s
 431 134 m -41 -41 d s 499 218 m -14 -14 d s 431 149 m -56 -56 d s 499 233 m -14 -13 d s 431 164 m -71 -71 d s 487 236 m -2 -1 d s 431 180 m -28 -28 d s 391 140 m -46 -47 d s 431 195 m -28 -28 d s 390 154 m -60 -61 d s 431 210 m -28 -28 d s 390 169 m
 -75 -76 d s 431 225 m -28 -27 d s 390 184 m -90 -91 d s 431 240 m -28 -27 d s 377 187 m -92 -94 d s 431 255 m -28 -27 d s 362 187 m -92 -94 d s 431 271 m -28 -28 d s 362 202 m -108 -109 d s 431 286 m -28 -28 d s 362 217 m -68 -69 d s 286 140 m -47
 -47 d s 431 301 m -14 -14 d s 408 278 m -5 -5 d s 362 232 m -68 -69 d s 280 150 m -41 -42 d s 226 95 m -2 -2 d s 431 316 m -14 -14 d s 362 247 m -68 -68 d s 280 165 m -41 -42 d s 226 110 m -17 -17 d s 427 327 m -10 -9 d s 362 262 m -68 -68 d s 280
 180 m -41 -41 d s 226 125 m -32 -32 d s 362 278 m -68 -69 d s 280 195 m -41 -41 d s 226 140 m -47 -47 d s 362 293 m -68 -69 d s 280 210 m -41 -41 d s 226 155 m -62 -62 d s 362 308 m -13 -14 d s 337 282 m -43 -43 d s 280 225 m -27 -27 d s 242 186 m
 -3 -2 d s 226 170 m -69 -68 d s 149 93 m cl s 362 323 m -13 -14 d s 321 282 m -27 -28 d s 280 241 m -27 -28 d s 226 186 m -41 -42 d s 180 140 m -23 -23 d s 362 338 m -13 -13 d s 321 297 m -13 -14 d s 304 280 m -10 -10 d s 280 256 m -27 -28 d s 226
 201 m -14 -14 d s 212 187 m -27 -28 d s 166 140 m -9 -8 d s 362 353 m -13 -13 d s 321 312 m -13 -14 d s 280 271 m -27 -28 d s 226 216 m -14 -14 d s 197 187 m -12 -12 d s 362 369 m -13 -14 d s 321 327 m -13 -13 d s 273 279 m -20 -20 d s 226 231 m -14
 -14 d s 362 384 m -13 -14 d s 321 343 m -13 -14 d s 267 287 m -14 -13 d s 226 246 m -14 -14 d s 362 399 m -13 -14 d s 321 358 m -13 -14 d s 267 303 m -14 -14 d s 226 261 m -14 -13 d s 362 414 m -13 -14 d s 321 373 m -13 -14 d s 267 318 m -14 -14 d s
 226 277 m -14 -14 d s 362 429 m -13 -13 d s 321 388 m -13 -14 d s 267 333 m -14 -14 d s 226 292 m -14 -14 d s 362 444 m -13 -13 d s 321 403 m -13 -14 d s 267 348 m -14 -14 d s 226 307 m -14 -14 d s 362 460 m -13 -14 d s 321 418 m -13 -13 d s 267 363
 m -14 -13 d s 226 322 m -14 -14 d s 355 467 m -6 -6 d s 308 420 m s 263 375 m -10 -10 d s 214 326 m -2 -3 d s 6 lw 143 93 m 14 X 47 Y 28 X 47 Y 27 X 139 Y 14 X -233 Y 13 X 93 Y 14 X 189 Y 14 X -96 Y 13 X -139 Y 14 X 140 Y 14 X 140 Y 13 X -139 Y 14 X
 1 Y 14 X 185 Y 13 X -280 Y 28 X -47 Y 13 X 138 Y 14 X 49 Y 14 X -234 Y 13 X 47 Y 28 X 46 Y 13 X 50 Y 14 X -97 Y 14 X 1 Y 13 X -47 Y 14 X 47 Y 41 X -47 Y 96 X 48 Y 14 X s black 3 lw 143 93 m 548 X s 144 106 m -13 Y s 164 100 m -7 Y s 184 100 m -7 Y s
 204 100 m -7 Y s 223 100 m -7 Y s 243 106 m -13 Y s 263 100 m -7 Y s 283 100 m -7 Y s 303 100 m -7 Y s 323 100 m -7 Y s 343 106 m -13 Y s 363 100 m -7 Y s 383 100 m -7 Y s 403 100 m -7 Y s 423 100 m -7 Y s 443 106 m -13 Y s 463 100 m -7 Y s 483 100
 m -7 Y s 502 100 m -7 Y s 522 100 m -7 Y s 542 106 m -13 Y s 562 100 m -7 Y s 582 100 m -7 Y s 602 100 m -7 Y s 622 100 m -7 Y s 642 106 m -13 Y s 144 106 m -13 Y s 642 106 m -13 Y s 662 100 m -7 Y s 682 100 m -7 Y s 143 521 m 548 X s 144 508 m 13 Y
 s 164 515 m 6 Y s 184 515 m 6 Y s 204 515 m 6 Y s 223 515 m 6 Y s 243 508 m 13 Y s 263 515 m 6 Y s 283 515 m 6 Y s 303 515 m 6 Y s 323 515 m 6 Y s 343 508 m 13 Y s 363 515 m 6 Y s 383 515 m 6 Y s 403 515 m 6 Y s 423 515 m 6 Y s 443 508 m 13 Y s 463
 515 m 6 Y s 483 515 m 6 Y s 502 515 m 6 Y s 522 515 m 6 Y s 542 508 m 13 Y s 562 515 m 6 Y s 582 515 m 6 Y s 602 515 m 6 Y s 622 515 m 6 Y s 642 508 m 13 Y s 144 508 m 13 Y s 642 508 m 13 Y s 662 515 m 6 Y s 682 515 m 6 Y s 143 93 m 428 Y s 160 93 m
 -17 X s 152 103 m -9 X s 152 113 m -9 X s 152 123 m -9 X s 152 133 m -9 X s 160 143 m -17 X s 152 153 m -9 X s 152 163 m -9 X s 152 173 m -9 X s 152 183 m -9 X s 160 193 m -17 X s 152 203 m -9 X s 152 213 m -9 X s 152 223 m -9 X s 152 233 m -9 X s
 160 243 m -17 X s 152 253 m -9 X s 152 264 m -9 X s 152 274 m -9 X s 152 284 m -9 X s 160 294 m -17 X s 152 304 m -9 X s 152 314 m -9 X s 152 324 m -9 X s 152 334 m -9 X s 160 344 m -17 X s 152 354 m -9 X s 152 364 m -9 X s 152 374 m -9 X s 152 384
 m -9 X s 160 394 m -17 X s 152 404 m -9 X s 152 414 m -9 X s 152 424 m -9 X s 152 434 m -9 X s 160 444 m -17 X s 152 454 m -9 X s 152 464 m -9 X s 152 474 m -9 X s 152 484 m -9 X s 160 494 m -17 X s 160 494 m -17 X s 152 504 m -9 X s 152 514 m -9 X
 s 691 93 m 428 Y s 674 93 m 17 X s 683 103 m 8 X s 683 113 m 8 X s 683 123 m 8 X s 683 133 m 8 X s 674 143 m 17 X s 683 153 m 8 X s 683 163 m 8 X s 683 173 m 8 X s 683 183 m 8 X s 674 193 m 17 X s 683 203 m 8 X s 683 213 m 8 X s 683 223 m 8 X s 683
 233 m 8 X s 674 243 m 17 X s 683 253 m 8 X s 683 264 m 8 X s 683 274 m 8 X s 683 284 m 8 X s 674 294 m 17 X s 683 304 m 8 X s 683 314 m 8 X s 683 324 m 8 X s 683 334 m 8 X s 674 344 m 17 X s 683 354 m 8 X s 683 364 m 8 X s 683 374 m 8 X s 683 384 m
 8 X s 674 394 m 17 X s 683 404 m 8 X s 683 414 m 8 X s 683 424 m 8 X s 683 434 m 8 X s 674 444 m 17 X s 683 454 m 8 X s 683 464 m 8 X s 683 474 m 8 X s 683 484 m 8 X s 674 494 m 17 X s 674 494 m 17 X s 683 504 m 8 X s 683 514 m 8 X s
 gsave  710 566 23 12 C 719.017 91.0528 t 90 r /Helvetica-Bold findfont 20.0147 sf 0 0 m (U/O\255flow \(S,B\): \(0.0, 0.0\)% / \(0.0, 0.0\)%) show NC gr  0.490196 0.545098 0.615686 c 0.364706 0.419608 0.490196 c 497 38 30 537 bf 0.490196 0.545098
 0.615686 c 30 537 m 497 X s 527 537 m 38 Y s 527 575 m -497 X s 30 575 m -38 Y s 1 1 1 c black 1 1 1 c
 gsave  710 566 23 12 C 37.0356 549.836 t 0 r /Helvetica-Bold findfont 20.0147 sf 0 0 m (Input variable'Deco'\255transformed : GTND_earnings) show NC gr  0.490196 0.545098 0.615686 c 0.941176 0.941176 0.941176 c 710 566 779 12 bf black 1 1 0.992157 c
 548 428 899 93 bf black 548 428 899 93 bl 1 1 0.992157 c 548 428 899 93 bf black 548 428 899 93 bl 0 0 0.933333 c 6 lw 0.49 0.6 0.82 c black 3 lw 0.49 0.6 0.82 c 899 93 m 41 X 54 Y 14 X -54 Y 55 X 107 Y 13 X -107 Y 14 X 54 Y 14 X 55 Y 14 X -55 Y 13
 X 56 Y 14 X 53 Y 14 X -55 Y 13 X 171 Y 14 X -8 Y 14 X -108 Y 13 X 106 Y 14 X -215 Y 14 X 269 Y 13 X -157 Y 14 X 103 Y 14 X -269 Y 13 X 161 Y 14 X -161 Y 14 X 164 Y 13 X -110 Y 28 X -1 Y 13 X -53 Y 124 X f 6 lw 0 0 0.933333 c 0.49 0.6 0.82 c 0 0
 0.933333 c 899 93 m 41 X 54 Y 14 X -54 Y 55 X 107 Y 13 X -107 Y 14 X 54 Y 14 X 55 Y 14 X -55 Y 13 X 56 Y 14 X 53 Y 14 X -55 Y 13 X 171 Y 14 X -8 Y 14 X -108 Y 13 X 106 Y 14 X -215 Y 14 X 269 Y 13 X -157 Y 14 X 103 Y 14 X -269 Y 13 X 161 Y 14 X -161
 Y 14 X 164 Y 13 X -110 Y 28 X -1 Y 13 X -53 Y 124 X s black 3 lw 899 93 m 548 X s
 gsave  710 566 779 12 C 1139.56 25.64 t 0 r /Helvetica findfont 28.5925 sf 0 0 m (GTND_economy \(Deco\)) show NC gr  926 106 m -13 Y s 942 100 m -7 Y s 957 100 m -7 Y s 973 100 m -7 Y s 988 100 m -7 Y s 1004 106 m -13 Y s 1020 100 m -7 Y s 1035 100
 m -7 Y s 1051 100 m -7 Y s 1067 100 m -7 Y s 1082 106 m -13 Y s 1098 100 m -7 Y s 1114 100 m -7 Y s 1129 100 m -7 Y s 1145 100 m -7 Y s 1161 106 m -13 Y s 1176 100 m -7 Y s 1192 100 m -7 Y s 1208 100 m -7 Y s 1223 100 m -7 Y s 1239 106 m -13 Y s
 1254 100 m -7 Y s 1270 100 m -7 Y s 1286 100 m -7 Y s 1301 100 m -7 Y s 1317 106 m -13 Y s 1333 100 m -7 Y s 1348 100 m -7 Y s 1364 100 m -7 Y s 1380 100 m -7 Y s 1395 106 m -13 Y s 926 106 m -13 Y s 910 100 m -7 Y s 1395 106 m -13 Y s 1411 100 m -7
 Y s 1427 100 m -7 Y s 1442 100 m -7 Y s
 gsave  710 566 779 12 C 911.645 65.5245 t 0 r /Helvetica findfont 25.7332 sf 0 0 m (\2553) show NC gr 
 gsave  710 566 779 12 C 991.414 65.5245 t 0 r /Helvetica findfont 25.7332 sf 0 0 m (\2552) show NC gr 
 gsave  710 566 779 12 C 1068.33 65.5245 t 0 r /Helvetica findfont 25.7332 sf 0 0 m (\2551) show NC gr 
 gsave  710 566 779 12 C 1150.95 65.5245 t 0 r /Helvetica findfont 25.7332 sf 0 0 m (0) show NC gr 
 gsave  710 566 779 12 C 1230.72 65.5245 t 0 r /Helvetica findfont 25.7332 sf 0 0 m (1) show NC gr 
 gsave  710 566 779 12 C 1307.64 65.5245 t 0 r /Helvetica findfont 25.7332 sf 0 0 m (2) show NC gr 
 gsave  710 566 779 12 C 1384.56 65.5245 t 0 r /Helvetica findfont 25.7332 sf 0 0 m (3) show NC gr  899 521 m 548 X s 926 508 m 13 Y s 942 515 m 6 Y s 957 515 m 6 Y s 973 515 m 6 Y s 988 515 m 6 Y s 1004 508 m 13 Y s 1020 515 m 6 Y s 1035 515 m 6 Y s
 1051 515 m 6 Y s 1067 515 m 6 Y s 1082 508 m 13 Y s 1098 515 m 6 Y s 1114 515 m 6 Y s 1129 515 m 6 Y s 1145 515 m 6 Y s 1161 508 m 13 Y s 1176 515 m 6 Y s 1192 515 m 6 Y s 1208 515 m 6 Y s 1223 515 m 6 Y s 1239 508 m 13 Y s 1254 515 m 6 Y s 1270 515
 m 6 Y s 1286 515 m 6 Y s 1301 515 m 6 Y s 1317 508 m 13 Y s 1333 515 m 6 Y s 1348 515 m 6 Y s 1364 515 m 6 Y s 1380 515 m 6 Y s 1395 508 m 13 Y s 926 508 m 13 Y s 910 515 m 6 Y s 1395 508 m 13 Y s 1411 515 m 6 Y s 1427 515 m 6 Y s 1442 515 m 6 Y s
 899 93 m 428 Y s
 gsave  710 566 779 12 C 803.387 441.578 t 90 r /Helvetica findfont 28.5925 sf 0 0 m (0.175 ) show NC gr 
 gsave  710 566 779 12 C 789.143 435.88 t 90 r /Helvetica findfont 20.0147 sf 0 0 m ( ) show NC gr 
 gsave  710 566 779 12 C 803.387 424.485 t 90 r /Helvetica findfont 28.5925 sf 0 0 m (/) show NC gr 
 gsave  710 566 779 12 C 811.934 418.787 t 90 r /Helvetica findfont 20.0147 sf 0 0 m ( ) show NC gr 
 gsave  710 566 779 12 C 803.387 310.529 t 90 r /Helvetica findfont 28.5925 sf 0 0 m (\(1/N\) dN) show NC gr  915 93 m -16 X s 907 104 m -8 X s 907 115 m -8 X s 907 125 m -8 X s 907 136 m -8 X s 915 146 m -16 X s 907 157 m -8 X s 907 168 m -8 X s 907
 178 m -8 X s 907 189 m -8 X s 915 199 m -16 X s 907 210 m -8 X s 907 221 m -8 X s 907 231 m -8 X s 907 242 m -8 X s 915 252 m -16 X s 907 263 m -8 X s 907 274 m -8 X s 907 284 m -8 X s 907 295 m -8 X s 915 305 m -16 X s 907 316 m -8 X s 907 327 m -8
 X s 907 337 m -8 X s 907 348 m -8 X s 915 358 m -16 X s 907 369 m -8 X s 907 380 m -8 X s 907 390 m -8 X s 907 401 m -8 X s 915 411 m -16 X s 907 422 m -8 X s 907 433 m -8 X s 907 443 m -8 X s 907 454 m -8 X s 915 464 m -16 X s 907 475 m -8 X s 907
 486 m -8 X s 907 496 m -8 X s 907 507 m -8 X s 915 517 m -16 X s 915 517 m -16 X s
 gsave  710 566 779 12 C 874.609 82.6178 t 0 r /Helvetica findfont 25.7332 sf 0 0 m (0) show NC gr 
 gsave  710 566 779 12 C 857.516 136.747 t 0 r /Helvetica findfont 25.7332 sf 0 0 m (0.1) show NC gr 
 gsave  710 566 779 12 C 851.818 188.027 t 0 r /Helvetica findfont 25.7332 sf 0 0 m (0.2) show NC gr 
 gsave  710 566 779 12 C 851.818 242.156 t 0 r /Helvetica findfont 25.7332 sf 0 0 m (0.3) show NC gr 
 gsave  710 566 779 12 C 851.818 296.285 t 0 r /Helvetica findfont 25.7332 sf 0 0 m (0.4) show NC gr 
 gsave  710 566 779 12 C 851.818 347.565 t 0 r /Helvetica findfont 25.7332 sf 0 0 m (0.5) show NC gr 
 gsave  710 566 779 12 C 851.818 401.694 t 0 r /Helvetica findfont 25.7332 sf 0 0 m (0.6) show NC gr 
 gsave  710 566 779 12 C 851.818 455.822 t 0 r /Helvetica findfont 25.7332 sf 0 0 m (0.7) show NC gr 
 gsave  710 566 779 12 C 851.818 507.102 t 0 r /Helvetica findfont 25.7332 sf 0 0 m (0.8) show NC gr  1447 93 m 428 Y s 1430 93 m 17 X s 1438 104 m 9 X s 1438 115 m 9 X s 1438 125 m 9 X s 1438 136 m 9 X s 1430 146 m 17 X s 1438 157 m 9 X s 1438 168 m
 9 X s 1438 178 m 9 X s 1438 189 m 9 X s 1430 199 m 17 X s 1438 210 m 9 X s 1438 221 m 9 X s 1438 231 m 9 X s 1438 242 m 9 X s 1430 252 m 17 X s 1438 263 m 9 X s 1438 274 m 9 X s 1438 284 m 9 X s 1438 295 m 9 X s 1430 305 m 17 X s 1438 316 m 9 X s
 1438 327 m 9 X s 1438 337 m 9 X s 1438 348 m 9 X s 1430 358 m 17 X s 1438 369 m 9 X s 1438 380 m 9 X s 1438 390 m 9 X s 1438 401 m 9 X s 1430 411 m 17 X s 1438 422 m 9 X s 1438 433 m 9 X s 1438 443 m 9 X s 1438 454 m 9 X s 1430 464 m 17 X s 1438 475
 m 9 X s 1438 486 m 9 X s 1438 496 m 9 X s 1438 507 m 9 X s 1430 517 m 17 X s 1430 517 m 17 X s 1 0 0 c 6 lw black 3 lw 1 0 0 c 1447 107 m -14 -14 d s 1433 93 m s 1447 122 m -14 -13 d s 1419 95 m -1 -2 d s 1443 134 m -10 -10 d s 1419 110 m -14 -14 d
 s 1403 93 m s 1419 125 m -14 -14 d s 1392 98 m -4 -5 d s 1411 132 m -6 -6 d s 1392 113 m -14 -14 d s 1372 93 m s 1392 128 m -14 -14 d s 1357 93 m s 1380 132 m -2 -3 d s 1351 102 m -9 -9 d s 1351 117 m -14 -14 d s 1327 93 m s 1351 132 m -14 -14 d s
 1312 93 m s 1297 93 m s 1296 107 m -14 -14 d s 1296 122 m -29 -29 d s 1296 138 m -44 -45 d s 1296 153 m -59 -60 d s 1296 168 m -74 -75 d s 1284 171 m -77 -78 d s 1282 184 m -90 -91 d s 1282 199 m -106 -106 d s 1278 210 m -37 -37 d s 1239 171 m -78
 -78 d s 1269 216 m -28 -27 d s 1228 175 m -82 -82 d s 1269 231 m -14 -14 d s 1249 211 m -8 -7 d s 1228 190 m -97 -97 d s 1269 246 m -14 -14 d s 1228 205 m -112 -112 d s 1257 250 m -2 -2 d s 1228 220 m -127 -127 d s 1228 235 m -55 -55 d s 1163 171 m
 -77 -78 d s 1228 250 m -55 -55 d s 1159 182 m -88 -89 d s 1228 265 m -14 -13 d s 1212 250 m -39 -39 d s 1159 197 m -103 -104 d s 1228 281 m -14 -14 d s 1200 253 m -27 -27 d s 1159 212 m -109 -110 d s 1041 93 m s 1218 286 m -4 -4 d s 1200 268 m -27
 -27 d s 1159 227 m -54 -55 d s 1103 171 m -26 -26 d s 1064 132 m -14 -15 d s 1036 104 m -10 -11 d s 1200 283 m -27 -27 d s 1159 242 m -54 -55 d s 1091 174 m -14 -14 d s 1036 119 m -25 -26 d s 1188 286 m -15 -15 d s 1159 257 m -54 -55 d s 1091 189 m
 -14 -14 d s 1036 134 m -27 -27 d s 996 93 m s 1187 300 m -14 -14 d s 1159 272 m -54 -54 d s 1091 204 m -14 -14 d s 1036 149 m -14 -14 d s 1019 132 m -10 -10 d s 981 93 m cl s 1187 315 m -14 -14 d s 1159 288 m -54 -55 d s 1082 210 m -5 -5 d s 1036
 164 m -14 -14 d s 965 93 m s 1187 330 m -14 -14 d s 1159 303 m -54 -55 d s 1029 172 m -7 -6 d s 950 93 m s 1187 345 m -14 -14 d s 1159 318 m -27 -28 d s 1129 287 m -24 -24 d s 935 93 m s 1187 360 m -14 -13 d s 1152 326 m -20 -21 d s 1118 292 m -13
 -14 d s 920 93 m cl s 1187 375 m -14 -13 d s 1139 328 m -7 -7 d s 1118 307 m -13 -14 d s 905 93 m s 1187 390 m -14 -13 d s 1118 322 m -13 -14 d s 1187 406 m -14 -14 d s 1118 337 m -13 -14 d s 1187 421 m -14 -14 d s 1118 352 m -13 -14 d s 1187 436 m
 -14 -14 d s 1117 366 m -12 -12 d s 1187 451 m -14 -14 d s 1187 466 m -14 -14 d s 1187 481 m -14 -14 d s 6 lw 899 93 m 110 X 39 Y 13 X 40 Y 14 X -79 Y 14 X 39 Y 27 X 78 Y 14 X -39 Y 14 X 195 Y 13 X -79 Y 14 X 41 Y 14 X -2 Y 13 X -155 Y 14 X 311 Y 14
 X -196 Y 13 X -36 Y 14 X 36 Y 14 X -115 Y 13 X 40 Y 14 X 39 Y 14 X -40 Y 13 X -39 Y 14 X -78 Y 41 X 39 Y 14 X -39 Y 27 X 39 Y 14 X -39 Y 13 X 39 Y 14 X -39 Y 14 X 41 Y 14 X -41 Y s black 3 lw 899 93 m 548 X s 926 106 m -13 Y s 942 100 m -7 Y s 957
 100 m -7 Y s 973 100 m -7 Y s 988 100 m -7 Y s 1004 106 m -13 Y s 1020 100 m -7 Y s 1035 100 m -7 Y s 1051 100 m -7 Y s 1067 100 m -7 Y s 1082 106 m -13 Y s 1098 100 m -7 Y s 1114 100 m -7 Y s 1129 100 m -7 Y s 1145 100 m -7 Y s 1161 106 m -13 Y s
 1176 100 m -7 Y s 1192 100 m -7 Y s 1208 100 m -7 Y s 1223 100 m -7 Y s 1239 106 m -13 Y s 1254 100 m -7 Y s 1270 100 m -7 Y s 1286 100 m -7 Y s 1301 100 m -7 Y s 1317 106 m -13 Y s 1333 100 m -7 Y s 1348 100 m -7 Y s 1364 100 m -7 Y s 1380 100 m -7
 Y s 1395 106 m -13 Y s 926 106 m -13 Y s 910 100 m -7 Y s 1395 106 m -13 Y s 1411 100 m -7 Y s 1427 100 m -7 Y s 1442 100 m -7 Y s 899 521 m 548 X s 926 508 m 13 Y s 942 515 m 6 Y s 957 515 m 6 Y s 973 515 m 6 Y s 988 515 m 6 Y s 1004 508 m 13 Y s
 1020 515 m 6 Y s 1035 515 m 6 Y s 1051 515 m 6 Y s 1067 515 m 6 Y s 1082 508 m 13 Y s 1098 515 m 6 Y s 1114 515 m 6 Y s 1129 515 m 6 Y s 1145 515 m 6 Y s 1161 508 m 13 Y s 1176 515 m 6 Y s 1192 515 m 6 Y s 1208 515 m 6 Y s 1223 515 m 6 Y s 1239 508
 m 13 Y s 1254 515 m 6 Y s 1270 515 m 6 Y s 1286 515 m 6 Y s 1301 515 m 6 Y s 1317 508 m 13 Y s 1333 515 m 6 Y s 1348 515 m 6 Y s 1364 515 m 6 Y s 1380 515 m 6 Y s 1395 508 m 13 Y s 926 508 m 13 Y s 910 515 m 6 Y s 1395 508 m 13 Y s 1411 515 m 6 Y s
 1427 515 m 6 Y s 1442 515 m 6 Y s 899 93 m 428 Y s 915 93 m -16 X s 907 104 m -8 X s 907 115 m -8 X s 907 125 m -8 X s 907 136 m -8 X s 915 146 m -16 X s 907 157 m -8 X s 907 168 m -8 X s 907 178 m -8 X s 907 189 m -8 X s 915 199 m -16 X s 907 210 m
 -8 X s 907 221 m -8 X s 907 231 m -8 X s 907 242 m -8 X s 915 252 m -16 X s 907 263 m -8 X s 907 274 m -8 X s 907 284 m -8 X s 907 295 m -8 X s 915 305 m -16 X s 907 316 m -8 X s 907 327 m -8 X s 907 337 m -8 X s 907 348 m -8 X s 915 358 m -16 X s
 907 369 m -8 X s 907 380 m -8 X s 907 390 m -8 X s 907 401 m -8 X s 915 411 m -16 X s 907 422 m -8 X s 907 433 m -8 X s 907 443 m -8 X s 907 454 m -8 X s 915 464 m -16 X s 907 475 m -8 X s 907 486 m -8 X s 907 496 m -8 X s 907 507 m -8 X s 915 517 m
 -16 X s 915 517 m -16 X s 1447 93 m 428 Y s 1430 93 m 17 X s 1438 104 m 9 X s 1438 115 m 9 X s 1438 125 m 9 X s 1438 136 m 9 X s 1430 146 m 17 X s 1438 157 m 9 X s 1438 168 m 9 X s 1438 178 m 9 X s 1438 189 m 9 X s 1430 199 m 17 X s 1438 210 m 9 X s
 1438 221 m 9 X s 1438 231 m 9 X s 1438 242 m 9 X s 1430 252 m 17 X s 1438 263 m 9 X s 1438 274 m 9 X s 1438 284 m 9 X s 1438 295 m 9 X s 1430 305 m 17 X s 1438 316 m 9 X s 1438 327 m 9 X s 1438 337 m 9 X s 1438 348 m 9 X s 1430 358 m 17 X s 1438 369
 m 9 X s 1438 380 m 9 X s 1438 390 m 9 X s 1438 401 m 9 X s 1430 411 m 17 X s 1438 422 m 9 X s 1438 433 m 9 X s 1438 443 m 9 X s 1438 454 m 9 X s 1430 464 m 17 X s 1438 475 m 9 X s 1438 486 m 9 X s 1438 496 m 9 X s 1438 507 m 9 X s 1430 517 m 17 X s
 1430 517 m 17 X s
 gsave  710 566 779 12 C 1474.92 91.0528 t 90 r /Helvetica-Bold findfont 20.0147 sf 0 0 m (U/O\255flow \(S,B\): \(0.0, 0.0\)% / \(0.0, 0.0\)%) show NC gr  0.490196 0.545098 0.615686 c 0.364706 0.419608 0.490196 c 497 38 786 537 bf 0.490196 0.545098
 0.615686 c 786 537 m 497 X s 1283 537 m 38 Y s 1283 575 m -497 X s 786 575 m -38 Y s 1 1 1 c black 1 1 1 c
 gsave  710 566 779 12 C 791.991 549.836 t 0 r /Helvetica-Bold findfont 20.0147 sf 0 0 m (Input variable'Deco'\255transformed : GTND_economy) show NC gr  0.490196 0.545098 0.615686 c 0.941176 0.941176 0.941176 c 711 566 1534 12 bf black 1 1 0.992157
 c 547 428 1655 93 bf black 547 428 1655 93 bl 1 1 0.992157 c 547 428 1655 93 bf black 547 428 1655 93 bl 0 0 0.933333 c 6 lw 0.49 0.6 0.82 c black 3 lw 0.49 0.6 0.82 c 1655 93 m 55 X 152 Y 14 X 2 Y 13 X -154 Y 28 X 152 Y 13 X -76 Y 14 X 234 Y 14 X
 -157 Y 13 X 2 Y 14 X 74 Y 14 X -152 Y 13 X 76 Y 14 X -77 Y 14 X 81 Y 13 X 231 Y 14 X -65 Y 14 X -93 Y 14 X -76 Y 41 X 9 Y 13 X -11 Y 14 X 2 Y 14 X 153 Y 13 X -226 Y 14 X -81 Y 55 X 79 Y 13 X -1 Y 14 X -2 Y 14 X -76 Y 54 X f 6 lw 0 0 0.933333 c 0.49
 0.6 0.82 c 0 0 0.933333 c 1655 93 m 55 X 152 Y 14 X 2 Y 13 X -154 Y 28 X 152 Y 13 X -76 Y 14 X 234 Y 14 X -157 Y 13 X 2 Y 14 X 74 Y 14 X -152 Y 13 X 76 Y 14 X -77 Y 14 X 81 Y 13 X 231 Y 14 X -65 Y 14 X -93 Y 14 X -76 Y 41 X 9 Y 13 X -11 Y 14 X 2 Y
 14 X 153 Y 13 X -226 Y 14 X -81 Y 55 X 79 Y 13 X -1 Y 14 X -2 Y 14 X -76 Y 54 X s black 3 lw 1655 93 m 547 X s
 gsave  711 566 1534 12 C 1957.19 25.64 t 0 r /Helvetica findfont 28.5925 sf 0 0 m (GTND_SPX \(Deco\)) show NC gr  1719 106 m -13 Y s 1737 100 m -7 Y s 1756 100 m -7 Y s 1774 100 m -7 Y s 1793 100 m -7 Y s 1811 106 m -13 Y s 1830 100 m -7 Y s 1848
 100 m -7 Y s 1867 100 m -7 Y s 1885 100 m -7 Y s 1904 106 m -13 Y s 1922 100 m -7 Y s 1941 100 m -7 Y s 1959 100 m -7 Y s 1978 100 m -7 Y s 1997 106 m -13 Y s 2015 100 m -7 Y s 2034 100 m -7 Y s 2052 100 m -7 Y s 2071 100 m -7 Y s 2089 106 m -13 Y s
 2108 100 m -7 Y s 2126 100 m -7 Y s 2145 100 m -7 Y s 2163 100 m -7 Y s 2182 106 m -13 Y s 1719 106 m -13 Y s 1700 100 m -7 Y s 1682 100 m -7 Y s 1663 100 m -7 Y s 2182 106 m -13 Y s 2200 100 m -7 Y s
 gsave  711 566 1534 12 C 1706.49 65.5245 t 0 r /Helvetica findfont 25.7332 sf 0 0 m (\2552) show NC gr 
 gsave  711 566 1534 12 C 1797.65 65.5245 t 0 r /Helvetica findfont 25.7332 sf 0 0 m (\2551) show NC gr 
 gsave  711 566 1534 12 C 1894.51 65.5245 t 0 r /Helvetica findfont 25.7332 sf 0 0 m (0) show NC gr 
 gsave  711 566 1534 12 C 1988.53 65.5245 t 0 r /Helvetica findfont 25.7332 sf 0 0 m (1) show NC gr 
 gsave  711 566 1534 12 C 2079.69 65.5245 t 0 r /Helvetica findfont 25.7332 sf 0 0 m (2) show NC gr 
 gsave  711 566 1534 12 C 2170.85 65.5245 t 0 r /Helvetica findfont 25.7332 sf 0 0 m (3) show NC gr  1655 521 m 547 X s 1719 508 m 13 Y s 1737 515 m 6 Y s 1756 515 m 6 Y s 1774 515 m 6 Y s 1793 515 m 6 Y s 1811 508 m 13 Y s 1830 515 m 6 Y s 1848 515
 m 6 Y s 1867 515 m 6 Y s 1885 515 m 6 Y s 1904 508 m 13 Y s 1922 515 m 6 Y s 1941 515 m 6 Y s 1959 515 m 6 Y s 1978 515 m 6 Y s 1997 508 m 13 Y s 2015 515 m 6 Y s 2034 515 m 6 Y s 2052 515 m 6 Y s 2071 515 m 6 Y s 2089 508 m 13 Y s 2108 515 m 6 Y s
 2126 515 m 6 Y s 2145 515 m 6 Y s 2163 515 m 6 Y s 2182 508 m 13 Y s 1719 508 m 13 Y s 1700 515 m 6 Y s 1682 515 m 6 Y s 1663 515 m 6 Y s 2182 508 m 13 Y s 2200 515 m 6 Y s 1655 93 m 428 Y s
 gsave  711 566 1534 12 C 1558.34 441.578 t 90 r /Helvetica findfont 28.5925 sf 0 0 m (0.148 ) show NC gr 
 gsave  711 566 1534 12 C 1544.1 435.88 t 90 r /Helvetica findfont 20.0147 sf 0 0 m ( ) show NC gr 
 gsave  711 566 1534 12 C 1558.34 424.485 t 90 r /Helvetica findfont 28.5925 sf 0 0 m (/) show NC gr 
 gsave  711 566 1534 12 C 1566.89 418.787 t 90 r /Helvetica findfont 20.0147 sf 0 0 m ( ) show NC gr 
 gsave  711 566 1534 12 C 1558.34 310.529 t 90 r /Helvetica findfont 28.5925 sf 0 0 m (\(1/N\) dN) show NC gr  1671 93 m -16 X s 1663 106 m -8 X s 1663 119 m -8 X s 1663 132 m -8 X s 1663 144 m -8 X s 1671 157 m -16 X s 1663 170 m -8 X s 1663 183 m
 -8 X s 1663 196 m -8 X s 1663 208 m -8 X s 1671 221 m -16 X s 1663 234 m -8 X s 1663 247 m -8 X s 1663 260 m -8 X s 1663 272 m -8 X s 1671 285 m -16 X s 1663 298 m -8 X s 1663 311 m -8 X s 1663 324 m -8 X s 1663 336 m -8 X s 1671 349 m -16 X s 1663
 362 m -8 X s 1663 375 m -8 X s 1663 387 m -8 X s 1663 400 m -8 X s 1671 413 m -16 X s 1663 426 m -8 X s 1663 439 m -8 X s 1663 451 m -8 X s 1663 464 m -8 X s 1671 477 m -16 X s 1671 477 m -16 X s 1663 490 m -8 X s 1663 503 m -8 X s 1663 515 m -8 X s
 gsave  711 566 1534 12 C 1632.41 82.6178 t 0 r /Helvetica findfont 25.7332 sf 0 0 m (0) show NC gr 
 gsave  711 566 1534 12 C 1615.32 148.142 t 0 r /Helvetica findfont 25.7332 sf 0 0 m (0.1) show NC gr 
 gsave  711 566 1534 12 C 1609.62 210.818 t 0 r /Helvetica findfont 25.7332 sf 0 0 m (0.2) show NC gr 
 gsave  711 566 1534 12 C 1609.62 276.342 t 0 r /Helvetica findfont 25.7332 sf 0 0 m (0.3) show NC gr 
 gsave  711 566 1534 12 C 1609.62 339.018 t 0 r /Helvetica findfont 25.7332 sf 0 0 m (0.4) show NC gr 
 gsave  711 566 1534 12 C 1609.62 401.694 t 0 r /Helvetica findfont 25.7332 sf 0 0 m (0.5) show NC gr 
 gsave  711 566 1534 12 C 1609.62 467.218 t 0 r /Helvetica findfont 25.7332 sf 0 0 m (0.6) show NC gr  2202 93 m 428 Y s 2186 93 m 16 X s 2194 106 m 8 X s 2194 119 m 8 X s 2194 132 m 8 X s 2194 144 m 8 X s 2186 157 m 16 X s 2194 170 m 8 X s 2194 183
 m 8 X s 2194 196 m 8 X s 2194 208 m 8 X s 2186 221 m 16 X s 2194 234 m 8 X s 2194 247 m 8 X s 2194 260 m 8 X s 2194 272 m 8 X s 2186 285 m 16 X s 2194 298 m 8 X s 2194 311 m 8 X s 2194 324 m 8 X s 2194 336 m 8 X s 2186 349 m 16 X s 2194 362 m 8 X s
 2194 375 m 8 X s 2194 387 m 8 X s 2194 400 m 8 X s 2186 413 m 16 X s 2194 426 m 8 X s 2194 439 m 8 X s 2194 451 m 8 X s 2194 464 m 8 X s 2186 477 m 16 X s 2186 477 m 16 X s 2194 490 m 8 X s 2194 503 m 8 X s 2194 515 m 8 X s 1 0 0 c 6 lw black 3 lw 1
 0 0 c 2188 93 m s 2173 93 m s 2158 93 m s 2148 98 m -5 -5 d s 2148 113 m -14 -14 d s 2128 93 m s 2148 128 m -14 -13 d s 2113 93 m s 2148 143 m -14 -13 d s 2107 102 m -9 -9 d s 2138 149 m -4 -4 d s 2107 117 m -14 -13 d s 2083 93 m s 2107 132 m -14
 -13 d s 2068 93 m s 2107 148 m -14 -14 d s 2053 93 m s 2038 94 m -1 Y s 2038 109 m -13 -14 d s 2022 93 m s 2038 124 m -13 -13 d s 2011 97 m -4 -4 d s 2038 140 m -13 -14 d s 2011 112 m -19 -19 d s 2038 155 m -13 -14 d s 2011 127 m -34 -34 d s 2038
 170 m -13 -14 d s 2011 142 m -49 -49 d s 2038 185 m -13 -14 d s 2011 157 m -64 -64 d s 2038 200 m -13 -14 d s 2011 173 m -79 -80 d s 2038 215 m -13 -13 d s 2011 188 m -94 -95 d s 2038 230 m -13 -13 d s 2011 203 m -109 -110 d s 2038 246 m -13 -14 d s
 1997 204 m -110 -111 d s 2037 259 m -12 -12 d s 1997 220 m -125 -127 d s 1997 235 m -140 -142 d s 1997 250 m -155 -157 d s 1997 265 m -170 -172 d s 1997 280 m -13 -14 d s 1977 259 m -166 -166 d s 1997 295 m -13 -13 d s 1970 268 m -174 -175 d s 1997
 311 m -13 -14 d s 1970 283 m -189 -190 d s 1997 326 m -13 -14 d s 1970 298 m -27 -27 d s 1936 264 m -170 -171 d s 1997 341 m -13 -14 d s 1970 313 m -27 -27 d s 1929 272 m -123 -124 d s 1806 148 m -55 -55 d s 1997 356 m -13 -14 d s 1956 315 m -13 -14
 d s 1929 287 m -123 -124 d s 1791 149 m -54 -54 d s 1736 93 m cl s 1997 371 m -13 -14 d s 1956 330 m -13 -14 d s 1929 302 m -28 -27 d s 1891 265 m -58 -59 d s 1830 203 m -24 -24 d s 1778 151 m -41 -41 d s 1721 93 m s 1997 386 m -13 -13 d s 1956 345
 m -13 -14 d s 1926 315 m -25 -25 d s 1888 276 m -55 -55 d s 1819 207 m -13 -13 d s 1778 166 m -13 -14 d s 1761 148 m -24 -23 d s 1706 93 m s 1997 401 m -13 -13 d s 1956 360 m -13 -14 d s 1915 319 m -14 -14 d s 1888 291 m -55 -55 d s 1819 223 m -13
 -14 d s 1778 181 m -13 -13 d s 1747 150 m -10 -10 d s 1691 93 m s 1997 417 m -13 -14 d s 1956 375 m -13 -13 d s 1915 334 m -14 -14 d s 1888 307 m -55 -55 d s 1819 238 m -13 -14 d s 1778 196 m -13 -13 d s 1676 93 m cl s 1997 432 m -13 -14 d s 1956
 391 m -13 -14 d s 1915 349 m -14 -13 d s 1888 322 m -55 -55 d s 1819 253 m -13 -14 d s 1771 204 m -6 -6 d s 1669 102 m -8 -9 d s 1997 447 m -13 -14 d s 1956 406 m -13 -14 d s 1915 364 m -14 -13 d s 1888 337 m -55 -55 d s 1811 259 m -5 -5 d s 1669
 117 m -14 -14 d s 1997 462 m -13 -14 d s 1956 421 m -13 -14 d s 1915 380 m -14 -14 d s 1888 352 m -28 -27 d s 1853 317 m -20 -20 d s 1669 132 m -14 -14 d s 1997 477 m -13 -13 d s 1945 425 m -2 -3 d s 1915 395 m -14 -14 d s 1888 367 m -28 -27 d s
 1847 326 m -14 -14 d s 1669 147 m -14 -14 d s 1987 482 m -3 -3 d s 1915 410 m -14 -14 d s 1888 382 m -28 -27 d s 1847 341 m -14 -14 d s 1656 149 m -1 -1 d s 1915 425 m -14 -14 d s 1888 398 m -28 -28 d s 1847 356 m -14 -13 d s 1915 440 m -14 -14 d s
 1888 413 m -28 -28 d s 1844 369 m -11 -11 d s 1915 455 m -14 -13 d s 1888 428 m -28 -28 d s 1915 471 m -14 -14 d s 1888 443 m -14 -14 d s 1870 425 m -10 -9 d s 1909 480 m -8 -8 d s 1888 458 m -14 -14 d s 1888 473 m -14 -13 d s 1882 482 m -8 -7 d s 6
 lw 1655 149 m 14 X -56 Y 68 X 57 Y 14 X -2 Y 14 X 56 Y 13 X -55 Y 14 X -1 Y 14 X 111 Y 13 X -56 Y 14 X 166 Y 14 X -52 Y 13 X 108 Y 14 X 57 Y 14 X -217 Y 13 X 215 Y 14 X -165 Y 14 X -51 Y 14 X 161 Y 13 X -110 Y 14 X -56 Y 14 X 223 Y 13 X -278 Y 14 X
 -111 Y 14 X 166 Y 13 X -166 Y 55 X 55 Y 14 X -55 Y 27 X 56 Y 14 X -56 Y 54 X s black 3 lw 1655 93 m 547 X s 1719 106 m -13 Y s 1737 100 m -7 Y s 1756 100 m -7 Y s 1774 100 m -7 Y s 1793 100 m -7 Y s 1811 106 m -13 Y s 1830 100 m -7 Y s 1848 100 m -7
 Y s 1867 100 m -7 Y s 1885 100 m -7 Y s 1904 106 m -13 Y s 1922 100 m -7 Y s 1941 100 m -7 Y s 1959 100 m -7 Y s 1978 100 m -7 Y s 1997 106 m -13 Y s 2015 100 m -7 Y s 2034 100 m -7 Y s 2052 100 m -7 Y s 2071 100 m -7 Y s 2089 106 m -13 Y s 2108 100
 m -7 Y s 2126 100 m -7 Y s 2145 100 m -7 Y s 2163 100 m -7 Y s 2182 106 m -13 Y s 1719 106 m -13 Y s 1700 100 m -7 Y s 1682 100 m -7 Y s 1663 100 m -7 Y s 2182 106 m -13 Y s 2200 100 m -7 Y s 1655 521 m 547 X s 1719 508 m 13 Y s 1737 515 m 6 Y s
 1756 515 m 6 Y s 1774 515 m 6 Y s 1793 515 m 6 Y s 1811 508 m 13 Y s 1830 515 m 6 Y s 1848 515 m 6 Y s 1867 515 m 6 Y s 1885 515 m 6 Y s 1904 508 m 13 Y s 1922 515 m 6 Y s 1941 515 m 6 Y s 1959 515 m 6 Y s 1978 515 m 6 Y s 1997 508 m 13 Y s 2015 515
 m 6 Y s 2034 515 m 6 Y s 2052 515 m 6 Y s 2071 515 m 6 Y s 2089 508 m 13 Y s 2108 515 m 6 Y s 2126 515 m 6 Y s 2145 515 m 6 Y s 2163 515 m 6 Y s 2182 508 m 13 Y s 1719 508 m 13 Y s 1700 515 m 6 Y s 1682 515 m 6 Y s 1663 515 m 6 Y s 2182 508 m 13 Y s
 2200 515 m 6 Y s 1655 93 m 428 Y s 1671 93 m -16 X s 1663 106 m -8 X s 1663 119 m -8 X s 1663 132 m -8 X s 1663 144 m -8 X s 1671 157 m -16 X s 1663 170 m -8 X s 1663 183 m -8 X s 1663 196 m -8 X s 1663 208 m -8 X s 1671 221 m -16 X s 1663 234 m -8
 X s 1663 247 m -8 X s 1663 260 m -8 X s 1663 272 m -8 X s 1671 285 m -16 X s 1663 298 m -8 X s 1663 311 m -8 X s 1663 324 m -8 X s 1663 336 m -8 X s 1671 349 m -16 X s 1663 362 m -8 X s 1663 375 m -8 X s 1663 387 m -8 X s 1663 400 m -8 X s 1671 413
 m -16 X s 1663 426 m -8 X s 1663 439 m -8 X s 1663 451 m -8 X s 1663 464 m -8 X s 1671 477 m -16 X s 1671 477 m -16 X s 1663 490 m -8 X s 1663 503 m -8 X s 1663 515 m -8 X s 2202 93 m 428 Y s 2186 93 m 16 X s 2194 106 m 8 X s 2194 119 m 8 X s 2194
 132 m 8 X s 2194 144 m 8 X s 2186 157 m 16 X s 2194 170 m 8 X s 2194 183 m 8 X s 2194 196 m 8 X s 2194 208 m 8 X s 2186 221 m 16 X s 2194 234 m 8 X s 2194 247 m 8 X s 2194 260 m 8 X s 2194 272 m 8 X s 2186 285 m 16 X s 2194 298 m 8 X s 2194 311 m 8
 X s 2194 324 m 8 X s 2194 336 m 8 X s 2186 349 m 16 X s 2194 362 m 8 X s 2194 375 m 8 X s 2194 387 m 8 X s 2194 400 m 8 X s 2186 413 m 16 X s 2194 426 m 8 X s 2194 439 m 8 X s 2194 451 m 8 X s 2194 464 m 8 X s 2186 477 m 16 X s 2186 477 m 16 X s
 2194 490 m 8 X s 2194 503 m 8 X s 2194 515 m 8 X s
 gsave  711 566 1534 12 C 2230.83 91.0528 t 90 r /Helvetica-Bold findfont 20.0147 sf 0 0 m (U/O\255flow \(S,B\): \(0.0, 0.0\)% / \(0.0, 0.0\)%) show NC gr  0.490196 0.545098 0.615686 c 0.364706 0.419608 0.490196 c 497 38 1542 537 bf 0.490196 0.545098
 0.615686 c 1542 537 m 497 X s 2039 537 m 38 Y s 2039 575 m -497 X s 1542 575 m -38 Y s 1 1 1 c black 1 1 1 c
 gsave  711 566 1534 12 C 1538.4 549.836 t 0 r /Helvetica-Bold findfont 22.874 sf 0 0 m (Input variable'Deco'\255transformed : GTND_SPX) show NC gr 
 gr  gr showpage
end
%%EOF
