%!PS-Adobe-2.0 EPSF-2.0
%%BoundingBox:  0 0 567 295
%%Title: plots/variables_id_c1.eps: Input variables (training sample)
%%Creator: ROOT Version 5.34/09
%%CreationDate: Sat Jan  4 23:52:52 2014
%%EndComments
%%BeginProlog
80 dict begin
/s {stroke} def /l {lineto} def /m {moveto} def /t {translate} def
/r {rotate} def /rl {roll}  def /R {repeat} def
/d {rlineto} def /rm {rmoveto} def /gr {grestore} def /f {eofill} def
/c {setrgbcolor} def /black {0 setgray} def /sd {setdash} def
/cl {closepath} def /sf {scalefont setfont} def /lw {setlinewidth} def
/box {m dup 0 exch d exch 0 d 0 exch neg d cl} def
/NC{systemdict begin initclip end}def/C{NC box clip newpath}def
/bl {box s} def /bf {box f} def /Y { 0 exch d} def /X { 0 d} def 
/K {{pop pop 0 moveto} exch kshow} bind def
/ita {/ang 15 def gsave [1 0 ang dup sin exch cos div 1 0 0] concat} def 
/mp {newpath /y exch def /x exch def} def
/side {[w .77 mul w .23 mul] .385 w mul sd w 0 l currentpoint t -144 r} def
/mr {mp x y w2 0 360 arc} def /m24 {mr s} def /m20 {mr f} def
/mb {mp x y w2 add m w2 neg 0 d 0 w neg d w 0 d 0 w d cl} def
/mt {mp x y w2 add m w2 neg w neg d w 0 d cl} def
/m21 {mb f} def /m25 {mb s} def /m22 {mt f} def /m26{mt s} def
/m23 {mp x y w2 sub m w2 w d w neg 0 d cl f} def
/m27 {mp x y w2 add m w3 neg w2 neg d w3 w2 neg d w3 w2 d cl s} def
/m28 {mp x w2 sub y w2 sub w3 add m w3 0 d  0 w3 neg d w3 0 d 0 w3 d w3 0 d  0 w3 d w3 neg 0 d 0 w3 d w3 neg 0 d 0 w3 neg d w3 neg 0 d cl s } def
/m29 {mp gsave x w2 sub y w2 add w3 sub m currentpoint t 4 {side} repeat cl fill gr} def
/m30 {mp gsave x w2 sub y w2 add w3 sub m currentpoint t 4 {side} repeat cl s gr} def
/m31 {mp x y w2 sub m 0 w d x w2 sub y m w 0 d x w2 sub y w2 add m w w neg d x w2 sub y w2 sub m w w d s} def
/m32 {mp x y w2 sub m w2 w d w neg 0 d cl s} def
/m33 {mp x y w2 add m w3 neg w2 neg d w3 w2 neg d w3 w2 d cl f} def
/m34 {mp x w2 sub y w2 sub w3 add m w3 0 d  0 w3 neg d w3 0 d 0 w3 d w3 0 d  0 w3 d w3 neg 0 d 0 w3 d w3 neg 0 d 0 w3 neg d w3 neg 0 d cl f } def
/m2 {mp x y w2 sub m 0 w d x w2 sub y m w 0 d s} def
/m5 {mp x w2 sub y w2 sub m w w d x w2 sub y w2 add m w w neg d s} def
/reEncode {exch findfont dup length dict begin {1 index /FID eq  {pop pop} {def} ifelse } forall /Encoding exch def currentdict end dup /FontName get exch definefont pop } def [/Times-Bold /Times-Italic /Times-BoldItalic /Helvetica /Helvetica-Oblique
 /Helvetica-Bold /Helvetica-BoldOblique /Courier /Courier-Oblique /Courier-Bold /Courier-BoldOblique /Times-Roman /AvantGarde-Book /AvantGarde-BookOblique /AvantGarde-Demi /AvantGarde-DemiOblique /Bookman-Demi /Bookman-DemiItalic /Bookman-Light
 /Bookman-LightItalic /Helvetica-Narrow /Helvetica-Narrow-Bold /Helvetica-Narrow-BoldOblique /Helvetica-Narrow-Oblique /NewCenturySchlbk-Roman /NewCenturySchlbk-Bold /NewCenturySchlbk-BoldItalic /NewCenturySchlbk-Italic /Palatino-Bold
 /Palatino-BoldItalic /Palatino-Italic /Palatino-Roman ] {ISOLatin1Encoding reEncode } forall
%%EndProlog
%%BeginSetup
%%EndSetup
newpath  gsave  .25 .25 scale  gsave  0 0 t 0.490196 0.545098 0.615686 c[  ] 0 sd 3 lw 0.941176 0.941176 0.941176 c 2268 1179 0 0 bf 0.490196 0.545098 0.615686 c 0.941176 0.941176 0.941176 c 710 566 23 602 bf black 1 1 0.992157 c 548 428 143 683 bf
 black 548 428 143 683 bl 1 1 0.992157 c 548 428 143 683 bf black 548 428 143 683 bl 0 0 0.933333 c 6 lw 0.49 0.6 0.82 c black 3 lw 0.49 0.6 0.82 c 143 683 m 84 Y 14 X -84 Y 41 X 81 Y 14 X -81 Y 41 X 41 Y 27 X 121 Y 14 X -162 Y 55 X 40 Y 13 X 2 Y 14
 X -2 Y 14 X 81 Y 13 X -81 Y 14 X 122 Y 14 X 80 Y 13 X -81 Y 14 X 123 Y 14 X 45 Y 13 X -207 Y 14 X -122 Y 14 X 80 Y 13 X 8 Y 14 X -5 Y 14 X -83 Y 82 X 41 Y 14 X -41 Y 41 X f 6 lw 0 0 0.933333 c 0.49 0.6 0.82 c 0 0 0.933333 c 143 767 m 14 X -84 Y 41 X
 81 Y 14 X -81 Y 41 X 41 Y 27 X 121 Y 14 X -162 Y 55 X 40 Y 13 X 2 Y 14 X -2 Y 14 X 81 Y 13 X -81 Y 14 X 122 Y 14 X 80 Y 13 X -81 Y 14 X 123 Y 14 X 45 Y 13 X -207 Y 14 X -122 Y 14 X 80 Y 13 X 8 Y 14 X -5 Y 14 X -83 Y 82 X 41 Y 14 X -41 Y 41 X s black
 3 lw 143 683 m 548 X s
 gsave  710 566 23 602 C 507.102 612.511 t 0 r /Helvetica findfont 28.5925 sf 0 0 m (GTND_bubble) show NC gr  192 696 m -13 Y s 216 690 m -7 Y s 241 690 m -7 Y s 265 690 m -7 Y s 289 690 m -7 Y s 313 696 m -13 Y s 338 690 m -7 Y s 362 690 m -7 Y s
 386 690 m -7 Y s 410 690 m -7 Y s 435 696 m -13 Y s 459 690 m -7 Y s 483 690 m -7 Y s 507 690 m -7 Y s 532 690 m -7 Y s 556 696 m -13 Y s 580 690 m -7 Y s 604 690 m -7 Y s 629 690 m -7 Y s 653 690 m -7 Y s 677 696 m -13 Y s 192 696 m -13 Y s 168 690
 m -7 Y s 143 690 m -7 Y s 677 696 m -13 Y s
 gsave  710 566 23 602 C 170.933 655.245 t 0 r /Helvetica findfont 25.7332 sf 0 0 m (\25510) show NC gr 
 gsave  710 566 23 602 C 299.133 655.245 t 0 r /Helvetica findfont 25.7332 sf 0 0 m (\2555) show NC gr 
 gsave  710 566 23 602 C 424.485 655.245 t 0 r /Helvetica findfont 25.7332 sf 0 0 m (0) show NC gr 
 gsave  710 566 23 602 C 546.987 655.245 t 0 r /Helvetica findfont 25.7332 sf 0 0 m (5) show NC gr 
 gsave  710 566 23 602 C 660.943 655.245 t 0 r /Helvetica findfont 25.7332 sf 0 0 m (10) show NC gr  143 1111 m 548 X s 192 1098 m 13 Y s 216 1104 m 7 Y s 241 1104 m 7 Y s 265 1104 m 7 Y s 289 1104 m 7 Y s 313 1098 m 13 Y s 338 1104 m 7 Y s 362 1104
 m 7 Y s 386 1104 m 7 Y s 410 1104 m 7 Y s 435 1098 m 13 Y s 459 1104 m 7 Y s 483 1104 m 7 Y s 507 1104 m 7 Y s 532 1104 m 7 Y s 556 1098 m 13 Y s 580 1104 m 7 Y s 604 1104 m 7 Y s 629 1104 m 7 Y s 653 1104 m 7 Y s 677 1098 m 13 Y s 192 1098 m 13 Y s
 168 1104 m 7 Y s 143 1104 m 7 Y s 677 1098 m 13 Y s 143 683 m 428 Y s
 gsave  710 566 23 602 C 45.5822 1031.3 t 90 r /Helvetica findfont 28.5925 sf 0 0 m (0.564 ) show NC gr 
 gsave  710 566 23 602 C 31.3378 1025.6 t 90 r /Helvetica findfont 20.0147 sf 0 0 m ( ) show NC gr 
 gsave  710 566 23 602 C 45.5822 1014.2 t 90 r /Helvetica findfont 28.5925 sf 0 0 m (/) show NC gr 
 gsave  710 566 23 602 C 54.1289 1008.51 t 90 r /Helvetica findfont 20.0147 sf 0 0 m ( ) show NC gr 
 gsave  710 566 23 602 C 45.5822 900.249 t 90 r /Helvetica findfont 28.5925 sf 0 0 m (\(1/N\) dN) show NC gr  160 683 m -17 X s 152 696 m -9 X s 152 709 m -9 X s 152 722 m -9 X s 152 735 m -9 X s 160 747 m -17 X s 152 760 m -9 X s 152 773 m -9 X s
 152 786 m -9 X s 152 799 m -9 X s 160 812 m -17 X s 152 825 m -9 X s 152 838 m -9 X s 152 850 m -9 X s 152 863 m -9 X s 160 876 m -17 X s 152 889 m -9 X s 152 902 m -9 X s 152 915 m -9 X s 152 928 m -9 X s 160 941 m -17 X s 152 953 m -9 X s 152 966
 m -9 X s 152 979 m -9 X s 152 992 m -9 X s 160 1005 m -17 X s 152 1018 m -9 X s 152 1031 m -9 X s 152 1044 m -9 X s 152 1057 m -9 X s 160 1069 m -17 X s 160 1069 m -17 X s 152 1082 m -9 X s 152 1095 m -9 X s 152 1108 m -9 X s
 gsave  710 566 23 602 C 119.653 672.338 t 0 r /Helvetica findfont 25.7332 sf 0 0 m (0) show NC gr 
 gsave  710 566 23 602 C 82.6178 737.863 t 0 r /Helvetica findfont 25.7332 sf 0 0 m (0.05) show NC gr 
 gsave  710 566 23 602 C 102.56 800.538 t 0 r /Helvetica findfont 25.7332 sf 0 0 m (0.1) show NC gr 
 gsave  710 566 23 602 C 82.6178 866.063 t 0 r /Helvetica findfont 25.7332 sf 0 0 m (0.15) show NC gr 
 gsave  710 566 23 602 C 96.8623 931.587 t 0 r /Helvetica findfont 25.7332 sf 0 0 m (0.2) show NC gr 
 gsave  710 566 23 602 C 82.6178 994.263 t 0 r /Helvetica findfont 25.7332 sf 0 0 m (0.25) show NC gr 
 gsave  710 566 23 602 C 96.8623 1059.79 t 0 r /Helvetica findfont 25.7332 sf 0 0 m (0.3) show NC gr  691 683 m 428 Y s 674 683 m 17 X s 683 696 m 8 X s 683 709 m 8 X s 683 722 m 8 X s 683 735 m 8 X s 674 747 m 17 X s 683 760 m 8 X s 683 773 m 8 X s
 683 786 m 8 X s 683 799 m 8 X s 674 812 m 17 X s 683 825 m 8 X s 683 838 m 8 X s 683 850 m 8 X s 683 863 m 8 X s 674 876 m 17 X s 683 889 m 8 X s 683 902 m 8 X s 683 915 m 8 X s 683 928 m 8 X s 674 941 m 17 X s 683 953 m 8 X s 683 966 m 8 X s 683
 979 m 8 X s 683 992 m 8 X s 674 1005 m 17 X s 683 1018 m 8 X s 683 1031 m 8 X s 683 1044 m 8 X s 683 1057 m 8 X s 674 1069 m 17 X s 674 1069 m 17 X s 683 1082 m 8 X s 683 1095 m 8 X s 683 1108 m 8 X s 1 0 0 c 6 lw black 3 lw 1 0 0 c 691 697 m -14
 -14 d s 676 683 m s 690 712 m -13 -13 d s 663 685 m -2 -2 d s 663 700 m -17 -17 d s 661 712 m -25 -24 d s 631 683 m s 645 712 m -9 -9 d s 616 683 m s 601 683 m s 595 692 m -9 -9 d s 595 707 m -24 -24 d s 585 712 m -29 -29 d s 571 714 m -30 -31 d s
 567 725 m -41 -42 d s 567 740 m -13 -14 d s 540 713 m -29 -30 d s 567 755 m -13 -13 d s 540 728 m -41 -41 d s 496 683 m s 567 770 m -13 -13 d s 540 743 m -41 -41 d s 485 688 m -4 -5 d s 540 758 m -41 -41 d s 485 703 m -20 -20 d s 540 773 m -41 -41 d
 s 485 718 m -35 -35 d s 540 788 m -41 -41 d s 485 733 m -50 -50 d s 540 804 m -41 -42 d s 485 749 m -65 -66 d s 540 819 m -41 -41 d s 485 764 m -80 -81 d s 540 834 m -27 -28 d s 506 800 m -7 -7 d s 485 779 m -27 -28 d s 448 742 m -58 -59 d s 540 849
 m -14 -14 d s 519 828 m -6 -6 d s 485 794 m -27 -27 d s 444 753 m -69 -70 d s 535 859 m -9 -8 d s 485 809 m -27 -27 d s 444 768 m -13 -14 d s 419 742 m -59 -59 d s 485 824 m -27 -27 d s 444 783 m -13 -14 d s 417 756 m -41 -42 d s 374 713 m -29 -30 d
 s 485 840 m -27 -28 d s 444 798 m -13 -13 d s 417 771 m -41 -41 d s 362 716 m -32 -33 d s 485 855 m -27 -28 d s 444 813 m -13 -13 d s 417 786 m -41 -41 d s 362 731 m -13 -14 d s 344 712 m -29 -29 d s 474 858 m -16 -16 d s 444 829 m -13 -14 d s 415
 799 m -39 -39 d s 362 746 m -13 -14 d s 335 719 m -35 -36 d s 460 859 m -2 -1 d s 444 844 m -13 -14 d s 403 803 m -27 -28 d s 362 761 m -13 -14 d s 335 734 m -50 -51 d s 444 859 m -13 -14 d s 403 818 m -13 -14 d s 387 801 m -11 -11 d s 357 771 m -8
 -8 d s 335 749 m -27 -28 d s 298 712 m -28 -29 d s 444 874 m -13 -14 d s 403 833 m -13 -14 d s 335 764 m -14 -14 d s 313 742 m -5 -5 d s 294 723 m -27 -28 d s 254 683 m s 444 889 m -13 -13 d s 403 848 m -13 -14 d s 326 771 m -5 -6 d s 294 738 m -14
 -14 d s 269 712 m -2 -2 d s 253 697 m -14 -14 d s 444 904 m -13 -13 d s 400 860 m -10 -11 d s 282 742 m -2 -3 d s 253 712 m -14 -14 d s 224 683 m s 444 920 m -13 -14 d s 209 683 m cl s 444 935 m -13 -14 d s 194 683 m s 441 947 m -10 -11 d s 179 683
 m s 164 683 m cl s 149 683 m cl s 6 lw 143 683 m 96 X 29 Y 14 X -29 Y 14 X 29 Y 13 X 30 Y 14 X -30 Y 14 X 30 Y 13 X 29 Y 14 X -59 Y 14 X 59 Y 13 X -58 Y 14 X 88 Y 14 X 59 Y 13 X -61 Y 14 X -57 Y 14 X 205 Y 13 X -205 Y 14 X 117 Y 14 X -1 Y 13 X -175
 Y 14 X 117 Y 14 X 28 Y 13 X 31 Y 14 X -147 Y 14 X 58 Y 13 X -56 Y 14 X -2 Y 14 X -29 Y 41 X 29 Y 27 X -29 Y 14 X 29 Y 14 X -29 Y s 0.490196 0.545098 0.615686 c 3 lw 0.95 0.95 0.95 c 0.490196 0.545098 0.615686 c 285 85 143 1026 bl 143 1026 m 285 X s
 428 1026 m 85 Y s 428 1111 m -285 X s 143 1111 m -85 Y s black
 gsave  710 566 23 602 C 227.911 1079.73 t 0 r /Times-Italic findfont 31.4517 sf 0 0 m (Signal) show NC gr  0.49 0.6 0.82 c 156 1075 m 60 X 30 Y -60 X f 0 0 0.933333 c 6 lw 156 1105 m 60 X s 156 1075 m 60 X s 216 1075 m 30 Y s 156 1075 m 30 Y s black
 gsave  710 566 23 602 C 227.911 1037 t 0 r /Times-Italic findfont 31.4517 sf 0 0 m (Background) show NC gr  1 0 0 c 3 lw 216 1039 m -6 -7 d s 216 1054 m -21 -22 d s 209 1062 m -29 -30 d s 194 1062 m -29 -30 d s 179 1062 m -23 -23 d s 164 1062 m -8
 -8 d s 6 lw 0 0 0.933333 c 1 0 0 c 156 1062 m 60 X s 156 1032 m 60 X s 216 1032 m 30 Y s 156 1032 m 30 Y s black 3 lw 143 683 m 548 X s 192 696 m -13 Y s 216 690 m -7 Y s 241 690 m -7 Y s 265 690 m -7 Y s 289 690 m -7 Y s 313 696 m -13 Y s 338 690 m
 -7 Y s 362 690 m -7 Y s 386 690 m -7 Y s 410 690 m -7 Y s 435 696 m -13 Y s 459 690 m -7 Y s 483 690 m -7 Y s 507 690 m -7 Y s 532 690 m -7 Y s 556 696 m -13 Y s 580 690 m -7 Y s 604 690 m -7 Y s 629 690 m -7 Y s 653 690 m -7 Y s 677 696 m -13 Y s
 192 696 m -13 Y s 168 690 m -7 Y s 143 690 m -7 Y s 677 696 m -13 Y s 143 1111 m 548 X s 192 1098 m 13 Y s 216 1104 m 7 Y s 241 1104 m 7 Y s 265 1104 m 7 Y s 289 1104 m 7 Y s 313 1098 m 13 Y s 338 1104 m 7 Y s 362 1104 m 7 Y s 386 1104 m 7 Y s 410
 1104 m 7 Y s 435 1098 m 13 Y s 459 1104 m 7 Y s 483 1104 m 7 Y s 507 1104 m 7 Y s 532 1104 m 7 Y s 556 1098 m 13 Y s 580 1104 m 7 Y s 604 1104 m 7 Y s 629 1104 m 7 Y s 653 1104 m 7 Y s 677 1098 m 13 Y s 192 1098 m 13 Y s 168 1104 m 7 Y s 143 1104 m
 7 Y s 677 1098 m 13 Y s 143 683 m 428 Y s 160 683 m -17 X s 152 696 m -9 X s 152 709 m -9 X s 152 722 m -9 X s 152 735 m -9 X s 160 747 m -17 X s 152 760 m -9 X s 152 773 m -9 X s 152 786 m -9 X s 152 799 m -9 X s 160 812 m -17 X s 152 825 m -9 X s
 152 838 m -9 X s 152 850 m -9 X s 152 863 m -9 X s 160 876 m -17 X s 152 889 m -9 X s 152 902 m -9 X s 152 915 m -9 X s 152 928 m -9 X s 160 941 m -17 X s 152 953 m -9 X s 152 966 m -9 X s 152 979 m -9 X s 152 992 m -9 X s 160 1005 m -17 X s 152
 1018 m -9 X s 152 1031 m -9 X s 152 1044 m -9 X s 152 1057 m -9 X s 160 1069 m -17 X s 160 1069 m -17 X s 152 1082 m -9 X s 152 1095 m -9 X s 152 1108 m -9 X s 691 683 m 428 Y s 674 683 m 17 X s 683 696 m 8 X s 683 709 m 8 X s 683 722 m 8 X s 683
 735 m 8 X s 674 747 m 17 X s 683 760 m 8 X s 683 773 m 8 X s 683 786 m 8 X s 683 799 m 8 X s 674 812 m 17 X s 683 825 m 8 X s 683 838 m 8 X s 683 850 m 8 X s 683 863 m 8 X s 674 876 m 17 X s 683 889 m 8 X s 683 902 m 8 X s 683 915 m 8 X s 683 928 m
 8 X s 674 941 m 17 X s 683 953 m 8 X s 683 966 m 8 X s 683 979 m 8 X s 683 992 m 8 X s 674 1005 m 17 X s 683 1018 m 8 X s 683 1031 m 8 X s 683 1044 m 8 X s 683 1057 m 8 X s 674 1069 m 17 X s 674 1069 m 17 X s 683 1082 m 8 X s 683 1095 m 8 X s 683
 1108 m 8 X s
 gsave  710 566 23 602 C 719.017 680.773 t 90 r /Helvetica-Bold findfont 20.0147 sf 0 0 m (U/O\255flow \(S,B\): \(0.0, 0.0\)% / \(0.0, 0.0\)%) show NC gr  0.490196 0.545098 0.615686 c 0.364706 0.419608 0.490196 c 407 38 30 1127 bf 0.490196 0.545098
 0.615686 c 30 1127 m 407 X s 437 1127 m 38 Y s 437 1165 m -407 X s 30 1165 m -38 Y s 1 1 1 c black 1 1 1 c
 gsave  710 566 23 602 C 34.1867 1139.56 t 0 r /Helvetica-Bold findfont 28.5925 sf 0 0 m (Input variable: GTND_bubble) show NC gr  0.490196 0.545098 0.615686 c 0.941176 0.941176 0.941176 c 710 566 779 602 bf black 1 1 0.992157 c 548 428 899 683 bf
 black 548 428 899 683 bl 1 1 0.992157 c 548 428 899 683 bf black 548 428 899 683 bl 0 0 0.933333 c 6 lw 0.49 0.6 0.82 c black 3 lw 0.49 0.6 0.82 c 899 683 m 41 X 45 Y 14 X -45 Y 14 X 45 Y 41 X 97 Y 13 X 39 Y 14 X -45 Y 14 X 133 Y 14 X 1 Y 13 X 90 Y
 28 X -179 Y 13 X -92 Y 14 X 137 Y 14 X -136 Y 13 X -41 Y 14 X -49 Y 274 X f 6 lw 0 0 0.933333 c 0.49 0.6 0.82 c 0 0 0.933333 c 899 683 m 41 X 45 Y 14 X -45 Y 14 X 45 Y 41 X 97 Y 13 X 39 Y 14 X -45 Y 14 X 133 Y 14 X 1 Y 13 X 90 Y 28 X -179 Y 13 X -92
 Y 14 X 137 Y 14 X -136 Y 13 X -41 Y 14 X -49 Y 274 X s black 3 lw 899 683 m 548 X s
 gsave  710 566 779 602 C 1282 612.511 t 0 r /Helvetica findfont 28.5925 sf 0 0 m (GTND_crisis) show NC gr  899 696 m -13 Y s 918 690 m -7 Y s 936 690 m -7 Y s 954 690 m -7 Y s 972 690 m -7 Y s 990 696 m -13 Y s 1009 690 m -7 Y s 1027 690 m -7 Y s
 1045 690 m -7 Y s 1063 690 m -7 Y s 1081 696 m -13 Y s 1100 690 m -7 Y s 1118 690 m -7 Y s 1136 690 m -7 Y s 1154 690 m -7 Y s 1172 696 m -13 Y s 1191 690 m -7 Y s 1209 690 m -7 Y s 1227 690 m -7 Y s 1245 690 m -7 Y s 1263 696 m -13 Y s 1282 690 m
 -7 Y s 1300 690 m -7 Y s 1318 690 m -7 Y s 1336 690 m -7 Y s 1354 696 m -13 Y s 1372 690 m -7 Y s 1391 690 m -7 Y s 1409 690 m -7 Y s 1427 690 m -7 Y s 1445 696 m -13 Y s 1445 696 m -13 Y s
 gsave  710 566 779 602 C 877.458 655.245 t 0 r /Helvetica findfont 25.7332 sf 0 0 m (\25520) show NC gr 
 gsave  710 566 779 602 C 968.623 655.245 t 0 r /Helvetica findfont 25.7332 sf 0 0 m (\25510) show NC gr 
 gsave  710 566 779 602 C 1071.18 655.245 t 0 r /Helvetica findfont 25.7332 sf 0 0 m (0) show NC gr 
 gsave  710 566 779 602 C 1156.65 655.245 t 0 r /Helvetica findfont 25.7332 sf 0 0 m (10) show NC gr 
 gsave  710 566 779 602 C 1247.81 655.245 t 0 r /Helvetica findfont 25.7332 sf 0 0 m (20) show NC gr 
 gsave  710 566 779 602 C 1338.98 655.245 t 0 r /Helvetica findfont 25.7332 sf 0 0 m (30) show NC gr 
 gsave  710 566 779 602 C 1430.14 655.245 t 0 r /Helvetica findfont 25.7332 sf 0 0 m (40) show NC gr  899 1111 m 548 X s 899 1098 m 13 Y s 918 1104 m 7 Y s 936 1104 m 7 Y s 954 1104 m 7 Y s 972 1104 m 7 Y s 990 1098 m 13 Y s 1009 1104 m 7 Y s 1027
 1104 m 7 Y s 1045 1104 m 7 Y s 1063 1104 m 7 Y s 1081 1098 m 13 Y s 1100 1104 m 7 Y s 1118 1104 m 7 Y s 1136 1104 m 7 Y s 1154 1104 m 7 Y s 1172 1098 m 13 Y s 1191 1104 m 7 Y s 1209 1104 m 7 Y s 1227 1104 m 7 Y s 1245 1104 m 7 Y s 1263 1098 m 13 Y s
 1282 1104 m 7 Y s 1300 1104 m 7 Y s 1318 1104 m 7 Y s 1336 1104 m 7 Y s 1354 1098 m 13 Y s 1372 1104 m 7 Y s 1391 1104 m 7 Y s 1409 1104 m 7 Y s 1427 1104 m 7 Y s 1445 1098 m 13 Y s 1445 1098 m 13 Y s 899 683 m 428 Y s
 gsave  710 566 779 602 C 803.387 1062.64 t 90 r /Helvetica findfont 28.5925 sf 0 0 m (1.5 ) show NC gr 
 gsave  710 566 779 602 C 789.143 1056.94 t 90 r /Helvetica findfont 20.0147 sf 0 0 m ( ) show NC gr 
 gsave  710 566 779 602 C 803.387 1045.54 t 90 r /Helvetica findfont 28.5925 sf 0 0 m (/) show NC gr 
 gsave  710 566 779 602 C 811.934 1039.84 t 90 r /Helvetica findfont 20.0147 sf 0 0 m ( ) show NC gr 
 gsave  710 566 779 602 C 803.387 931.587 t 90 r /Helvetica findfont 28.5925 sf 0 0 m (\(1/N\) dN) show NC gr  915 683 m -16 X s 907 702 m -8 X s 907 721 m -8 X s 907 740 m -8 X s 915 759 m -16 X s 907 778 m -8 X s 907 797 m -8 X s 907 816 m -8 X s
 915 835 m -16 X s 907 854 m -8 X s 907 873 m -8 X s 907 892 m -8 X s 915 912 m -16 X s 907 931 m -8 X s 907 950 m -8 X s 907 969 m -8 X s 915 988 m -16 X s 907 1007 m -8 X s 907 1026 m -8 X s 907 1045 m -8 X s 915 1064 m -16 X s 915 1064 m -16 X s
 907 1083 m -8 X s 907 1102 m -8 X s
 gsave  710 566 779 602 C 874.609 672.338 t 0 r /Helvetica findfont 25.7332 sf 0 0 m (0) show NC gr 
 gsave  710 566 779 602 C 837.574 749.258 t 0 r /Helvetica findfont 25.7332 sf 0 0 m (0.02) show NC gr 
 gsave  710 566 779 602 C 837.574 826.178 t 0 r /Helvetica findfont 25.7332 sf 0 0 m (0.04) show NC gr 
 gsave  710 566 779 602 C 837.574 900.249 t 0 r /Helvetica findfont 25.7332 sf 0 0 m (0.06) show NC gr 
 gsave  710 566 779 602 C 837.574 977.169 t 0 r /Helvetica findfont 25.7332 sf 0 0 m (0.08) show NC gr 
 gsave  710 566 779 602 C 857.516 1054.09 t 0 r /Helvetica findfont 25.7332 sf 0 0 m (0.1) show NC gr  1447 683 m 428 Y s 1430 683 m 17 X s 1438 702 m 9 X s 1438 721 m 9 X s 1438 740 m 9 X s 1430 759 m 17 X s 1438 778 m 9 X s 1438 797 m 9 X s 1438
 816 m 9 X s 1430 835 m 17 X s 1438 854 m 9 X s 1438 873 m 9 X s 1438 892 m 9 X s 1430 912 m 17 X s 1438 931 m 9 X s 1438 950 m 9 X s 1438 969 m 9 X s 1430 988 m 17 X s 1438 1007 m 9 X s 1438 1026 m 9 X s 1438 1045 m 9 X s 1430 1064 m 17 X s 1430
 1064 m 17 X s 1438 1083 m 9 X s 1438 1102 m 9 X s 1 0 0 c 6 lw black 3 lw 1 0 0 c 1433 683 m s 1418 683 m s 1403 683 m s 1388 683 m s 1372 683 m s 1357 683 m s 1342 683 m s 1327 683 m s 1312 683 m s 1297 683 m s 1282 683 m s 1267 683 m s 1255 686 m
 -3 -3 d s 1255 701 m -14 -13 d s 1237 683 m s 1254 715 m -13 -12 d s 1222 683 m s 1214 690 m -7 -7 d s 1214 706 m -22 -23 d s 1209 716 m -33 -33 d s 1194 716 m -33 -33 d s 1178 715 m -19 -19 d s 1146 683 m s 1173 725 m -14 -14 d s 1146 697 m -15 -14
 d s 1173 740 m -14 -14 d s 1146 712 m -30 -29 d s 1166 748 m -7 -7 d s 1146 728 m -45 -45 d s 1146 743 m -60 -60 d s 1146 758 m -75 -75 d s 1146 773 m -90 -90 d s 1139 781 m -98 -98 d s 1132 789 m -106 -106 d s 1132 805 m -110 -110 d s 1011 683 m s
 1127 815 m -105 -105 d s 1009 696 m -13 -13 d s 1118 821 m -96 -96 d s 1009 711 m -28 -28 d s 1118 836 m -96 -96 d s 998 716 m -33 -33 d s 1118 851 m -96 -96 d s 982 715 m -28 -28 d s 950 683 m s 1118 866 m -96 -96 d s 968 716 m -14 -14 d s 935 683
 m s 1118 881 m -96 -96 d s 920 683 m s 1118 897 m -13 -14 d s 1099 877 m -77 -76 d s 905 683 m s 1118 912 m -13 -14 d s 1091 884 m -69 -68 d s 1118 927 m -13 -14 d s 1091 899 m -69 -68 d s 1118 942 m -13 -14 d s 1091 914 m -69 -68 d s 1118 957 m -13
 -14 d s 1091 930 m -69 -69 d s 1118 972 m -13 -14 d s 1091 945 m -55 -55 d s 1025 879 m -3 -3 d s 1118 987 m -13 -14 d s 1091 960 m -14 -14 d s 1075 943 m -25 -24 d s 1042 910 m -6 -5 d s 1118 1002 m -13 -13 d s 1091 975 m -14 -14 d s 1064 947 m -14
 -13 d s 1118 1017 m -13 -13 d s 1091 990 m -14 -14 d s 1064 963 m -14 -14 d s 1118 1032 m -13 -13 d s 1091 1005 m -14 -14 d s 1064 978 m -14 -14 d s 1118 1048 m -13 -14 d s 1091 1020 m -14 -14 d s 1064 993 m -14 -14 d s 1118 1063 m -13 -14 d s 1091
 1035 m -14 -13 d s 1064 1008 m -14 -14 d s 1113 1072 m -8 -8 d s 1080 1039 m -3 -2 d s 1064 1023 m -14 -14 d s 1064 1038 m -14 -14 d s 6 lw 899 683 m 55 X 33 Y 14 X -1 Y 27 X 1 Y 14 X -33 Y 13 X 196 Y 14 X 31 Y 14 X 129 Y 14 X -96 Y 13 X 96 Y 14 X
 -162 Y 14 X 195 Y 13 X -257 Y 14 X -34 Y 14 X -98 Y 13 X 65 Y 14 X -33 Y 14 X 1 Y 27 X -33 Y 27 X 32 Y 14 X -32 Y 192 X s black 3 lw 899 683 m 548 X s 899 696 m -13 Y s 918 690 m -7 Y s 936 690 m -7 Y s 954 690 m -7 Y s 972 690 m -7 Y s 990 696 m
 -13 Y s 1009 690 m -7 Y s 1027 690 m -7 Y s 1045 690 m -7 Y s 1063 690 m -7 Y s 1081 696 m -13 Y s 1100 690 m -7 Y s 1118 690 m -7 Y s 1136 690 m -7 Y s 1154 690 m -7 Y s 1172 696 m -13 Y s 1191 690 m -7 Y s 1209 690 m -7 Y s 1227 690 m -7 Y s 1245
 690 m -7 Y s 1263 696 m -13 Y s 1282 690 m -7 Y s 1300 690 m -7 Y s 1318 690 m -7 Y s 1336 690 m -7 Y s 1354 696 m -13 Y s 1372 690 m -7 Y s 1391 690 m -7 Y s 1409 690 m -7 Y s 1427 690 m -7 Y s 1445 696 m -13 Y s 1445 696 m -13 Y s 899 1111 m 548 X
 s 899 1098 m 13 Y s 918 1104 m 7 Y s 936 1104 m 7 Y s 954 1104 m 7 Y s 972 1104 m 7 Y s 990 1098 m 13 Y s 1009 1104 m 7 Y s 1027 1104 m 7 Y s 1045 1104 m 7 Y s 1063 1104 m 7 Y s 1081 1098 m 13 Y s 1100 1104 m 7 Y s 1118 1104 m 7 Y s 1136 1104 m 7 Y
 s 1154 1104 m 7 Y s 1172 1098 m 13 Y s 1191 1104 m 7 Y s 1209 1104 m 7 Y s 1227 1104 m 7 Y s 1245 1104 m 7 Y s 1263 1098 m 13 Y s 1282 1104 m 7 Y s 1300 1104 m 7 Y s 1318 1104 m 7 Y s 1336 1104 m 7 Y s 1354 1098 m 13 Y s 1372 1104 m 7 Y s 1391 1104
 m 7 Y s 1409 1104 m 7 Y s 1427 1104 m 7 Y s 1445 1098 m 13 Y s 1445 1098 m 13 Y s 899 683 m 428 Y s 915 683 m -16 X s 907 702 m -8 X s 907 721 m -8 X s 907 740 m -8 X s 915 759 m -16 X s 907 778 m -8 X s 907 797 m -8 X s 907 816 m -8 X s 915 835 m
 -16 X s 907 854 m -8 X s 907 873 m -8 X s 907 892 m -8 X s 915 912 m -16 X s 907 931 m -8 X s 907 950 m -8 X s 907 969 m -8 X s 915 988 m -16 X s 907 1007 m -8 X s 907 1026 m -8 X s 907 1045 m -8 X s 915 1064 m -16 X s 915 1064 m -16 X s 907 1083 m
 -8 X s 907 1102 m -8 X s 1447 683 m 428 Y s 1430 683 m 17 X s 1438 702 m 9 X s 1438 721 m 9 X s 1438 740 m 9 X s 1430 759 m 17 X s 1438 778 m 9 X s 1438 797 m 9 X s 1438 816 m 9 X s 1430 835 m 17 X s 1438 854 m 9 X s 1438 873 m 9 X s 1438 892 m 9 X
 s 1430 912 m 17 X s 1438 931 m 9 X s 1438 950 m 9 X s 1438 969 m 9 X s 1430 988 m 17 X s 1438 1007 m 9 X s 1438 1026 m 9 X s 1438 1045 m 9 X s 1430 1064 m 17 X s 1430 1064 m 17 X s 1438 1083 m 9 X s 1438 1102 m 9 X s
 gsave  710 566 779 602 C 1474.92 680.773 t 90 r /Helvetica-Bold findfont 20.0147 sf 0 0 m (U/O\255flow \(S,B\): \(0.0, 0.0\)% / \(0.0, 0.0\)%) show NC gr  0.490196 0.545098 0.615686 c 0.364706 0.419608 0.490196 c 387 38 786 1127 bf 0.490196 0.545098
 0.615686 c 786 1127 m 387 X s 1173 1127 m 38 Y s 1173 1165 m -387 X s 786 1165 m -38 Y s 1 1 1 c black 1 1 1 c
 gsave  710 566 779 602 C 789.143 1139.56 t 0 r /Helvetica-Bold findfont 28.5925 sf 0 0 m (Input variable: GTND_crisis) show NC gr  0.490196 0.545098 0.615686 c 0.941176 0.941176 0.941176 c 711 566 1534 602 bf black 1 1 0.992157 c 547 428 1655 683 bf
 black 547 428 1655 683 bl 1 1 0.992157 c 547 428 1655 683 bf black 547 428 1655 683 bl 0 0 0.933333 c 6 lw 0.49 0.6 0.82 c black 3 lw 0.49 0.6 0.82 c 1655 683 m 42 Y 14 X -42 Y 55 X 42 Y 13 X -42 Y 14 X 124 Y 14 X -76 Y 13 X -7 Y 14 X 45 Y 14 X 164
 Y 13 X 124 Y 14 X -82 Y 14 X -81 Y 13 X -86 Y 28 X 1 Y 13 X 41 Y 14 X -125 Y 14 X 82 Y 14 X -80 Y 13 X -44 Y 14 X 83 Y 14 X -83 Y 218 X f 6 lw 0 0 0.933333 c 0.49 0.6 0.82 c 0 0 0.933333 c 1655 725 m 14 X -42 Y 55 X 42 Y 13 X -42 Y 14 X 124 Y 14 X
 -76 Y 13 X -7 Y 14 X 45 Y 14 X 164 Y 13 X 124 Y 14 X -82 Y 14 X -81 Y 13 X -86 Y 28 X 1 Y 13 X 41 Y 14 X -125 Y 14 X 82 Y 14 X -80 Y 13 X -44 Y 14 X 83 Y 14 X -83 Y 218 X s black 3 lw 1655 683 m 547 X s
 gsave  711 566 1534 602 C 1968.58 612.511 t 0 r /Helvetica findfont 28.5925 sf 0 0 m (GTND_derivatives) show NC gr  1712 696 m -13 Y s 1724 690 m -7 Y s 1737 690 m -7 Y s 1749 690 m -7 Y s 1762 690 m -7 Y s 1775 696 m -13 Y s 1787 690 m -7 Y s 1800
 690 m -7 Y s 1812 690 m -7 Y s 1825 690 m -7 Y s 1837 696 m -13 Y s 1850 690 m -7 Y s 1863 690 m -7 Y s 1875 690 m -7 Y s 1888 690 m -7 Y s 1900 696 m -13 Y s 1913 690 m -7 Y s 1925 690 m -7 Y s 1938 690 m -7 Y s 1950 690 m -7 Y s 1963 696 m -13 Y s
 1976 690 m -7 Y s 1988 690 m -7 Y s 2001 690 m -7 Y s 2013 690 m -7 Y s 2026 696 m -13 Y s 2038 690 m -7 Y s 2051 690 m -7 Y s 2063 690 m -7 Y s 2076 690 m -7 Y s 2089 696 m -13 Y s 2101 690 m -7 Y s 2114 690 m -7 Y s 2126 690 m -7 Y s 2139 690 m -7
 Y s 2151 696 m -13 Y s 1712 696 m -13 Y s 1699 690 m -7 Y s 1687 690 m -7 Y s 1674 690 m -7 Y s 1662 690 m -7 Y s 2151 696 m -13 Y s 2164 690 m -7 Y s 2177 690 m -7 Y s 2189 690 m -7 Y s 2202 690 m -7 Y s
 gsave  711 566 1534 602 C 1689.39 655.245 t 0 r /Helvetica findfont 25.7332 sf 0 0 m (\25520) show NC gr 
 gsave  711 566 1534 602 C 1752.07 655.245 t 0 r /Helvetica findfont 25.7332 sf 0 0 m (\25510) show NC gr 
 gsave  711 566 1534 602 C 1826.14 655.245 t 0 r /Helvetica findfont 25.7332 sf 0 0 m (0) show NC gr 
 gsave  711 566 1534 602 C 1883.12 655.245 t 0 r /Helvetica findfont 25.7332 sf 0 0 m (10) show NC gr 
 gsave  711 566 1534 602 C 1948.64 655.245 t 0 r /Helvetica findfont 25.7332 sf 0 0 m (20) show NC gr 
 gsave  711 566 1534 602 C 2011.32 655.245 t 0 r /Helvetica findfont 25.7332 sf 0 0 m (30) show NC gr 
 gsave  711 566 1534 602 C 2073.99 655.245 t 0 r /Helvetica findfont 25.7332 sf 0 0 m (40) show NC gr 
 gsave  711 566 1534 602 C 2136.67 655.245 t 0 r /Helvetica findfont 25.7332 sf 0 0 m (50) show NC gr  1655 1111 m 547 X s 1712 1098 m 13 Y s 1724 1104 m 7 Y s 1737 1104 m 7 Y s 1749 1104 m 7 Y s 1762 1104 m 7 Y s 1775 1098 m 13 Y s 1787 1104 m 7 Y s
 1800 1104 m 7 Y s 1812 1104 m 7 Y s 1825 1104 m 7 Y s 1837 1098 m 13 Y s 1850 1104 m 7 Y s 1863 1104 m 7 Y s 1875 1104 m 7 Y s 1888 1104 m 7 Y s 1900 1098 m 13 Y s 1913 1104 m 7 Y s 1925 1104 m 7 Y s 1938 1104 m 7 Y s 1950 1104 m 7 Y s 1963 1098 m
 13 Y s 1976 1104 m 7 Y s 1988 1104 m 7 Y s 2001 1104 m 7 Y s 2013 1104 m 7 Y s 2026 1098 m 13 Y s 2038 1104 m 7 Y s 2051 1104 m 7 Y s 2063 1104 m 7 Y s 2076 1104 m 7 Y s 2089 1098 m 13 Y s 2101 1104 m 7 Y s 2114 1104 m 7 Y s 2126 1104 m 7 Y s 2139
 1104 m 7 Y s 2151 1098 m 13 Y s 1712 1098 m 13 Y s 1699 1104 m 7 Y s 1687 1104 m 7 Y s 1674 1104 m 7 Y s 1662 1104 m 7 Y s 2151 1098 m 13 Y s 2164 1104 m 7 Y s 2177 1104 m 7 Y s 2189 1104 m 7 Y s 2202 1104 m 7 Y s 1655 683 m 428 Y s
 gsave  711 566 1534 602 C 1558.34 1045.54 t 90 r /Helvetica findfont 28.5925 sf 0 0 m (2.18 ) show NC gr 
 gsave  711 566 1534 602 C 1544.1 1039.84 t 90 r /Helvetica findfont 20.0147 sf 0 0 m ( ) show NC gr 
 gsave  711 566 1534 602 C 1558.34 1028.45 t 90 r /Helvetica findfont 28.5925 sf 0 0 m (/) show NC gr 
 gsave  711 566 1534 602 C 1566.89 1022.75 t 90 r /Helvetica findfont 20.0147 sf 0 0 m ( ) show NC gr 
 gsave  711 566 1534 602 C 1558.34 914.494 t 90 r /Helvetica findfont 28.5925 sf 0 0 m (\(1/N\) dN) show NC gr  1671 683 m -16 X s 1663 693 m -8 X s 1663 703 m -8 X s 1663 714 m -8 X s 1663 724 m -8 X s 1671 734 m -16 X s 1663 744 m -8 X s 1663 755 m
 -8 X s 1663 765 m -8 X s 1663 775 m -8 X s 1671 785 m -16 X s 1663 795 m -8 X s 1663 806 m -8 X s 1663 816 m -8 X s 1663 826 m -8 X s 1671 836 m -16 X s 1663 847 m -8 X s 1663 857 m -8 X s 1663 867 m -8 X s 1663 877 m -8 X s 1671 887 m -16 X s 1663
 898 m -8 X s 1663 908 m -8 X s 1663 918 m -8 X s 1663 928 m -8 X s 1671 939 m -16 X s 1663 949 m -8 X s 1663 959 m -8 X s 1663 969 m -8 X s 1663 979 m -8 X s 1671 990 m -16 X s 1663 1000 m -8 X s 1663 1010 m -8 X s 1663 1020 m -8 X s 1663 1030 m -8
 X s 1671 1041 m -16 X s 1663 1051 m -8 X s 1663 1061 m -8 X s 1663 1071 m -8 X s 1663 1082 m -8 X s 1671 1092 m -16 X s 1671 1092 m -16 X s 1663 1102 m -8 X s
 gsave  711 566 1534 602 C 1632.41 672.338 t 0 r /Helvetica findfont 25.7332 sf 0 0 m (0) show NC gr 
 gsave  711 566 1534 602 C 1601.08 723.618 t 0 r /Helvetica findfont 25.7332 sf 0 0 m (0.01) show NC gr 
 gsave  711 566 1534 602 C 1595.38 774.898 t 0 r /Helvetica findfont 25.7332 sf 0 0 m (0.02) show NC gr 
 gsave  711 566 1534 602 C 1595.38 826.178 t 0 r /Helvetica findfont 25.7332 sf 0 0 m (0.03) show NC gr 
 gsave  711 566 1534 602 C 1595.38 877.458 t 0 r /Helvetica findfont 25.7332 sf 0 0 m (0.04) show NC gr 
 gsave  711 566 1534 602 C 1595.38 928.738 t 0 r /Helvetica findfont 25.7332 sf 0 0 m (0.05) show NC gr 
 gsave  711 566 1534 602 C 1595.38 980.018 t 0 r /Helvetica findfont 25.7332 sf 0 0 m (0.06) show NC gr 
 gsave  711 566 1534 602 C 1595.38 1031.3 t 0 r /Helvetica findfont 25.7332 sf 0 0 m (0.07) show NC gr 
 gsave  711 566 1534 602 C 1595.38 1082.58 t 0 r /Helvetica findfont 25.7332 sf 0 0 m (0.08) show NC gr  2202 683 m 428 Y s 2186 683 m 16 X s 2194 693 m 8 X s 2194 703 m 8 X s 2194 714 m 8 X s 2194 724 m 8 X s 2186 734 m 16 X s 2194 744 m 8 X s 2194
 755 m 8 X s 2194 765 m 8 X s 2194 775 m 8 X s 2186 785 m 16 X s 2194 795 m 8 X s 2194 806 m 8 X s 2194 816 m 8 X s 2194 826 m 8 X s 2186 836 m 16 X s 2194 847 m 8 X s 2194 857 m 8 X s 2194 867 m 8 X s 2194 877 m 8 X s 2186 887 m 16 X s 2194 898 m 8
 X s 2194 908 m 8 X s 2194 918 m 8 X s 2194 928 m 8 X s 2186 939 m 16 X s 2194 949 m 8 X s 2194 959 m 8 X s 2194 969 m 8 X s 2194 979 m 8 X s 2186 990 m 16 X s 2194 1000 m 8 X s 2194 1010 m 8 X s 2194 1020 m 8 X s 2194 1030 m 8 X s 2186 1041 m 16 X s
 2194 1051 m 8 X s 2194 1061 m 8 X s 2194 1071 m 8 X s 2194 1082 m 8 X s 2186 1092 m 16 X s 2186 1092 m 16 X s 2194 1102 m 8 X s 1 0 0 c 6 lw black 3 lw 1 0 0 c 2188 683 m s 2173 683 m s 2158 683 m cl s 2143 683 m s 2128 683 m s 2113 683 m s 2098 683
 m s 2083 683 m s 2068 683 m s 2053 683 m s 2038 683 m s 2022 683 m s 2007 683 m s 1992 683 m s 1977 683 m s 1970 691 m -8 -8 d s 1970 706 m -23 -23 d s 1962 713 m -30 -30 d s 1947 713 m -30 -30 d s 1933 715 m -18 -19 d s 1902 683 m s 1929 725 m -14
 -13 d s 1901 698 m -14 -15 d s 1929 740 m -14 -13 d s 1901 713 m -29 -30 d s 1916 743 m -1 -1 d s 1901 728 m -44 -45 d s 1901 743 m -59 -60 d s 1901 758 m -74 -75 d s 1901 774 m -90 -91 d s 1901 789 m -13 -14 d s 1886 774 m -90 -91 d s 1901 804 m
 -13 -14 d s 1874 776 m -93 -93 d s 1901 819 m -13 -14 d s 1874 792 m -96 -97 d s 1766 683 m s 1901 834 m -13 -14 d s 1874 807 m -96 -97 d s 1765 697 m -14 -14 d s 1901 849 m -13 -13 d s 1874 822 m -96 -96 d s 1765 712 m -29 -29 d s 1900 863 m -12
 -12 d s 1874 837 m -96 -96 d s 1765 727 m -44 -44 d s 1874 852 m -68 -69 d s 1795 773 m -17 -17 d s 1765 742 m -55 -55 d s 1706 683 m s 1870 864 m -64 -65 d s 1792 785 m -14 -14 d s 1765 757 m -41 -41 d s 1720 713 m -10 -11 d s 1696 688 m -5 -5 d s
 1860 869 m -54 -55 d s 1792 800 m -14 -14 d s 1765 772 m -14 -13 d s 1735 743 m -11 -12 d s 1696 704 m -13 -14 d s 1676 683 m cl s 1860 884 m -54 -55 d s 1792 815 m -14 -14 d s 1690 713 m -7 -8 d s 1669 691 m -8 -8 d s 1860 899 m -54 -55 d s 1792
 830 m -14 -13 d s 1669 706 m -14 -13 d s 1860 914 m -54 -55 d s 1780 833 m -2 -1 d s 1661 713 m -6 -5 d s 1860 929 m -27 -27 d s 1826 894 m -20 -20 d s 1860 945 m -27 -28 d s 1819 903 m -13 -13 d s 1860 960 m -27 -28 d s 1819 918 m -13 -13 d s 1860
 975 m -27 -28 d s 1819 934 m -13 -14 d s 1860 990 m -27 -27 d s 1819 949 m -13 -14 d s 1860 1005 m -27 -27 d s 1810 954 m -4 -4 d s 1853 1013 m -20 -20 d s 1847 1022 m -14 -14 d s 1847 1037 m -14 -14 d s 1847 1052 m -14 -14 d s 1847 1067 m -14 -13 d
 s 1836 1072 m -3 -3 d s 6 lw 1655 713 m 14 X -30 Y 14 X 30 Y 13 X -30 Y 14 X 30 Y 14 X 30 Y 13 X 2 Y 14 X 29 Y 14 X -91 Y 13 X 150 Y 14 X -60 Y 14 X 181 Y 13 X -60 Y 14 X 178 Y 14 X -59 Y 13 X -149 Y 14 X -90 Y 14 X 89 Y 13 X -180 Y 14 X 60 Y 14 X
 -28 Y 14 X -2 Y 27 X -30 Y 232 X s black 3 lw 1655 683 m 547 X s 1712 696 m -13 Y s 1724 690 m -7 Y s 1737 690 m -7 Y s 1749 690 m -7 Y s 1762 690 m -7 Y s 1775 696 m -13 Y s 1787 690 m -7 Y s 1800 690 m -7 Y s 1812 690 m -7 Y s 1825 690 m -7 Y s
 1837 696 m -13 Y s 1850 690 m -7 Y s 1863 690 m -7 Y s 1875 690 m -7 Y s 1888 690 m -7 Y s 1900 696 m -13 Y s 1913 690 m -7 Y s 1925 690 m -7 Y s 1938 690 m -7 Y s 1950 690 m -7 Y s 1963 696 m -13 Y s 1976 690 m -7 Y s 1988 690 m -7 Y s 2001 690 m
 -7 Y s 2013 690 m -7 Y s 2026 696 m -13 Y s 2038 690 m -7 Y s 2051 690 m -7 Y s 2063 690 m -7 Y s 2076 690 m -7 Y s 2089 696 m -13 Y s 2101 690 m -7 Y s 2114 690 m -7 Y s 2126 690 m -7 Y s 2139 690 m -7 Y s 2151 696 m -13 Y s 1712 696 m -13 Y s 1699
 690 m -7 Y s 1687 690 m -7 Y s 1674 690 m -7 Y s 1662 690 m -7 Y s 2151 696 m -13 Y s 2164 690 m -7 Y s 2177 690 m -7 Y s 2189 690 m -7 Y s 2202 690 m -7 Y s 1655 1111 m 547 X s 1712 1098 m 13 Y s 1724 1104 m 7 Y s 1737 1104 m 7 Y s 1749 1104 m 7 Y
 s 1762 1104 m 7 Y s 1775 1098 m 13 Y s 1787 1104 m 7 Y s 1800 1104 m 7 Y s 1812 1104 m 7 Y s 1825 1104 m 7 Y s 1837 1098 m 13 Y s 1850 1104 m 7 Y s 1863 1104 m 7 Y s 1875 1104 m 7 Y s 1888 1104 m 7 Y s 1900 1098 m 13 Y s 1913 1104 m 7 Y s 1925 1104
 m 7 Y s 1938 1104 m 7 Y s 1950 1104 m 7 Y s 1963 1098 m 13 Y s 1976 1104 m 7 Y s 1988 1104 m 7 Y s 2001 1104 m 7 Y s 2013 1104 m 7 Y s 2026 1098 m 13 Y s 2038 1104 m 7 Y s 2051 1104 m 7 Y s 2063 1104 m 7 Y s 2076 1104 m 7 Y s 2089 1098 m 13 Y s 2101
 1104 m 7 Y s 2114 1104 m 7 Y s 2126 1104 m 7 Y s 2139 1104 m 7 Y s 2151 1098 m 13 Y s 1712 1098 m 13 Y s 1699 1104 m 7 Y s 1687 1104 m 7 Y s 1674 1104 m 7 Y s 1662 1104 m 7 Y s 2151 1098 m 13 Y s 2164 1104 m 7 Y s 2177 1104 m 7 Y s 2189 1104 m 7 Y s
 2202 1104 m 7 Y s 1655 683 m 428 Y s 1671 683 m -16 X s 1663 693 m -8 X s 1663 703 m -8 X s 1663 714 m -8 X s 1663 724 m -8 X s 1671 734 m -16 X s 1663 744 m -8 X s 1663 755 m -8 X s 1663 765 m -8 X s 1663 775 m -8 X s 1671 785 m -16 X s 1663 795 m
 -8 X s 1663 806 m -8 X s 1663 816 m -8 X s 1663 826 m -8 X s 1671 836 m -16 X s 1663 847 m -8 X s 1663 857 m -8 X s 1663 867 m -8 X s 1663 877 m -8 X s 1671 887 m -16 X s 1663 898 m -8 X s 1663 908 m -8 X s 1663 918 m -8 X s 1663 928 m -8 X s 1671
 939 m -16 X s 1663 949 m -8 X s 1663 959 m -8 X s 1663 969 m -8 X s 1663 979 m -8 X s 1671 990 m -16 X s 1663 1000 m -8 X s 1663 1010 m -8 X s 1663 1020 m -8 X s 1663 1030 m -8 X s 1671 1041 m -16 X s 1663 1051 m -8 X s 1663 1061 m -8 X s 1663 1071
 m -8 X s 1663 1082 m -8 X s 1671 1092 m -16 X s 1671 1092 m -16 X s 1663 1102 m -8 X s 2202 683 m 428 Y s 2186 683 m 16 X s 2194 693 m 8 X s 2194 703 m 8 X s 2194 714 m 8 X s 2194 724 m 8 X s 2186 734 m 16 X s 2194 744 m 8 X s 2194 755 m 8 X s 2194
 765 m 8 X s 2194 775 m 8 X s 2186 785 m 16 X s 2194 795 m 8 X s 2194 806 m 8 X s 2194 816 m 8 X s 2194 826 m 8 X s 2186 836 m 16 X s 2194 847 m 8 X s 2194 857 m 8 X s 2194 867 m 8 X s 2194 877 m 8 X s 2186 887 m 16 X s 2194 898 m 8 X s 2194 908 m 8
 X s 2194 918 m 8 X s 2194 928 m 8 X s 2186 939 m 16 X s 2194 949 m 8 X s 2194 959 m 8 X s 2194 969 m 8 X s 2194 979 m 8 X s 2186 990 m 16 X s 2194 1000 m 8 X s 2194 1010 m 8 X s 2194 1020 m 8 X s 2194 1030 m 8 X s 2186 1041 m 16 X s 2194 1051 m 8 X
 s 2194 1061 m 8 X s 2194 1071 m 8 X s 2194 1082 m 8 X s 2186 1092 m 16 X s 2186 1092 m 16 X s 2194 1102 m 8 X s
 gsave  711 566 1534 602 C 2230.83 680.773 t 90 r /Helvetica-Bold findfont 20.0147 sf 0 0 m (U/O\255flow \(S,B\): \(0.0, 0.0\)% / \(0.0, 0.0\)%) show NC gr  0.490196 0.545098 0.615686 c 0.364706 0.419608 0.490196 c 461 38 1542 1127 bf 0.490196
 0.545098 0.615686 c 1542 1127 m 461 X s 2003 1127 m 38 Y s 2003 1165 m -461 X s 1542 1165 m -38 Y s 1 1 1 c black 1 1 1 c
 gsave  711 566 1534 602 C 1546.95 1139.56 t 0 r /Helvetica-Bold findfont 28.5925 sf 0 0 m (Input variable: GTND_derivatives) show NC gr  0.490196 0.545098 0.615686 c 0.941176 0.941176 0.941176 c 710 566 23 12 bf black 1 1 0.992157 c 548 428 143 93
 bf black 548 428 143 93 bl 1 1 0.992157 c 548 428 143 93 bf black 548 428 143 93 bl 0 0 0.933333 c 6 lw 0.49 0.6 0.82 c black 3 lw 0.49 0.6 0.82 c 143 93 m 66 Y 14 X 135 Y 14 X -132 Y 14 X -2 Y 27 X 67 Y 14 X -68 Y 13 X 12 Y 14 X 123 Y 14 X 1 Y 13 X
 65 Y 14 X -200 Y 14 X 65 Y 13 X 137 Y 14 X -69 Y 14 X 66 Y 13 X -266 Y 14 X 200 Y 14 X -200 Y 13 X 201 Y 14 X -128 Y 14 X 60 Y 13 X 67 Y 14 X -63 Y 14 X -70 Y 13 X 66 Y 14 X -65 Y 14 X -2 Y 13 X -66 Y 14 X 70 Y 14 X -1 Y 13 X -69 Y 124 X f 6 lw 0 0
 0.933333 c 0.49 0.6 0.82 c 0 0 0.933333 c 143 159 m 14 X 135 Y 14 X -132 Y 14 X -2 Y 27 X 67 Y 14 X -68 Y 13 X 12 Y 14 X 123 Y 14 X 1 Y 13 X 65 Y 14 X -200 Y 14 X 65 Y 13 X 137 Y 14 X -69 Y 14 X 66 Y 13 X -266 Y 14 X 200 Y 14 X -200 Y 13 X 201 Y 14
 X -128 Y 14 X 60 Y 13 X 67 Y 14 X -63 Y 14 X -70 Y 13 X 66 Y 14 X -65 Y 14 X -2 Y 13 X -66 Y 14 X 70 Y 14 X -1 Y 13 X -69 Y 124 X s black 3 lw 143 93 m 548 X s
 gsave  710 566 23 12 C 484.311 25.64 t 0 r /Helvetica findfont 28.5925 sf 0 0 m (GTND_earnings) show NC gr  169 106 m -13 Y s 186 100 m -7 Y s 203 100 m -7 Y s 220 100 m -7 Y s 237 100 m -7 Y s 254 106 m -13 Y s 271 100 m -7 Y s 288 100 m -7 Y s 304
 100 m -7 Y s 321 100 m -7 Y s 338 106 m -13 Y s 355 100 m -7 Y s 372 100 m -7 Y s 389 100 m -7 Y s 406 100 m -7 Y s 423 106 m -13 Y s 440 100 m -7 Y s 457 100 m -7 Y s 474 100 m -7 Y s 491 100 m -7 Y s 508 106 m -13 Y s 525 100 m -7 Y s 542 100 m -7
 Y s 559 100 m -7 Y s 576 100 m -7 Y s 593 106 m -13 Y s 609 100 m -7 Y s 626 100 m -7 Y s 643 100 m -7 Y s 660 100 m -7 Y s 677 106 m -13 Y s 169 106 m -13 Y s 152 100 m -7 Y s 677 106 m -13 Y s
 gsave  710 566 23 12 C 148.142 65.5245 t 0 r /Helvetica findfont 25.7332 sf 0 0 m (\25520) show NC gr 
 gsave  710 566 23 12 C 233.609 65.5245 t 0 r /Helvetica findfont 25.7332 sf 0 0 m (\25510) show NC gr 
 gsave  710 566 23 12 C 327.622 65.5245 t 0 r /Helvetica findfont 25.7332 sf 0 0 m (0) show NC gr 
 gsave  710 566 23 12 C 407.391 65.5245 t 0 r /Helvetica findfont 25.7332 sf 0 0 m (10) show NC gr 
 gsave  710 566 23 12 C 492.858 65.5245 t 0 r /Helvetica findfont 25.7332 sf 0 0 m (20) show NC gr 
 gsave  710 566 23 12 C 575.476 65.5245 t 0 r /Helvetica findfont 25.7332 sf 0 0 m (30) show NC gr 
 gsave  710 566 23 12 C 660.943 65.5245 t 0 r /Helvetica findfont 25.7332 sf 0 0 m (40) show NC gr  143 521 m 548 X s 169 508 m 13 Y s 186 515 m 6 Y s 203 515 m 6 Y s 220 515 m 6 Y s 237 515 m 6 Y s 254 508 m 13 Y s 271 515 m 6 Y s 288 515 m 6 Y s
 304 515 m 6 Y s 321 515 m 6 Y s 338 508 m 13 Y s 355 515 m 6 Y s 372 515 m 6 Y s 389 515 m 6 Y s 406 515 m 6 Y s 423 508 m 13 Y s 440 515 m 6 Y s 457 515 m 6 Y s 474 515 m 6 Y s 491 515 m 6 Y s 508 508 m 13 Y s 525 515 m 6 Y s 542 515 m 6 Y s 559
 515 m 6 Y s 576 515 m 6 Y s 593 508 m 13 Y s 609 515 m 6 Y s 626 515 m 6 Y s 643 515 m 6 Y s 660 515 m 6 Y s 677 508 m 13 Y s 169 508 m 13 Y s 152 515 m 6 Y s 677 508 m 13 Y s 143 93 m 428 Y s
 gsave  710 566 23 12 C 45.5822 461.52 t 90 r /Helvetica findfont 28.5925 sf 0 0 m (1.61 ) show NC gr 
 gsave  710 566 23 12 C 31.3378 455.822 t 90 r /Helvetica findfont 20.0147 sf 0 0 m ( ) show NC gr 
 gsave  710 566 23 12 C 45.5822 444.427 t 90 r /Helvetica findfont 28.5925 sf 0 0 m (/) show NC gr 
 gsave  710 566 23 12 C 54.1289 438.729 t 90 r /Helvetica findfont 20.0147 sf 0 0 m ( ) show NC gr 
 gsave  710 566 23 12 C 45.5822 330.471 t 90 r /Helvetica findfont 28.5925 sf 0 0 m (\(1/N\) dN) show NC gr  160 93 m -17 X s 152 105 m -9 X s 152 118 m -9 X s 152 130 m -9 X s 152 142 m -9 X s 160 154 m -17 X s 152 166 m -9 X s 152 178 m -9 X s 152
 190 m -9 X s 152 203 m -9 X s 160 215 m -17 X s 152 227 m -9 X s 152 239 m -9 X s 152 251 m -9 X s 152 263 m -9 X s 160 275 m -17 X s 152 288 m -9 X s 152 300 m -9 X s 152 312 m -9 X s 152 324 m -9 X s 160 336 m -17 X s 152 348 m -9 X s 152 360 m -9
 X s 152 373 m -9 X s 152 385 m -9 X s 160 397 m -17 X s 152 409 m -9 X s 152 421 m -9 X s 152 433 m -9 X s 152 445 m -9 X s 160 458 m -17 X s 152 470 m -9 X s 152 482 m -9 X s 152 494 m -9 X s 152 506 m -9 X s 160 518 m -17 X s 160 518 m -17 X s
 gsave  710 566 23 12 C 119.653 82.6178 t 0 r /Helvetica findfont 25.7332 sf 0 0 m (0) show NC gr 
 gsave  710 566 23 12 C 88.3156 145.293 t 0 r /Helvetica findfont 25.7332 sf 0 0 m (0.01) show NC gr 
 gsave  710 566 23 12 C 82.6178 205.12 t 0 r /Helvetica findfont 25.7332 sf 0 0 m (0.02) show NC gr 
 gsave  710 566 23 12 C 82.6178 264.947 t 0 r /Helvetica findfont 25.7332 sf 0 0 m (0.03) show NC gr 
 gsave  710 566 23 12 C 82.6178 324.773 t 0 r /Helvetica findfont 25.7332 sf 0 0 m (0.04) show NC gr 
 gsave  710 566 23 12 C 82.6178 387.449 t 0 r /Helvetica findfont 25.7332 sf 0 0 m (0.05) show NC gr 
 gsave  710 566 23 12 C 82.6178 447.276 t 0 r /Helvetica findfont 25.7332 sf 0 0 m (0.06) show NC gr 
 gsave  710 566 23 12 C 82.6178 507.102 t 0 r /Helvetica findfont 25.7332 sf 0 0 m (0.07) show NC gr  691 93 m 428 Y s 674 93 m 17 X s 683 105 m 8 X s 683 118 m 8 X s 683 130 m 8 X s 683 142 m 8 X s 674 154 m 17 X s 683 166 m 8 X s 683 178 m 8 X s
 683 190 m 8 X s 683 203 m 8 X s 674 215 m 17 X s 683 227 m 8 X s 683 239 m 8 X s 683 251 m 8 X s 683 263 m 8 X s 674 275 m 17 X s 683 288 m 8 X s 683 300 m 8 X s 683 312 m 8 X s 683 324 m 8 X s 674 336 m 17 X s 683 348 m 8 X s 683 360 m 8 X s 683
 373 m 8 X s 683 385 m 8 X s 674 397 m 17 X s 683 409 m 8 X s 683 421 m 8 X s 683 433 m 8 X s 683 445 m 8 X s 674 458 m 17 X s 683 470 m 8 X s 683 482 m 8 X s 683 494 m 8 X s 683 506 m 8 X s 674 518 m 17 X s 674 518 m 17 X s 1 0 0 c 6 lw black 3 lw 1
 0 0 c 691 108 m -14 -14 d s 676 93 m s 691 123 m -14 -14 d s 661 93 m s 691 138 m -14 -14 d s 646 93 m s 681 143 m -4 -4 d s 631 93 m s 616 93 m s 601 93 m s 595 102 m -9 -9 d s 595 117 m -14 -13 d s 571 93 m s 595 132 m -14 -13 d s 556 93 m s 589
 142 m -8 -8 d s 554 106 m -13 -13 d s 554 122 m -28 -29 d s 554 137 m -43 -44 d s 554 152 m -58 -59 d s 554 167 m -73 -74 d s 554 182 m -28 -27 d s 513 142 m -48 -49 d s 546 190 m -20 -20 d s 499 142 m -41 -41 d s 450 93 m s 533 191 m -7 -6 d s 483
 141 m -25 -25 d s 444 102 m -9 -9 d s 472 145 m -14 -14 d s 444 118 m -24 -25 d s 472 160 m -14 -13 d s 444 133 m -27 -28 d s 405 93 m s 472 175 m -14 -13 d s 437 141 m -20 -21 d s 403 107 m -13 -14 d s 472 191 m -14 -14 d s 431 149 m -14 -13 d s
 403 122 m -28 -29 d s 472 206 m -14 -14 d s 431 164 m -14 -13 d s 403 137 m -43 -44 d s 472 221 m -14 -14 d s 431 180 m -14 -14 d s 403 152 m -58 -59 d s 472 236 m -14 -14 d s 431 195 m -14 -14 d s 403 167 m -73 -74 d s 459 238 m -1 X s 431 210 m
 -14 -14 d s 403 182 m -88 -89 d s 431 225 m -14 -14 d s 403 198 m -103 -105 d s 428 238 m -11 -11 d s 403 213 m -13 -14 d s 380 189 m -95 -96 d s 403 228 m -13 -14 d s 366 190 m -96 -97 d s 403 243 m -13 -14 d s 362 202 m -108 -109 d s 403 258 m -13
 -13 d s 362 217 m -68 -69 d s 287 141 m -48 -48 d s 403 273 m -13 -13 d s 362 232 m -68 -69 d s 280 150 m -56 -57 d s 401 286 m -11 -11 d s 362 247 m -68 -68 d s 280 165 m -71 -72 d s 362 262 m -68 -68 d s 280 180 m -86 -87 d s 362 278 m -68 -69 d s
 280 195 m -95 -96 d s 179 93 m s 355 285 m -61 -61 d s 280 210 m -95 -96 d s 171 100 m -7 -7 d s 349 294 m -55 -55 d s 280 225 m -68 -68 d s 198 143 m -13 -14 d s 171 115 m -22 -22 d s 349 309 m -55 -55 d s 280 241 m -68 -69 d s 198 158 m -13 -14 d
 s 171 131 m -28 -28 d s 349 325 m -28 -28 d s 310 285 m -16 -15 d s 280 256 m -13 -14 d s 265 240 m -53 -53 d s 198 173 m -13 -14 d s 171 146 m -28 -28 d s 342 333 m -21 -21 d s 295 286 m -1 -1 d s 280 271 m -13 -14 d s 253 243 m -41 -41 d s 198 188
 m -13 -13 d s 171 161 m -14 -14 d s 151 141 m -8 -8 d s 335 341 m -14 -14 d s 280 286 m -13 -14 d s 253 259 m -14 -14 d s 232 237 m -20 -20 d s 198 204 m -13 -14 d s 171 176 m -14 -14 d s 335 356 m -14 -13 d s 280 301 m -13 -14 d s 253 274 m -14 -14
 d s 226 246 m -14 -14 d s 198 219 m -13 -14 d s 170 190 m -13 -13 d s 335 371 m -14 -13 d s 280 316 m -13 -13 d s 249 285 m -10 -10 d s 226 261 m -14 -13 d s 198 234 m -13 -14 d s 335 387 m -14 -14 d s 280 332 m -13 -14 d s 226 277 m -14 -14 d s 187
 238 m -2 -3 d s 335 402 m -14 -14 d s 267 333 m s 226 292 m -14 -14 d s 335 417 m -14 -14 d s 226 307 m -14 -14 d s 335 432 m -14 -14 d s 226 322 m -14 -14 d s 335 447 m -14 -13 d s 222 334 m -10 -11 d s 335 462 m -14 -13 d s 335 478 m -14 -14 d s
 325 482 m -4 -3 d s 6 lw 143 141 m 14 X 49 Y 14 X -97 Y 14 X 145 Y 13 X -96 Y 14 X 192 Y 14 X -97 Y 13 X 48 Y 14 X -45 Y 14 X 93 Y 13 X -192 Y 14 X 145 Y 14 X -1 Y 13 X 197 Y 14 X -149 Y 14 X -48 Y 13 X -95 Y 14 X -1 Y 14 X 97 Y 13 X -193 Y 14 X 145
 Y 14 X -97 Y 13 X -48 Y 14 X 145 Y 14 X -97 Y 13 X 1 Y 14 X -1 Y 14 X 1 Y 13 X 49 Y 14 X -1 Y 14 X -97 Y 27 X 49 Y 14 X -49 Y 82 X 50 Y 14 X s black 3 lw 143 93 m 548 X s 169 106 m -13 Y s 186 100 m -7 Y s 203 100 m -7 Y s 220 100 m -7 Y s 237 100 m
 -7 Y s 254 106 m -13 Y s 271 100 m -7 Y s 288 100 m -7 Y s 304 100 m -7 Y s 321 100 m -7 Y s 338 106 m -13 Y s 355 100 m -7 Y s 372 100 m -7 Y s 389 100 m -7 Y s 406 100 m -7 Y s 423 106 m -13 Y s 440 100 m -7 Y s 457 100 m -7 Y s 474 100 m -7 Y s
 491 100 m -7 Y s 508 106 m -13 Y s 525 100 m -7 Y s 542 100 m -7 Y s 559 100 m -7 Y s 576 100 m -7 Y s 593 106 m -13 Y s 609 100 m -7 Y s 626 100 m -7 Y s 643 100 m -7 Y s 660 100 m -7 Y s 677 106 m -13 Y s 169 106 m -13 Y s 152 100 m -7 Y s 677 106
 m -13 Y s 143 521 m 548 X s 169 508 m 13 Y s 186 515 m 6 Y s 203 515 m 6 Y s 220 515 m 6 Y s 237 515 m 6 Y s 254 508 m 13 Y s 271 515 m 6 Y s 288 515 m 6 Y s 304 515 m 6 Y s 321 515 m 6 Y s 338 508 m 13 Y s 355 515 m 6 Y s 372 515 m 6 Y s 389 515 m
 6 Y s 406 515 m 6 Y s 423 508 m 13 Y s 440 515 m 6 Y s 457 515 m 6 Y s 474 515 m 6 Y s 491 515 m 6 Y s 508 508 m 13 Y s 525 515 m 6 Y s 542 515 m 6 Y s 559 515 m 6 Y s 576 515 m 6 Y s 593 508 m 13 Y s 609 515 m 6 Y s 626 515 m 6 Y s 643 515 m 6 Y s
 660 515 m 6 Y s 677 508 m 13 Y s 169 508 m 13 Y s 152 515 m 6 Y s 677 508 m 13 Y s 143 93 m 428 Y s 160 93 m -17 X s 152 105 m -9 X s 152 118 m -9 X s 152 130 m -9 X s 152 142 m -9 X s 160 154 m -17 X s 152 166 m -9 X s 152 178 m -9 X s 152 190 m -9
 X s 152 203 m -9 X s 160 215 m -17 X s 152 227 m -9 X s 152 239 m -9 X s 152 251 m -9 X s 152 263 m -9 X s 160 275 m -17 X s 152 288 m -9 X s 152 300 m -9 X s 152 312 m -9 X s 152 324 m -9 X s 160 336 m -17 X s 152 348 m -9 X s 152 360 m -9 X s 152
 373 m -9 X s 152 385 m -9 X s 160 397 m -17 X s 152 409 m -9 X s 152 421 m -9 X s 152 433 m -9 X s 152 445 m -9 X s 160 458 m -17 X s 152 470 m -9 X s 152 482 m -9 X s 152 494 m -9 X s 152 506 m -9 X s 160 518 m -17 X s 160 518 m -17 X s 691 93 m
 428 Y s 674 93 m 17 X s 683 105 m 8 X s 683 118 m 8 X s 683 130 m 8 X s 683 142 m 8 X s 674 154 m 17 X s 683 166 m 8 X s 683 178 m 8 X s 683 190 m 8 X s 683 203 m 8 X s 674 215 m 17 X s 683 227 m 8 X s 683 239 m 8 X s 683 251 m 8 X s 683 263 m 8 X s
 674 275 m 17 X s 683 288 m 8 X s 683 300 m 8 X s 683 312 m 8 X s 683 324 m 8 X s 674 336 m 17 X s 683 348 m 8 X s 683 360 m 8 X s 683 373 m 8 X s 683 385 m 8 X s 674 397 m 17 X s 683 409 m 8 X s 683 421 m 8 X s 683 433 m 8 X s 683 445 m 8 X s 674
 458 m 17 X s 683 470 m 8 X s 683 482 m 8 X s 683 494 m 8 X s 683 506 m 8 X s 674 518 m 17 X s 674 518 m 17 X s
 gsave  710 566 23 12 C 719.017 91.0528 t 90 r /Helvetica-Bold findfont 20.0147 sf 0 0 m (U/O\255flow \(S,B\): \(0.0, 0.0\)% / \(0.0, 0.0\)%) show NC gr  0.490196 0.545098 0.615686 c 0.364706 0.419608 0.490196 c 433 38 30 537 bf 0.490196 0.545098
 0.615686 c 30 537 m 433 X s 463 537 m 38 Y s 463 575 m -433 X s 30 575 m -38 Y s 1 1 1 c black 1 1 1 c
 gsave  710 566 23 12 C 34.1867 549.836 t 0 r /Helvetica-Bold findfont 28.5925 sf 0 0 m (Input variable: GTND_earnings) show NC gr  0.490196 0.545098 0.615686 c 0.941176 0.941176 0.941176 c 710 566 779 12 bf black 1 1 0.992157 c 548 428 899 93 bf
 black 548 428 899 93 bl 1 1 0.992157 c 548 428 899 93 bf black 548 428 899 93 bl 0 0 0.933333 c 6 lw 0.49 0.6 0.82 c black 3 lw 0.49 0.6 0.82 c 899 93 m 55 X 38 Y 14 X 1 Y 13 X -39 Y 69 X 38 Y 14 X 1 Y 27 X 153 Y 14 X -38 Y 13 X -76 Y 14 X -78 Y 14
 X 193 Y 13 X 196 Y 14 X -198 Y 14 X -37 Y 13 X -39 Y 14 X 38 Y 14 X -38 Y 13 X 41 Y 14 X -117 Y 14 X -39 Y 27 X 40 Y 14 X -40 Y 137 X f 6 lw 0 0 0.933333 c 0.49 0.6 0.82 c 0 0 0.933333 c 899 93 m 55 X 38 Y 14 X 1 Y 13 X -39 Y 69 X 38 Y 14 X 1 Y 27 X
 153 Y 14 X -38 Y 13 X -76 Y 14 X -78 Y 14 X 193 Y 13 X 196 Y 14 X -198 Y 14 X -37 Y 13 X -39 Y 14 X 38 Y 14 X -38 Y 13 X 41 Y 14 X -117 Y 14 X -39 Y 27 X 40 Y 14 X -40 Y 137 X s black 3 lw 899 93 m 548 X s
 gsave  710 566 779 12 C 1230.72 25.64 t 0 r /Helvetica findfont 28.5925 sf 0 0 m (GTND_economy) show NC gr  930 106 m -13 Y s 946 100 m -7 Y s 962 100 m -7 Y s 977 100 m -7 Y s 993 100 m -7 Y s 1008 106 m -13 Y s 1024 100 m -7 Y s 1039 100 m -7 Y s
 1055 100 m -7 Y s 1070 100 m -7 Y s 1086 106 m -13 Y s 1101 100 m -7 Y s 1117 100 m -7 Y s 1133 100 m -7 Y s 1148 100 m -7 Y s 1164 106 m -13 Y s 1179 100 m -7 Y s 1195 100 m -7 Y s 1210 100 m -7 Y s 1226 100 m -7 Y s 1241 106 m -13 Y s 1257 100 m
 -7 Y s 1273 100 m -7 Y s 1288 100 m -7 Y s 1304 100 m -7 Y s 1319 106 m -13 Y s 1335 100 m -7 Y s 1350 100 m -7 Y s 1366 100 m -7 Y s 1381 100 m -7 Y s 1397 106 m -13 Y s 930 106 m -13 Y s 915 100 m -7 Y s 899 100 m -7 Y s 1397 106 m -13 Y s 1412
 100 m -7 Y s 1428 100 m -7 Y s 1444 100 m -7 Y s
 gsave  710 566 779 12 C 908.796 65.5245 t 0 r /Helvetica findfont 25.7332 sf 0 0 m (\25530) show NC gr 
 gsave  710 566 779 12 C 985.716 65.5245 t 0 r /Helvetica findfont 25.7332 sf 0 0 m (\25520) show NC gr 
 gsave  710 566 779 12 C 1065.48 65.5245 t 0 r /Helvetica findfont 25.7332 sf 0 0 m (\25510) show NC gr 
 gsave  710 566 779 12 C 1153.8 65.5245 t 0 r /Helvetica findfont 25.7332 sf 0 0 m (0) show NC gr 
 gsave  710 566 779 12 C 1225.02 65.5245 t 0 r /Helvetica findfont 25.7332 sf 0 0 m (10) show NC gr 
 gsave  710 566 779 12 C 1304.79 65.5245 t 0 r /Helvetica findfont 25.7332 sf 0 0 m (20) show NC gr 
 gsave  710 566 779 12 C 1381.71 65.5245 t 0 r /Helvetica findfont 25.7332 sf 0 0 m (30) show NC gr  899 521 m 548 X s 930 508 m 13 Y s 946 515 m 6 Y s 962 515 m 6 Y s 977 515 m 6 Y s 993 515 m 6 Y s 1008 508 m 13 Y s 1024 515 m 6 Y s 1039 515 m 6 Y
 s 1055 515 m 6 Y s 1070 515 m 6 Y s 1086 508 m 13 Y s 1101 515 m 6 Y s 1117 515 m 6 Y s 1133 515 m 6 Y s 1148 515 m 6 Y s 1164 508 m 13 Y s 1179 515 m 6 Y s 1195 515 m 6 Y s 1210 515 m 6 Y s 1226 515 m 6 Y s 1241 508 m 13 Y s 1257 515 m 6 Y s 1273
 515 m 6 Y s 1288 515 m 6 Y s 1304 515 m 6 Y s 1319 508 m 13 Y s 1335 515 m 6 Y s 1350 515 m 6 Y s 1366 515 m 6 Y s 1381 515 m 6 Y s 1397 508 m 13 Y s 930 508 m 13 Y s 915 515 m 6 Y s 899 515 m 6 Y s 1397 508 m 13 Y s 1412 515 m 6 Y s 1428 515 m 6 Y
 s 1444 515 m 6 Y s 899 93 m 428 Y s
 gsave  710 566 779 12 C 803.387 455.822 t 90 r /Helvetica findfont 28.5925 sf 0 0 m (1.76 ) show NC gr 
 gsave  710 566 779 12 C 789.143 450.125 t 90 r /Helvetica findfont 20.0147 sf 0 0 m ( ) show NC gr 
 gsave  710 566 779 12 C 803.387 438.729 t 90 r /Helvetica findfont 28.5925 sf 0 0 m (/) show NC gr 
 gsave  710 566 779 12 C 811.934 433.031 t 90 r /Helvetica findfont 20.0147 sf 0 0 m ( ) show NC gr 
 gsave  710 566 779 12 C 803.387 324.773 t 90 r /Helvetica findfont 28.5925 sf 0 0 m (\(1/N\) dN) show NC gr  915 93 m -16 X s 907 112 m -8 X s 907 131 m -8 X s 907 150 m -8 X s 915 169 m -16 X s 907 188 m -8 X s 907 207 m -8 X s 907 226 m -8 X s 915
 245 m -16 X s 907 264 m -8 X s 907 283 m -8 X s 907 302 m -8 X s 915 321 m -16 X s 907 340 m -8 X s 907 359 m -8 X s 907 378 m -8 X s 915 397 m -16 X s 907 416 m -8 X s 907 435 m -8 X s 907 454 m -8 X s 915 473 m -16 X s 915 473 m -16 X s 907 492 m
 -8 X s 907 511 m -8 X s
 gsave  710 566 779 12 C 874.609 82.6178 t 0 r /Helvetica findfont 25.7332 sf 0 0 m (0) show NC gr 
 gsave  710 566 779 12 C 837.574 159.538 t 0 r /Helvetica findfont 25.7332 sf 0 0 m (0.02) show NC gr 
 gsave  710 566 779 12 C 837.574 236.458 t 0 r /Helvetica findfont 25.7332 sf 0 0 m (0.04) show NC gr 
 gsave  710 566 779 12 C 837.574 310.529 t 0 r /Helvetica findfont 25.7332 sf 0 0 m (0.06) show NC gr 
 gsave  710 566 779 12 C 837.574 387.449 t 0 r /Helvetica findfont 25.7332 sf 0 0 m (0.08) show NC gr 
 gsave  710 566 779 12 C 857.516 461.52 t 0 r /Helvetica findfont 25.7332 sf 0 0 m (0.1) show NC gr  1447 93 m 428 Y s 1430 93 m 17 X s 1438 112 m 9 X s 1438 131 m 9 X s 1438 150 m 9 X s 1430 169 m 17 X s 1438 188 m 9 X s 1438 207 m 9 X s 1438 226 m
 9 X s 1430 245 m 17 X s 1438 264 m 9 X s 1438 283 m 9 X s 1438 302 m 9 X s 1430 321 m 17 X s 1438 340 m 9 X s 1438 359 m 9 X s 1438 378 m 9 X s 1430 397 m 17 X s 1438 416 m 9 X s 1438 435 m 9 X s 1438 454 m 9 X s 1430 473 m 17 X s 1430 473 m 17 X s
 1438 492 m 9 X s 1438 511 m 9 X s 1 0 0 c 6 lw black 3 lw 1 0 0 c 1433 93 m s 1418 93 m s 1403 93 m s 1388 93 m s 1372 93 m s 1357 93 m s 1342 93 m s 1327 93 m s 1323 105 m -11 -12 d s 1323 120 m -26 -27 d s 1311 122 m -15 -15 d s 1282 93 m s 1267
 93 m s 1255 96 m -3 -3 d s 1255 112 m -14 -14 d s 1237 93 m s 1255 127 m -14 -14 d s 1228 99 m -6 -6 d s 1255 142 m -14 -14 d s 1228 114 m -21 -21 d s 1255 157 m -14 -14 d s 1228 129 m -36 -36 d s 1255 172 m -14 -14 d s 1228 145 m -52 -52 d s 1255
 187 m -14 -14 d s 1228 160 m -67 -67 d s 1255 202 m -14 -13 d s 1228 175 m -82 -82 d s 1255 217 m -14 -13 d s 1228 190 m -97 -97 d s 1255 232 m -14 -13 d s 1227 204 m -111 -111 d s 1255 248 m -14 -14 d s 1214 206 m -113 -113 d s 1250 257 m -9 -8 d s
 1214 222 m -128 -129 d s 1214 237 m -143 -144 d s 1214 252 m -14 -14 d s 1196 233 m -105 -105 d s 1084 121 m -28 -28 d s 1214 267 m -14 -14 d s 1178 231 m -87 -88 d s 1068 121 m -18 -19 d s 1041 93 m s 1214 282 m -14 -14 d s 1173 241 m -82 -82 d s
 1053 121 m -3 -4 d s 1036 104 m -10 -11 d s 1214 297 m -14 -14 d s 1173 256 m -41 -41 d s 1121 204 m -16 -17 d s 1093 176 m -2 -2 d s 1036 119 m -14 -14 d s 1011 93 m cl s 1214 312 m -14 -14 d s 1173 271 m -41 -41 d s 1118 216 m -13 -14 d s 1023 121
 m -1 -1 d s 996 93 m s 1214 327 m -14 -13 d s 1173 286 m -27 -27 d s 1146 259 m -14 -14 d s 1118 231 m -13 -13 d s 981 94 m -1 Y s 1214 342 m -14 -13 d s 1173 301 m -27 -27 d s 981 109 m -13 -13 d s 965 93 m s 1214 357 m -14 -13 d s 1173 316 m -27
 -27 d s 978 121 m -10 -10 d s 950 93 m s 1214 373 m -14 -14 d s 1173 331 m -27 -27 d s 935 93 m cl s 1214 388 m -14 -14 d s 1173 347 m -27 -28 d s 920 93 m s 1209 398 m -9 -9 d s 1173 362 m -27 -28 d s 905 93 m s 1173 377 m -27 -28 d s 1173 392 m
 -14 -14 d s 1151 370 m -5 -6 d s 1173 407 m -14 -14 d s 1173 422 m -14 -14 d s 1161 425 m -2 -2 d s 6 lw 899 93 m 69 X 28 Y 13 X -28 Y 41 X 28 Y 14 X -28 Y 14 X 28 Y 41 X 55 Y 14 X 55 Y 13 X -27 Y 14 X 55 Y 14 X 111 Y 13 X 55 Y 14 X -194 Y 14 X 2 Y
 13 X 165 Y 14 X -194 Y 14 X -111 Y 13 X 164 Y 14 X -164 Y 41 X 28 Y 14 X 1 Y 13 X -29 Y 124 X s black 3 lw 899 93 m 548 X s 930 106 m -13 Y s 946 100 m -7 Y s 962 100 m -7 Y s 977 100 m -7 Y s 993 100 m -7 Y s 1008 106 m -13 Y s 1024 100 m -7 Y s
 1039 100 m -7 Y s 1055 100 m -7 Y s 1070 100 m -7 Y s 1086 106 m -13 Y s 1101 100 m -7 Y s 1117 100 m -7 Y s 1133 100 m -7 Y s 1148 100 m -7 Y s 1164 106 m -13 Y s 1179 100 m -7 Y s 1195 100 m -7 Y s 1210 100 m -7 Y s 1226 100 m -7 Y s 1241 106 m
 -13 Y s 1257 100 m -7 Y s 1273 100 m -7 Y s 1288 100 m -7 Y s 1304 100 m -7 Y s 1319 106 m -13 Y s 1335 100 m -7 Y s 1350 100 m -7 Y s 1366 100 m -7 Y s 1381 100 m -7 Y s 1397 106 m -13 Y s 930 106 m -13 Y s 915 100 m -7 Y s 899 100 m -7 Y s 1397
 106 m -13 Y s 1412 100 m -7 Y s 1428 100 m -7 Y s 1444 100 m -7 Y s 899 521 m 548 X s 930 508 m 13 Y s 946 515 m 6 Y s 962 515 m 6 Y s 977 515 m 6 Y s 993 515 m 6 Y s 1008 508 m 13 Y s 1024 515 m 6 Y s 1039 515 m 6 Y s 1055 515 m 6 Y s 1070 515 m 6
 Y s 1086 508 m 13 Y s 1101 515 m 6 Y s 1117 515 m 6 Y s 1133 515 m 6 Y s 1148 515 m 6 Y s 1164 508 m 13 Y s 1179 515 m 6 Y s 1195 515 m 6 Y s 1210 515 m 6 Y s 1226 515 m 6 Y s 1241 508 m 13 Y s 1257 515 m 6 Y s 1273 515 m 6 Y s 1288 515 m 6 Y s 1304
 515 m 6 Y s 1319 508 m 13 Y s 1335 515 m 6 Y s 1350 515 m 6 Y s 1366 515 m 6 Y s 1381 515 m 6 Y s 1397 508 m 13 Y s 930 508 m 13 Y s 915 515 m 6 Y s 899 515 m 6 Y s 1397 508 m 13 Y s 1412 515 m 6 Y s 1428 515 m 6 Y s 1444 515 m 6 Y s 899 93 m 428 Y
 s 915 93 m -16 X s 907 112 m -8 X s 907 131 m -8 X s 907 150 m -8 X s 915 169 m -16 X s 907 188 m -8 X s 907 207 m -8 X s 907 226 m -8 X s 915 245 m -16 X s 907 264 m -8 X s 907 283 m -8 X s 907 302 m -8 X s 915 321 m -16 X s 907 340 m -8 X s 907
 359 m -8 X s 907 378 m -8 X s 915 397 m -16 X s 907 416 m -8 X s 907 435 m -8 X s 907 454 m -8 X s 915 473 m -16 X s 915 473 m -16 X s 907 492 m -8 X s 907 511 m -8 X s 1447 93 m 428 Y s 1430 93 m 17 X s 1438 112 m 9 X s 1438 131 m 9 X s 1438 150 m
 9 X s 1430 169 m 17 X s 1438 188 m 9 X s 1438 207 m 9 X s 1438 226 m 9 X s 1430 245 m 17 X s 1438 264 m 9 X s 1438 283 m 9 X s 1438 302 m 9 X s 1430 321 m 17 X s 1438 340 m 9 X s 1438 359 m 9 X s 1438 378 m 9 X s 1430 397 m 17 X s 1438 416 m 9 X s
 1438 435 m 9 X s 1438 454 m 9 X s 1430 473 m 17 X s 1430 473 m 17 X s 1438 492 m 9 X s 1438 511 m 9 X s
 gsave  710 566 779 12 C 1474.92 91.0528 t 90 r /Helvetica-Bold findfont 20.0147 sf 0 0 m (U/O\255flow \(S,B\): \(0.0, 0.0\)% / \(0.0, 0.0\)%) show NC gr  0.490196 0.545098 0.615686 c 0.364706 0.419608 0.490196 c 438 38 786 537 bf 0.490196 0.545098
 0.615686 c 786 537 m 438 X s 1224 537 m 38 Y s 1224 575 m -438 X s 786 575 m -38 Y s 1 1 1 c black 1 1 1 c
 gsave  710 566 779 12 C 789.143 549.836 t 0 r /Helvetica-Bold findfont 28.5925 sf 0 0 m (Input variable: GTND_economy) show NC gr  0.490196 0.545098 0.615686 c 0.941176 0.941176 0.941176 c 711 566 1534 12 bf black 1 1 0.992157 c 547 428 1655 93 bf
 black 547 428 1655 93 bl 1 1 0.992157 c 547 428 1655 93 bf black 547 428 1655 93 bl 0 0 0.933333 c 6 lw 0.49 0.6 0.82 c black 3 lw 0.49 0.6 0.82 c 1655 93 m 41 X 54 Y 14 X 1 Y 14 X 52 Y 13 X -107 Y 14 X 54 Y 14 X 107 Y 13 X -107 Y 14 X -1 Y 14 X 112
 Y 13 X -58 Y 14 X 108 Y 14 X -215 Y 13 X 224 Y 14 X -224 Y 14 X 219 Y 13 X -55 Y 14 X -54 Y 14 X -2 Y 27 X 161 Y 14 X -214 Y 14 X -1 Y 13 X 113 Y 14 X -113 Y 14 X 218 Y 13 X -217 Y 14 X -55 Y 55 X 56 Y 13 X -56 Y 14 X 55 Y 14 X -55 Y 41 X 54 Y 13 X
 -54 Y f 6 lw 0 0 0.933333 c 0.49 0.6 0.82 c 0 0 0.933333 c 1655 93 m 41 X 54 Y 14 X 1 Y 14 X 52 Y 13 X -107 Y 14 X 54 Y 14 X 107 Y 13 X -107 Y 14 X -1 Y 14 X 112 Y 13 X -58 Y 14 X 108 Y 14 X -215 Y 13 X 224 Y 14 X -224 Y 14 X 219 Y 13 X -55 Y 14 X
 -54 Y 14 X -2 Y 27 X 161 Y 14 X -214 Y 14 X -1 Y 13 X 113 Y 14 X -113 Y 14 X 218 Y 13 X -217 Y 14 X -55 Y 55 X 56 Y 13 X -56 Y 14 X 55 Y 14 X -55 Y 41 X 54 Y 13 X s black 3 lw 1655 93 m 547 X s
 gsave  711 566 1534 12 C 2048.35 22.7911 t 0 r /Helvetica findfont 28.5925 sf 0 0 m (GTND_SPX) show NC gr  1682 106 m -13 Y s 1697 100 m -7 Y s 1712 100 m -7 Y s 1726 100 m -7 Y s 1741 100 m -7 Y s 1756 106 m -13 Y s 1770 100 m -7 Y s 1785 100 m -7
 Y s 1800 100 m -7 Y s 1814 100 m -7 Y s 1829 106 m -13 Y s 1844 100 m -7 Y s 1859 100 m -7 Y s 1873 100 m -7 Y s 1888 100 m -7 Y s 1903 106 m -13 Y s 1917 100 m -7 Y s 1932 100 m -7 Y s 1947 100 m -7 Y s 1961 100 m -7 Y s 1976 106 m -13 Y s 1991 100
 m -7 Y s 2005 100 m -7 Y s 2020 100 m -7 Y s 2035 100 m -7 Y s 2049 106 m -13 Y s 2064 100 m -7 Y s 2079 100 m -7 Y s 2094 100 m -7 Y s 2108 100 m -7 Y s 2123 106 m -13 Y s 2138 100 m -7 Y s 2152 100 m -7 Y s 2167 100 m -7 Y s 2182 100 m -7 Y s 2196
 106 m -13 Y s 1682 106 m -13 Y s 1668 100 m -7 Y s 2196 106 m -13 Y s
 gsave  711 566 1534 12 C 1660.9 65.5245 t 0 r /Helvetica findfont 25.7332 sf 0 0 m (\25530) show NC gr 
 gsave  711 566 1534 12 C 1734.97 65.5245 t 0 r /Helvetica findfont 25.7332 sf 0 0 m (\25520) show NC gr 
 gsave  711 566 1534 12 C 1809.05 65.5245 t 0 r /Helvetica findfont 25.7332 sf 0 0 m (\25510) show NC gr 
 gsave  711 566 1534 12 C 1891.66 65.5245 t 0 r /Helvetica findfont 25.7332 sf 0 0 m (0) show NC gr 
 gsave  711 566 1534 12 C 1960.04 65.5245 t 0 r /Helvetica findfont 25.7332 sf 0 0 m (10) show NC gr 
 gsave  711 566 1534 12 C 2034.11 65.5245 t 0 r /Helvetica findfont 25.7332 sf 0 0 m (20) show NC gr 
 gsave  711 566 1534 12 C 2108.18 65.5245 t 0 r /Helvetica findfont 25.7332 sf 0 0 m (30) show NC gr 
 gsave  711 566 1534 12 C 2179.4 65.5245 t 0 r /Helvetica findfont 25.7332 sf 0 0 m (40) show NC gr  1655 521 m 547 X s 1682 508 m 13 Y s 1697 515 m 6 Y s 1712 515 m 6 Y s 1726 515 m 6 Y s 1741 515 m 6 Y s 1756 508 m 13 Y s 1770 515 m 6 Y s 1785 515
 m 6 Y s 1800 515 m 6 Y s 1814 515 m 6 Y s 1829 508 m 13 Y s 1844 515 m 6 Y s 1859 515 m 6 Y s 1873 515 m 6 Y s 1888 515 m 6 Y s 1903 508 m 13 Y s 1917 515 m 6 Y s 1932 515 m 6 Y s 1947 515 m 6 Y s 1961 515 m 6 Y s 1976 508 m 13 Y s 1991 515 m 6 Y s
 2005 515 m 6 Y s 2020 515 m 6 Y s 2035 515 m 6 Y s 2049 508 m 13 Y s 2064 515 m 6 Y s 2079 515 m 6 Y s 2094 515 m 6 Y s 2108 515 m 6 Y s 2123 508 m 13 Y s 2138 515 m 6 Y s 2152 515 m 6 Y s 2167 515 m 6 Y s 2182 515 m 6 Y s 2196 508 m 13 Y s 1682 508
 m 13 Y s 1668 515 m 6 Y s 2196 508 m 13 Y s 1655 93 m 428 Y s
 gsave  711 566 1534 12 C 1558.34 455.822 t 90 r /Helvetica findfont 28.5925 sf 0 0 m (1.86 ) show NC gr 
 gsave  711 566 1534 12 C 1544.1 450.125 t 90 r /Helvetica findfont 20.0147 sf 0 0 m ( ) show NC gr 
 gsave  711 566 1534 12 C 1558.34 438.729 t 90 r /Helvetica findfont 28.5925 sf 0 0 m (/) show NC gr 
 gsave  711 566 1534 12 C 1566.89 433.031 t 90 r /Helvetica findfont 20.0147 sf 0 0 m ( ) show NC gr 
 gsave  711 566 1534 12 C 1558.34 324.773 t 90 r /Helvetica findfont 28.5925 sf 0 0 m (\(1/N\) dN) show NC gr  1671 93 m -16 X s 1663 105 m -8 X s 1663 116 m -8 X s 1663 127 m -8 X s 1663 139 m -8 X s 1671 150 m -16 X s 1663 161 m -8 X s 1663 173 m
 -8 X s 1663 184 m -8 X s 1663 195 m -8 X s 1671 207 m -16 X s 1663 218 m -8 X s 1663 229 m -8 X s 1663 240 m -8 X s 1663 252 m -8 X s 1671 263 m -16 X s 1663 274 m -8 X s 1663 286 m -8 X s 1663 297 m -8 X s 1663 308 m -8 X s 1671 320 m -16 X s 1663
 331 m -8 X s 1663 342 m -8 X s 1663 354 m -8 X s 1663 365 m -8 X s 1671 376 m -16 X s 1663 388 m -8 X s 1663 399 m -8 X s 1663 410 m -8 X s 1663 422 m -8 X s 1671 433 m -16 X s 1663 444 m -8 X s 1663 456 m -8 X s 1663 467 m -8 X s 1663 478 m -8 X s
 1671 489 m -16 X s 1671 489 m -16 X s 1663 501 m -8 X s 1663 512 m -8 X s
 gsave  711 566 1534 12 C 1632.41 82.6178 t 0 r /Helvetica findfont 25.7332 sf 0 0 m (0) show NC gr 
 gsave  711 566 1534 12 C 1601.08 139.596 t 0 r /Helvetica findfont 25.7332 sf 0 0 m (0.01) show NC gr 
 gsave  711 566 1534 12 C 1595.38 196.573 t 0 r /Helvetica findfont 25.7332 sf 0 0 m (0.02) show NC gr 
 gsave  711 566 1534 12 C 1595.38 253.551 t 0 r /Helvetica findfont 25.7332 sf 0 0 m (0.03) show NC gr 
 gsave  711 566 1534 12 C 1595.38 310.529 t 0 r /Helvetica findfont 25.7332 sf 0 0 m (0.04) show NC gr 
 gsave  711 566 1534 12 C 1595.38 367.507 t 0 r /Helvetica findfont 25.7332 sf 0 0 m (0.05) show NC gr 
 gsave  711 566 1534 12 C 1595.38 421.636 t 0 r /Helvetica findfont 25.7332 sf 0 0 m (0.06) show NC gr 
 gsave  711 566 1534 12 C 1595.38 478.614 t 0 r /Helvetica findfont 25.7332 sf 0 0 m (0.07) show NC gr  2202 93 m 428 Y s 2186 93 m 16 X s 2194 105 m 8 X s 2194 116 m 8 X s 2194 127 m 8 X s 2194 139 m 8 X s 2186 150 m 16 X s 2194 161 m 8 X s 2194 173
 m 8 X s 2194 184 m 8 X s 2194 195 m 8 X s 2186 207 m 16 X s 2194 218 m 8 X s 2194 229 m 8 X s 2194 240 m 8 X s 2194 252 m 8 X s 2186 263 m 16 X s 2194 274 m 8 X s 2194 286 m 8 X s 2194 297 m 8 X s 2194 308 m 8 X s 2186 320 m 16 X s 2194 331 m 8 X s
 2194 342 m 8 X s 2194 354 m 8 X s 2194 365 m 8 X s 2186 376 m 16 X s 2194 388 m 8 X s 2194 399 m 8 X s 2194 410 m 8 X s 2194 422 m 8 X s 2186 433 m 16 X s 2194 444 m 8 X s 2194 456 m 8 X s 2194 467 m 8 X s 2194 478 m 8 X s 2186 489 m 16 X s 2186 489
 m 16 X s 2194 501 m 8 X s 2194 512 m 8 X s 1 0 0 c 6 lw black 3 lw 1 0 0 c 2188 93 m s 2173 93 m s 2158 93 m s 2148 98 m -5 -5 d s 2148 113 m -20 -20 d s 2148 128 m -28 -27 d s 2113 93 m s 2137 133 m -17 -17 d s 2098 93 m s 2121 132 m -1 -1 d s 2083
 93 m s 2068 93 m s 2066 106 m -13 -13 d s 2066 122 m -14 -14 d s 2038 94 m -1 Y s 2062 133 m -10 -10 d s 2038 109 m -13 -14 d s 2022 93 m s 2038 124 m -13 -13 d s 2011 97 m -4 -4 d s 2038 140 m -13 -14 d s 2011 112 m -19 -19 d s 2038 155 m -13 -14 d
 s 2011 127 m -34 -34 d s 2038 170 m -13 -14 d s 2001 132 m -39 -39 d s 1997 144 m -50 -51 d s 1997 159 m -65 -66 d s 1997 174 m -80 -81 d s 1997 189 m -95 -96 d s 1997 204 m -27 -27 d s 1964 171 m -77 -78 d s 1997 220 m -27 -28 d s 1956 178 m -84
 -85 d s 1997 235 m -27 -28 d s 1956 193 m -99 -100 d s 1997 249 m -27 -27 d s 1956 209 m -27 -28 d s 1920 173 m -78 -80 d s 1984 251 m -14 -13 d s 1956 224 m -27 -28 d s 1915 182 m -88 -89 d s 1984 266 m -14 -13 d s 1956 239 m -27 -28 d s 1915 198 m
 -96 -97 d s 1811 93 m cl s 1984 282 m -14 -14 d s 1956 254 m -27 -27 d s 1915 213 m -96 -97 d s 1806 103 m -10 -10 d s 1984 297 m -14 -14 d s 1956 269 m -13 -14 d s 1937 250 m -8 -8 d s 1915 228 m -55 -55 d s 1859 172 m -40 -40 d s 1806 118 m -25
 -25 d s 1984 312 m -14 -14 d s 1956 284 m -13 -13 d s 1915 243 m -27 -27 d s 1882 210 m -22 -22 d s 1847 174 m -28 -27 d s 1806 133 m -40 -40 d s 1984 327 m -14 -14 d s 1944 287 m -1 -1 d s 1915 258 m -27 -27 d s 1874 217 m -14 -14 d s 1847 189 m
 -28 -27 d s 1806 148 m -55 -55 d s 1984 342 m -14 -14 d s 1915 273 m -27 -27 d s 1874 232 m -14 -14 d s 1847 205 m -28 -28 d s 1806 163 m -69 -68 d s 1736 93 m cl s 1984 357 m -14 -13 d s 1915 289 m -27 -28 d s 1874 247 m -14 -13 d s 1847 220 m -28
 -28 d s 1806 179 m -41 -42 d s 1760 132 m -23 -22 d s 1721 93 m s 1984 373 m -14 -14 d s 1915 304 m -14 -14 d s 1900 289 m -12 -13 d s 1874 262 m -14 -13 d s 1847 235 m -28 -28 d s 1806 194 m -14 -14 d s 1783 171 m -18 -19 d s 1745 133 m -8 -8 d s
 1706 93 m s 1984 388 m -14 -14 d s 1915 319 m -14 -14 d s 1874 278 m -14 -14 d s 1847 250 m -28 -27 d s 1806 209 m -14 -14 d s 1768 171 m -3 -3 d s 1691 93 m s 1984 403 m -14 -14 d s 1915 334 m -14 -14 d s 1874 293 m -14 -14 d s 1847 265 m -14 -13 d
 s 1830 248 m -11 -10 d s 1683 100 m -7 -7 d s 1984 418 m -14 -14 d s 1915 349 m -14 -13 d s 1874 308 m -14 -14 d s 1847 280 m -14 -13 d s 1683 115 m -14 -13 d s 1661 93 m cl s 1984 433 m -14 -14 d s 1915 364 m -14 -13 d s 1874 323 m -14 -14 d s 1847
 296 m -14 -14 d s 1683 131 m -14 -14 d s 1984 448 m -14 -13 d s 1902 367 m -1 -1 d s 1874 338 m -14 -13 d s 1847 311 m -14 -14 d s 1670 133 m -1 -1 d s 1984 464 m -14 -14 d s 1874 353 m -14 -13 d s 1847 326 m -14 -14 d s 1984 479 m -14 -14 d s 1874
 369 m -14 -14 d s 1972 482 m -2 -2 d s 1874 384 m -14 -14 d s 1874 399 m -14 -14 d s 1866 406 m -6 -6 d s 6 lw 1655 93 m 14 X 40 Y 14 X -40 Y 54 X 40 Y 14 X -1 Y 14 X 39 Y 27 X 39 Y 14 X -117 Y 13 X 155 Y 14 X 79 Y 14 X -155 Y 13 X 234 Y 14 X -196 Y
 14 X 79 Y 13 X 78 Y 14 X -194 Y 14 X 77 Y 14 X 37 Y 13 X -116 Y 14 X 311 Y 14 X -233 Y 13 X -117 Y 14 X -39 Y 14 X 78 Y 13 X -78 Y 14 X 40 Y 14 X -40 Y 54 X 39 Y 14 X 1 Y 14 X -40 Y 54 X s black 3 lw 1655 93 m 547 X s 1682 106 m -13 Y s 1697 100 m
 -7 Y s 1712 100 m -7 Y s 1726 100 m -7 Y s 1741 100 m -7 Y s 1756 106 m -13 Y s 1770 100 m -7 Y s 1785 100 m -7 Y s 1800 100 m -7 Y s 1814 100 m -7 Y s 1829 106 m -13 Y s 1844 100 m -7 Y s 1859 100 m -7 Y s 1873 100 m -7 Y s 1888 100 m -7 Y s 1903
 106 m -13 Y s 1917 100 m -7 Y s 1932 100 m -7 Y s 1947 100 m -7 Y s 1961 100 m -7 Y s 1976 106 m -13 Y s 1991 100 m -7 Y s 2005 100 m -7 Y s 2020 100 m -7 Y s 2035 100 m -7 Y s 2049 106 m -13 Y s 2064 100 m -7 Y s 2079 100 m -7 Y s 2094 100 m -7 Y s
 2108 100 m -7 Y s 2123 106 m -13 Y s 2138 100 m -7 Y s 2152 100 m -7 Y s 2167 100 m -7 Y s 2182 100 m -7 Y s 2196 106 m -13 Y s 1682 106 m -13 Y s 1668 100 m -7 Y s 2196 106 m -13 Y s 1655 521 m 547 X s 1682 508 m 13 Y s 1697 515 m 6 Y s 1712 515 m
 6 Y s 1726 515 m 6 Y s 1741 515 m 6 Y s 1756 508 m 13 Y s 1770 515 m 6 Y s 1785 515 m 6 Y s 1800 515 m 6 Y s 1814 515 m 6 Y s 1829 508 m 13 Y s 1844 515 m 6 Y s 1859 515 m 6 Y s 1873 515 m 6 Y s 1888 515 m 6 Y s 1903 508 m 13 Y s 1917 515 m 6 Y s
 1932 515 m 6 Y s 1947 515 m 6 Y s 1961 515 m 6 Y s 1976 508 m 13 Y s 1991 515 m 6 Y s 2005 515 m 6 Y s 2020 515 m 6 Y s 2035 515 m 6 Y s 2049 508 m 13 Y s 2064 515 m 6 Y s 2079 515 m 6 Y s 2094 515 m 6 Y s 2108 515 m 6 Y s 2123 508 m 13 Y s 2138 515
 m 6 Y s 2152 515 m 6 Y s 2167 515 m 6 Y s 2182 515 m 6 Y s 2196 508 m 13 Y s 1682 508 m 13 Y s 1668 515 m 6 Y s 2196 508 m 13 Y s 1655 93 m 428 Y s 1671 93 m -16 X s 1663 105 m -8 X s 1663 116 m -8 X s 1663 127 m -8 X s 1663 139 m -8 X s 1671 150 m
 -16 X s 1663 161 m -8 X s 1663 173 m -8 X s 1663 184 m -8 X s 1663 195 m -8 X s 1671 207 m -16 X s 1663 218 m -8 X s 1663 229 m -8 X s 1663 240 m -8 X s 1663 252 m -8 X s 1671 263 m -16 X s 1663 274 m -8 X s 1663 286 m -8 X s 1663 297 m -8 X s 1663
 308 m -8 X s 1671 320 m -16 X s 1663 331 m -8 X s 1663 342 m -8 X s 1663 354 m -8 X s 1663 365 m -8 X s 1671 376 m -16 X s 1663 388 m -8 X s 1663 399 m -8 X s 1663 410 m -8 X s 1663 422 m -8 X s 1671 433 m -16 X s 1663 444 m -8 X s 1663 456 m -8 X s
 1663 467 m -8 X s 1663 478 m -8 X s 1671 489 m -16 X s 1671 489 m -16 X s 1663 501 m -8 X s 1663 512 m -8 X s 2202 93 m 428 Y s 2186 93 m 16 X s 2194 105 m 8 X s 2194 116 m 8 X s 2194 127 m 8 X s 2194 139 m 8 X s 2186 150 m 16 X s 2194 161 m 8 X s
 2194 173 m 8 X s 2194 184 m 8 X s 2194 195 m 8 X s 2186 207 m 16 X s 2194 218 m 8 X s 2194 229 m 8 X s 2194 240 m 8 X s 2194 252 m 8 X s 2186 263 m 16 X s 2194 274 m 8 X s 2194 286 m 8 X s 2194 297 m 8 X s 2194 308 m 8 X s 2186 320 m 16 X s 2194 331
 m 8 X s 2194 342 m 8 X s 2194 354 m 8 X s 2194 365 m 8 X s 2186 376 m 16 X s 2194 388 m 8 X s 2194 399 m 8 X s 2194 410 m 8 X s 2194 422 m 8 X s 2186 433 m 16 X s 2194 444 m 8 X s 2194 456 m 8 X s 2194 467 m 8 X s 2194 478 m 8 X s 2186 489 m 16 X s
 2186 489 m 16 X s 2194 501 m 8 X s 2194 512 m 8 X s
 gsave  711 566 1534 12 C 2230.83 91.0528 t 90 r /Helvetica-Bold findfont 20.0147 sf 0 0 m (U/O\255flow \(S,B\): \(0.0, 0.0\)% / \(0.0, 0.0\)%) show NC gr  0.490196 0.545098 0.615686 c 0.364706 0.419608 0.490196 c 370 38 1542 537 bf 0.490196 0.545098
 0.615686 c 1542 537 m 370 X s 1912 537 m 38 Y s 1912 575 m -370 X s 1542 575 m -38 Y s 1 1 1 c black 1 1 1 c
 gsave  711 566 1534 12 C 1546.95 549.836 t 0 r /Helvetica-Bold findfont 28.5925 sf 0 0 m (Input variable: GTND_SPX) show NC gr 
 gr  gr showpage
end
%%EOF
