%!PS-Adobe-2.0 EPSF-2.0
%%BoundingBox:  0 0 567 295
%%Title: plots/variables_gauss_deco_c1.eps: Input variables 'Gauss_Deco'-transformed (training sample)
%%Creator: ROOT Version 5.34/09
%%CreationDate: Sat Jan  4 23:53:57 2014
%%EndComments
%%BeginProlog
80 dict begin
/s {stroke} def /l {lineto} def /m {moveto} def /t {translate} def
/r {rotate} def /rl {roll}  def /R {repeat} def
/d {rlineto} def /rm {rmoveto} def /gr {grestore} def /f {eofill} def
/c {setrgbcolor} def /black {0 setgray} def /sd {setdash} def
/cl {closepath} def /sf {scalefont setfont} def /lw {setlinewidth} def
/box {m dup 0 exch d exch 0 d 0 exch neg d cl} def
/NC{systemdict begin initclip end}def/C{NC box clip newpath}def
/bl {box s} def /bf {box f} def /Y { 0 exch d} def /X { 0 d} def 
/K {{pop pop 0 moveto} exch kshow} bind def
/ita {/ang 15 def gsave [1 0 ang dup sin exch cos div 1 0 0] concat} def 
/mp {newpath /y exch def /x exch def} def
/side {[w .77 mul w .23 mul] .385 w mul sd w 0 l currentpoint t -144 r} def
/mr {mp x y w2 0 360 arc} def /m24 {mr s} def /m20 {mr f} def
/mb {mp x y w2 add m w2 neg 0 d 0 w neg d w 0 d 0 w d cl} def
/mt {mp x y w2 add m w2 neg w neg d w 0 d cl} def
/m21 {mb f} def /m25 {mb s} def /m22 {mt f} def /m26{mt s} def
/m23 {mp x y w2 sub m w2 w d w neg 0 d cl f} def
/m27 {mp x y w2 add m w3 neg w2 neg d w3 w2 neg d w3 w2 d cl s} def
/m28 {mp x w2 sub y w2 sub w3 add m w3 0 d  0 w3 neg d w3 0 d 0 w3 d w3 0 d  0 w3 d w3 neg 0 d 0 w3 d w3 neg 0 d 0 w3 neg d w3 neg 0 d cl s } def
/m29 {mp gsave x w2 sub y w2 add w3 sub m currentpoint t 4 {side} repeat cl fill gr} def
/m30 {mp gsave x w2 sub y w2 add w3 sub m currentpoint t 4 {side} repeat cl s gr} def
/m31 {mp x y w2 sub m 0 w d x w2 sub y m w 0 d x w2 sub y w2 add m w w neg d x w2 sub y w2 sub m w w d s} def
/m32 {mp x y w2 sub m w2 w d w neg 0 d cl s} def
/m33 {mp x y w2 add m w3 neg w2 neg d w3 w2 neg d w3 w2 d cl f} def
/m34 {mp x w2 sub y w2 sub w3 add m w3 0 d  0 w3 neg d w3 0 d 0 w3 d w3 0 d  0 w3 d w3 neg 0 d 0 w3 d w3 neg 0 d 0 w3 neg d w3 neg 0 d cl f } def
/m2 {mp x y w2 sub m 0 w d x w2 sub y m w 0 d s} def
/m5 {mp x w2 sub y w2 sub m w w d x w2 sub y w2 add m w w neg d s} def
/reEncode {exch findfont dup length dict begin {1 index /FID eq  {pop pop} {def} ifelse } forall /Encoding exch def currentdict end dup /FontName get exch definefont pop } def [/Times-Bold /Times-Italic /Times-BoldItalic /Helvetica /Helvetica-Oblique
 /Helvetica-Bold /Helvetica-BoldOblique /Courier /Courier-Oblique /Courier-Bold /Courier-BoldOblique /Times-Roman /AvantGarde-Book /AvantGarde-BookOblique /AvantGarde-Demi /AvantGarde-DemiOblique /Bookman-Demi /Bookman-DemiItalic /Bookman-Light
 /Bookman-LightItalic /Helvetica-Narrow /Helvetica-Narrow-Bold /Helvetica-Narrow-BoldOblique /Helvetica-Narrow-Oblique /NewCenturySchlbk-Roman /NewCenturySchlbk-Bold /NewCenturySchlbk-BoldItalic /NewCenturySchlbk-Italic /Palatino-Bold
 /Palatino-BoldItalic /Palatino-Italic /Palatino-Roman ] {ISOLatin1Encoding reEncode } forall
%%EndProlog
%%BeginSetup
%%EndSetup
newpath  gsave  .25 .25 scale  gsave  0 0 t 0.490196 0.545098 0.615686 c[  ] 0 sd 3 lw 0.941176 0.941176 0.941176 c 2268 1179 0 0 bf 0.490196 0.545098 0.615686 c 0.941176 0.941176 0.941176 c 710 566 23 602 bf black 1 1 0.992157 c 548 428 143 683 bf
 black 548 428 143 683 bl 1 1 0.992157 c 548 428 143 683 bf black 548 428 143 683 bl 0 0 0.933333 c 6 lw 0.49 0.6 0.82 c black 3 lw 0.49 0.6 0.82 c 143 683 m 85 Y 14 X -85 Y 123 X 83 Y 14 X 41 Y 14 X -42 Y 13 X 42 Y 14 X 205 Y 14 X -124 Y 13 X 83 Y
 14 X 8 Y 14 X -4 Y 13 X -85 Y 14 X -166 Y 14 X 42 Y 13 X -40 Y 14 X -43 Y 14 X 42 Y 13 X -42 Y 206 X f 6 lw 0 0 0.933333 c 0.49 0.6 0.82 c 0 0 0.933333 c 143 768 m 14 X -85 Y 123 X 83 Y 14 X 41 Y 14 X -42 Y 13 X 42 Y 14 X 205 Y 14 X -124 Y 13 X 83 Y
 14 X 8 Y 14 X -4 Y 13 X -85 Y 14 X -166 Y 14 X 42 Y 13 X -40 Y 14 X -43 Y 14 X 42 Y 13 X -42 Y 206 X s black 3 lw 143 683 m 548 X s
 gsave  710 566 23 602 C 316.227 615.36 t 0 r /Helvetica findfont 28.5925 sf 0 0 m (GTND_bubble \(Gauss_Deco\)) show NC gr  196 696 m -13 Y s 208 690 m -7 Y s 219 690 m -7 Y s 231 690 m -7 Y s 243 690 m -7 Y s 255 696 m -13 Y s 266 690 m -7 Y s 278
 690 m -7 Y s 290 690 m -7 Y s 302 690 m -7 Y s 313 696 m -13 Y s 325 690 m -7 Y s 337 690 m -7 Y s 349 690 m -7 Y s 360 690 m -7 Y s 372 696 m -13 Y s 384 690 m -7 Y s 396 690 m -7 Y s 408 690 m -7 Y s 419 690 m -7 Y s 431 696 m -13 Y s 443 690 m -7
 Y s 455 690 m -7 Y s 466 690 m -7 Y s 478 690 m -7 Y s 490 696 m -13 Y s 502 690 m -7 Y s 513 690 m -7 Y s 525 690 m -7 Y s 537 690 m -7 Y s 549 696 m -13 Y s 561 690 m -7 Y s 572 690 m -7 Y s 584 690 m -7 Y s 596 690 m -7 Y s 608 696 m -13 Y s 619
 690 m -7 Y s 631 690 m -7 Y s 643 690 m -7 Y s 655 690 m -7 Y s 666 696 m -13 Y s 196 696 m -13 Y s 184 690 m -7 Y s 172 690 m -7 Y s 160 690 m -7 Y s 149 690 m -7 Y s 666 696 m -13 Y s 678 690 m -7 Y s 690 690 m -7 Y s
 gsave  710 566 23 602 C 182.329 655.245 t 0 r /Helvetica findfont 25.7332 sf 0 0 m (\2553) show NC gr 
 gsave  710 566 23 602 C 242.156 655.245 t 0 r /Helvetica findfont 25.7332 sf 0 0 m (\2552) show NC gr 
 gsave  710 566 23 602 C 301.982 655.245 t 0 r /Helvetica findfont 25.7332 sf 0 0 m (\2551) show NC gr 
 gsave  710 566 23 602 C 361.809 655.245 t 0 r /Helvetica findfont 25.7332 sf 0 0 m (0) show NC gr 
 gsave  710 566 23 602 C 424.485 655.245 t 0 r /Helvetica findfont 25.7332 sf 0 0 m (1) show NC gr 
 gsave  710 566 23 602 C 478.614 655.245 t 0 r /Helvetica findfont 25.7332 sf 0 0 m (2) show NC gr 
 gsave  710 566 23 602 C 538.44 655.245 t 0 r /Helvetica findfont 25.7332 sf 0 0 m (3) show NC gr 
 gsave  710 566 23 602 C 598.267 655.245 t 0 r /Helvetica findfont 25.7332 sf 0 0 m (4) show NC gr 
 gsave  710 566 23 602 C 655.245 655.245 t 0 r /Helvetica findfont 25.7332 sf 0 0 m (5) show NC gr  143 1111 m 548 X s 196 1098 m 13 Y s 208 1104 m 7 Y s 219 1104 m 7 Y s 231 1104 m 7 Y s 243 1104 m 7 Y s 255 1098 m 13 Y s 266 1104 m 7 Y s 278 1104 m
 7 Y s 290 1104 m 7 Y s 302 1104 m 7 Y s 313 1098 m 13 Y s 325 1104 m 7 Y s 337 1104 m 7 Y s 349 1104 m 7 Y s 360 1104 m 7 Y s 372 1098 m 13 Y s 384 1104 m 7 Y s 396 1104 m 7 Y s 408 1104 m 7 Y s 419 1104 m 7 Y s 431 1098 m 13 Y s 443 1104 m 7 Y s
 455 1104 m 7 Y s 466 1104 m 7 Y s 478 1104 m 7 Y s 490 1098 m 13 Y s 502 1104 m 7 Y s 513 1104 m 7 Y s 525 1104 m 7 Y s 537 1104 m 7 Y s 549 1098 m 13 Y s 561 1104 m 7 Y s 572 1104 m 7 Y s 584 1104 m 7 Y s 596 1104 m 7 Y s 608 1098 m 13 Y s 619 1104
 m 7 Y s 631 1104 m 7 Y s 643 1104 m 7 Y s 655 1104 m 7 Y s 666 1098 m 13 Y s 196 1098 m 13 Y s 184 1104 m 7 Y s 172 1104 m 7 Y s 160 1104 m 7 Y s 149 1104 m 7 Y s 666 1098 m 13 Y s 678 1104 m 7 Y s 690 1104 m 7 Y s 143 683 m 428 Y s
 gsave  710 566 23 602 C 45.5822 1031.3 t 90 r /Helvetica findfont 28.5925 sf 0 0 m (0.232 ) show NC gr 
 gsave  710 566 23 602 C 31.3378 1025.6 t 90 r /Helvetica findfont 20.0147 sf 0 0 m ( ) show NC gr 
 gsave  710 566 23 602 C 45.5822 1014.2 t 90 r /Helvetica findfont 28.5925 sf 0 0 m (/) show NC gr 
 gsave  710 566 23 602 C 54.1289 1008.51 t 90 r /Helvetica findfont 20.0147 sf 0 0 m ( ) show NC gr 
 gsave  710 566 23 602 C 45.5822 900.249 t 90 r /Helvetica findfont 28.5925 sf 0 0 m (\(1/N\) dN) show NC gr  160 683 m -17 X s 152 694 m -9 X s 152 705 m -9 X s 152 715 m -9 X s 152 726 m -9 X s 160 737 m -17 X s 152 748 m -9 X s 152 759 m -9 X s
 152 770 m -9 X s 152 780 m -9 X s 160 791 m -17 X s 152 802 m -9 X s 152 813 m -9 X s 152 824 m -9 X s 152 834 m -9 X s 160 845 m -17 X s 152 856 m -9 X s 152 867 m -9 X s 152 878 m -9 X s 152 888 m -9 X s 160 899 m -17 X s 152 910 m -9 X s 152 921
 m -9 X s 152 932 m -9 X s 152 942 m -9 X s 160 953 m -17 X s 152 964 m -9 X s 152 975 m -9 X s 152 986 m -9 X s 152 996 m -9 X s 160 1007 m -17 X s 152 1018 m -9 X s 152 1029 m -9 X s 152 1040 m -9 X s 152 1051 m -9 X s 160 1061 m -17 X s 160 1061 m
 -17 X s 152 1072 m -9 X s 152 1083 m -9 X s 152 1094 m -9 X s 152 1105 m -9 X s
 gsave  710 566 23 602 C 119.653 672.338 t 0 r /Helvetica findfont 25.7332 sf 0 0 m (0) show NC gr 
 gsave  710 566 23 602 C 102.56 726.467 t 0 r /Helvetica findfont 25.7332 sf 0 0 m (0.1) show NC gr 
 gsave  710 566 23 602 C 96.8623 780.596 t 0 r /Helvetica findfont 25.7332 sf 0 0 m (0.2) show NC gr 
 gsave  710 566 23 602 C 96.8623 834.725 t 0 r /Helvetica findfont 25.7332 sf 0 0 m (0.3) show NC gr 
 gsave  710 566 23 602 C 96.8623 888.854 t 0 r /Helvetica findfont 25.7332 sf 0 0 m (0.4) show NC gr 
 gsave  710 566 23 602 C 96.8623 942.983 t 0 r /Helvetica findfont 25.7332 sf 0 0 m (0.5) show NC gr 
 gsave  710 566 23 602 C 96.8623 997.112 t 0 r /Helvetica findfont 25.7332 sf 0 0 m (0.6) show NC gr 
 gsave  710 566 23 602 C 96.8623 1051.24 t 0 r /Helvetica findfont 25.7332 sf 0 0 m (0.7) show NC gr  691 683 m 428 Y s 674 683 m 17 X s 683 694 m 8 X s 683 705 m 8 X s 683 715 m 8 X s 683 726 m 8 X s 674 737 m 17 X s 683 748 m 8 X s 683 759 m 8 X s
 683 770 m 8 X s 683 780 m 8 X s 674 791 m 17 X s 683 802 m 8 X s 683 813 m 8 X s 683 824 m 8 X s 683 834 m 8 X s 674 845 m 17 X s 683 856 m 8 X s 683 867 m 8 X s 683 878 m 8 X s 683 888 m 8 X s 674 899 m 17 X s 683 910 m 8 X s 683 921 m 8 X s 683
 932 m 8 X s 683 942 m 8 X s 674 953 m 17 X s 683 964 m 8 X s 683 975 m 8 X s 683 986 m 8 X s 683 996 m 8 X s 674 1007 m 17 X s 683 1018 m 8 X s 683 1029 m 8 X s 683 1040 m 8 X s 683 1051 m 8 X s 674 1061 m 17 X s 674 1061 m 17 X s 683 1072 m 8 X s
 683 1083 m 8 X s 683 1094 m 8 X s 683 1105 m 8 X s 1 0 0 c 6 lw black 3 lw 1 0 0 c 691 697 m -14 -14 d s 676 683 m s 691 712 m -14 -13 d s 661 683 m s 646 683 m cl s 631 683 m s 616 683 m s 601 683 m s 586 683 m s 571 683 m s 556 683 m s 541 683 m s
 526 684 m -1 Y s 526 699 m -13 -14 d s 511 683 m s 525 713 m -12 -13 d s 499 687 m -3 -4 d s 499 702 m -14 -14 d s 481 683 m s 495 712 m -10 -9 d s 472 689 m -7 -6 d s 472 705 m -22 -22 d s 472 720 m -37 -37 d s 472 735 m -52 -52 d s 472 750 m -67
 -67 d s 472 765 m -82 -82 d s 463 772 m -19 -19 d s 433 742 m -58 -59 d s 458 782 m -14 -14 d s 431 754 m -71 -71 d s 458 797 m -14 -14 d s 431 769 m -86 -86 d s 450 804 m -6 -6 d s 431 785 m -101 -102 d s 431 800 m -116 -117 d s 431 815 m -131 -132
 d s 431 830 m -28 -27 d s 403 802 m -109 -110 d s 285 683 m s 419 833 m -16 -15 d s 390 804 m -96 -96 d s 270 683 m s 417 847 m -14 -14 d s 390 819 m -96 -96 d s 254 683 m s 417 862 m -14 -14 d s 386 831 m -92 -93 d s 239 683 m cl s 417 877 m -14
 -14 d s 376 836 m -55 -55 d s 313 772 m -19 -19 d s 224 683 m cl s 417 892 m -14 -14 d s 376 851 m -55 -55 d s 308 782 m -14 -14 d s 209 683 m s 417 907 m -14 -14 d s 376 866 m -55 -55 d s 308 797 m -14 -14 d s 194 683 m cl s 415 920 m -12 -11 d s
 376 881 m -55 -55 d s 298 803 m -4 -4 d s 179 683 m s 376 896 m -55 -55 d s 164 683 m s 376 911 m -55 -55 d s 149 683 m cl s 376 927 m -55 -55 d s 376 942 m -55 -55 d s 372 953 m -51 -51 d s 362 958 m -27 -27 d s 327 923 m -6 -6 d s 362 974 m -27
 -28 d s 355 982 m -20 -21 d s 339 980 m -4 -4 d s 6 lw 143 683 m 151 X 120 Y 14 X -31 Y 13 X 151 Y 14 X 57 Y 14 X 2 Y 13 X -29 Y 14 X -122 Y 14 X -29 Y 13 X 118 Y 14 X -87 Y 14 X -91 Y 13 X 62 Y 14 X -32 Y 14 X -89 Y 13 X 29 Y 14 X -29 Y 14 X 30 Y
 13 X -30 Y 151 X 29 Y 14 X s 0.490196 0.545098 0.615686 c 3 lw 0.95 0.95 0.95 c 0.490196 0.545098 0.615686 c 285 85 143 1026 bl 143 1026 m 285 X s 428 1026 m 85 Y s 428 1111 m -285 X s 143 1111 m -85 Y s black
 gsave  710 566 23 602 C 227.911 1079.73 t 0 r /Times-Italic findfont 31.4517 sf 0 0 m (Signal) show NC gr  0.49 0.6 0.82 c 156 1075 m 60 X 30 Y -60 X f 0 0 0.933333 c 6 lw 156 1105 m 60 X s 156 1075 m 60 X s 216 1075 m 30 Y s 156 1075 m 30 Y s black
 gsave  710 566 23 602 C 227.911 1037 t 0 r /Times-Italic findfont 31.4517 sf 0 0 m (Background) show NC gr  1 0 0 c 3 lw 216 1039 m -6 -7 d s 216 1054 m -21 -22 d s 209 1062 m -29 -30 d s 194 1062 m -29 -30 d s 179 1062 m -23 -23 d s 164 1062 m -8
 -8 d s 6 lw 0 0 0.933333 c 1 0 0 c 156 1062 m 60 X s 156 1032 m 60 X s 216 1032 m 30 Y s 156 1032 m 30 Y s black 3 lw 143 683 m 548 X s 196 696 m -13 Y s 208 690 m -7 Y s 219 690 m -7 Y s 231 690 m -7 Y s 243 690 m -7 Y s 255 696 m -13 Y s 266 690 m
 -7 Y s 278 690 m -7 Y s 290 690 m -7 Y s 302 690 m -7 Y s 313 696 m -13 Y s 325 690 m -7 Y s 337 690 m -7 Y s 349 690 m -7 Y s 360 690 m -7 Y s 372 696 m -13 Y s 384 690 m -7 Y s 396 690 m -7 Y s 408 690 m -7 Y s 419 690 m -7 Y s 431 696 m -13 Y s
 443 690 m -7 Y s 455 690 m -7 Y s 466 690 m -7 Y s 478 690 m -7 Y s 490 696 m -13 Y s 502 690 m -7 Y s 513 690 m -7 Y s 525 690 m -7 Y s 537 690 m -7 Y s 549 696 m -13 Y s 561 690 m -7 Y s 572 690 m -7 Y s 584 690 m -7 Y s 596 690 m -7 Y s 608 696 m
 -13 Y s 619 690 m -7 Y s 631 690 m -7 Y s 643 690 m -7 Y s 655 690 m -7 Y s 666 696 m -13 Y s 196 696 m -13 Y s 184 690 m -7 Y s 172 690 m -7 Y s 160 690 m -7 Y s 149 690 m -7 Y s 666 696 m -13 Y s 678 690 m -7 Y s 690 690 m -7 Y s 143 1111 m 548 X
 s 196 1098 m 13 Y s 208 1104 m 7 Y s 219 1104 m 7 Y s 231 1104 m 7 Y s 243 1104 m 7 Y s 255 1098 m 13 Y s 266 1104 m 7 Y s 278 1104 m 7 Y s 290 1104 m 7 Y s 302 1104 m 7 Y s 313 1098 m 13 Y s 325 1104 m 7 Y s 337 1104 m 7 Y s 349 1104 m 7 Y s 360
 1104 m 7 Y s 372 1098 m 13 Y s 384 1104 m 7 Y s 396 1104 m 7 Y s 408 1104 m 7 Y s 419 1104 m 7 Y s 431 1098 m 13 Y s 443 1104 m 7 Y s 455 1104 m 7 Y s 466 1104 m 7 Y s 478 1104 m 7 Y s 490 1098 m 13 Y s 502 1104 m 7 Y s 513 1104 m 7 Y s 525 1104 m 7
 Y s 537 1104 m 7 Y s 549 1098 m 13 Y s 561 1104 m 7 Y s 572 1104 m 7 Y s 584 1104 m 7 Y s 596 1104 m 7 Y s 608 1098 m 13 Y s 619 1104 m 7 Y s 631 1104 m 7 Y s 643 1104 m 7 Y s 655 1104 m 7 Y s 666 1098 m 13 Y s 196 1098 m 13 Y s 184 1104 m 7 Y s 172
 1104 m 7 Y s 160 1104 m 7 Y s 149 1104 m 7 Y s 666 1098 m 13 Y s 678 1104 m 7 Y s 690 1104 m 7 Y s 143 683 m 428 Y s 160 683 m -17 X s 152 694 m -9 X s 152 705 m -9 X s 152 715 m -9 X s 152 726 m -9 X s 160 737 m -17 X s 152 748 m -9 X s 152 759 m
 -9 X s 152 770 m -9 X s 152 780 m -9 X s 160 791 m -17 X s 152 802 m -9 X s 152 813 m -9 X s 152 824 m -9 X s 152 834 m -9 X s 160 845 m -17 X s 152 856 m -9 X s 152 867 m -9 X s 152 878 m -9 X s 152 888 m -9 X s 160 899 m -17 X s 152 910 m -9 X s
 152 921 m -9 X s 152 932 m -9 X s 152 942 m -9 X s 160 953 m -17 X s 152 964 m -9 X s 152 975 m -9 X s 152 986 m -9 X s 152 996 m -9 X s 160 1007 m -17 X s 152 1018 m -9 X s 152 1029 m -9 X s 152 1040 m -9 X s 152 1051 m -9 X s 160 1061 m -17 X s
 160 1061 m -17 X s 152 1072 m -9 X s 152 1083 m -9 X s 152 1094 m -9 X s 152 1105 m -9 X s 691 683 m 428 Y s 674 683 m 17 X s 683 694 m 8 X s 683 705 m 8 X s 683 715 m 8 X s 683 726 m 8 X s 674 737 m 17 X s 683 748 m 8 X s 683 759 m 8 X s 683 770 m
 8 X s 683 780 m 8 X s 674 791 m 17 X s 683 802 m 8 X s 683 813 m 8 X s 683 824 m 8 X s 683 834 m 8 X s 674 845 m 17 X s 683 856 m 8 X s 683 867 m 8 X s 683 878 m 8 X s 683 888 m 8 X s 674 899 m 17 X s 683 910 m 8 X s 683 921 m 8 X s 683 932 m 8 X s
 683 942 m 8 X s 674 953 m 17 X s 683 964 m 8 X s 683 975 m 8 X s 683 986 m 8 X s 683 996 m 8 X s 674 1007 m 17 X s 683 1018 m 8 X s 683 1029 m 8 X s 683 1040 m 8 X s 683 1051 m 8 X s 674 1061 m 17 X s 674 1061 m 17 X s 683 1072 m 8 X s 683 1083 m 8
 X s 683 1094 m 8 X s 683 1105 m 8 X s
 gsave  710 566 23 602 C 719.017 680.773 t 90 r /Helvetica-Bold findfont 20.0147 sf 0 0 m (U/O\255flow \(S,B\): \(0.0, 0.0\)% / \(0.0, 0.0\)%) show NC gr  0.490196 0.545098 0.615686 c 0.364706 0.419608 0.490196 c 497 38 30 1127 bf 0.490196 0.545098
 0.615686 c 30 1127 m 497 X s 527 1127 m 38 Y s 527 1165 m -497 X s 30 1165 m -38 Y s 1 1 1 c black 1 1 1 c
 gsave  710 566 23 602 C 45.5822 1142.4 t 0 r /Helvetica-Bold findfont 17.1555 sf 0 0 m (Input variable'Gauss_Deco'\255transformed : GTND_bubble) show NC gr  0.490196 0.545098 0.615686 c 0.941176 0.941176 0.941176 c 710 566 779 602 bf black 1 1
 0.992157 c 548 428 899 683 bf black 548 428 899 683 bl 1 1 0.992157 c 548 428 899 683 bf black 548 428 899 683 bl 0 0 0.933333 c 6 lw 0.49 0.6 0.82 c black 3 lw 0.49 0.6 0.82 c 899 683 m 96 X 48 Y 14 X -6 Y 13 X 41 Y 14 X 41 Y 14 X 45 Y 14 X 207 Y
 13 X -210 Y 14 X 211 Y 14 X -44 Y 13 X -124 Y 14 X -83 Y 14 X 84 Y 13 X -168 Y 14 X -1 Y 14 X -41 Y 260 X f 6 lw 0 0 0.933333 c 0.49 0.6 0.82 c 0 0 0.933333 c 899 683 m 96 X 48 Y 14 X -6 Y 13 X 41 Y 14 X 41 Y 14 X 45 Y 14 X 207 Y 13 X -210 Y 14 X
 211 Y 14 X -44 Y 13 X -124 Y 14 X -83 Y 14 X 84 Y 13 X -168 Y 14 X -1 Y 14 X -41 Y 260 X s black 3 lw 899 683 m 548 X s
 gsave  710 566 779 602 C 1091.12 615.36 t 0 r /Helvetica findfont 28.5925 sf 0 0 m (GTND_crisis \(Gauss_Deco\)) show NC gr  904 696 m -13 Y s 928 690 m -7 Y s 953 690 m -7 Y s 977 690 m -7 Y s 1001 696 m -13 Y s 1026 690 m -7 Y s 1050 690 m -7 Y s
 1074 690 m -7 Y s 1099 696 m -13 Y s 1123 690 m -7 Y s 1147 690 m -7 Y s 1172 690 m -7 Y s 1196 696 m -13 Y s 1220 690 m -7 Y s 1245 690 m -7 Y s 1269 690 m -7 Y s 1293 696 m -13 Y s 1318 690 m -7 Y s 1342 690 m -7 Y s 1366 690 m -7 Y s 1391 696 m
 -13 Y s 904 696 m -13 Y s 1391 696 m -13 Y s 1415 690 m -7 Y s 1439 690 m -7 Y s
 gsave  710 566 779 602 C 891.703 655.245 t 0 r /Helvetica findfont 25.7332 sf 0 0 m (\2554) show NC gr 
 gsave  710 566 779 602 C 988.565 655.245 t 0 r /Helvetica findfont 25.7332 sf 0 0 m (\2552) show NC gr 
 gsave  710 566 779 602 C 1088.28 655.245 t 0 r /Helvetica findfont 25.7332 sf 0 0 m (0) show NC gr 
 gsave  710 566 779 602 C 1185.14 655.245 t 0 r /Helvetica findfont 25.7332 sf 0 0 m (2) show NC gr 
 gsave  710 566 779 602 C 1282 655.245 t 0 r /Helvetica findfont 25.7332 sf 0 0 m (4) show NC gr 
 gsave  710 566 779 602 C 1381.71 655.245 t 0 r /Helvetica findfont 25.7332 sf 0 0 m (6) show NC gr  899 1111 m 548 X s 904 1098 m 13 Y s 928 1104 m 7 Y s 953 1104 m 7 Y s 977 1104 m 7 Y s 1001 1098 m 13 Y s 1026 1104 m 7 Y s 1050 1104 m 7 Y s 1074
 1104 m 7 Y s 1099 1098 m 13 Y s 1123 1104 m 7 Y s 1147 1104 m 7 Y s 1172 1104 m 7 Y s 1196 1098 m 13 Y s 1220 1104 m 7 Y s 1245 1104 m 7 Y s 1269 1104 m 7 Y s 1293 1098 m 13 Y s 1318 1104 m 7 Y s 1342 1104 m 7 Y s 1366 1104 m 7 Y s 1391 1098 m 13 Y
 s 904 1098 m 13 Y s 1391 1098 m 13 Y s 1415 1104 m 7 Y s 1439 1104 m 7 Y s 899 683 m 428 Y s
 gsave  710 566 779 602 C 803.387 1037 t 90 r /Helvetica findfont 28.5925 sf 0 0 m (0.281 ) show NC gr 
 gsave  710 566 779 602 C 789.143 1031.3 t 90 r /Helvetica findfont 20.0147 sf 0 0 m ( ) show NC gr 
 gsave  710 566 779 602 C 803.387 1019.9 t 90 r /Helvetica findfont 28.5925 sf 0 0 m (/) show NC gr 
 gsave  710 566 779 602 C 811.934 1014.2 t 90 r /Helvetica findfont 20.0147 sf 0 0 m ( ) show NC gr 
 gsave  710 566 779 602 C 803.387 905.947 t 90 r /Helvetica findfont 28.5925 sf 0 0 m (\(1/N\) dN) show NC gr  915 683 m -16 X s 907 696 m -8 X s 907 709 m -8 X s 907 723 m -8 X s 907 736 m -8 X s 915 749 m -16 X s 907 762 m -8 X s 907 775 m -8 X s
 907 789 m -8 X s 907 802 m -8 X s 915 815 m -16 X s 907 828 m -8 X s 907 841 m -8 X s 907 854 m -8 X s 907 868 m -8 X s 915 881 m -16 X s 907 894 m -8 X s 907 907 m -8 X s 907 920 m -8 X s 907 934 m -8 X s 915 947 m -16 X s 907 960 m -8 X s 907 973
 m -8 X s 907 986 m -8 X s 907 1000 m -8 X s 915 1013 m -16 X s 907 1026 m -8 X s 907 1039 m -8 X s 907 1052 m -8 X s 907 1066 m -8 X s 915 1079 m -16 X s 915 1079 m -16 X s 907 1092 m -8 X s 907 1105 m -8 X s
 gsave  710 566 779 602 C 874.609 672.338 t 0 r /Helvetica findfont 25.7332 sf 0 0 m (0) show NC gr 
 gsave  710 566 779 602 C 857.516 737.863 t 0 r /Helvetica findfont 25.7332 sf 0 0 m (0.1) show NC gr 
 gsave  710 566 779 602 C 851.818 806.236 t 0 r /Helvetica findfont 25.7332 sf 0 0 m (0.2) show NC gr 
 gsave  710 566 779 602 C 851.818 871.76 t 0 r /Helvetica findfont 25.7332 sf 0 0 m (0.3) show NC gr 
 gsave  710 566 779 602 C 851.818 937.285 t 0 r /Helvetica findfont 25.7332 sf 0 0 m (0.4) show NC gr 
 gsave  710 566 779 602 C 851.818 1002.81 t 0 r /Helvetica findfont 25.7332 sf 0 0 m (0.5) show NC gr 
 gsave  710 566 779 602 C 851.818 1068.33 t 0 r /Helvetica findfont 25.7332 sf 0 0 m (0.6) show NC gr  1447 683 m 428 Y s 1430 683 m 17 X s 1438 696 m 9 X s 1438 709 m 9 X s 1438 723 m 9 X s 1438 736 m 9 X s 1430 749 m 17 X s 1438 762 m 9 X s 1438
 775 m 9 X s 1438 789 m 9 X s 1438 802 m 9 X s 1430 815 m 17 X s 1438 828 m 9 X s 1438 841 m 9 X s 1438 854 m 9 X s 1438 868 m 9 X s 1430 881 m 17 X s 1438 894 m 9 X s 1438 907 m 9 X s 1438 920 m 9 X s 1438 934 m 9 X s 1430 947 m 17 X s 1438 960 m 9
 X s 1438 973 m 9 X s 1438 986 m 9 X s 1438 1000 m 9 X s 1430 1013 m 17 X s 1438 1026 m 9 X s 1438 1039 m 9 X s 1438 1052 m 9 X s 1438 1066 m 9 X s 1430 1079 m 17 X s 1430 1079 m 17 X s 1438 1092 m 9 X s 1438 1105 m 9 X s 1 0 0 c 6 lw black 3 lw 1 0
 0 c 1447 697 m -14 -14 d s 1433 683 m s 1447 712 m -14 -14 d s 1418 683 m s 1403 683 m s 1388 683 m s 1372 683 m s 1357 683 m s 1342 683 m s 1327 683 m s 1312 683 m s 1297 683 m s 1282 683 m s 1267 683 m s 1255 686 m -3 -3 d s 1255 701 m -14 -13 d s
 1237 683 m cl s 1252 713 m -11 -10 d s 1222 683 m s 1207 683 m s 1200 692 m -8 -9 d s 1200 707 m -24 -24 d s 1200 722 m -39 -39 d s 1200 737 m -13 -14 d s 1176 713 m -30 -30 d s 1200 752 m -13 -13 d s 1163 714 m -32 -31 d s 1200 767 m -13 -13 d s
 1159 726 m -43 -43 d s 1191 773 m -4 -4 d s 1159 741 m -58 -58 d s 1147 744 m -61 -61 d s 1146 758 m -75 -75 d s 1146 773 m -90 -90 d s 1146 788 m -105 -105 d s 1146 803 m -120 -120 d s 1132 805 m -121 -122 d s 1132 820 m -123 -124 d s 996 683 m s
 1132 835 m -110 -110 d s 1010 713 m -1 -2 d s 981 683 m s 1132 850 m -96 -96 d s 1027 744 m -5 -4 d s 965 683 m cl s 1132 865 m -96 -96 d s 950 683 m s 1132 880 m -96 -96 d s 935 683 m s 1132 895 m -82 -82 d s 1041 804 m -5 -5 d s 920 683 m s 1132
 910 m -82 -82 d s 905 683 m s 1132 925 m -55 -54 d s 1070 863 m -20 -20 d s 1132 940 m -55 -54 d s 1056 864 m -6 -6 d s 1132 956 m -55 -55 d s 1132 971 m -55 -55 d s 1129 983 m -52 -52 d s 1118 987 m -41 -41 d s 1118 1002 m -41 -41 d s 1118 1017 m
 -41 -41 d s 1118 1032 m -13 -13 d s 1099 1013 m -22 -22 d s 1118 1048 m -13 -14 d s 1091 1020 m -14 -14 d s 1118 1063 m -13 -14 d s 1091 1035 m -14 -13 d s 1113 1072 m -8 -8 d s 1085 1045 m -8 -8 d s 6 lw 899 683 m 110 X 30 Y 13 X 31 Y 14 X 60 Y 14
 X 60 Y 14 X -1 Y 13 X 182 Y 14 X -32 Y 14 X 59 Y 13 X -89 Y 14 X -180 Y 14 X -59 Y 13 X -30 Y 14 X -1 Y 14 X 60 Y 13 X -90 Y 41 X 30 Y 14 X -30 Y 178 X 30 Y 14 X s black 3 lw 899 683 m 548 X s 904 696 m -13 Y s 928 690 m -7 Y s 953 690 m -7 Y s 977
 690 m -7 Y s 1001 696 m -13 Y s 1026 690 m -7 Y s 1050 690 m -7 Y s 1074 690 m -7 Y s 1099 696 m -13 Y s 1123 690 m -7 Y s 1147 690 m -7 Y s 1172 690 m -7 Y s 1196 696 m -13 Y s 1220 690 m -7 Y s 1245 690 m -7 Y s 1269 690 m -7 Y s 1293 696 m -13 Y
 s 1318 690 m -7 Y s 1342 690 m -7 Y s 1366 690 m -7 Y s 1391 696 m -13 Y s 904 696 m -13 Y s 1391 696 m -13 Y s 1415 690 m -7 Y s 1439 690 m -7 Y s 899 1111 m 548 X s 904 1098 m 13 Y s 928 1104 m 7 Y s 953 1104 m 7 Y s 977 1104 m 7 Y s 1001 1098 m
 13 Y s 1026 1104 m 7 Y s 1050 1104 m 7 Y s 1074 1104 m 7 Y s 1099 1098 m 13 Y s 1123 1104 m 7 Y s 1147 1104 m 7 Y s 1172 1104 m 7 Y s 1196 1098 m 13 Y s 1220 1104 m 7 Y s 1245 1104 m 7 Y s 1269 1104 m 7 Y s 1293 1098 m 13 Y s 1318 1104 m 7 Y s 1342
 1104 m 7 Y s 1366 1104 m 7 Y s 1391 1098 m 13 Y s 904 1098 m 13 Y s 1391 1098 m 13 Y s 1415 1104 m 7 Y s 1439 1104 m 7 Y s 899 683 m 428 Y s 915 683 m -16 X s 907 696 m -8 X s 907 709 m -8 X s 907 723 m -8 X s 907 736 m -8 X s 915 749 m -16 X s 907
 762 m -8 X s 907 775 m -8 X s 907 789 m -8 X s 907 802 m -8 X s 915 815 m -16 X s 907 828 m -8 X s 907 841 m -8 X s 907 854 m -8 X s 907 868 m -8 X s 915 881 m -16 X s 907 894 m -8 X s 907 907 m -8 X s 907 920 m -8 X s 907 934 m -8 X s 915 947 m -16
 X s 907 960 m -8 X s 907 973 m -8 X s 907 986 m -8 X s 907 1000 m -8 X s 915 1013 m -16 X s 907 1026 m -8 X s 907 1039 m -8 X s 907 1052 m -8 X s 907 1066 m -8 X s 915 1079 m -16 X s 915 1079 m -16 X s 907 1092 m -8 X s 907 1105 m -8 X s 1447 683 m
 428 Y s 1430 683 m 17 X s 1438 696 m 9 X s 1438 709 m 9 X s 1438 723 m 9 X s 1438 736 m 9 X s 1430 749 m 17 X s 1438 762 m 9 X s 1438 775 m 9 X s 1438 789 m 9 X s 1438 802 m 9 X s 1430 815 m 17 X s 1438 828 m 9 X s 1438 841 m 9 X s 1438 854 m 9 X s
 1438 868 m 9 X s 1430 881 m 17 X s 1438 894 m 9 X s 1438 907 m 9 X s 1438 920 m 9 X s 1438 934 m 9 X s 1430 947 m 17 X s 1438 960 m 9 X s 1438 973 m 9 X s 1438 986 m 9 X s 1438 1000 m 9 X s 1430 1013 m 17 X s 1438 1026 m 9 X s 1438 1039 m 9 X s 1438
 1052 m 9 X s 1438 1066 m 9 X s 1430 1079 m 17 X s 1430 1079 m 17 X s 1438 1092 m 9 X s 1438 1105 m 9 X s
 gsave  710 566 779 602 C 1474.92 680.773 t 90 r /Helvetica-Bold findfont 20.0147 sf 0 0 m (U/O\255flow \(S,B\): \(0.0, 0.0\)% / \(0.0, 0.0\)%) show NC gr  0.490196 0.545098 0.615686 c 0.364706 0.419608 0.490196 c 497 38 786 1127 bf 0.490196 0.545098
 0.615686 c 786 1127 m 497 X s 1283 1127 m 38 Y s 1283 1165 m -497 X s 786 1165 m -38 Y s 1 1 1 c black 1 1 1 c
 gsave  710 566 779 602 C 809.085 1142.4 t 0 r /Helvetica-Bold findfont 17.1555 sf 0 0 m (Input variable'Gauss_Deco'\255transformed : GTND_crisis) show NC gr  0.490196 0.545098 0.615686 c 0.941176 0.941176 0.941176 c 711 566 1534 602 bf black 1 1
 0.992157 c 547 428 1655 683 bf black 547 428 1655 683 bl 1 1 0.992157 c 547 428 1655 683 bf black 547 428 1655 683 bl 0 0 0.933333 c 6 lw 0.49 0.6 0.82 c black 3 lw 0.49 0.6 0.82 c 1655 683 m 36 Y 14 X -36 Y 137 X 36 Y 13 X 6 Y 14 X -6 Y 14 X 219 Y
 13 X 32 Y 14 X -71 Y 14 X -70 Y 13 X -75 Y 14 X 253 Y 14 X -109 Y 14 X -69 Y 13 X -74 Y 14 X -1 Y 14 X -71 Y 27 X 36 Y 14 X -36 Y 164 X 36 Y 13 X -36 Y f 6 lw 0 0 0.933333 c 0.49 0.6 0.82 c 0 0 0.933333 c 1655 719 m 14 X -36 Y 137 X 36 Y 13 X 6 Y 14
 X -6 Y 14 X 219 Y 13 X 32 Y 14 X -71 Y 14 X -70 Y 13 X -75 Y 14 X 253 Y 14 X -109 Y 14 X -69 Y 13 X -74 Y 14 X -1 Y 14 X -71 Y 27 X 36 Y 14 X -36 Y 164 X 36 Y 13 X s black 3 lw 1655 683 m 547 X s
 gsave  711 566 1534 602 C 1777.71 615.36 t 0 r /Helvetica findfont 28.5925 sf 0 0 m (GTND_derivatives \(Gauss_Deco\)) show NC gr  1679 696 m -13 Y s 1706 690 m -7 Y s 1733 690 m -7 Y s 1760 690 m -7 Y s 1787 696 m -13 Y s 1814 690 m -7 Y s 1841 690
 m -7 Y s 1868 690 m -7 Y s 1895 696 m -13 Y s 1922 690 m -7 Y s 1950 690 m -7 Y s 1977 690 m -7 Y s 2004 696 m -13 Y s 2031 690 m -7 Y s 2058 690 m -7 Y s 2085 690 m -7 Y s 2112 696 m -13 Y s 1679 696 m -13 Y s 2112 696 m -13 Y s 2139 690 m -7 Y s
 2166 690 m -7 Y s 2193 690 m -7 Y s
 gsave  711 566 1534 602 C 1666.6 655.245 t 0 r /Helvetica findfont 25.7332 sf 0 0 m (\2554) show NC gr 
 gsave  711 566 1534 602 C 1774.86 655.245 t 0 r /Helvetica findfont 25.7332 sf 0 0 m (\2552) show NC gr 
 gsave  711 566 1534 602 C 1885.97 655.245 t 0 r /Helvetica findfont 25.7332 sf 0 0 m (0) show NC gr 
 gsave  711 566 1534 602 C 1994.22 655.245 t 0 r /Helvetica findfont 25.7332 sf 0 0 m (2) show NC gr 
 gsave  711 566 1534 602 C 2102.48 655.245 t 0 r /Helvetica findfont 25.7332 sf 0 0 m (4) show NC gr  1655 1111 m 547 X s 1679 1098 m 13 Y s 1706 1104 m 7 Y s 1733 1104 m 7 Y s 1760 1104 m 7 Y s 1787 1098 m 13 Y s 1814 1104 m 7 Y s 1841 1104 m 7 Y s
 1868 1104 m 7 Y s 1895 1098 m 13 Y s 1922 1104 m 7 Y s 1950 1104 m 7 Y s 1977 1104 m 7 Y s 2004 1098 m 13 Y s 2031 1104 m 7 Y s 2058 1104 m 7 Y s 2085 1104 m 7 Y s 2112 1098 m 13 Y s 1679 1098 m 13 Y s 2112 1098 m 13 Y s 2139 1104 m 7 Y s 2166 1104
 m 7 Y s 2193 1104 m 7 Y s 1655 683 m 428 Y s
 gsave  711 566 1534 602 C 1558.34 1031.3 t 90 r /Helvetica findfont 28.5925 sf 0 0 m (0.252 ) show NC gr 
 gsave  711 566 1534 602 C 1544.1 1025.6 t 90 r /Helvetica findfont 20.0147 sf 0 0 m ( ) show NC gr 
 gsave  711 566 1534 602 C 1558.34 1014.2 t 90 r /Helvetica findfont 28.5925 sf 0 0 m (/) show NC gr 
 gsave  711 566 1534 602 C 1566.89 1008.51 t 90 r /Helvetica findfont 20.0147 sf 0 0 m ( ) show NC gr 
 gsave  711 566 1534 602 C 1558.34 900.249 t 90 r /Helvetica findfont 28.5925 sf 0 0 m (\(1/N\) dN) show NC gr  1671 683 m -16 X s 1663 693 m -8 X s 1663 703 m -8 X s 1663 714 m -8 X s 1663 724 m -8 X s 1671 734 m -16 X s 1663 744 m -8 X s 1663 755 m
 -8 X s 1663 765 m -8 X s 1663 775 m -8 X s 1671 785 m -16 X s 1663 795 m -8 X s 1663 806 m -8 X s 1663 816 m -8 X s 1663 826 m -8 X s 1671 836 m -16 X s 1663 847 m -8 X s 1663 857 m -8 X s 1663 867 m -8 X s 1663 877 m -8 X s 1671 887 m -16 X s 1663
 898 m -8 X s 1663 908 m -8 X s 1663 918 m -8 X s 1663 928 m -8 X s 1671 939 m -16 X s 1663 949 m -8 X s 1663 959 m -8 X s 1663 969 m -8 X s 1663 979 m -8 X s 1671 990 m -16 X s 1663 1000 m -8 X s 1663 1010 m -8 X s 1663 1020 m -8 X s 1663 1030 m -8
 X s 1671 1041 m -16 X s 1663 1051 m -8 X s 1663 1061 m -8 X s 1663 1071 m -8 X s 1663 1082 m -8 X s 1671 1092 m -16 X s 1671 1092 m -16 X s 1663 1102 m -8 X s
 gsave  711 566 1534 602 C 1632.41 672.338 t 0 r /Helvetica findfont 25.7332 sf 0 0 m (0) show NC gr 
 gsave  711 566 1534 602 C 1615.32 723.618 t 0 r /Helvetica findfont 25.7332 sf 0 0 m (0.1) show NC gr 
 gsave  711 566 1534 602 C 1609.62 774.898 t 0 r /Helvetica findfont 25.7332 sf 0 0 m (0.2) show NC gr 
 gsave  711 566 1534 602 C 1609.62 826.178 t 0 r /Helvetica findfont 25.7332 sf 0 0 m (0.3) show NC gr 
 gsave  711 566 1534 602 C 1609.62 877.458 t 0 r /Helvetica findfont 25.7332 sf 0 0 m (0.4) show NC gr 
 gsave  711 566 1534 602 C 1609.62 928.738 t 0 r /Helvetica findfont 25.7332 sf 0 0 m (0.5) show NC gr 
 gsave  711 566 1534 602 C 1609.62 980.018 t 0 r /Helvetica findfont 25.7332 sf 0 0 m (0.6) show NC gr 
 gsave  711 566 1534 602 C 1609.62 1031.3 t 0 r /Helvetica findfont 25.7332 sf 0 0 m (0.7) show NC gr 
 gsave  711 566 1534 602 C 1609.62 1082.58 t 0 r /Helvetica findfont 25.7332 sf 0 0 m (0.8) show NC gr  2202 683 m 428 Y s 2186 683 m 16 X s 2194 693 m 8 X s 2194 703 m 8 X s 2194 714 m 8 X s 2194 724 m 8 X s 2186 734 m 16 X s 2194 744 m 8 X s 2194
 755 m 8 X s 2194 765 m 8 X s 2194 775 m 8 X s 2186 785 m 16 X s 2194 795 m 8 X s 2194 806 m 8 X s 2194 816 m 8 X s 2194 826 m 8 X s 2186 836 m 16 X s 2194 847 m 8 X s 2194 857 m 8 X s 2194 867 m 8 X s 2194 877 m 8 X s 2186 887 m 16 X s 2194 898 m 8
 X s 2194 908 m 8 X s 2194 918 m 8 X s 2194 928 m 8 X s 2186 939 m 16 X s 2194 949 m 8 X s 2194 959 m 8 X s 2194 969 m 8 X s 2194 979 m 8 X s 2186 990 m 16 X s 2194 1000 m 8 X s 2194 1010 m 8 X s 2194 1020 m 8 X s 2194 1030 m 8 X s 2186 1041 m 16 X s
 2194 1051 m 8 X s 2194 1061 m 8 X s 2194 1071 m 8 X s 2194 1082 m 8 X s 2186 1092 m 16 X s 2186 1092 m 16 X s 2194 1102 m 8 X s 1 0 0 c 6 lw black 3 lw 1 0 0 c 2188 683 m s 2173 683 m s 2158 683 m s 2143 683 m s 2128 683 m s 2113 683 m s 2098 683 m
 s 2083 683 m s 2068 683 m s 2053 683 m s 2038 683 m s 2022 683 m s 2007 683 m s 1997 688 m -5 -5 d s 1997 703 m -20 -20 d s 1988 709 m -26 -26 d s 1973 709 m -26 -26 d s 1958 709 m -26 -26 d s 1956 722 m -39 -39 d s 1956 738 m -54 -55 d s 1956 753 m
 -69 -70 d s 1956 768 m -84 -85 d s 1956 783 m -99 -100 d s 1956 798 m -114 -115 d s 1955 812 m -128 -129 d s 1943 815 m -132 -132 d s 1943 830 m -137 -138 d s 1796 683 m s 1943 845 m -137 -137 d s 1781 683 m cl s 1943 860 m -137 -137 d s 1766 683 m
 s 1932 865 m -99 -100 d s 1828 760 m -22 -22 d s 1751 683 m cl s 1918 866 m -44 -44 d s 1864 812 m -17 -18 d s 1839 786 m -6 -5 d s 1819 767 m -13 -14 d s 1736 683 m s 1915 878 m -41 -41 d s 1860 823 m -13 -13 d s 1819 782 m -13 -14 d s 1721 683 m s
 1915 893 m -41 -41 d s 1860 838 m -13 -13 d s 1819 797 m -13 -14 d s 1706 683 m s 1915 909 m -41 -42 d s 1847 840 m s 1819 812 m -13 -13 d s 1691 683 m s 1907 916 m -33 -33 d s 1806 814 m s 1676 683 m cl s 1893 917 m -19 -19 d s 1661 683 m cl s 1888
 927 m -14 -14 d s 1888 942 m -14 -14 d s 1888 957 m -14 -14 d s 1888 972 m -14 -14 d s 1888 987 m -14 -13 d s 1888 1002 m -14 -13 d s 1888 1018 m -14 -14 d s 1888 1033 m -14 -14 d s 1888 1048 m -14 -14 d s 1888 1063 m -14 -14 d s 1882 1072 m -8 -7 d
 s 6 lw 1655 683 m 151 X 131 Y 13 X -54 Y 14 X 26 Y 14 X 54 Y 13 X -28 Y 14 X 260 Y 14 X -155 Y 13 X -1 Y 14 X -50 Y 14 X -1 Y 14 X -53 Y 13 X -103 Y 41 X -26 Y 205 X s black 3 lw 1655 683 m 547 X s 1679 696 m -13 Y s 1706 690 m -7 Y s 1733 690 m -7
 Y s 1760 690 m -7 Y s 1787 696 m -13 Y s 1814 690 m -7 Y s 1841 690 m -7 Y s 1868 690 m -7 Y s 1895 696 m -13 Y s 1922 690 m -7 Y s 1950 690 m -7 Y s 1977 690 m -7 Y s 2004 696 m -13 Y s 2031 690 m -7 Y s 2058 690 m -7 Y s 2085 690 m -7 Y s 2112 696
 m -13 Y s 1679 696 m -13 Y s 2112 696 m -13 Y s 2139 690 m -7 Y s 2166 690 m -7 Y s 2193 690 m -7 Y s 1655 1111 m 547 X s 1679 1098 m 13 Y s 1706 1104 m 7 Y s 1733 1104 m 7 Y s 1760 1104 m 7 Y s 1787 1098 m 13 Y s 1814 1104 m 7 Y s 1841 1104 m 7 Y s
 1868 1104 m 7 Y s 1895 1098 m 13 Y s 1922 1104 m 7 Y s 1950 1104 m 7 Y s 1977 1104 m 7 Y s 2004 1098 m 13 Y s 2031 1104 m 7 Y s 2058 1104 m 7 Y s 2085 1104 m 7 Y s 2112 1098 m 13 Y s 1679 1098 m 13 Y s 2112 1098 m 13 Y s 2139 1104 m 7 Y s 2166 1104
 m 7 Y s 2193 1104 m 7 Y s 1655 683 m 428 Y s 1671 683 m -16 X s 1663 693 m -8 X s 1663 703 m -8 X s 1663 714 m -8 X s 1663 724 m -8 X s 1671 734 m -16 X s 1663 744 m -8 X s 1663 755 m -8 X s 1663 765 m -8 X s 1663 775 m -8 X s 1671 785 m -16 X s
 1663 795 m -8 X s 1663 806 m -8 X s 1663 816 m -8 X s 1663 826 m -8 X s 1671 836 m -16 X s 1663 847 m -8 X s 1663 857 m -8 X s 1663 867 m -8 X s 1663 877 m -8 X s 1671 887 m -16 X s 1663 898 m -8 X s 1663 908 m -8 X s 1663 918 m -8 X s 1663 928 m -8
 X s 1671 939 m -16 X s 1663 949 m -8 X s 1663 959 m -8 X s 1663 969 m -8 X s 1663 979 m -8 X s 1671 990 m -16 X s 1663 1000 m -8 X s 1663 1010 m -8 X s 1663 1020 m -8 X s 1663 1030 m -8 X s 1671 1041 m -16 X s 1663 1051 m -8 X s 1663 1061 m -8 X s
 1663 1071 m -8 X s 1663 1082 m -8 X s 1671 1092 m -16 X s 1671 1092 m -16 X s 1663 1102 m -8 X s 2202 683 m 428 Y s 2186 683 m 16 X s 2194 693 m 8 X s 2194 703 m 8 X s 2194 714 m 8 X s 2194 724 m 8 X s 2186 734 m 16 X s 2194 744 m 8 X s 2194 755 m 8
 X s 2194 765 m 8 X s 2194 775 m 8 X s 2186 785 m 16 X s 2194 795 m 8 X s 2194 806 m 8 X s 2194 816 m 8 X s 2194 826 m 8 X s 2186 836 m 16 X s 2194 847 m 8 X s 2194 857 m 8 X s 2194 867 m 8 X s 2194 877 m 8 X s 2186 887 m 16 X s 2194 898 m 8 X s 2194
 908 m 8 X s 2194 918 m 8 X s 2194 928 m 8 X s 2186 939 m 16 X s 2194 949 m 8 X s 2194 959 m 8 X s 2194 969 m 8 X s 2194 979 m 8 X s 2186 990 m 16 X s 2194 1000 m 8 X s 2194 1010 m 8 X s 2194 1020 m 8 X s 2194 1030 m 8 X s 2186 1041 m 16 X s 2194
 1051 m 8 X s 2194 1061 m 8 X s 2194 1071 m 8 X s 2194 1082 m 8 X s 2186 1092 m 16 X s 2186 1092 m 16 X s 2194 1102 m 8 X s
 gsave  711 566 1534 602 C 2230.83 680.773 t 90 r /Helvetica-Bold findfont 20.0147 sf 0 0 m (U/O\255flow \(S,B\): \(0.0, 0.0\)% / \(0.0, 0.0\)%) show NC gr  0.490196 0.545098 0.615686 c 0.364706 0.419608 0.490196 c 497 38 1542 1127 bf 0.490196
 0.545098 0.615686 c 1542 1127 m 497 X s 2039 1127 m 38 Y s 2039 1165 m -497 X s 1542 1165 m -38 Y s 1 1 1 c black 1 1 1 c
 gsave  711 566 1534 602 C 1541.25 1142.4 t 0 r /Helvetica-Bold findfont 17.1555 sf 0 0 m (Input variable'Gauss_Deco'\255transformed : GTND_derivatives) show NC gr  0.490196 0.545098 0.615686 c 0.941176 0.941176 0.941176 c 710 566 23 12 bf black 1 1
 0.992157 c 548 428 143 93 bf black 548 428 143 93 bl 1 1 0.992157 c 548 428 143 93 bf black 548 428 143 93 bl 0 0 0.933333 c 6 lw 0.49 0.6 0.82 c black 3 lw 0.49 0.6 0.82 c 143 93 m 35 Y 14 X -35 Y 123 X 70 Y 14 X 1 Y 14 X -71 Y 13 X 106 Y 14 X -2 Y
 14 X 36 Y 13 X 38 Y 14 X 211 Y 14 X -249 Y 27 X 210 Y 14 X -315 Y 13 X 71 Y 14 X -36 Y 14 X -34 Y 13 X -36 Y 206 X f 6 lw 0 0 0.933333 c 0.49 0.6 0.82 c 0 0 0.933333 c 143 128 m 14 X -35 Y 123 X 70 Y 14 X 1 Y 14 X -71 Y 13 X 106 Y 14 X -2 Y 14 X 36
 Y 13 X 38 Y 14 X 211 Y 14 X -249 Y 27 X 210 Y 14 X -315 Y 13 X 71 Y 14 X -36 Y 14 X -34 Y 13 X -36 Y 206 X s black 3 lw 143 93 m 548 X s
 gsave  710 566 23 12 C 293.436 25.64 t 0 r /Helvetica findfont 28.5925 sf 0 0 m (GTND_earnings \(Gauss_Deco\)) show NC gr  169 106 m -13 Y s 196 100 m -7 Y s 223 100 m -7 Y s 251 100 m -7 Y s 278 106 m -13 Y s 305 100 m -7 Y s 333 100 m -7 Y s 360
 100 m -7 Y s 387 106 m -13 Y s 415 100 m -7 Y s 442 100 m -7 Y s 469 100 m -7 Y s 497 106 m -13 Y s 524 100 m -7 Y s 551 100 m -7 Y s 578 100 m -7 Y s 606 106 m -13 Y s 169 106 m -13 Y s 606 106 m -13 Y s 633 100 m -7 Y s 660 100 m -7 Y s 688 100 m
 -7 Y s
 gsave  710 566 23 12 C 156.689 65.5245 t 0 r /Helvetica findfont 25.7332 sf 0 0 m (\2554) show NC gr 
 gsave  710 566 23 12 C 264.947 65.5245 t 0 r /Helvetica findfont 25.7332 sf 0 0 m (\2552) show NC gr 
 gsave  710 566 23 12 C 376.053 65.5245 t 0 r /Helvetica findfont 25.7332 sf 0 0 m (0) show NC gr 
 gsave  710 566 23 12 C 487.16 65.5245 t 0 r /Helvetica findfont 25.7332 sf 0 0 m (2) show NC gr 
 gsave  710 566 23 12 C 595.418 65.5245 t 0 r /Helvetica findfont 25.7332 sf 0 0 m (4) show NC gr  143 521 m 548 X s 169 508 m 13 Y s 196 515 m 6 Y s 223 515 m 6 Y s 251 515 m 6 Y s 278 508 m 13 Y s 305 515 m 6 Y s 333 515 m 6 Y s 360 515 m 6 Y s 387
 508 m 13 Y s 415 515 m 6 Y s 442 515 m 6 Y s 469 515 m 6 Y s 497 508 m 13 Y s 524 515 m 6 Y s 551 515 m 6 Y s 578 515 m 6 Y s 606 508 m 13 Y s 169 508 m 13 Y s 606 508 m 13 Y s 633 515 m 6 Y s 660 515 m 6 Y s 688 515 m 6 Y s 143 93 m 428 Y s
 gsave  710 566 23 12 C 45.5822 455.822 t 90 r /Helvetica findfont 28.5925 sf 0 0 m (0.25 ) show NC gr 
 gsave  710 566 23 12 C 31.3378 450.125 t 90 r /Helvetica findfont 20.0147 sf 0 0 m ( ) show NC gr 
 gsave  710 566 23 12 C 45.5822 438.729 t 90 r /Helvetica findfont 28.5925 sf 0 0 m (/) show NC gr 
 gsave  710 566 23 12 C 54.1289 433.031 t 90 r /Helvetica findfont 20.0147 sf 0 0 m ( ) show NC gr 
 gsave  710 566 23 12 C 45.5822 324.773 t 90 r /Helvetica findfont 28.5925 sf 0 0 m (\(1/N\) dN) show NC gr  160 93 m -17 X s 152 103 m -9 X s 152 113 m -9 X s 152 123 m -9 X s 152 133 m -9 X s 160 143 m -17 X s 152 152 m -9 X s 152 162 m -9 X s 152
 172 m -9 X s 152 182 m -9 X s 160 192 m -17 X s 152 202 m -9 X s 152 211 m -9 X s 152 221 m -9 X s 152 231 m -9 X s 160 241 m -17 X s 152 251 m -9 X s 152 261 m -9 X s 152 270 m -9 X s 152 280 m -9 X s 160 290 m -17 X s 152 300 m -9 X s 152 310 m -9
 X s 152 320 m -9 X s 152 330 m -9 X s 160 339 m -17 X s 152 349 m -9 X s 152 359 m -9 X s 152 369 m -9 X s 152 379 m -9 X s 160 389 m -17 X s 152 398 m -9 X s 152 408 m -9 X s 152 418 m -9 X s 152 428 m -9 X s 160 438 m -17 X s 152 448 m -9 X s 152
 458 m -9 X s 152 467 m -9 X s 152 477 m -9 X s 160 487 m -17 X s 160 487 m -17 X s 152 497 m -9 X s 152 507 m -9 X s 152 517 m -9 X s
 gsave  710 566 23 12 C 119.653 82.6178 t 0 r /Helvetica findfont 25.7332 sf 0 0 m (0) show NC gr 
 gsave  710 566 23 12 C 102.56 133.898 t 0 r /Helvetica findfont 25.7332 sf 0 0 m (0.1) show NC gr 
 gsave  710 566 23 12 C 96.8623 182.329 t 0 r /Helvetica findfont 25.7332 sf 0 0 m (0.2) show NC gr 
 gsave  710 566 23 12 C 96.8623 230.76 t 0 r /Helvetica findfont 25.7332 sf 0 0 m (0.3) show NC gr 
 gsave  710 566 23 12 C 96.8623 279.191 t 0 r /Helvetica findfont 25.7332 sf 0 0 m (0.4) show NC gr 
 gsave  710 566 23 12 C 96.8623 330.471 t 0 r /Helvetica findfont 25.7332 sf 0 0 m (0.5) show NC gr 
 gsave  710 566 23 12 C 96.8623 378.902 t 0 r /Helvetica findfont 25.7332 sf 0 0 m (0.6) show NC gr 
 gsave  710 566 23 12 C 96.8623 427.334 t 0 r /Helvetica findfont 25.7332 sf 0 0 m (0.7) show NC gr 
 gsave  710 566 23 12 C 96.8623 475.765 t 0 r /Helvetica findfont 25.7332 sf 0 0 m (0.8) show NC gr  691 93 m 428 Y s 674 93 m 17 X s 683 103 m 8 X s 683 113 m 8 X s 683 123 m 8 X s 683 133 m 8 X s 674 143 m 17 X s 683 152 m 8 X s 683 162 m 8 X s 683
 172 m 8 X s 683 182 m 8 X s 674 192 m 17 X s 683 202 m 8 X s 683 211 m 8 X s 683 221 m 8 X s 683 231 m 8 X s 674 241 m 17 X s 683 251 m 8 X s 683 261 m 8 X s 683 270 m 8 X s 683 280 m 8 X s 674 290 m 17 X s 683 300 m 8 X s 683 310 m 8 X s 683 320 m
 8 X s 683 330 m 8 X s 674 339 m 17 X s 683 349 m 8 X s 683 359 m 8 X s 683 369 m 8 X s 683 379 m 8 X s 674 389 m 17 X s 683 398 m 8 X s 683 408 m 8 X s 683 418 m 8 X s 683 428 m 8 X s 674 438 m 17 X s 683 448 m 8 X s 683 458 m 8 X s 683 467 m 8 X s
 683 477 m 8 X s 674 487 m 17 X s 674 487 m 17 X s 683 497 m 8 X s 683 507 m 8 X s 683 517 m 8 X s 1 0 0 c 6 lw black 3 lw 1 0 0 c 691 108 m -14 -14 d s 676 93 m s 687 119 m -10 -10 d s 661 93 m s 646 93 m s 631 93 m s 616 93 m s 601 93 m s 586 93 m
 s 571 93 m s 556 93 m s 541 93 m s 526 93 m cl s 511 93 m s 499 97 m -3 -4 d s 499 112 m -18 -19 d s 499 127 m -34 -34 d s 499 142 m -14 -13 d s 475 118 m -25 -25 d s 486 144 m -1 X s 472 130 m -37 -37 d s 470 144 m -50 -51 d s 455 143 m -50 -50 d s
 444 148 m -54 -55 d s 444 163 m -69 -70 d s 444 178 m -84 -85 d s 444 193 m -99 -100 d s 444 209 m -114 -116 d s 444 224 m -129 -131 d s 444 239 m -136 -138 d s 300 93 m s 436 245 m -128 -129 d s 294 103 m -9 -10 d s 431 255 m -123 -123 d s 294 118
 m -14 -14 d s 270 93 m s 429 269 m -12 -12 d s 404 243 m -96 -96 d s 294 133 m -14 -14 d s 254 93 m s 403 258 m -27 -27 d s 364 219 m -15 -16 d s 341 195 m -33 -33 d s 289 144 m -9 -10 d s 239 93 m s 403 273 m -27 -27 d s 362 232 m -13 -14 d s 324
 193 m -16 -16 d s 224 93 m cl s 403 289 m -27 -28 d s 362 247 m -13 -13 d s 310 194 m -2 -2 d s 209 93 m s 403 304 m -27 -28 d s 362 262 m -13 -13 d s 194 93 m s 403 319 m -27 -28 d s 362 278 m -13 -14 d s 179 93 m s 390 320 m -14 -13 d s 362 293 m
 -13 -14 d s 164 93 m cl s 390 336 m -14 -14 d s 362 308 m -13 -14 d s 149 93 m cl s 390 351 m -14 -14 d s 362 323 m -13 -14 d s 390 366 m -14 -14 d s 362 338 m -13 -13 d s 390 381 m -14 -14 d s 353 344 m -4 -4 d s 390 396 m -14 -14 d s 390 411 m -14
 -13 d s 387 423 m -11 -10 d s 6 lw 143 93 m 137 X 51 Y 14 X -51 Y 14 X 101 Y 13 X -1 Y 14 X 2 Y 14 X 149 Y 13 X -125 Y 14 X 204 Y 14 X -103 Y 13 X -77 Y 14 X 26 Y 14 X -24 Y 13 X -102 Y 14 X 1 Y 14 X -26 Y 13 X 26 Y 14 X -51 Y 178 X 26 Y 14 X s
 black 3 lw 143 93 m 548 X s 169 106 m -13 Y s 196 100 m -7 Y s 223 100 m -7 Y s 251 100 m -7 Y s 278 106 m -13 Y s 305 100 m -7 Y s 333 100 m -7 Y s 360 100 m -7 Y s 387 106 m -13 Y s 415 100 m -7 Y s 442 100 m -7 Y s 469 100 m -7 Y s 497 106 m -13
 Y s 524 100 m -7 Y s 551 100 m -7 Y s 578 100 m -7 Y s 606 106 m -13 Y s 169 106 m -13 Y s 606 106 m -13 Y s 633 100 m -7 Y s 660 100 m -7 Y s 688 100 m -7 Y s 143 521 m 548 X s 169 508 m 13 Y s 196 515 m 6 Y s 223 515 m 6 Y s 251 515 m 6 Y s 278
 508 m 13 Y s 305 515 m 6 Y s 333 515 m 6 Y s 360 515 m 6 Y s 387 508 m 13 Y s 415 515 m 6 Y s 442 515 m 6 Y s 469 515 m 6 Y s 497 508 m 13 Y s 524 515 m 6 Y s 551 515 m 6 Y s 578 515 m 6 Y s 606 508 m 13 Y s 169 508 m 13 Y s 606 508 m 13 Y s 633 515
 m 6 Y s 660 515 m 6 Y s 688 515 m 6 Y s 143 93 m 428 Y s 160 93 m -17 X s 152 103 m -9 X s 152 113 m -9 X s 152 123 m -9 X s 152 133 m -9 X s 160 143 m -17 X s 152 152 m -9 X s 152 162 m -9 X s 152 172 m -9 X s 152 182 m -9 X s 160 192 m -17 X s 152
 202 m -9 X s 152 211 m -9 X s 152 221 m -9 X s 152 231 m -9 X s 160 241 m -17 X s 152 251 m -9 X s 152 261 m -9 X s 152 270 m -9 X s 152 280 m -9 X s 160 290 m -17 X s 152 300 m -9 X s 152 310 m -9 X s 152 320 m -9 X s 152 330 m -9 X s 160 339 m -17
 X s 152 349 m -9 X s 152 359 m -9 X s 152 369 m -9 X s 152 379 m -9 X s 160 389 m -17 X s 152 398 m -9 X s 152 408 m -9 X s 152 418 m -9 X s 152 428 m -9 X s 160 438 m -17 X s 152 448 m -9 X s 152 458 m -9 X s 152 467 m -9 X s 152 477 m -9 X s 160
 487 m -17 X s 160 487 m -17 X s 152 497 m -9 X s 152 507 m -9 X s 152 517 m -9 X s 691 93 m 428 Y s 674 93 m 17 X s 683 103 m 8 X s 683 113 m 8 X s 683 123 m 8 X s 683 133 m 8 X s 674 143 m 17 X s 683 152 m 8 X s 683 162 m 8 X s 683 172 m 8 X s 683
 182 m 8 X s 674 192 m 17 X s 683 202 m 8 X s 683 211 m 8 X s 683 221 m 8 X s 683 231 m 8 X s 674 241 m 17 X s 683 251 m 8 X s 683 261 m 8 X s 683 270 m 8 X s 683 280 m 8 X s 674 290 m 17 X s 683 300 m 8 X s 683 310 m 8 X s 683 320 m 8 X s 683 330 m
 8 X s 674 339 m 17 X s 683 349 m 8 X s 683 359 m 8 X s 683 369 m 8 X s 683 379 m 8 X s 674 389 m 17 X s 683 398 m 8 X s 683 408 m 8 X s 683 418 m 8 X s 683 428 m 8 X s 674 438 m 17 X s 683 448 m 8 X s 683 458 m 8 X s 683 467 m 8 X s 683 477 m 8 X s
 674 487 m 17 X s 674 487 m 17 X s 683 497 m 8 X s 683 507 m 8 X s 683 517 m 8 X s
 gsave  710 566 23 12 C 719.017 91.0528 t 90 r /Helvetica-Bold findfont 20.0147 sf 0 0 m (U/O\255flow \(S,B\): \(0.0, 0.0\)% / \(0.0, 0.0\)%) show NC gr  0.490196 0.545098 0.615686 c 0.364706 0.419608 0.490196 c 497 38 30 537 bf 0.490196 0.545098
 0.615686 c 30 537 m 497 X s 527 537 m 38 Y s 527 575 m -497 X s 30 575 m -38 Y s 1 1 1 c black 1 1 1 c
 gsave  710 566 23 12 C 39.8845 552.685 t 0 r /Helvetica-Bold findfont 17.1555 sf 0 0 m (Input variable'Gauss_Deco'\255transformed : GTND_earnings) show NC gr  0.490196 0.545098 0.615686 c 0.941176 0.941176 0.941176 c 710 566 779 12 bf black 1 1
 0.992157 c 548 428 899 93 bf black 548 428 899 93 bl 1 1 0.992157 c 548 428 899 93 bf black 548 428 899 93 bl 0 0 0.933333 c 6 lw 0.49 0.6 0.82 c black 3 lw 0.49 0.6 0.82 c 899 93 m 137 X 28 Y 14 X 113 Y 14 X -55 Y 13 X 28 Y 14 X 177 Y 14 X -92 Y 13
 X 31 Y 14 X -117 Y 14 X 114 Y 13 X -199 Y 14 X 58 Y 14 X -86 Y 13 X 57 Y 14 X -57 Y 233 X f 6 lw 0 0 0.933333 c 0.49 0.6 0.82 c 0 0 0.933333 c 899 93 m 137 X 28 Y 14 X 113 Y 14 X -55 Y 13 X 28 Y 14 X 177 Y 14 X -92 Y 13 X 31 Y 14 X -117 Y 14 X 114 Y
 13 X -199 Y 14 X 58 Y 14 X -86 Y 13 X 57 Y 14 X -57 Y 233 X s black 3 lw 899 93 m 548 X s
 gsave  710 566 779 12 C 1042.69 25.64 t 0 r /Helvetica findfont 28.5925 sf 0 0 m (GTND_economy \(Gauss_Deco\)) show NC gr  931 106 m -13 Y s 955 100 m -7 Y s 978 100 m -7 Y s 1002 100 m -7 Y s 1025 106 m -13 Y s 1049 100 m -7 Y s 1072 100 m -7 Y s
 1095 100 m -7 Y s 1119 106 m -13 Y s 1142 100 m -7 Y s 1166 100 m -7 Y s 1189 100 m -7 Y s 1212 106 m -13 Y s 1236 100 m -7 Y s 1259 100 m -7 Y s 1283 100 m -7 Y s 1306 106 m -13 Y s 1329 100 m -7 Y s 1353 100 m -7 Y s 1376 100 m -7 Y s 1400 106 m
 -13 Y s 931 106 m -13 Y s 908 100 m -7 Y s 1400 106 m -13 Y s 1423 100 m -7 Y s
 gsave  710 566 779 12 C 917.343 65.5245 t 0 r /Helvetica findfont 25.7332 sf 0 0 m (\2554) show NC gr 
 gsave  710 566 779 12 C 1011.36 65.5245 t 0 r /Helvetica findfont 25.7332 sf 0 0 m (\2552) show NC gr 
 gsave  710 566 779 12 C 1108.22 65.5245 t 0 r /Helvetica findfont 25.7332 sf 0 0 m (0) show NC gr 
 gsave  710 566 779 12 C 1202.23 65.5245 t 0 r /Helvetica findfont 25.7332 sf 0 0 m (2) show NC gr 
 gsave  710 566 779 12 C 1296.24 65.5245 t 0 r /Helvetica findfont 25.7332 sf 0 0 m (4) show NC gr 
 gsave  710 566 779 12 C 1390.26 65.5245 t 0 r /Helvetica findfont 25.7332 sf 0 0 m (6) show NC gr  899 521 m 548 X s 931 508 m 13 Y s 955 515 m 6 Y s 978 515 m 6 Y s 1002 515 m 6 Y s 1025 508 m 13 Y s 1049 515 m 6 Y s 1072 515 m 6 Y s 1095 515 m 6 Y
 s 1119 508 m 13 Y s 1142 515 m 6 Y s 1166 515 m 6 Y s 1189 515 m 6 Y s 1212 508 m 13 Y s 1236 515 m 6 Y s 1259 515 m 6 Y s 1283 515 m 6 Y s 1306 508 m 13 Y s 1329 515 m 6 Y s 1353 515 m 6 Y s 1376 515 m 6 Y s 1400 508 m 13 Y s 931 508 m 13 Y s 908
 515 m 6 Y s 1400 508 m 13 Y s 1423 515 m 6 Y s 899 93 m 428 Y s
 gsave  710 566 779 12 C 803.387 441.578 t 90 r /Helvetica findfont 28.5925 sf 0 0 m (0.292 ) show NC gr 
 gsave  710 566 779 12 C 789.143 435.88 t 90 r /Helvetica findfont 20.0147 sf 0 0 m ( ) show NC gr 
 gsave  710 566 779 12 C 803.387 424.485 t 90 r /Helvetica findfont 28.5925 sf 0 0 m (/) show NC gr 
 gsave  710 566 779 12 C 811.934 418.787 t 90 r /Helvetica findfont 20.0147 sf 0 0 m ( ) show NC gr 
 gsave  710 566 779 12 C 803.387 310.529 t 90 r /Helvetica findfont 28.5925 sf 0 0 m (\(1/N\) dN) show NC gr  915 93 m -16 X s 907 103 m -8 X s 907 112 m -8 X s 907 121 m -8 X s 907 131 m -8 X s 915 140 m -16 X s 907 149 m -8 X s 907 159 m -8 X s 907
 168 m -8 X s 907 177 m -8 X s 915 187 m -16 X s 907 196 m -8 X s 907 205 m -8 X s 907 215 m -8 X s 907 224 m -8 X s 915 233 m -16 X s 907 243 m -8 X s 907 252 m -8 X s 907 261 m -8 X s 907 270 m -8 X s 915 280 m -16 X s 907 289 m -8 X s 907 298 m -8
 X s 907 308 m -8 X s 907 317 m -8 X s 915 326 m -16 X s 907 336 m -8 X s 907 345 m -8 X s 907 354 m -8 X s 907 364 m -8 X s 915 373 m -16 X s 907 382 m -8 X s 907 392 m -8 X s 907 401 m -8 X s 907 410 m -8 X s 915 420 m -16 X s 907 429 m -8 X s 907
 438 m -8 X s 907 448 m -8 X s 907 457 m -8 X s 915 466 m -16 X s 907 476 m -8 X s 907 485 m -8 X s 907 494 m -8 X s 907 504 m -8 X s 915 513 m -16 X s 915 513 m -16 X s
 gsave  710 566 779 12 C 874.609 82.6178 t 0 r /Helvetica findfont 25.7332 sf 0 0 m (0) show NC gr 
 gsave  710 566 779 12 C 857.516 131.049 t 0 r /Helvetica findfont 25.7332 sf 0 0 m (0.1) show NC gr 
 gsave  710 566 779 12 C 851.818 176.631 t 0 r /Helvetica findfont 25.7332 sf 0 0 m (0.2) show NC gr 
 gsave  710 566 779 12 C 851.818 222.213 t 0 r /Helvetica findfont 25.7332 sf 0 0 m (0.3) show NC gr 
 gsave  710 566 779 12 C 851.818 270.645 t 0 r /Helvetica findfont 25.7332 sf 0 0 m (0.4) show NC gr 
 gsave  710 566 779 12 C 851.818 316.227 t 0 r /Helvetica findfont 25.7332 sf 0 0 m (0.5) show NC gr 
 gsave  710 566 779 12 C 851.818 361.809 t 0 r /Helvetica findfont 25.7332 sf 0 0 m (0.6) show NC gr 
 gsave  710 566 779 12 C 851.818 410.24 t 0 r /Helvetica findfont 25.7332 sf 0 0 m (0.7) show NC gr 
 gsave  710 566 779 12 C 851.818 455.822 t 0 r /Helvetica findfont 25.7332 sf 0 0 m (0.8) show NC gr 
 gsave  710 566 779 12 C 851.818 504.254 t 0 r /Helvetica findfont 25.7332 sf 0 0 m (0.9) show NC gr  1447 93 m 428 Y s 1430 93 m 17 X s 1438 103 m 9 X s 1438 112 m 9 X s 1438 121 m 9 X s 1438 131 m 9 X s 1430 140 m 17 X s 1438 149 m 9 X s 1438 159 m
 9 X s 1438 168 m 9 X s 1438 177 m 9 X s 1430 187 m 17 X s 1438 196 m 9 X s 1438 205 m 9 X s 1438 215 m 9 X s 1438 224 m 9 X s 1430 233 m 17 X s 1438 243 m 9 X s 1438 252 m 9 X s 1438 261 m 9 X s 1438 270 m 9 X s 1430 280 m 17 X s 1438 289 m 9 X s
 1438 298 m 9 X s 1438 308 m 9 X s 1438 317 m 9 X s 1430 326 m 17 X s 1438 336 m 9 X s 1438 345 m 9 X s 1438 354 m 9 X s 1438 364 m 9 X s 1430 373 m 17 X s 1438 382 m 9 X s 1438 392 m 9 X s 1438 401 m 9 X s 1438 410 m 9 X s 1430 420 m 17 X s 1438 429
 m 9 X s 1438 438 m 9 X s 1438 448 m 9 X s 1438 457 m 9 X s 1430 466 m 17 X s 1438 476 m 9 X s 1438 485 m 9 X s 1438 494 m 9 X s 1438 504 m 9 X s 1430 513 m 17 X s 1430 513 m 17 X s 1 0 0 c 6 lw black 3 lw 1 0 0 c 1447 107 m -14 -14 d s 1433 93 m s
 1439 115 m -6 -6 d s 1418 93 m s 1403 93 m s 1388 93 m s 1372 93 m s 1357 93 m s 1342 93 m s 1327 93 m s 1312 93 m s 1297 93 m s 1282 93 m cl s 1267 93 m s 1255 96 m -3 -3 d s 1255 112 m -18 -19 d s 1242 114 m -14 -15 d s 1222 93 m s 1214 101 m -7
 -8 d s 1212 114 m -20 -21 d s 1197 114 m -21 -21 d s 1187 119 m -26 -26 d s 1187 134 m -41 -41 d s 1173 135 m -42 -42 d s 1173 150 m -57 -57 d s 1173 165 m -72 -72 d s 1173 180 m -87 -87 d s 1173 195 m -102 -102 d s 1159 197 m -103 -104 d s 1159 212
 m -118 -119 d s 1149 217 m -123 -124 d s 1146 228 m -82 -82 d s 1051 134 m -15 -15 d s 1031 114 m -9 -9 d s 1011 93 m s 1138 236 m -61 -61 d s 1077 175 m -13 -14 d s 1036 134 m s 996 93 m s 1132 245 m -41 -41 d s 1083 196 m -6 -6 d s 981 93 m s 1132
 260 m -41 -41 d s 965 93 m cl s 1132 275 m -41 -41 d s 950 93 m s 1132 290 m -14 -13 d s 1118 276 m -27 -27 d s 935 93 m s 1132 305 m -14 -13 d s 1105 278 m -14 -14 d s 920 93 m s 1130 319 m -12 -12 d s 1105 293 m -14 -14 d s 905 93 m cl s 1105 308
 m -14 -14 d s 1105 323 m -14 -13 d s 1105 338 m -14 -13 d s 1105 354 m -14 -14 d s 1105 369 m -14 -14 d s 1105 384 m -14 -14 d s 1105 399 m -14 -14 d s 1105 414 m -14 -14 d s 1105 429 m -14 -14 d s 1105 444 m -14 -14 d s 1105 459 m -14 -13 d s 1105
 474 m -14 -13 d s 1098 482 m -7 -6 d s 6 lw 899 93 m 123 X 21 Y 14 X 20 Y 28 X 41 Y 13 X 21 Y 14 X 286 Y 14 X -206 Y 13 X 43 Y 14 X -83 Y 14 X -19 Y 13 X -21 Y 14 X -62 Y 14 X -20 Y 27 X -21 Y 14 X 20 Y 13 X 1 Y 14 X -21 Y 178 X 22 Y 14 X s black 3
 lw 899 93 m 548 X s 931 106 m -13 Y s 955 100 m -7 Y s 978 100 m -7 Y s 1002 100 m -7 Y s 1025 106 m -13 Y s 1049 100 m -7 Y s 1072 100 m -7 Y s 1095 100 m -7 Y s 1119 106 m -13 Y s 1142 100 m -7 Y s 1166 100 m -7 Y s 1189 100 m -7 Y s 1212 106 m
 -13 Y s 1236 100 m -7 Y s 1259 100 m -7 Y s 1283 100 m -7 Y s 1306 106 m -13 Y s 1329 100 m -7 Y s 1353 100 m -7 Y s 1376 100 m -7 Y s 1400 106 m -13 Y s 931 106 m -13 Y s 908 100 m -7 Y s 1400 106 m -13 Y s 1423 100 m -7 Y s 899 521 m 548 X s 931
 508 m 13 Y s 955 515 m 6 Y s 978 515 m 6 Y s 1002 515 m 6 Y s 1025 508 m 13 Y s 1049 515 m 6 Y s 1072 515 m 6 Y s 1095 515 m 6 Y s 1119 508 m 13 Y s 1142 515 m 6 Y s 1166 515 m 6 Y s 1189 515 m 6 Y s 1212 508 m 13 Y s 1236 515 m 6 Y s 1259 515 m 6 Y
 s 1283 515 m 6 Y s 1306 508 m 13 Y s 1329 515 m 6 Y s 1353 515 m 6 Y s 1376 515 m 6 Y s 1400 508 m 13 Y s 931 508 m 13 Y s 908 515 m 6 Y s 1400 508 m 13 Y s 1423 515 m 6 Y s 899 93 m 428 Y s 915 93 m -16 X s 907 103 m -8 X s 907 112 m -8 X s 907 121
 m -8 X s 907 131 m -8 X s 915 140 m -16 X s 907 149 m -8 X s 907 159 m -8 X s 907 168 m -8 X s 907 177 m -8 X s 915 187 m -16 X s 907 196 m -8 X s 907 205 m -8 X s 907 215 m -8 X s 907 224 m -8 X s 915 233 m -16 X s 907 243 m -8 X s 907 252 m -8 X s
 907 261 m -8 X s 907 270 m -8 X s 915 280 m -16 X s 907 289 m -8 X s 907 298 m -8 X s 907 308 m -8 X s 907 317 m -8 X s 915 326 m -16 X s 907 336 m -8 X s 907 345 m -8 X s 907 354 m -8 X s 907 364 m -8 X s 915 373 m -16 X s 907 382 m -8 X s 907 392
 m -8 X s 907 401 m -8 X s 907 410 m -8 X s 915 420 m -16 X s 907 429 m -8 X s 907 438 m -8 X s 907 448 m -8 X s 907 457 m -8 X s 915 466 m -16 X s 907 476 m -8 X s 907 485 m -8 X s 907 494 m -8 X s 907 504 m -8 X s 915 513 m -16 X s 915 513 m -16 X
 s 1447 93 m 428 Y s 1430 93 m 17 X s 1438 103 m 9 X s 1438 112 m 9 X s 1438 121 m 9 X s 1438 131 m 9 X s 1430 140 m 17 X s 1438 149 m 9 X s 1438 159 m 9 X s 1438 168 m 9 X s 1438 177 m 9 X s 1430 187 m 17 X s 1438 196 m 9 X s 1438 205 m 9 X s 1438
 215 m 9 X s 1438 224 m 9 X s 1430 233 m 17 X s 1438 243 m 9 X s 1438 252 m 9 X s 1438 261 m 9 X s 1438 270 m 9 X s 1430 280 m 17 X s 1438 289 m 9 X s 1438 298 m 9 X s 1438 308 m 9 X s 1438 317 m 9 X s 1430 326 m 17 X s 1438 336 m 9 X s 1438 345 m 9
 X s 1438 354 m 9 X s 1438 364 m 9 X s 1430 373 m 17 X s 1438 382 m 9 X s 1438 392 m 9 X s 1438 401 m 9 X s 1438 410 m 9 X s 1430 420 m 17 X s 1438 429 m 9 X s 1438 438 m 9 X s 1438 448 m 9 X s 1438 457 m 9 X s 1430 466 m 17 X s 1438 476 m 9 X s 1438
 485 m 9 X s 1438 494 m 9 X s 1438 504 m 9 X s 1430 513 m 17 X s 1430 513 m 17 X s
 gsave  710 566 779 12 C 1474.92 91.0528 t 90 r /Helvetica-Bold findfont 20.0147 sf 0 0 m (U/O\255flow \(S,B\): \(0.0, 0.0\)% / \(0.0, 0.0\)%) show NC gr  0.490196 0.545098 0.615686 c 0.364706 0.419608 0.490196 c 497 38 786 537 bf 0.490196 0.545098
 0.615686 c 786 537 m 497 X s 1283 537 m 38 Y s 1283 575 m -497 X s 786 575 m -38 Y s 1 1 1 c black 1 1 1 c
 gsave  710 566 779 12 C 794.84 552.685 t 0 r /Helvetica-Bold findfont 17.1555 sf 0 0 m (Input variable'Gauss_Deco'\255transformed : GTND_economy) show NC gr  0.490196 0.545098 0.615686 c 0.941176 0.941176 0.941176 c 711 566 1534 12 bf black 1 1
 0.992157 c 547 428 1655 93 bf black 547 428 1655 93 bl 1 1 0.992157 c 547 428 1655 93 bf black 547 428 1655 93 bl 0 0 0.933333 c 6 lw 0.49 0.6 0.82 c black 3 lw 0.49 0.6 0.82 c 1655 93 m 151 X 140 Y 13 X -105 Y 14 X 71 Y 14 X 70 Y 13 X -36 Y 14 X
 -70 Y 14 X 36 Y 13 X 283 Y 14 X -213 Y 14 X -65 Y 14 X -1 Y 13 X 30 Y 14 X 2 Y 14 X -107 Y 13 X 1 Y 28 X -36 Y 123 X 35 Y 13 X -35 Y 41 X f 6 lw 0 0 0.933333 c 0.49 0.6 0.82 c 0 0 0.933333 c 1655 93 m 151 X 140 Y 13 X -105 Y 14 X 71 Y 14 X 70 Y 13 X
 -36 Y 14 X -70 Y 14 X 36 Y 13 X 283 Y 14 X -213 Y 14 X -65 Y 14 X -1 Y 13 X 30 Y 14 X 2 Y 14 X -107 Y 13 X 1 Y 28 X -36 Y 123 X 35 Y 13 X -35 Y 41 X s black 3 lw 1655 93 m 547 X s
 gsave  711 566 1534 12 C 1857.48 25.64 t 0 r /Helvetica findfont 28.5925 sf 0 0 m (GTND_SPX \(Gauss_Deco\)) show NC gr  1700 106 m -13 Y s 1726 100 m -7 Y s 1751 100 m -7 Y s 1777 100 m -7 Y s 1803 106 m -13 Y s 1829 100 m -7 Y s 1855 100 m -7 Y s
 1881 100 m -7 Y s 1906 106 m -13 Y s 1932 100 m -7 Y s 1958 100 m -7 Y s 1984 100 m -7 Y s 2010 106 m -13 Y s 2035 100 m -7 Y s 2061 100 m -7 Y s 2087 100 m -7 Y s 2113 106 m -13 Y s 1700 106 m -13 Y s 1674 100 m -7 Y s 2113 106 m -13 Y s 2139 100 m
 -7 Y s 2164 100 m -7 Y s 2190 100 m -7 Y s
 gsave  711 566 1534 12 C 1686.54 65.5245 t 0 r /Helvetica findfont 25.7332 sf 0 0 m (\2554) show NC gr 
 gsave  711 566 1534 12 C 1789.1 65.5245 t 0 r /Helvetica findfont 25.7332 sf 0 0 m (\2552) show NC gr 
 gsave  711 566 1534 12 C 1897.36 65.5245 t 0 r /Helvetica findfont 25.7332 sf 0 0 m (0) show NC gr 
 gsave  711 566 1534 12 C 1999.92 65.5245 t 0 r /Helvetica findfont 25.7332 sf 0 0 m (2) show NC gr 
 gsave  711 566 1534 12 C 2102.48 65.5245 t 0 r /Helvetica findfont 25.7332 sf 0 0 m (4) show NC gr  1655 521 m 547 X s 1700 508 m 13 Y s 1726 515 m 6 Y s 1751 515 m 6 Y s 1777 515 m 6 Y s 1803 508 m 13 Y s 1829 515 m 6 Y s 1855 515 m 6 Y s 1881 515
 m 6 Y s 1906 508 m 13 Y s 1932 515 m 6 Y s 1958 515 m 6 Y s 1984 515 m 6 Y s 2010 508 m 13 Y s 2035 515 m 6 Y s 2061 515 m 6 Y s 2087 515 m 6 Y s 2113 508 m 13 Y s 1700 508 m 13 Y s 1674 515 m 6 Y s 2113 508 m 13 Y s 2139 515 m 6 Y s 2164 515 m 6 Y
 s 2190 515 m 6 Y s 1655 93 m 428 Y s
 gsave  711 566 1534 12 C 1558.34 441.578 t 90 r /Helvetica findfont 28.5925 sf 0 0 m (0.265 ) show NC gr 
 gsave  711 566 1534 12 C 1544.1 435.88 t 90 r /Helvetica findfont 20.0147 sf 0 0 m ( ) show NC gr 
 gsave  711 566 1534 12 C 1558.34 424.485 t 90 r /Helvetica findfont 28.5925 sf 0 0 m (/) show NC gr 
 gsave  711 566 1534 12 C 1566.89 418.787 t 90 r /Helvetica findfont 20.0147 sf 0 0 m ( ) show NC gr 
 gsave  711 566 1534 12 C 1558.34 310.529 t 90 r /Helvetica findfont 28.5925 sf 0 0 m (\(1/N\) dN) show NC gr  1671 93 m -16 X s 1663 104 m -8 X s 1663 114 m -8 X s 1663 125 m -8 X s 1663 135 m -8 X s 1671 146 m -16 X s 1663 156 m -8 X s 1663 167 m
 -8 X s 1663 177 m -8 X s 1663 188 m -8 X s 1671 198 m -16 X s 1663 209 m -8 X s 1663 219 m -8 X s 1663 230 m -8 X s 1663 240 m -8 X s 1671 251 m -16 X s 1663 261 m -8 X s 1663 272 m -8 X s 1663 282 m -8 X s 1663 293 m -8 X s 1671 303 m -16 X s 1663
 314 m -8 X s 1663 324 m -8 X s 1663 335 m -8 X s 1663 345 m -8 X s 1671 356 m -16 X s 1663 366 m -8 X s 1663 377 m -8 X s 1663 387 m -8 X s 1663 398 m -8 X s 1671 408 m -16 X s 1663 419 m -8 X s 1663 429 m -8 X s 1663 440 m -8 X s 1663 450 m -8 X s
 1671 460 m -16 X s 1663 471 m -8 X s 1663 481 m -8 X s 1663 492 m -8 X s 1663 502 m -8 X s 1671 513 m -16 X s 1671 513 m -16 X s
 gsave  711 566 1534 12 C 1632.41 82.6178 t 0 r /Helvetica findfont 25.7332 sf 0 0 m (0) show NC gr 
 gsave  711 566 1534 12 C 1615.32 136.747 t 0 r /Helvetica findfont 25.7332 sf 0 0 m (0.1) show NC gr 
 gsave  711 566 1534 12 C 1609.62 188.027 t 0 r /Helvetica findfont 25.7332 sf 0 0 m (0.2) show NC gr 
 gsave  711 566 1534 12 C 1609.62 239.307 t 0 r /Helvetica findfont 25.7332 sf 0 0 m (0.3) show NC gr 
 gsave  711 566 1534 12 C 1609.62 293.436 t 0 r /Helvetica findfont 25.7332 sf 0 0 m (0.4) show NC gr 
 gsave  711 566 1534 12 C 1609.62 344.716 t 0 r /Helvetica findfont 25.7332 sf 0 0 m (0.5) show NC gr 
 gsave  711 566 1534 12 C 1609.62 398.845 t 0 r /Helvetica findfont 25.7332 sf 0 0 m (0.6) show NC gr 
 gsave  711 566 1534 12 C 1609.62 450.125 t 0 r /Helvetica findfont 25.7332 sf 0 0 m (0.7) show NC gr 
 gsave  711 566 1534 12 C 1609.62 504.254 t 0 r /Helvetica findfont 25.7332 sf 0 0 m (0.8) show NC gr  2202 93 m 428 Y s 2186 93 m 16 X s 2194 104 m 8 X s 2194 114 m 8 X s 2194 125 m 8 X s 2194 135 m 8 X s 2186 146 m 16 X s 2194 156 m 8 X s 2194 167
 m 8 X s 2194 177 m 8 X s 2194 188 m 8 X s 2186 198 m 16 X s 2194 209 m 8 X s 2194 219 m 8 X s 2194 230 m 8 X s 2194 240 m 8 X s 2186 251 m 16 X s 2194 261 m 8 X s 2194 272 m 8 X s 2194 282 m 8 X s 2194 293 m 8 X s 2186 303 m 16 X s 2194 314 m 8 X s
 2194 324 m 8 X s 2194 335 m 8 X s 2194 345 m 8 X s 2186 356 m 16 X s 2194 366 m 8 X s 2194 377 m 8 X s 2194 387 m 8 X s 2194 398 m 8 X s 2186 408 m 16 X s 2194 419 m 8 X s 2194 429 m 8 X s 2194 440 m 8 X s 2194 450 m 8 X s 2186 460 m 16 X s 2194 471
 m 8 X s 2194 481 m 8 X s 2194 492 m 8 X s 2194 502 m 8 X s 2186 513 m 16 X s 2186 513 m 16 X s 1 0 0 c 6 lw black 3 lw 1 0 0 c 2188 93 m s 2173 93 m s 2158 93 m s 2143 93 m s 2128 93 m s 2113 93 m s 2098 93 m s 2083 93 m s 2068 93 m s 2053 93 m s
 2038 94 m -1 Y s 2038 109 m -13 -14 d s 2022 93 m s 2033 119 m -8 -8 d s 2007 93 m s 1997 98 m -5 -5 d s 1997 113 m -20 -20 d s 1987 118 m -25 -25 d s 1984 130 m -37 -37 d s 1984 145 m -52 -52 d s 1984 160 m -14 -13 d s 1967 144 m -50 -51 d s 1977
 169 m -7 -7 d s 1956 148 m -54 -55 d s 1956 163 m -69 -70 d s 1956 178 m -84 -85 d s 1956 193 m -99 -100 d s 1956 209 m -114 -116 d s 1956 224 m -129 -131 d s 1956 239 m -137 -138 d s 1811 93 m s 1956 254 m -109 -110 d s 1847 144 m -28 -28 d s 1796
 93 m s 1956 269 m -109 -110 d s 1832 144 m -13 -12 d s 1781 93 m cl s 1943 271 m -96 -97 d s 1778 106 m -12 -13 d s 1943 286 m -14 -14 d s 1928 271 m -68 -68 d s 1852 194 m -5 -5 d s 1777 119 m -12 -12 d s 1751 93 m cl s 1943 301 m -14 -14 d s 1915
 273 m -14 -13 d s 1888 246 m -14 -14 d s 1861 219 m -1 -1 d s 1736 93 m s 1943 316 m -14 -14 d s 1915 289 m -14 -14 d s 1888 261 m -14 -14 d s 1721 93 m s 1943 331 m -14 -13 d s 1915 304 m -14 -14 d s 1888 276 m -14 -14 d s 1706 93 m s 1943 346 m
 -14 -13 d s 1915 319 m -14 -14 d s 1888 291 m -14 -13 d s 1691 93 m cl s 1929 348 m s 1915 334 m -14 -14 d s 1888 307 m -14 -14 d s 1676 93 m cl s 1915 349 m -14 -13 d s 1888 322 m -14 -14 d s 1661 93 m s 1915 364 m -14 -13 d s 1888 337 m -14 -14 d
 s 1915 380 m -14 -14 d s 1888 352 m -14 -14 d s 1915 395 m -14 -14 d s 1888 367 m -14 -14 d s 1915 410 m -14 -14 d s 1888 382 m -14 -13 d s 1915 425 m -14 -14 d s 1888 397 m -14 -13 d s 1915 440 m -14 -14 d s 1915 455 m -14 -13 d s 1915 471 m -14
 -14 d s 1905 476 m -4 -4 d s 6 lw 1655 93 m 110 X 26 Y 13 X -26 Y 41 X 51 Y 28 X 50 Y 13 X 25 Y 14 X 178 Y 14 X -152 Y 13 X 231 Y 14 X -205 Y 14 X 77 Y 14 X -77 Y 13 X -127 Y 14 X 25 Y 14 X -51 Y 13 X -25 Y 28 X 26 Y 13 X -26 Y 164 X s black 3 lw
 1655 93 m 547 X s 1700 106 m -13 Y s 1726 100 m -7 Y s 1751 100 m -7 Y s 1777 100 m -7 Y s 1803 106 m -13 Y s 1829 100 m -7 Y s 1855 100 m -7 Y s 1881 100 m -7 Y s 1906 106 m -13 Y s 1932 100 m -7 Y s 1958 100 m -7 Y s 1984 100 m -7 Y s 2010 106 m
 -13 Y s 2035 100 m -7 Y s 2061 100 m -7 Y s 2087 100 m -7 Y s 2113 106 m -13 Y s 1700 106 m -13 Y s 1674 100 m -7 Y s 2113 106 m -13 Y s 2139 100 m -7 Y s 2164 100 m -7 Y s 2190 100 m -7 Y s 1655 521 m 547 X s 1700 508 m 13 Y s 1726 515 m 6 Y s 1751
 515 m 6 Y s 1777 515 m 6 Y s 1803 508 m 13 Y s 1829 515 m 6 Y s 1855 515 m 6 Y s 1881 515 m 6 Y s 1906 508 m 13 Y s 1932 515 m 6 Y s 1958 515 m 6 Y s 1984 515 m 6 Y s 2010 508 m 13 Y s 2035 515 m 6 Y s 2061 515 m 6 Y s 2087 515 m 6 Y s 2113 508 m 13
 Y s 1700 508 m 13 Y s 1674 515 m 6 Y s 2113 508 m 13 Y s 2139 515 m 6 Y s 2164 515 m 6 Y s 2190 515 m 6 Y s 1655 93 m 428 Y s 1671 93 m -16 X s 1663 104 m -8 X s 1663 114 m -8 X s 1663 125 m -8 X s 1663 135 m -8 X s 1671 146 m -16 X s 1663 156 m -8
 X s 1663 167 m -8 X s 1663 177 m -8 X s 1663 188 m -8 X s 1671 198 m -16 X s 1663 209 m -8 X s 1663 219 m -8 X s 1663 230 m -8 X s 1663 240 m -8 X s 1671 251 m -16 X s 1663 261 m -8 X s 1663 272 m -8 X s 1663 282 m -8 X s 1663 293 m -8 X s 1671 303
 m -16 X s 1663 314 m -8 X s 1663 324 m -8 X s 1663 335 m -8 X s 1663 345 m -8 X s 1671 356 m -16 X s 1663 366 m -8 X s 1663 377 m -8 X s 1663 387 m -8 X s 1663 398 m -8 X s 1671 408 m -16 X s 1663 419 m -8 X s 1663 429 m -8 X s 1663 440 m -8 X s
 1663 450 m -8 X s 1671 460 m -16 X s 1663 471 m -8 X s 1663 481 m -8 X s 1663 492 m -8 X s 1663 502 m -8 X s 1671 513 m -16 X s 1671 513 m -16 X s 2202 93 m 428 Y s 2186 93 m 16 X s 2194 104 m 8 X s 2194 114 m 8 X s 2194 125 m 8 X s 2194 135 m 8 X s
 2186 146 m 16 X s 2194 156 m 8 X s 2194 167 m 8 X s 2194 177 m 8 X s 2194 188 m 8 X s 2186 198 m 16 X s 2194 209 m 8 X s 2194 219 m 8 X s 2194 230 m 8 X s 2194 240 m 8 X s 2186 251 m 16 X s 2194 261 m 8 X s 2194 272 m 8 X s 2194 282 m 8 X s 2194 293
 m 8 X s 2186 303 m 16 X s 2194 314 m 8 X s 2194 324 m 8 X s 2194 335 m 8 X s 2194 345 m 8 X s 2186 356 m 16 X s 2194 366 m 8 X s 2194 377 m 8 X s 2194 387 m 8 X s 2194 398 m 8 X s 2186 408 m 16 X s 2194 419 m 8 X s 2194 429 m 8 X s 2194 440 m 8 X s
 2194 450 m 8 X s 2186 460 m 16 X s 2194 471 m 8 X s 2194 481 m 8 X s 2194 492 m 8 X s 2194 502 m 8 X s 2186 513 m 16 X s 2186 513 m 16 X s
 gsave  711 566 1534 12 C 2230.83 91.0528 t 90 r /Helvetica-Bold findfont 20.0147 sf 0 0 m (U/O\255flow \(S,B\): \(0.0, 0.0\)% / \(0.0, 0.0\)%) show NC gr  0.490196 0.545098 0.615686 c 0.364706 0.419608 0.490196 c 497 38 1542 537 bf 0.490196 0.545098
 0.615686 c 1542 537 m 497 X s 2039 537 m 38 Y s 2039 575 m -497 X s 1542 575 m -38 Y s 1 1 1 c black 1 1 1 c
 gsave  711 566 1534 12 C 1532.7 549.836 t 0 r /Helvetica-Bold findfont 20.0147 sf 0 0 m (Input variable'Gauss_Deco'\255transformed : GTND_SPX) show NC gr 
 gr  gr showpage
end
%%EOF
