%!PS-Adobe-2.0 EPSF-2.0
%%BoundingBox:  0 0 567 295
%%Title: plots/variables_pca_c2.eps: Input variables 'PCA'-transformed (training sample)
%%Creator: ROOT Version 5.34/09
%%CreationDate: Sat Jan  4 23:53:44 2014
%%EndComments
%%BeginProlog
80 dict begin
/s {stroke} def /l {lineto} def /m {moveto} def /t {translate} def
/r {rotate} def /rl {roll}  def /R {repeat} def
/d {rlineto} def /rm {rmoveto} def /gr {grestore} def /f {eofill} def
/c {setrgbcolor} def /black {0 setgray} def /sd {setdash} def
/cl {closepath} def /sf {scalefont setfont} def /lw {setlinewidth} def
/box {m dup 0 exch d exch 0 d 0 exch neg d cl} def
/NC{systemdict begin initclip end}def/C{NC box clip newpath}def
/bl {box s} def /bf {box f} def /Y { 0 exch d} def /X { 0 d} def 
/K {{pop pop 0 moveto} exch kshow} bind def
/ita {/ang 15 def gsave [1 0 ang dup sin exch cos div 1 0 0] concat} def 
/mp {newpath /y exch def /x exch def} def
/side {[w .77 mul w .23 mul] .385 w mul sd w 0 l currentpoint t -144 r} def
/mr {mp x y w2 0 360 arc} def /m24 {mr s} def /m20 {mr f} def
/mb {mp x y w2 add m w2 neg 0 d 0 w neg d w 0 d 0 w d cl} def
/mt {mp x y w2 add m w2 neg w neg d w 0 d cl} def
/m21 {mb f} def /m25 {mb s} def /m22 {mt f} def /m26{mt s} def
/m23 {mp x y w2 sub m w2 w d w neg 0 d cl f} def
/m27 {mp x y w2 add m w3 neg w2 neg d w3 w2 neg d w3 w2 d cl s} def
/m28 {mp x w2 sub y w2 sub w3 add m w3 0 d  0 w3 neg d w3 0 d 0 w3 d w3 0 d  0 w3 d w3 neg 0 d 0 w3 d w3 neg 0 d 0 w3 neg d w3 neg 0 d cl s } def
/m29 {mp gsave x w2 sub y w2 add w3 sub m currentpoint t 4 {side} repeat cl fill gr} def
/m30 {mp gsave x w2 sub y w2 add w3 sub m currentpoint t 4 {side} repeat cl s gr} def
/m31 {mp x y w2 sub m 0 w d x w2 sub y m w 0 d x w2 sub y w2 add m w w neg d x w2 sub y w2 sub m w w d s} def
/m32 {mp x y w2 sub m w2 w d w neg 0 d cl s} def
/m33 {mp x y w2 add m w3 neg w2 neg d w3 w2 neg d w3 w2 d cl f} def
/m34 {mp x w2 sub y w2 sub w3 add m w3 0 d  0 w3 neg d w3 0 d 0 w3 d w3 0 d  0 w3 d w3 neg 0 d 0 w3 d w3 neg 0 d 0 w3 neg d w3 neg 0 d cl f } def
/m2 {mp x y w2 sub m 0 w d x w2 sub y m w 0 d s} def
/m5 {mp x w2 sub y w2 sub m w w d x w2 sub y w2 add m w w neg d s} def
/reEncode {exch findfont dup length dict begin {1 index /FID eq  {pop pop} {def} ifelse } forall /Encoding exch def currentdict end dup /FontName get exch definefont pop } def [/Times-Bold /Times-Italic /Times-BoldItalic /Helvetica /Helvetica-Oblique
 /Helvetica-Bold /Helvetica-BoldOblique /Courier /Courier-Oblique /Courier-Bold /Courier-BoldOblique /Times-Roman /AvantGarde-Book /AvantGarde-BookOblique /AvantGarde-Demi /AvantGarde-DemiOblique /Bookman-Demi /Bookman-DemiItalic /Bookman-Light
 /Bookman-LightItalic /Helvetica-Narrow /Helvetica-Narrow-Bold /Helvetica-Narrow-BoldOblique /Helvetica-Narrow-Oblique /NewCenturySchlbk-Roman /NewCenturySchlbk-Bold /NewCenturySchlbk-BoldItalic /NewCenturySchlbk-Italic /Palatino-Bold
 /Palatino-BoldItalic /Palatino-Italic /Palatino-Roman ] {ISOLatin1Encoding reEncode } forall
%%EndProlog
%%BeginSetup
%%EndSetup
newpath  gsave  .25 .25 scale  gsave  0 0 t 0.490196 0.545098 0.615686 c[  ] 0 sd 3 lw 0.941176 0.941176 0.941176 c 2268 1179 0 0 bf 0.490196 0.545098 0.615686 c 0.941176 0.941176 0.941176 c 710 566 23 602 bf black 1 1 0.992157 c 548 428 143 683 bf
 black 548 428 143 683 bl 1 1 0.992157 c 548 428 143 683 bf black 548 428 143 683 bl 0 0 0.933333 c 6 lw 0.49 0.6 0.82 c black 3 lw 0.49 0.6 0.82 c 143 683 m 14 X 60 Y 14 X -60 Y 55 X 55 Y 13 X -55 Y 123 X 220 Y 14 X -110 Y 14 X 170 Y 13 X -225 Y 14
 X 334 Y 14 X -60 Y 13 X -217 Y 14 X 273 Y 14 X -220 Y 13 X 164 Y 14 X -219 Y 14 X 167 Y 13 X -168 Y 14 X -55 Y 14 X -54 Y 123 X 64 Y 14 X -64 Y f 6 lw 0 0 0.933333 c 0.49 0.6 0.82 c 0 0 0.933333 c 143 683 m 14 X 60 Y 14 X -60 Y 55 X 55 Y 13 X -55 Y
 123 X 220 Y 14 X -110 Y 14 X 170 Y 13 X -225 Y 14 X 334 Y 14 X -60 Y 13 X -217 Y 14 X 273 Y 14 X -220 Y 13 X 164 Y 14 X -219 Y 14 X 167 Y 13 X -168 Y 14 X -55 Y 14 X -54 Y 123 X 64 Y 14 X s black 3 lw 143 683 m 548 X s
 gsave  710 566 23 602 C 452.974 615.36 t 0 r /Helvetica findfont 28.5925 sf 0 0 m (GTND_gold \(PCA\)) show NC gr  200 696 m -13 Y s 213 690 m -7 Y s 225 690 m -7 Y s 237 690 m -7 Y s 249 690 m -7 Y s 262 696 m -13 Y s 274 690 m -7 Y s 286 690 m -7 Y
 s 299 690 m -7 Y s 311 690 m -7 Y s 323 696 m -13 Y s 335 690 m -7 Y s 348 690 m -7 Y s 360 690 m -7 Y s 372 690 m -7 Y s 385 696 m -13 Y s 397 690 m -7 Y s 409 690 m -7 Y s 421 690 m -7 Y s 434 690 m -7 Y s 446 696 m -13 Y s 458 690 m -7 Y s 471
 690 m -7 Y s 483 690 m -7 Y s 495 690 m -7 Y s 507 696 m -13 Y s 520 690 m -7 Y s 532 690 m -7 Y s 544 690 m -7 Y s 557 690 m -7 Y s 569 696 m -13 Y s 581 690 m -7 Y s 593 690 m -7 Y s 606 690 m -7 Y s 618 690 m -7 Y s 630 696 m -13 Y s 200 696 m
 -13 Y s 188 690 m -7 Y s 176 690 m -7 Y s 163 690 m -7 Y s 151 690 m -7 Y s 630 696 m -13 Y s 643 690 m -7 Y s 655 690 m -7 Y s 667 690 m -7 Y s 679 690 m -7 Y s
 gsave  710 566 23 602 C 179.48 655.245 t 0 r /Helvetica findfont 25.7332 sf 0 0 m (\25520) show NC gr 
 gsave  710 566 23 602 C 239.307 655.245 t 0 r /Helvetica findfont 25.7332 sf 0 0 m (\25515) show NC gr 
 gsave  710 566 23 602 C 301.982 655.245 t 0 r /Helvetica findfont 25.7332 sf 0 0 m (\25510) show NC gr 
 gsave  710 566 23 602 C 370.356 655.245 t 0 r /Helvetica findfont 25.7332 sf 0 0 m (\2555) show NC gr 
 gsave  710 566 23 602 C 435.88 655.245 t 0 r /Helvetica findfont 25.7332 sf 0 0 m (0) show NC gr 
 gsave  710 566 23 602 C 498.556 655.245 t 0 r /Helvetica findfont 25.7332 sf 0 0 m (5) show NC gr 
 gsave  710 566 23 602 C 552.685 655.245 t 0 r /Helvetica findfont 25.7332 sf 0 0 m (10) show NC gr 
 gsave  710 566 23 602 C 615.36 655.245 t 0 r /Helvetica findfont 25.7332 sf 0 0 m (15) show NC gr  143 1111 m 548 X s 200 1098 m 13 Y s 213 1104 m 7 Y s 225 1104 m 7 Y s 237 1104 m 7 Y s 249 1104 m 7 Y s 262 1098 m 13 Y s 274 1104 m 7 Y s 286 1104 m
 7 Y s 299 1104 m 7 Y s 311 1104 m 7 Y s 323 1098 m 13 Y s 335 1104 m 7 Y s 348 1104 m 7 Y s 360 1104 m 7 Y s 372 1104 m 7 Y s 385 1098 m 13 Y s 397 1104 m 7 Y s 409 1104 m 7 Y s 421 1104 m 7 Y s 434 1104 m 7 Y s 446 1098 m 13 Y s 458 1104 m 7 Y s
 471 1104 m 7 Y s 483 1104 m 7 Y s 495 1104 m 7 Y s 507 1098 m 13 Y s 520 1104 m 7 Y s 532 1104 m 7 Y s 544 1104 m 7 Y s 557 1104 m 7 Y s 569 1098 m 13 Y s 581 1104 m 7 Y s 593 1104 m 7 Y s 606 1104 m 7 Y s 618 1104 m 7 Y s 630 1098 m 13 Y s 200 1098
 m 13 Y s 188 1104 m 7 Y s 176 1104 m 7 Y s 163 1104 m 7 Y s 151 1104 m 7 Y s 630 1098 m 13 Y s 643 1104 m 7 Y s 655 1104 m 7 Y s 667 1104 m 7 Y s 679 1104 m 7 Y s 143 683 m 428 Y s
 gsave  710 566 23 602 C 45.5822 1051.24 t 90 r /Helvetica findfont 28.5925 sf 0 0 m (1.11 ) show NC gr 
 gsave  710 566 23 602 C 31.3378 1045.54 t 90 r /Helvetica findfont 20.0147 sf 0 0 m ( ) show NC gr 
 gsave  710 566 23 602 C 45.5822 1034.15 t 90 r /Helvetica findfont 28.5925 sf 0 0 m (/) show NC gr 
 gsave  710 566 23 602 C 54.1289 1028.45 t 90 r /Helvetica findfont 20.0147 sf 0 0 m ( ) show NC gr 
 gsave  710 566 23 602 C 45.5822 920.192 t 90 r /Helvetica findfont 28.5925 sf 0 0 m (\(1/N\) dN) show NC gr  160 683 m -17 X s 152 700 m -9 X s 152 718 m -9 X s 152 735 m -9 X s 160 752 m -17 X s 152 769 m -9 X s 152 787 m -9 X s 152 804 m -9 X s
 160 821 m -17 X s 152 838 m -9 X s 152 856 m -9 X s 152 873 m -9 X s 160 890 m -17 X s 152 907 m -9 X s 152 925 m -9 X s 152 942 m -9 X s 160 959 m -17 X s 152 977 m -9 X s 152 994 m -9 X s 152 1011 m -9 X s 160 1028 m -17 X s 152 1046 m -9 X s 152
 1063 m -9 X s 152 1080 m -9 X s 160 1097 m -17 X s 160 1097 m -17 X s
 gsave  710 566 23 602 C 119.653 672.338 t 0 r /Helvetica findfont 25.7332 sf 0 0 m (0) show NC gr 
 gsave  710 566 23 602 C 82.6178 740.711 t 0 r /Helvetica findfont 25.7332 sf 0 0 m (0.02) show NC gr 
 gsave  710 566 23 602 C 82.6178 811.934 t 0 r /Helvetica findfont 25.7332 sf 0 0 m (0.04) show NC gr 
 gsave  710 566 23 602 C 82.6178 880.307 t 0 r /Helvetica findfont 25.7332 sf 0 0 m (0.06) show NC gr 
 gsave  710 566 23 602 C 82.6178 948.68 t 0 r /Helvetica findfont 25.7332 sf 0 0 m (0.08) show NC gr 
 gsave  710 566 23 602 C 102.56 1017.05 t 0 r /Helvetica findfont 25.7332 sf 0 0 m (0.1) show NC gr 
 gsave  710 566 23 602 C 82.6178 1088.28 t 0 r /Helvetica findfont 25.7332 sf 0 0 m (0.12) show NC gr  691 683 m 428 Y s 674 683 m 17 X s 683 700 m 8 X s 683 718 m 8 X s 683 735 m 8 X s 674 752 m 17 X s 683 769 m 8 X s 683 787 m 8 X s 683 804 m 8 X s
 674 821 m 17 X s 683 838 m 8 X s 683 856 m 8 X s 683 873 m 8 X s 674 890 m 17 X s 683 907 m 8 X s 683 925 m 8 X s 683 942 m 8 X s 674 959 m 17 X s 683 977 m 8 X s 683 994 m 8 X s 683 1011 m 8 X s 674 1028 m 17 X s 683 1046 m 8 X s 683 1063 m 8 X s
 683 1080 m 8 X s 674 1097 m 17 X s 674 1097 m 17 X s 1 0 0 c 6 lw black 3 lw 1 0 0 c 676 683 m s 661 683 m s 646 683 m s 631 683 m s 616 683 m s 601 683 m s 586 683 m s 571 683 m s 556 683 m s 554 696 m -13 -13 d s 554 711 m -28 -28 d s 554 726 m
 -43 -43 d s 554 742 m -58 -59 d s 554 757 m -73 -74 d s 554 772 m -89 -89 d s 554 787 m -104 -104 d s 553 802 m -118 -119 d s 540 804 m -120 -121 d s 540 819 m -135 -136 d s 540 834 m -150 -151 d s 540 849 m -165 -166 d s 540 864 m -180 -181 d s 540
 879 m -109 -110 d s 423 762 m -78 -79 d s 528 882 m -97 -97 d s 408 762 m -32 -32 d s 369 722 m -34 -34 d s 330 683 m s 526 896 m -95 -96 d s 394 763 m -18 -18 d s 362 731 m -27 -28 d s 315 683 m s 526 911 m -95 -96 d s 390 774 m -14 -14 d s 362 746
 m -13 -14 d s 339 723 m -4 -4 d s 308 691 m -8 -8 d s 522 922 m -91 -92 d s 390 789 m -14 -14 d s 362 761 m -13 -14 d s 308 706 m -14 -14 d s 285 683 m s 507 922 m -76 -77 d s 390 804 m -14 -14 d s 308 721 m -14 -13 d s 280 694 m -10 -11 d s 499 929
 m -68 -69 d s 390 819 m -14 -14 d s 294 723 m s 280 709 m -13 -14 d s 254 683 m s 499 944 m -14 -13 d s 477 922 m -46 -46 d s 390 834 m -14 -14 d s 280 724 m -13 -14 d s 253 697 m -14 -14 d s 499 959 m -14 -13 d s 472 932 m -41 -41 d s 383 842 m -7
 -6 d s 253 712 m -14 -14 d s 224 683 m s 472 947 m -41 -41 d s 249 723 m -10 -10 d s 209 683 m s 472 962 m -41 -41 d s 194 683 m cl s 472 977 m -41 -41 d s 179 683 m s 472 993 m -41 -42 d s 171 690 m -7 -7 d s 472 1008 m -41 -41 d s 171 705 m -22
 -22 d s 472 1023 m -14 -14 d s 447 998 m -16 -16 d s 171 720 m -28 -27 d s 472 1038 m -14 -14 d s 444 1011 m -13 -14 d s 158 723 m -15 -15 d s 459 1041 m -1 -1 d s 444 1026 m -13 -14 d s 444 1041 m -13 -14 d s 432 1044 m -1 -2 d s 6 lw 143 723 m 28
 X -40 Y 68 X 40 Y 14 X -40 Y 14 X 42 Y 13 X -42 Y 14 X 40 Y 14 X -40 Y 27 X 40 Y 14 X 39 Y 13 X -40 Y 14 X 120 Y 14 X -79 Y 13 X -1 Y 28 X 282 Y 13 X -46 Y 14 X 43 Y 14 X -119 Y 13 X 39 Y 14 X -39 Y 27 X -40 Y 14 X -80 Y 14 X -119 Y 137 X s black 3
 lw 143 683 m 548 X s 200 696 m -13 Y s 213 690 m -7 Y s 225 690 m -7 Y s 237 690 m -7 Y s 249 690 m -7 Y s 262 696 m -13 Y s 274 690 m -7 Y s 286 690 m -7 Y s 299 690 m -7 Y s 311 690 m -7 Y s 323 696 m -13 Y s 335 690 m -7 Y s 348 690 m -7 Y s 360
 690 m -7 Y s 372 690 m -7 Y s 385 696 m -13 Y s 397 690 m -7 Y s 409 690 m -7 Y s 421 690 m -7 Y s 434 690 m -7 Y s 446 696 m -13 Y s 458 690 m -7 Y s 471 690 m -7 Y s 483 690 m -7 Y s 495 690 m -7 Y s 507 696 m -13 Y s 520 690 m -7 Y s 532 690 m -7
 Y s 544 690 m -7 Y s 557 690 m -7 Y s 569 696 m -13 Y s 581 690 m -7 Y s 593 690 m -7 Y s 606 690 m -7 Y s 618 690 m -7 Y s 630 696 m -13 Y s 200 696 m -13 Y s 188 690 m -7 Y s 176 690 m -7 Y s 163 690 m -7 Y s 151 690 m -7 Y s 630 696 m -13 Y s 643
 690 m -7 Y s 655 690 m -7 Y s 667 690 m -7 Y s 679 690 m -7 Y s 143 1111 m 548 X s 200 1098 m 13 Y s 213 1104 m 7 Y s 225 1104 m 7 Y s 237 1104 m 7 Y s 249 1104 m 7 Y s 262 1098 m 13 Y s 274 1104 m 7 Y s 286 1104 m 7 Y s 299 1104 m 7 Y s 311 1104 m
 7 Y s 323 1098 m 13 Y s 335 1104 m 7 Y s 348 1104 m 7 Y s 360 1104 m 7 Y s 372 1104 m 7 Y s 385 1098 m 13 Y s 397 1104 m 7 Y s 409 1104 m 7 Y s 421 1104 m 7 Y s 434 1104 m 7 Y s 446 1098 m 13 Y s 458 1104 m 7 Y s 471 1104 m 7 Y s 483 1104 m 7 Y s
 495 1104 m 7 Y s 507 1098 m 13 Y s 520 1104 m 7 Y s 532 1104 m 7 Y s 544 1104 m 7 Y s 557 1104 m 7 Y s 569 1098 m 13 Y s 581 1104 m 7 Y s 593 1104 m 7 Y s 606 1104 m 7 Y s 618 1104 m 7 Y s 630 1098 m 13 Y s 200 1098 m 13 Y s 188 1104 m 7 Y s 176
 1104 m 7 Y s 163 1104 m 7 Y s 151 1104 m 7 Y s 630 1098 m 13 Y s 643 1104 m 7 Y s 655 1104 m 7 Y s 667 1104 m 7 Y s 679 1104 m 7 Y s 143 683 m 428 Y s 160 683 m -17 X s 152 700 m -9 X s 152 718 m -9 X s 152 735 m -9 X s 160 752 m -17 X s 152 769 m
 -9 X s 152 787 m -9 X s 152 804 m -9 X s 160 821 m -17 X s 152 838 m -9 X s 152 856 m -9 X s 152 873 m -9 X s 160 890 m -17 X s 152 907 m -9 X s 152 925 m -9 X s 152 942 m -9 X s 160 959 m -17 X s 152 977 m -9 X s 152 994 m -9 X s 152 1011 m -9 X s
 160 1028 m -17 X s 152 1046 m -9 X s 152 1063 m -9 X s 152 1080 m -9 X s 160 1097 m -17 X s 160 1097 m -17 X s 691 683 m 428 Y s 674 683 m 17 X s 683 700 m 8 X s 683 718 m 8 X s 683 735 m 8 X s 674 752 m 17 X s 683 769 m 8 X s 683 787 m 8 X s 683
 804 m 8 X s 674 821 m 17 X s 683 838 m 8 X s 683 856 m 8 X s 683 873 m 8 X s 674 890 m 17 X s 683 907 m 8 X s 683 925 m 8 X s 683 942 m 8 X s 674 959 m 17 X s 683 977 m 8 X s 683 994 m 8 X s 683 1011 m 8 X s 674 1028 m 17 X s 683 1046 m 8 X s 683
 1063 m 8 X s 683 1080 m 8 X s 674 1097 m 17 X s 674 1097 m 17 X s
 gsave  710 566 23 602 C 719.017 680.773 t 90 r /Helvetica-Bold findfont 20.0147 sf 0 0 m (U/O\255flow \(S,B\): \(0.0, 0.0\)% / \(0.0, 0.0\)%) show NC gr  0.490196 0.545098 0.615686 c 0.364706 0.419608 0.490196 c 497 38 30 1127 bf 0.490196 0.545098
 0.615686 c 30 1127 m 497 X s 527 1127 m 38 Y s 527 1165 m -497 X s 30 1165 m -38 Y s 1 1 1 c black 1 1 1 c
 gsave  710 566 23 602 C 28.4889 1139.56 t 0 r /Helvetica-Bold findfont 22.874 sf 0 0 m (Input variable'PCA'\255transformed : GTND_gold) show NC gr  0.490196 0.545098 0.615686 c 0.941176 0.941176 0.941176 c 710 566 779 602 bf black 1 1 0.992157 c 548
 428 899 683 bf black 548 428 899 683 bl 1 1 0.992157 c 548 428 899 683 bf black 548 428 899 683 bl 0 0 0.933333 c 6 lw 0.49 0.6 0.82 c black 3 lw 0.49 0.6 0.82 c 899 683 m 42 Y 14 X -42 Y 151 X 38 Y 13 X -38 Y 14 X 39 Y 14 X 37 Y 13 X 40 Y 14 X -1 Y
 14 X 1 Y 13 X 36 Y 14 X 157 Y 14 X -156 Y 13 X 1 Y 14 X 235 Y 14 X -313 Y 13 X 153 Y 14 X -151 Y 14 X -78 Y 13 X 38 Y 14 X -38 Y 27 X 38 Y 14 X -38 Y 110 X f 6 lw 0 0 0.933333 c 0.49 0.6 0.82 c 0 0 0.933333 c 899 725 m 14 X -42 Y 151 X 38 Y 13 X -38
 Y 14 X 39 Y 14 X 37 Y 13 X 40 Y 14 X -1 Y 14 X 1 Y 13 X 36 Y 14 X 157 Y 14 X -156 Y 13 X 1 Y 14 X 235 Y 14 X -313 Y 13 X 153 Y 14 X -151 Y 14 X -78 Y 13 X 38 Y 14 X -38 Y 27 X 38 Y 14 X -38 Y 110 X s black 3 lw 899 683 m 548 X s
 gsave  710 566 779 602 C 1173.74 615.36 t 0 r /Helvetica findfont 28.5925 sf 0 0 m (GTND_holiday \(PCA\)) show NC gr  943 696 m -13 Y s 955 690 m -7 Y s 967 690 m -7 Y s 979 690 m -7 Y s 991 690 m -7 Y s 1004 696 m -13 Y s 1016 690 m -7 Y s 1028 690
 m -7 Y s 1040 690 m -7 Y s 1053 690 m -7 Y s 1065 696 m -13 Y s 1077 690 m -7 Y s 1089 690 m -7 Y s 1101 690 m -7 Y s 1114 690 m -7 Y s 1126 696 m -13 Y s 1138 690 m -7 Y s 1150 690 m -7 Y s 1162 690 m -7 Y s 1175 690 m -7 Y s 1187 696 m -13 Y s
 1199 690 m -7 Y s 1211 690 m -7 Y s 1224 690 m -7 Y s 1236 690 m -7 Y s 1248 696 m -13 Y s 1260 690 m -7 Y s 1272 690 m -7 Y s 1285 690 m -7 Y s 1297 690 m -7 Y s 1309 696 m -13 Y s 1321 690 m -7 Y s 1334 690 m -7 Y s 1346 690 m -7 Y s 1358 690 m -7
 Y s 1370 696 m -13 Y s 1382 690 m -7 Y s 1395 690 m -7 Y s 1407 690 m -7 Y s 1419 690 m -7 Y s 1431 696 m -13 Y s 943 696 m -13 Y s 930 690 m -7 Y s 918 690 m -7 Y s 906 690 m -7 Y s 1431 696 m -13 Y s 1443 690 m -7 Y s
 gsave  710 566 779 602 C 920.192 655.245 t 0 r /Helvetica findfont 25.7332 sf 0 0 m (\25520) show NC gr 
 gsave  710 566 779 602 C 982.867 655.245 t 0 r /Helvetica findfont 25.7332 sf 0 0 m (\25515) show NC gr 
 gsave  710 566 779 602 C 1042.69 655.245 t 0 r /Helvetica findfont 25.7332 sf 0 0 m (\25510) show NC gr 
 gsave  710 566 779 602 C 1113.92 655.245 t 0 r /Helvetica findfont 25.7332 sf 0 0 m (\2555) show NC gr 
 gsave  710 566 779 602 C 1176.59 655.245 t 0 r /Helvetica findfont 25.7332 sf 0 0 m (0) show NC gr 
 gsave  710 566 779 602 C 1239.27 655.245 t 0 r /Helvetica findfont 25.7332 sf 0 0 m (5) show NC gr 
 gsave  710 566 779 602 C 1293.4 655.245 t 0 r /Helvetica findfont 25.7332 sf 0 0 m (10) show NC gr 
 gsave  710 566 779 602 C 1353.22 655.245 t 0 r /Helvetica findfont 25.7332 sf 0 0 m (15) show NC gr 
 gsave  710 566 779 602 C 1415.9 655.245 t 0 r /Helvetica findfont 25.7332 sf 0 0 m (20) show NC gr  899 1111 m 548 X s 943 1098 m 13 Y s 955 1104 m 7 Y s 967 1104 m 7 Y s 979 1104 m 7 Y s 991 1104 m 7 Y s 1004 1098 m 13 Y s 1016 1104 m 7 Y s 1028
 1104 m 7 Y s 1040 1104 m 7 Y s 1053 1104 m 7 Y s 1065 1098 m 13 Y s 1077 1104 m 7 Y s 1089 1104 m 7 Y s 1101 1104 m 7 Y s 1114 1104 m 7 Y s 1126 1098 m 13 Y s 1138 1104 m 7 Y s 1150 1104 m 7 Y s 1162 1104 m 7 Y s 1175 1104 m 7 Y s 1187 1098 m 13 Y s
 1199 1104 m 7 Y s 1211 1104 m 7 Y s 1224 1104 m 7 Y s 1236 1104 m 7 Y s 1248 1098 m 13 Y s 1260 1104 m 7 Y s 1272 1104 m 7 Y s 1285 1104 m 7 Y s 1297 1104 m 7 Y s 1309 1098 m 13 Y s 1321 1104 m 7 Y s 1334 1104 m 7 Y s 1346 1104 m 7 Y s 1358 1104 m 7
 Y s 1370 1098 m 13 Y s 1382 1104 m 7 Y s 1395 1104 m 7 Y s 1407 1104 m 7 Y s 1419 1104 m 7 Y s 1431 1098 m 13 Y s 943 1098 m 13 Y s 930 1104 m 7 Y s 918 1104 m 7 Y s 906 1104 m 7 Y s 1431 1098 m 13 Y s 1443 1104 m 7 Y s 899 683 m 428 Y s
 gsave  710 566 779 602 C 803.387 1045.54 t 90 r /Helvetica findfont 28.5925 sf 0 0 m (1.12 ) show NC gr 
 gsave  710 566 779 602 C 789.143 1039.84 t 90 r /Helvetica findfont 20.0147 sf 0 0 m ( ) show NC gr 
 gsave  710 566 779 602 C 803.387 1028.45 t 90 r /Helvetica findfont 28.5925 sf 0 0 m (/) show NC gr 
 gsave  710 566 779 602 C 811.934 1022.75 t 90 r /Helvetica findfont 20.0147 sf 0 0 m ( ) show NC gr 
 gsave  710 566 779 602 C 803.387 914.494 t 90 r /Helvetica findfont 28.5925 sf 0 0 m (\(1/N\) dN) show NC gr  915 683 m -16 X s 907 695 m -8 X s 907 707 m -8 X s 907 719 m -8 X s 915 731 m -16 X s 907 743 m -8 X s 907 755 m -8 X s 907 768 m -8 X s
 915 780 m -16 X s 907 792 m -8 X s 907 804 m -8 X s 907 816 m -8 X s 915 828 m -16 X s 907 840 m -8 X s 907 852 m -8 X s 907 864 m -8 X s 915 876 m -16 X s 907 888 m -8 X s 907 900 m -8 X s 907 912 m -8 X s 915 924 m -16 X s 907 936 m -8 X s 907 949
 m -8 X s 907 961 m -8 X s 915 973 m -16 X s 907 985 m -8 X s 907 997 m -8 X s 907 1009 m -8 X s 915 1021 m -16 X s 907 1033 m -8 X s 907 1045 m -8 X s 907 1057 m -8 X s 915 1069 m -16 X s 915 1069 m -16 X s 907 1081 m -8 X s 907 1093 m -8 X s 907
 1105 m -8 X s
 gsave  710 566 779 602 C 874.609 672.338 t 0 r /Helvetica findfont 25.7332 sf 0 0 m (0) show NC gr 
 gsave  710 566 779 602 C 837.574 720.769 t 0 r /Helvetica findfont 25.7332 sf 0 0 m (0.02) show NC gr 
 gsave  710 566 779 602 C 837.574 769.2 t 0 r /Helvetica findfont 25.7332 sf 0 0 m (0.04) show NC gr 
 gsave  710 566 779 602 C 837.574 817.631 t 0 r /Helvetica findfont 25.7332 sf 0 0 m (0.06) show NC gr 
 gsave  710 566 779 602 C 837.574 866.063 t 0 r /Helvetica findfont 25.7332 sf 0 0 m (0.08) show NC gr 
 gsave  710 566 779 602 C 857.516 914.494 t 0 r /Helvetica findfont 25.7332 sf 0 0 m (0.1) show NC gr 
 gsave  710 566 779 602 C 837.574 962.925 t 0 r /Helvetica findfont 25.7332 sf 0 0 m (0.12) show NC gr 
 gsave  710 566 779 602 C 837.574 1011.36 t 0 r /Helvetica findfont 25.7332 sf 0 0 m (0.14) show NC gr 
 gsave  710 566 779 602 C 837.574 1059.79 t 0 r /Helvetica findfont 25.7332 sf 0 0 m (0.16) show NC gr  1447 683 m 428 Y s 1430 683 m 17 X s 1438 695 m 9 X s 1438 707 m 9 X s 1438 719 m 9 X s 1430 731 m 17 X s 1438 743 m 9 X s 1438 755 m 9 X s 1438
 768 m 9 X s 1430 780 m 17 X s 1438 792 m 9 X s 1438 804 m 9 X s 1438 816 m 9 X s 1430 828 m 17 X s 1438 840 m 9 X s 1438 852 m 9 X s 1438 864 m 9 X s 1430 876 m 17 X s 1438 888 m 9 X s 1438 900 m 9 X s 1438 912 m 9 X s 1430 924 m 17 X s 1438 936 m 9
 X s 1438 949 m 9 X s 1438 961 m 9 X s 1430 973 m 17 X s 1438 985 m 9 X s 1438 997 m 9 X s 1438 1009 m 9 X s 1430 1021 m 17 X s 1438 1033 m 9 X s 1438 1045 m 9 X s 1438 1057 m 9 X s 1430 1069 m 17 X s 1430 1069 m 17 X s 1438 1081 m 9 X s 1438 1093 m
 9 X s 1438 1105 m 9 X s 1 0 0 c 6 lw black 3 lw 1 0 0 c 1433 683 m s 1418 683 m s 1403 683 m s 1388 683 m s 1372 683 m s 1357 683 m s 1351 692 m -9 -9 d s 1351 707 m -14 -14 d s 1327 683 m s 1340 711 m -3 -3 d s 1312 683 m s 1310 696 m -13 -13 d s
 1309 711 m -13 -14 d s 1282 683 m s 1282 699 m -15 -16 d s 1282 714 m -30 -31 d s 1282 729 m -13 -14 d s 1265 711 m -28 -28 d s 1279 740 m -10 -10 d s 1255 716 m -33 -33 d s 1255 732 m -48 -49 d s 1255 747 m -63 -64 d s 1255 762 m -79 -79 d s 1255
 777 m -94 -94 d s 1255 792 m -109 -109 d s 1242 794 m -111 -111 d s 1241 808 m -125 -125 d s 1241 824 m -140 -141 d s 1241 839 m -13 -14 d s 1224 821 m -138 -138 d s 1241 854 m -13 -14 d s 1209 821 m -50 -49 d s 1154 766 m -22 -22 d s 1126 738 m -55
 -55 d s 1241 869 m -13 -14 d s 1200 828 m -41 -41 d s 1146 773 m -14 -14 d s 1118 745 m -27 -27 d s 1083 711 m -27 -28 d s 1241 884 m -13 -14 d s 1200 843 m -41 -41 d s 1146 788 m -14 -14 d s 1118 761 m -27 -28 d s 1069 711 m -28 -28 d s 1241 899 m
 -13 -14 d s 1200 858 m -41 -41 d s 1146 803 m -14 -14 d s 1118 776 m -27 -28 d s 1054 711 m -18 -18 d s 1026 683 m s 1231 904 m -3 -4 d s 1200 873 m -41 -41 d s 1146 818 m -14 -13 d s 1118 791 m -13 -14 d s 1095 767 m -4 -4 d s 1039 712 m -3 -3 d s
 1011 683 m s 1188 876 m -29 -29 d s 1146 833 m -14 -13 d s 1105 792 m s 996 683 m s 1187 890 m -28 -28 d s 1145 848 m -13 -13 d s 981 683 m s 1187 905 m -28 -28 d s 965 683 m s 1187 920 m -14 -14 d s 1171 904 m -12 -12 d s 950 683 m s 1187 935 m -14
 -14 d s 935 683 m cl s 1187 950 m -14 -14 d s 920 683 m s 1187 965 m -14 -14 d s 905 683 m cl s 1187 980 m -14 -14 d s 1187 995 m -14 -13 d s 1187 1010 m -14 -13 d s 1187 1025 m -14 -13 d s 1187 1041 m -14 -14 d s 1187 1056 m -14 -14 d s 1185 1069 m
 -12 -12 d s 6 lw 899 683 m 137 X 29 Y 14 X -1 Y 41 X 56 Y 14 X 25 Y 13 X -54 Y 14 X 110 Y 14 X -82 Y 13 X 138 Y 14 X 165 Y 14 X -193 Y 13 X -55 Y 28 X 83 Y 13 X -110 Y 14 X -83 Y 14 X 29 Y 13 X -57 Y 14 X 28 Y 14 X -28 Y 27 X 28 Y 14 X -28 Y 96 X s
 black 3 lw 899 683 m 548 X s 943 696 m -13 Y s 955 690 m -7 Y s 967 690 m -7 Y s 979 690 m -7 Y s 991 690 m -7 Y s 1004 696 m -13 Y s 1016 690 m -7 Y s 1028 690 m -7 Y s 1040 690 m -7 Y s 1053 690 m -7 Y s 1065 696 m -13 Y s 1077 690 m -7 Y s 1089
 690 m -7 Y s 1101 690 m -7 Y s 1114 690 m -7 Y s 1126 696 m -13 Y s 1138 690 m -7 Y s 1150 690 m -7 Y s 1162 690 m -7 Y s 1175 690 m -7 Y s 1187 696 m -13 Y s 1199 690 m -7 Y s 1211 690 m -7 Y s 1224 690 m -7 Y s 1236 690 m -7 Y s 1248 696 m -13 Y s
 1260 690 m -7 Y s 1272 690 m -7 Y s 1285 690 m -7 Y s 1297 690 m -7 Y s 1309 696 m -13 Y s 1321 690 m -7 Y s 1334 690 m -7 Y s 1346 690 m -7 Y s 1358 690 m -7 Y s 1370 696 m -13 Y s 1382 690 m -7 Y s 1395 690 m -7 Y s 1407 690 m -7 Y s 1419 690 m -7
 Y s 1431 696 m -13 Y s 943 696 m -13 Y s 930 690 m -7 Y s 918 690 m -7 Y s 906 690 m -7 Y s 1431 696 m -13 Y s 1443 690 m -7 Y s 899 1111 m 548 X s 943 1098 m 13 Y s 955 1104 m 7 Y s 967 1104 m 7 Y s 979 1104 m 7 Y s 991 1104 m 7 Y s 1004 1098 m 13
 Y s 1016 1104 m 7 Y s 1028 1104 m 7 Y s 1040 1104 m 7 Y s 1053 1104 m 7 Y s 1065 1098 m 13 Y s 1077 1104 m 7 Y s 1089 1104 m 7 Y s 1101 1104 m 7 Y s 1114 1104 m 7 Y s 1126 1098 m 13 Y s 1138 1104 m 7 Y s 1150 1104 m 7 Y s 1162 1104 m 7 Y s 1175 1104
 m 7 Y s 1187 1098 m 13 Y s 1199 1104 m 7 Y s 1211 1104 m 7 Y s 1224 1104 m 7 Y s 1236 1104 m 7 Y s 1248 1098 m 13 Y s 1260 1104 m 7 Y s 1272 1104 m 7 Y s 1285 1104 m 7 Y s 1297 1104 m 7 Y s 1309 1098 m 13 Y s 1321 1104 m 7 Y s 1334 1104 m 7 Y s 1346
 1104 m 7 Y s 1358 1104 m 7 Y s 1370 1098 m 13 Y s 1382 1104 m 7 Y s 1395 1104 m 7 Y s 1407 1104 m 7 Y s 1419 1104 m 7 Y s 1431 1098 m 13 Y s 943 1098 m 13 Y s 930 1104 m 7 Y s 918 1104 m 7 Y s 906 1104 m 7 Y s 1431 1098 m 13 Y s 1443 1104 m 7 Y s
 899 683 m 428 Y s 915 683 m -16 X s 907 695 m -8 X s 907 707 m -8 X s 907 719 m -8 X s 915 731 m -16 X s 907 743 m -8 X s 907 755 m -8 X s 907 768 m -8 X s 915 780 m -16 X s 907 792 m -8 X s 907 804 m -8 X s 907 816 m -8 X s 915 828 m -16 X s 907
 840 m -8 X s 907 852 m -8 X s 907 864 m -8 X s 915 876 m -16 X s 907 888 m -8 X s 907 900 m -8 X s 907 912 m -8 X s 915 924 m -16 X s 907 936 m -8 X s 907 949 m -8 X s 907 961 m -8 X s 915 973 m -16 X s 907 985 m -8 X s 907 997 m -8 X s 907 1009 m
 -8 X s 915 1021 m -16 X s 907 1033 m -8 X s 907 1045 m -8 X s 907 1057 m -8 X s 915 1069 m -16 X s 915 1069 m -16 X s 907 1081 m -8 X s 907 1093 m -8 X s 907 1105 m -8 X s 1447 683 m 428 Y s 1430 683 m 17 X s 1438 695 m 9 X s 1438 707 m 9 X s 1438
 719 m 9 X s 1430 731 m 17 X s 1438 743 m 9 X s 1438 755 m 9 X s 1438 768 m 9 X s 1430 780 m 17 X s 1438 792 m 9 X s 1438 804 m 9 X s 1438 816 m 9 X s 1430 828 m 17 X s 1438 840 m 9 X s 1438 852 m 9 X s 1438 864 m 9 X s 1430 876 m 17 X s 1438 888 m 9
 X s 1438 900 m 9 X s 1438 912 m 9 X s 1430 924 m 17 X s 1438 936 m 9 X s 1438 949 m 9 X s 1438 961 m 9 X s 1430 973 m 17 X s 1438 985 m 9 X s 1438 997 m 9 X s 1438 1009 m 9 X s 1430 1021 m 17 X s 1438 1033 m 9 X s 1438 1045 m 9 X s 1438 1057 m 9 X s
 1430 1069 m 17 X s 1430 1069 m 17 X s 1438 1081 m 9 X s 1438 1093 m 9 X s 1438 1105 m 9 X s
 gsave  710 566 779 602 C 1474.92 680.773 t 90 r /Helvetica-Bold findfont 20.0147 sf 0 0 m (U/O\255flow \(S,B\): \(0.0, 0.0\)% / \(0.0, 0.0\)%) show NC gr  0.490196 0.545098 0.615686 c 0.364706 0.419608 0.490196 c 497 38 786 1127 bf 0.490196 0.545098
 0.615686 c 786 1127 m 497 X s 1283 1127 m 38 Y s 1283 1165 m -497 X s 786 1165 m -38 Y s 1 1 1 c black 1 1 1 c
 gsave  710 566 779 602 C 803.387 1139.56 t 0 r /Helvetica-Bold findfont 20.0147 sf 0 0 m (Input variable'PCA'\255transformed : GTND_holiday) show NC gr  0.490196 0.545098 0.615686 c 0.941176 0.941176 0.941176 c 711 566 1534 602 bf black 1 1 0.992157
 c 547 428 1655 683 bf black 547 428 1655 683 bl 1 1 0.992157 c 547 428 1655 683 bf black 547 428 1655 683 bl 0 0 0.933333 c 6 lw 0.49 0.6 0.82 c black 3 lw 0.49 0.6 0.82 c 1655 683 m 110 X 48 Y 13 X -48 Y 41 X 49 Y 28 X 47 Y 13 X 98 Y 14 X -145 Y 14
 X 47 Y 13 X -47 Y 14 X 294 Y 14 X -149 Y 14 X 50 Y 13 X 2 Y 14 X 143 Y 14 X -389 Y 13 X 246 Y 14 X -197 Y 14 X 50 Y 13 X -99 Y 14 X 146 Y 14 X -146 Y 13 X 48 Y 14 X -48 Y 27 X 57 Y 14 X -57 Y 55 X 53 Y 13 X -53 Y f 6 lw 0 0 0.933333 c 0.49 0.6 0.82
 c 0 0 0.933333 c 1655 683 m 110 X 48 Y 13 X -48 Y 41 X 49 Y 28 X 47 Y 13 X 98 Y 14 X -145 Y 14 X 47 Y 13 X -47 Y 14 X 294 Y 14 X -149 Y 14 X 50 Y 13 X 2 Y 14 X 143 Y 14 X -389 Y 13 X 246 Y 14 X -197 Y 14 X 50 Y 13 X -99 Y 14 X 146 Y 14 X -146 Y 13 X
 48 Y 14 X -48 Y 27 X 57 Y 14 X -57 Y 55 X 53 Y 13 X -53 Y s black 3 lw 1655 683 m 547 X s
 gsave  711 566 1534 602 C 1923 615.36 t 0 r /Helvetica findfont 28.5925 sf 0 0 m (GTND_inflation \(PCA\)) show NC gr  1727 696 m -13 Y s 1748 690 m -7 Y s 1770 690 m -7 Y s 1791 690 m -7 Y s 1813 690 m -7 Y s 1834 696 m -13 Y s 1856 690 m -7 Y s
 1877 690 m -7 Y s 1899 690 m -7 Y s 1920 690 m -7 Y s 1942 696 m -13 Y s 1964 690 m -7 Y s 1985 690 m -7 Y s 2007 690 m -7 Y s 2028 690 m -7 Y s 2050 696 m -13 Y s 2071 690 m -7 Y s 2093 690 m -7 Y s 2114 690 m -7 Y s 2136 690 m -7 Y s 2157 696 m
 -13 Y s 1727 696 m -13 Y s 1705 690 m -7 Y s 1683 690 m -7 Y s 1662 690 m -7 Y s 2157 696 m -13 Y s 2179 690 m -7 Y s 2200 690 m -7 Y s
 gsave  711 566 1534 602 C 1706.49 655.245 t 0 r /Helvetica findfont 25.7332 sf 0 0 m (\25510) show NC gr 
 gsave  711 566 1534 602 C 1820.44 655.245 t 0 r /Helvetica findfont 25.7332 sf 0 0 m (\2555) show NC gr 
 gsave  711 566 1534 602 C 1931.55 655.245 t 0 r /Helvetica findfont 25.7332 sf 0 0 m (0) show NC gr 
 gsave  711 566 1534 602 C 2039.81 655.245 t 0 r /Helvetica findfont 25.7332 sf 0 0 m (5) show NC gr 
 gsave  711 566 1534 602 C 2142.37 655.245 t 0 r /Helvetica findfont 25.7332 sf 0 0 m (10) show NC gr  1655 1111 m 547 X s 1727 1098 m 13 Y s 1748 1104 m 7 Y s 1770 1104 m 7 Y s 1791 1104 m 7 Y s 1813 1104 m 7 Y s 1834 1098 m 13 Y s 1856 1104 m 7 Y s
 1877 1104 m 7 Y s 1899 1104 m 7 Y s 1920 1104 m 7 Y s 1942 1098 m 13 Y s 1964 1104 m 7 Y s 1985 1104 m 7 Y s 2007 1104 m 7 Y s 2028 1104 m 7 Y s 2050 1098 m 13 Y s 2071 1104 m 7 Y s 2093 1104 m 7 Y s 2114 1104 m 7 Y s 2136 1104 m 7 Y s 2157 1098 m
 13 Y s 1727 1098 m 13 Y s 1705 1104 m 7 Y s 1683 1104 m 7 Y s 1662 1104 m 7 Y s 2157 1098 m 13 Y s 2179 1104 m 7 Y s 2200 1104 m 7 Y s 1655 683 m 428 Y s
 gsave  711 566 1534 602 C 1558.34 1031.3 t 90 r /Helvetica findfont 28.5925 sf 0 0 m (0.635 ) show NC gr 
 gsave  711 566 1534 602 C 1544.1 1025.6 t 90 r /Helvetica findfont 20.0147 sf 0 0 m ( ) show NC gr 
 gsave  711 566 1534 602 C 1558.34 1014.2 t 90 r /Helvetica findfont 28.5925 sf 0 0 m (/) show NC gr 
 gsave  711 566 1534 602 C 1566.89 1008.51 t 90 r /Helvetica findfont 20.0147 sf 0 0 m ( ) show NC gr 
 gsave  711 566 1534 602 C 1558.34 900.249 t 90 r /Helvetica findfont 28.5925 sf 0 0 m (\(1/N\) dN) show NC gr  1671 683 m -16 X s 1663 692 m -8 X s 1663 700 m -8 X s 1663 709 m -8 X s 1671 718 m -16 X s 1663 727 m -8 X s 1663 735 m -8 X s 1663 744 m
 -8 X s 1671 753 m -16 X s 1663 761 m -8 X s 1663 770 m -8 X s 1663 779 m -8 X s 1671 788 m -16 X s 1663 796 m -8 X s 1663 805 m -8 X s 1663 814 m -8 X s 1671 822 m -16 X s 1663 831 m -8 X s 1663 840 m -8 X s 1663 848 m -8 X s 1671 857 m -16 X s 1663
 866 m -8 X s 1663 875 m -8 X s 1663 883 m -8 X s 1671 892 m -16 X s 1663 901 m -8 X s 1663 909 m -8 X s 1663 918 m -8 X s 1671 927 m -16 X s 1663 936 m -8 X s 1663 944 m -8 X s 1663 953 m -8 X s 1671 962 m -16 X s 1663 970 m -8 X s 1663 979 m -8 X s
 1663 988 m -8 X s 1671 996 m -16 X s 1663 1005 m -8 X s 1663 1014 m -8 X s 1663 1023 m -8 X s 1671 1031 m -16 X s 1663 1040 m -8 X s 1663 1049 m -8 X s 1663 1057 m -8 X s 1671 1066 m -16 X s 1663 1075 m -8 X s 1663 1084 m -8 X s 1663 1092 m -8 X s
 1671 1101 m -16 X s 1671 1101 m -16 X s 1663 1110 m -8 X s
 gsave  711 566 1534 602 C 1632.41 672.338 t 0 r /Helvetica findfont 25.7332 sf 0 0 m (0) show NC gr 
 gsave  711 566 1534 602 C 1595.38 706.525 t 0 r /Helvetica findfont 25.7332 sf 0 0 m (0.02) show NC gr 
 gsave  711 566 1534 602 C 1595.38 743.56 t 0 r /Helvetica findfont 25.7332 sf 0 0 m (0.04) show NC gr 
 gsave  711 566 1534 602 C 1595.38 777.747 t 0 r /Helvetica findfont 25.7332 sf 0 0 m (0.06) show NC gr 
 gsave  711 566 1534 602 C 1595.38 811.934 t 0 r /Helvetica findfont 25.7332 sf 0 0 m (0.08) show NC gr 
 gsave  711 566 1534 602 C 1615.32 846.12 t 0 r /Helvetica findfont 25.7332 sf 0 0 m (0.1) show NC gr 
 gsave  711 566 1534 602 C 1595.38 883.156 t 0 r /Helvetica findfont 25.7332 sf 0 0 m (0.12) show NC gr 
 gsave  711 566 1534 602 C 1595.38 917.343 t 0 r /Helvetica findfont 25.7332 sf 0 0 m (0.14) show NC gr 
 gsave  711 566 1534 602 C 1595.38 951.529 t 0 r /Helvetica findfont 25.7332 sf 0 0 m (0.16) show NC gr 
 gsave  711 566 1534 602 C 1595.38 985.716 t 0 r /Helvetica findfont 25.7332 sf 0 0 m (0.18) show NC gr 
 gsave  711 566 1534 602 C 1609.62 1019.9 t 0 r /Helvetica findfont 25.7332 sf 0 0 m (0.2) show NC gr 
 gsave  711 566 1534 602 C 1595.38 1056.94 t 0 r /Helvetica findfont 25.7332 sf 0 0 m (0.22) show NC gr 
 gsave  711 566 1534 602 C 1595.38 1091.12 t 0 r /Helvetica findfont 25.7332 sf 0 0 m (0.24) show NC gr  2202 683 m 428 Y s 2186 683 m 16 X s 2194 692 m 8 X s 2194 700 m 8 X s 2194 709 m 8 X s 2186 718 m 16 X s 2194 727 m 8 X s 2194 735 m 8 X s 2194
 744 m 8 X s 2186 753 m 16 X s 2194 761 m 8 X s 2194 770 m 8 X s 2194 779 m 8 X s 2186 788 m 16 X s 2194 796 m 8 X s 2194 805 m 8 X s 2194 814 m 8 X s 2186 822 m 16 X s 2194 831 m 8 X s 2194 840 m 8 X s 2194 848 m 8 X s 2186 857 m 16 X s 2194 866 m 8
 X s 2194 875 m 8 X s 2194 883 m 8 X s 2186 892 m 16 X s 2194 901 m 8 X s 2194 909 m 8 X s 2194 918 m 8 X s 2186 927 m 16 X s 2194 936 m 8 X s 2194 944 m 8 X s 2194 953 m 8 X s 2186 962 m 16 X s 2194 970 m 8 X s 2194 979 m 8 X s 2194 988 m 8 X s 2186
 996 m 16 X s 2194 1005 m 8 X s 2194 1014 m 8 X s 2194 1023 m 8 X s 2186 1031 m 16 X s 2194 1040 m 8 X s 2194 1049 m 8 X s 2194 1057 m 8 X s 2186 1066 m 16 X s 2194 1075 m 8 X s 2194 1084 m 8 X s 2194 1092 m 8 X s 2186 1101 m 16 X s 2186 1101 m 16 X
 s 2194 1110 m 8 X s 1 0 0 c 6 lw black 3 lw 1 0 0 c 2188 683 m s 2173 683 m s 2158 683 m cl s 2143 683 m s 2128 683 m s 2113 683 m s 2098 683 m s 2083 683 m s 2068 683 m s 2066 696 m -13 -13 d s 2066 711 m -28 -28 d s 2066 726 m -44 -43 d s 2066 742
 m -59 -59 d s 2062 753 m -70 -70 d s 2052 758 m -75 -75 d s 2052 773 m -14 -13 d s 2033 754 m -71 -71 d s 2052 788 m -14 -13 d s 2025 761 m -78 -78 d s 2052 804 m -14 -14 d s 2025 776 m -93 -93 d s 2052 819 m -14 -14 d s 2021 788 m -104 -105 d s
 2042 824 m -4 -4 d s 2011 793 m -109 -110 d s 2011 808 m -124 -125 d s 2011 823 m -139 -140 d s 1996 823 m -139 -140 d s 1984 826 m -96 -96 d s 1877 718 m -35 -35 d s 1984 841 m -96 -96 d s 1874 731 m -47 -48 d s 1984 856 m -55 -55 d s 1916 789 m
 -28 -29 d s 1874 746 m -14 -14 d s 1847 719 m -28 -28 d s 1811 683 m s 1984 871 m -55 -55 d s 1915 803 m -14 -14 d s 1901 788 m -13 -13 d s 1868 755 m -8 -8 d s 1847 734 m -28 -28 d s 1806 692 m -10 -9 d s 1984 886 m -28 -27 d s 1955 858 m -26 -27 d
 s 1915 818 m -14 -14 d s 1847 749 m -28 -28 d s 1806 708 m -25 -25 d s 1974 892 m -18 -18 d s 1941 859 m -12 -12 d s 1915 833 m -14 -14 d s 1836 753 m -17 -16 d s 1806 723 m -40 -40 d s 1970 903 m -14 -14 d s 1915 848 m -14 -14 d s 1833 765 m -14
 -13 d s 1806 738 m -55 -55 d s 1970 918 m -14 -14 d s 1910 858 m -9 -9 d s 1833 781 m -14 -14 d s 1806 753 m -28 -27 d s 1771 718 m -34 -34 d s 1736 683 m s 1970 933 m -14 -13 d s 1827 789 m -8 -7 d s 1806 768 m -28 -27 d s 1756 718 m -19 -19 d s
 1721 683 m cl s 1970 949 m -14 -14 d s 1806 783 m -28 -27 d s 1741 718 m -4 -3 d s 1710 687 m -4 -4 d s 1970 964 m -14 -14 d s 1806 799 m -28 -28 d s 1710 702 m -14 -14 d s 1691 683 m s 1970 979 m -14 -14 d s 1806 814 m -28 -28 d s 1710 717 m -14
 -13 d s 1676 683 m cl s 1970 994 m -14 -14 d s 1799 822 m -21 -21 d s 1669 691 m -8 -8 d s 1970 1009 m -14 -14 d s 1789 827 m -11 -10 d s 1669 706 m -14 -13 d s 1970 1024 m -14 -13 d s 1666 718 m -11 -10 d s 1965 1035 m -9 -9 d s 6 lw 1655 718 m 14
 X -35 Y 27 X 35 Y 14 X -35 Y 27 X 35 Y 41 X 109 Y 14 X -5 Y 14 X -139 Y 13 X 106 Y 14 X -36 Y 14 X -35 Y 13 X 37 Y 14 X -37 Y 14 X 70 Y 13 X 70 Y 14 X -69 Y 14 X 70 Y 14 X -1 Y 13 X 177 Y 14 X -143 Y 14 X -69 Y 13 X 1 Y 14 X -36 Y 14 X -34 Y 13 X 70
 Y 14 X -71 Y 14 X -70 Y 136 X s black 3 lw 1655 683 m 547 X s 1727 696 m -13 Y s 1748 690 m -7 Y s 1770 690 m -7 Y s 1791 690 m -7 Y s 1813 690 m -7 Y s 1834 696 m -13 Y s 1856 690 m -7 Y s 1877 690 m -7 Y s 1899 690 m -7 Y s 1920 690 m -7 Y s 1942
 696 m -13 Y s 1964 690 m -7 Y s 1985 690 m -7 Y s 2007 690 m -7 Y s 2028 690 m -7 Y s 2050 696 m -13 Y s 2071 690 m -7 Y s 2093 690 m -7 Y s 2114 690 m -7 Y s 2136 690 m -7 Y s 2157 696 m -13 Y s 1727 696 m -13 Y s 1705 690 m -7 Y s 1683 690 m -7 Y
 s 1662 690 m -7 Y s 2157 696 m -13 Y s 2179 690 m -7 Y s 2200 690 m -7 Y s 1655 1111 m 547 X s 1727 1098 m 13 Y s 1748 1104 m 7 Y s 1770 1104 m 7 Y s 1791 1104 m 7 Y s 1813 1104 m 7 Y s 1834 1098 m 13 Y s 1856 1104 m 7 Y s 1877 1104 m 7 Y s 1899
 1104 m 7 Y s 1920 1104 m 7 Y s 1942 1098 m 13 Y s 1964 1104 m 7 Y s 1985 1104 m 7 Y s 2007 1104 m 7 Y s 2028 1104 m 7 Y s 2050 1098 m 13 Y s 2071 1104 m 7 Y s 2093 1104 m 7 Y s 2114 1104 m 7 Y s 2136 1104 m 7 Y s 2157 1098 m 13 Y s 1727 1098 m 13 Y
 s 1705 1104 m 7 Y s 1683 1104 m 7 Y s 1662 1104 m 7 Y s 2157 1098 m 13 Y s 2179 1104 m 7 Y s 2200 1104 m 7 Y s 1655 683 m 428 Y s 1671 683 m -16 X s 1663 692 m -8 X s 1663 700 m -8 X s 1663 709 m -8 X s 1671 718 m -16 X s 1663 727 m -8 X s 1663 735
 m -8 X s 1663 744 m -8 X s 1671 753 m -16 X s 1663 761 m -8 X s 1663 770 m -8 X s 1663 779 m -8 X s 1671 788 m -16 X s 1663 796 m -8 X s 1663 805 m -8 X s 1663 814 m -8 X s 1671 822 m -16 X s 1663 831 m -8 X s 1663 840 m -8 X s 1663 848 m -8 X s
 1671 857 m -16 X s 1663 866 m -8 X s 1663 875 m -8 X s 1663 883 m -8 X s 1671 892 m -16 X s 1663 901 m -8 X s 1663 909 m -8 X s 1663 918 m -8 X s 1671 927 m -16 X s 1663 936 m -8 X s 1663 944 m -8 X s 1663 953 m -8 X s 1671 962 m -16 X s 1663 970 m
 -8 X s 1663 979 m -8 X s 1663 988 m -8 X s 1671 996 m -16 X s 1663 1005 m -8 X s 1663 1014 m -8 X s 1663 1023 m -8 X s 1671 1031 m -16 X s 1663 1040 m -8 X s 1663 1049 m -8 X s 1663 1057 m -8 X s 1671 1066 m -16 X s 1663 1075 m -8 X s 1663 1084 m -8
 X s 1663 1092 m -8 X s 1671 1101 m -16 X s 1671 1101 m -16 X s 1663 1110 m -8 X s 2202 683 m 428 Y s 2186 683 m 16 X s 2194 692 m 8 X s 2194 700 m 8 X s 2194 709 m 8 X s 2186 718 m 16 X s 2194 727 m 8 X s 2194 735 m 8 X s 2194 744 m 8 X s 2186 753 m
 16 X s 2194 761 m 8 X s 2194 770 m 8 X s 2194 779 m 8 X s 2186 788 m 16 X s 2194 796 m 8 X s 2194 805 m 8 X s 2194 814 m 8 X s 2186 822 m 16 X s 2194 831 m 8 X s 2194 840 m 8 X s 2194 848 m 8 X s 2186 857 m 16 X s 2194 866 m 8 X s 2194 875 m 8 X s
 2194 883 m 8 X s 2186 892 m 16 X s 2194 901 m 8 X s 2194 909 m 8 X s 2194 918 m 8 X s 2186 927 m 16 X s 2194 936 m 8 X s 2194 944 m 8 X s 2194 953 m 8 X s 2186 962 m 16 X s 2194 970 m 8 X s 2194 979 m 8 X s 2194 988 m 8 X s 2186 996 m 16 X s 2194
 1005 m 8 X s 2194 1014 m 8 X s 2194 1023 m 8 X s 2186 1031 m 16 X s 2194 1040 m 8 X s 2194 1049 m 8 X s 2194 1057 m 8 X s 2186 1066 m 16 X s 2194 1075 m 8 X s 2194 1084 m 8 X s 2194 1092 m 8 X s 2186 1101 m 16 X s 2186 1101 m 16 X s 2194 1110 m 8 X
 s
 gsave  711 566 1534 602 C 2230.83 680.773 t 90 r /Helvetica-Bold findfont 20.0147 sf 0 0 m (U/O\255flow \(S,B\): \(0.0, 0.0\)% / \(0.0, 0.0\)%) show NC gr  0.490196 0.545098 0.615686 c 0.364706 0.419608 0.490196 c 497 38 1542 1127 bf 0.490196
 0.545098 0.615686 c 1542 1127 m 497 X s 2039 1127 m 38 Y s 2039 1165 m -497 X s 1542 1165 m -38 Y s 1 1 1 c black 1 1 1 c
 gsave  711 566 1534 602 C 1555.49 1139.56 t 0 r /Helvetica-Bold findfont 20.0147 sf 0 0 m (Input variable'PCA'\255transformed : GTND_inflation) show NC gr  0.490196 0.545098 0.615686 c 0.941176 0.941176 0.941176 c 710 566 23 12 bf black 1 1 0.992157
 c 548 428 143 93 bf black 548 428 143 93 bl 1 1 0.992157 c 548 428 143 93 bf black 548 428 143 93 bl 0 0 0.933333 c 6 lw 0.49 0.6 0.82 c black 3 lw 0.49 0.6 0.82 c 143 93 m 56 Y 14 X -56 Y 28 X 56 Y 13 X -56 Y 14 X 54 Y 14 X -54 Y 27 X 109 Y 14 X
 -109 Y 27 X 54 Y 14 X 63 Y 13 X 103 Y 14 X -112 Y 14 X -54 Y 13 X 1 Y 14 X 161 Y 14 X 2 Y 13 X -55 Y 14 X 212 Y 14 X -161 Y 13 X -105 Y 14 X -1 Y 27 X 160 Y 14 X -160 Y 14 X -53 Y 13 X 52 Y 14 X -107 Y 27 X 57 Y 14 X -2 Y 14 X -55 Y 96 X f 6 lw 0 0
 0.933333 c 0.49 0.6 0.82 c 0 0 0.933333 c 143 149 m 14 X -56 Y 28 X 56 Y 13 X -56 Y 14 X 54 Y 14 X -54 Y 27 X 109 Y 14 X -109 Y 27 X 54 Y 14 X 63 Y 13 X 103 Y 14 X -112 Y 14 X -54 Y 13 X 1 Y 14 X 161 Y 14 X 2 Y 13 X -55 Y 14 X 212 Y 14 X -161 Y 13 X
 -105 Y 14 X -1 Y 27 X 160 Y 14 X -160 Y 14 X -53 Y 13 X 52 Y 14 X -107 Y 27 X 57 Y 14 X -2 Y 14 X -55 Y 96 X s black 3 lw 143 93 m 548 X s
 gsave  710 566 23 12 C 407.391 25.64 t 0 r /Helvetica findfont 28.5925 sf 0 0 m (GTND_markets \(PCA\)) show NC gr  189 106 m -13 Y s 213 100 m -7 Y s 237 100 m -7 Y s 262 100 m -7 Y s 286 100 m -7 Y s 310 106 m -13 Y s 334 100 m -7 Y s 358 100 m -7
 Y s 382 100 m -7 Y s 406 100 m -7 Y s 430 106 m -13 Y s 454 100 m -7 Y s 478 100 m -7 Y s 502 100 m -7 Y s 527 100 m -7 Y s 551 106 m -13 Y s 575 100 m -7 Y s 599 100 m -7 Y s 623 100 m -7 Y s 647 100 m -7 Y s 671 106 m -13 Y s 189 106 m -13 Y s 165
 100 m -7 Y s 671 106 m -13 Y s
 gsave  710 566 23 12 C 168.085 65.5245 t 0 r /Helvetica findfont 25.7332 sf 0 0 m (\25510) show NC gr 
 gsave  710 566 23 12 C 296.285 65.5245 t 0 r /Helvetica findfont 25.7332 sf 0 0 m (\2555) show NC gr 
 gsave  710 566 23 12 C 418.787 65.5245 t 0 r /Helvetica findfont 25.7332 sf 0 0 m (0) show NC gr 
 gsave  710 566 23 12 C 541.289 65.5245 t 0 r /Helvetica findfont 25.7332 sf 0 0 m (5) show NC gr 
 gsave  710 566 23 12 C 655.245 65.5245 t 0 r /Helvetica findfont 25.7332 sf 0 0 m (10) show NC gr  143 521 m 548 X s 189 508 m 13 Y s 213 515 m 6 Y s 237 515 m 6 Y s 262 515 m 6 Y s 286 515 m 6 Y s 310 508 m 13 Y s 334 515 m 6 Y s 358 515 m 6 Y s
 382 515 m 6 Y s 406 515 m 6 Y s 430 508 m 13 Y s 454 515 m 6 Y s 478 515 m 6 Y s 502 515 m 6 Y s 527 515 m 6 Y s 551 508 m 13 Y s 575 515 m 6 Y s 599 515 m 6 Y s 623 515 m 6 Y s 647 515 m 6 Y s 671 508 m 13 Y s 189 508 m 13 Y s 165 515 m 6 Y s 671
 508 m 13 Y s 143 93 m 428 Y s
 gsave  710 566 23 12 C 45.5822 441.578 t 90 r /Helvetica findfont 28.5925 sf 0 0 m (0.568 ) show NC gr 
 gsave  710 566 23 12 C 31.3378 435.88 t 90 r /Helvetica findfont 20.0147 sf 0 0 m ( ) show NC gr 
 gsave  710 566 23 12 C 45.5822 424.485 t 90 r /Helvetica findfont 28.5925 sf 0 0 m (/) show NC gr 
 gsave  710 566 23 12 C 54.1289 418.787 t 90 r /Helvetica findfont 20.0147 sf 0 0 m ( ) show NC gr 
 gsave  710 566 23 12 C 45.5822 310.529 t 90 r /Helvetica findfont 28.5925 sf 0 0 m (\(1/N\) dN) show NC gr  160 93 m -17 X s 152 102 m -9 X s 152 111 m -9 X s 152 119 m -9 X s 160 128 m -17 X s 152 136 m -9 X s 152 145 m -9 X s 152 154 m -9 X s 160
 162 m -17 X s 152 171 m -9 X s 152 179 m -9 X s 152 188 m -9 X s 160 197 m -17 X s 152 205 m -9 X s 152 214 m -9 X s 152 223 m -9 X s 160 231 m -17 X s 152 240 m -9 X s 152 248 m -9 X s 152 257 m -9 X s 160 266 m -17 X s 152 274 m -9 X s 152 283 m
 -9 X s 152 291 m -9 X s 160 300 m -17 X s 152 309 m -9 X s 152 317 m -9 X s 152 326 m -9 X s 160 335 m -17 X s 152 343 m -9 X s 152 352 m -9 X s 152 360 m -9 X s 160 369 m -17 X s 152 378 m -9 X s 152 386 m -9 X s 152 395 m -9 X s 160 403 m -17 X s
 152 412 m -9 X s 152 421 m -9 X s 152 429 m -9 X s 160 438 m -17 X s 152 447 m -9 X s 152 455 m -9 X s 152 464 m -9 X s 160 472 m -17 X s 152 481 m -9 X s 152 490 m -9 X s 152 498 m -9 X s 160 507 m -17 X s 160 507 m -17 X s 152 515 m -9 X s
 gsave  710 566 23 12 C 119.653 82.6178 t 0 r /Helvetica findfont 25.7332 sf 0 0 m (0) show NC gr 
 gsave  710 566 23 12 C 82.6178 116.804 t 0 r /Helvetica findfont 25.7332 sf 0 0 m (0.02) show NC gr 
 gsave  710 566 23 12 C 82.6178 150.991 t 0 r /Helvetica findfont 25.7332 sf 0 0 m (0.04) show NC gr 
 gsave  710 566 23 12 C 82.6178 188.027 t 0 r /Helvetica findfont 25.7332 sf 0 0 m (0.06) show NC gr 
 gsave  710 566 23 12 C 82.6178 222.213 t 0 r /Helvetica findfont 25.7332 sf 0 0 m (0.08) show NC gr 
 gsave  710 566 23 12 C 102.56 256.4 t 0 r /Helvetica findfont 25.7332 sf 0 0 m (0.1) show NC gr 
 gsave  710 566 23 12 C 82.6178 290.587 t 0 r /Helvetica findfont 25.7332 sf 0 0 m (0.12) show NC gr 
 gsave  710 566 23 12 C 82.6178 324.773 t 0 r /Helvetica findfont 25.7332 sf 0 0 m (0.14) show NC gr 
 gsave  710 566 23 12 C 82.6178 358.96 t 0 r /Helvetica findfont 25.7332 sf 0 0 m (0.16) show NC gr 
 gsave  710 566 23 12 C 82.6178 393.147 t 0 r /Helvetica findfont 25.7332 sf 0 0 m (0.18) show NC gr 
 gsave  710 566 23 12 C 96.8623 427.334 t 0 r /Helvetica findfont 25.7332 sf 0 0 m (0.2) show NC gr 
 gsave  710 566 23 12 C 82.6178 461.52 t 0 r /Helvetica findfont 25.7332 sf 0 0 m (0.22) show NC gr 
 gsave  710 566 23 12 C 82.6178 495.707 t 0 r /Helvetica findfont 25.7332 sf 0 0 m (0.24) show NC gr  691 93 m 428 Y s 674 93 m 17 X s 683 102 m 8 X s 683 111 m 8 X s 683 119 m 8 X s 674 128 m 17 X s 683 136 m 8 X s 683 145 m 8 X s 683 154 m 8 X s
 674 162 m 17 X s 683 171 m 8 X s 683 179 m 8 X s 683 188 m 8 X s 674 197 m 17 X s 683 205 m 8 X s 683 214 m 8 X s 683 223 m 8 X s 674 231 m 17 X s 683 240 m 8 X s 683 248 m 8 X s 683 257 m 8 X s 674 266 m 17 X s 683 274 m 8 X s 683 283 m 8 X s 683
 291 m 8 X s 674 300 m 17 X s 683 309 m 8 X s 683 317 m 8 X s 683 326 m 8 X s 674 335 m 17 X s 683 343 m 8 X s 683 352 m 8 X s 683 360 m 8 X s 674 369 m 17 X s 683 378 m 8 X s 683 386 m 8 X s 683 395 m 8 X s 674 403 m 17 X s 683 412 m 8 X s 683 421 m
 8 X s 683 429 m 8 X s 674 438 m 17 X s 683 447 m 8 X s 683 455 m 8 X s 683 464 m 8 X s 674 472 m 17 X s 683 481 m 8 X s 683 490 m 8 X s 683 498 m 8 X s 674 507 m 17 X s 674 507 m 17 X s 683 515 m 8 X s 1 0 0 c 6 lw black 3 lw 1 0 0 c 691 108 m -14
 -14 d s 676 93 m s 691 123 m -14 -14 d s 661 93 m s 684 132 m -7 -8 d s 646 93 m s 631 93 m s 622 99 m -6 -6 d s 622 115 m -21 -22 d s 622 130 m -27 -28 d s 586 93 m s 610 132 m -15 -15 d s 581 104 m -10 -11 d s 581 119 m -14 -14 d s 556 93 m s 579
 132 m -12 -12 d s 554 106 m -13 -13 d s 554 122 m -28 -29 d s 554 137 m -43 -44 d s 554 152 m -58 -59 d s 554 167 m -73 -74 d s 545 173 m -80 -80 d s 540 184 m -90 -91 d s 540 199 m -14 -14 d s 513 171 m -78 -78 d s 540 214 m -14 -14 d s 513 186 m
 -14 -13 d s 497 170 m -77 -77 d s 540 229 m -14 -14 d s 513 202 m -14 -14 d s 485 174 m -80 -81 d s 540 244 m -14 -14 d s 513 217 m -14 -14 d s 485 189 m -95 -96 d s 532 252 m -6 -6 d s 513 232 m -14 -14 d s 485 204 m -110 -111 d s 513 247 m -14 -14
 d s 485 220 m -125 -127 d s 513 262 m -14 -14 d s 485 235 m -54 -55 d s 424 173 m -34 -35 d s 383 132 m -38 -39 d s 513 277 m -14 -13 d s 485 250 m -54 -55 d s 417 181 m -27 -27 d s 376 140 m -46 -47 d s 507 287 m -8 -8 d s 485 265 m -54 -55 d s 417
 196 m -27 -27 d s 376 155 m -55 -55 d s 315 93 m s 485 280 m -54 -55 d s 417 211 m -27 -27 d s 376 170 m -55 -55 d s 300 93 m s 479 288 m -48 -48 d s 417 227 m -27 -28 d s 376 185 m -14 -13 d s 362 171 m -27 -27 d s 323 132 m -2 -2 d s 294 103 m -9
 -10 d s 472 297 m -41 -42 d s 417 242 m -27 -28 d s 376 200 m -14 -13 d s 347 171 m -12 -12 d s 294 118 m -14 -14 d s 270 93 m s 472 312 m -41 -41 d s 417 257 m -27 -28 d s 376 216 m -14 -14 d s 293 132 m -13 -13 d s 267 106 m -13 -13 d s 472 327 m
 -41 -41 d s 417 272 m -27 -27 d s 376 231 m -14 -14 d s 267 121 m -14 -14 d s 239 93 m s 472 342 m -41 -41 d s 417 287 m -27 -27 d s 376 246 m -14 -14 d s 263 132 m -10 -10 d s 224 93 m s 472 357 m -28 -27 d s 439 324 m -8 -8 d s 417 302 m -27 -27 d
 s 363 248 m -1 -1 d s 209 93 m s 472 373 m -28 -28 d s 417 318 m -27 -28 d s 194 93 m s 472 388 m -28 -28 d s 417 333 m -27 -28 d s 179 93 m s 472 403 m -28 -28 d s 417 348 m -27 -28 d s 164 93 m s 460 406 m -16 -15 d s 417 363 m -27 -27 d s 149 93
 m cl s 458 419 m -14 -13 d s 417 378 m -27 -27 d s 458 435 m -14 -14 d s 417 393 m -14 -13 d s 391 367 m -1 -1 d s 450 441 m -6 -5 d s 417 409 m -14 -14 d s 417 424 m -14 -14 d s 417 439 m -14 -14 d s 417 454 m -14 -14 d s 417 469 m -14 -14 d s 415
 482 m -12 -11 d s 6 lw 143 93 m 110 X 39 Y 14 X -39 Y 13 X 39 Y 14 X -39 Y 27 X 39 Y 14 X 39 Y 27 X 77 Y 14 X -116 Y 14 X 235 Y 13 X 115 Y 14 X -309 Y 14 X 151 Y 13 X 117 Y 14 X -35 Y 14 X -118 Y 13 X -118 Y 14 X 117 Y 14 X -116 Y 13 X 81 Y 14 X -79
 Y 14 X -80 Y 13 X 39 Y 14 X -39 Y 14 X 39 Y 27 X -39 Y 55 X 39 Y 14 X s black 3 lw 143 93 m 548 X s 189 106 m -13 Y s 213 100 m -7 Y s 237 100 m -7 Y s 262 100 m -7 Y s 286 100 m -7 Y s 310 106 m -13 Y s 334 100 m -7 Y s 358 100 m -7 Y s 382 100 m
 -7 Y s 406 100 m -7 Y s 430 106 m -13 Y s 454 100 m -7 Y s 478 100 m -7 Y s 502 100 m -7 Y s 527 100 m -7 Y s 551 106 m -13 Y s 575 100 m -7 Y s 599 100 m -7 Y s 623 100 m -7 Y s 647 100 m -7 Y s 671 106 m -13 Y s 189 106 m -13 Y s 165 100 m -7 Y s
 671 106 m -13 Y s 143 521 m 548 X s 189 508 m 13 Y s 213 515 m 6 Y s 237 515 m 6 Y s 262 515 m 6 Y s 286 515 m 6 Y s 310 508 m 13 Y s 334 515 m 6 Y s 358 515 m 6 Y s 382 515 m 6 Y s 406 515 m 6 Y s 430 508 m 13 Y s 454 515 m 6 Y s 478 515 m 6 Y s
 502 515 m 6 Y s 527 515 m 6 Y s 551 508 m 13 Y s 575 515 m 6 Y s 599 515 m 6 Y s 623 515 m 6 Y s 647 515 m 6 Y s 671 508 m 13 Y s 189 508 m 13 Y s 165 515 m 6 Y s 671 508 m 13 Y s 143 93 m 428 Y s 160 93 m -17 X s 152 102 m -9 X s 152 111 m -9 X s
 152 119 m -9 X s 160 128 m -17 X s 152 136 m -9 X s 152 145 m -9 X s 152 154 m -9 X s 160 162 m -17 X s 152 171 m -9 X s 152 179 m -9 X s 152 188 m -9 X s 160 197 m -17 X s 152 205 m -9 X s 152 214 m -9 X s 152 223 m -9 X s 160 231 m -17 X s 152 240
 m -9 X s 152 248 m -9 X s 152 257 m -9 X s 160 266 m -17 X s 152 274 m -9 X s 152 283 m -9 X s 152 291 m -9 X s 160 300 m -17 X s 152 309 m -9 X s 152 317 m -9 X s 152 326 m -9 X s 160 335 m -17 X s 152 343 m -9 X s 152 352 m -9 X s 152 360 m -9 X s
 160 369 m -17 X s 152 378 m -9 X s 152 386 m -9 X s 152 395 m -9 X s 160 403 m -17 X s 152 412 m -9 X s 152 421 m -9 X s 152 429 m -9 X s 160 438 m -17 X s 152 447 m -9 X s 152 455 m -9 X s 152 464 m -9 X s 160 472 m -17 X s 152 481 m -9 X s 152 490
 m -9 X s 152 498 m -9 X s 160 507 m -17 X s 160 507 m -17 X s 152 515 m -9 X s 691 93 m 428 Y s 674 93 m 17 X s 683 102 m 8 X s 683 111 m 8 X s 683 119 m 8 X s 674 128 m 17 X s 683 136 m 8 X s 683 145 m 8 X s 683 154 m 8 X s 674 162 m 17 X s 683 171
 m 8 X s 683 179 m 8 X s 683 188 m 8 X s 674 197 m 17 X s 683 205 m 8 X s 683 214 m 8 X s 683 223 m 8 X s 674 231 m 17 X s 683 240 m 8 X s 683 248 m 8 X s 683 257 m 8 X s 674 266 m 17 X s 683 274 m 8 X s 683 283 m 8 X s 683 291 m 8 X s 674 300 m 17 X
 s 683 309 m 8 X s 683 317 m 8 X s 683 326 m 8 X s 674 335 m 17 X s 683 343 m 8 X s 683 352 m 8 X s 683 360 m 8 X s 674 369 m 17 X s 683 378 m 8 X s 683 386 m 8 X s 683 395 m 8 X s 674 403 m 17 X s 683 412 m 8 X s 683 421 m 8 X s 683 429 m 8 X s 674
 438 m 17 X s 683 447 m 8 X s 683 455 m 8 X s 683 464 m 8 X s 674 472 m 17 X s 683 481 m 8 X s 683 490 m 8 X s 683 498 m 8 X s 674 507 m 17 X s 674 507 m 17 X s 683 515 m 8 X s
 gsave  710 566 23 12 C 719.017 91.0528 t 90 r /Helvetica-Bold findfont 20.0147 sf 0 0 m (U/O\255flow \(S,B\): \(0.0, 0.0\)% / \(0.0, 0.0\)%) show NC gr  0.490196 0.545098 0.615686 c 0.364706 0.419608 0.490196 c 497 38 30 537 bf 0.490196 0.545098
 0.615686 c 30 537 m 497 X s 527 537 m 38 Y s 527 575 m -497 X s 30 575 m -38 Y s 1 1 1 c black 1 1 1 c
 gsave  710 566 23 12 C 42.7334 549.836 t 0 r /Helvetica-Bold findfont 20.0147 sf 0 0 m (Input variable'PCA'\255transformed : GTND_markets) show NC gr  0.490196 0.545098 0.615686 c 0.941176 0.941176 0.941176 c 710 566 779 12 bf black 1 1 0.992157 c
 548 428 899 93 bf black 548 428 899 93 bl 1 1 0.992157 c 548 428 899 93 bf black 548 428 899 93 bl 0 0 0.933333 c 6 lw 0.49 0.6 0.82 c black 3 lw 0.49 0.6 0.82 c 899 93 m 69 X 36 Y 13 X -36 Y 28 X 36 Y 13 X -36 Y 28 X 36 Y 27 X 106 Y 14 X 79 Y 14 X
 -40 Y 13 X -108 Y 14 X 316 Y 14 X -247 Y 13 X 109 Y 14 X -145 Y 14 X 38 Y 13 X -108 Y 14 X 70 Y 14 X -106 Y 13 X 36 Y 14 X -1 Y 14 X -35 Y 178 X f 6 lw 0 0 0.933333 c 0.49 0.6 0.82 c 0 0 0.933333 c 899 93 m 69 X 36 Y 13 X -36 Y 28 X 36 Y 13 X -36 Y
 28 X 36 Y 27 X 106 Y 14 X 79 Y 14 X -40 Y 13 X -108 Y 14 X 316 Y 14 X -247 Y 13 X 109 Y 14 X -145 Y 14 X 38 Y 13 X -108 Y 14 X 70 Y 14 X -106 Y 13 X 36 Y 14 X -1 Y 14 X -35 Y 178 X s black 3 lw 899 93 m 548 X s
 gsave  710 566 779 12 C 1182.29 25.64 t 0 r /Helvetica findfont 28.5925 sf 0 0 m (GTND_stocks \(PCA\)) show NC gr  955 106 m -13 Y s 974 100 m -7 Y s 993 100 m -7 Y s 1012 100 m -7 Y s 1031 100 m -7 Y s 1050 106 m -13 Y s 1069 100 m -7 Y s 1088 100
 m -7 Y s 1108 100 m -7 Y s 1127 100 m -7 Y s 1146 106 m -13 Y s 1165 100 m -7 Y s 1184 100 m -7 Y s 1203 100 m -7 Y s 1222 100 m -7 Y s 1241 106 m -13 Y s 1260 100 m -7 Y s 1279 100 m -7 Y s 1298 100 m -7 Y s 1317 100 m -7 Y s 1336 106 m -13 Y s
 1355 100 m -7 Y s 1374 100 m -7 Y s 1393 100 m -7 Y s 1412 100 m -7 Y s 1431 106 m -13 Y s 955 106 m -13 Y s 936 100 m -7 Y s 917 100 m -7 Y s 1431 106 m -13 Y s
 gsave  710 566 779 12 C 934.436 65.5245 t 0 r /Helvetica findfont 25.7332 sf 0 0 m (\25510) show NC gr 
 gsave  710 566 779 12 C 1037 65.5245 t 0 r /Helvetica findfont 25.7332 sf 0 0 m (\2555) show NC gr 
 gsave  710 566 779 12 C 1136.71 65.5245 t 0 r /Helvetica findfont 25.7332 sf 0 0 m (0) show NC gr 
 gsave  710 566 779 12 C 1230.72 65.5245 t 0 r /Helvetica findfont 25.7332 sf 0 0 m (5) show NC gr 
 gsave  710 566 779 12 C 1321.89 65.5245 t 0 r /Helvetica findfont 25.7332 sf 0 0 m (10) show NC gr 
 gsave  710 566 779 12 C 1415.9 65.5245 t 0 r /Helvetica findfont 25.7332 sf 0 0 m (15) show NC gr  899 521 m 548 X s 955 508 m 13 Y s 974 515 m 6 Y s 993 515 m 6 Y s 1012 515 m 6 Y s 1031 515 m 6 Y s 1050 508 m 13 Y s 1069 515 m 6 Y s 1088 515 m 6 Y
 s 1108 515 m 6 Y s 1127 515 m 6 Y s 1146 508 m 13 Y s 1165 515 m 6 Y s 1184 515 m 6 Y s 1203 515 m 6 Y s 1222 515 m 6 Y s 1241 508 m 13 Y s 1260 515 m 6 Y s 1279 515 m 6 Y s 1298 515 m 6 Y s 1317 515 m 6 Y s 1336 508 m 13 Y s 1355 515 m 6 Y s 1374
 515 m 6 Y s 1393 515 m 6 Y s 1412 515 m 6 Y s 1431 508 m 13 Y s 955 508 m 13 Y s 936 515 m 6 Y s 917 515 m 6 Y s 1431 508 m 13 Y s 899 93 m 428 Y s
 gsave  710 566 779 12 C 803.387 441.578 t 90 r /Helvetica findfont 28.5925 sf 0 0 m (0.718 ) show NC gr 
 gsave  710 566 779 12 C 789.143 435.88 t 90 r /Helvetica findfont 20.0147 sf 0 0 m ( ) show NC gr 
 gsave  710 566 779 12 C 803.387 424.485 t 90 r /Helvetica findfont 28.5925 sf 0 0 m (/) show NC gr 
 gsave  710 566 779 12 C 811.934 418.787 t 90 r /Helvetica findfont 20.0147 sf 0 0 m ( ) show NC gr 
 gsave  710 566 779 12 C 803.387 310.529 t 90 r /Helvetica findfont 28.5925 sf 0 0 m (\(1/N\) dN) show NC gr  915 93 m -16 X s 907 108 m -8 X s 907 122 m -8 X s 907 136 m -8 X s 907 151 m -8 X s 915 165 m -16 X s 907 180 m -8 X s 907 194 m -8 X s 907
 208 m -8 X s 907 223 m -8 X s 915 237 m -16 X s 907 251 m -8 X s 907 266 m -8 X s 907 280 m -8 X s 907 294 m -8 X s 915 309 m -16 X s 907 323 m -8 X s 907 338 m -8 X s 907 352 m -8 X s 907 366 m -8 X s 915 381 m -16 X s 907 395 m -8 X s 907 409 m -8
 X s 907 424 m -8 X s 907 438 m -8 X s 915 452 m -16 X s 915 452 m -16 X s 907 467 m -8 X s 907 481 m -8 X s 907 496 m -8 X s 907 510 m -8 X s
 gsave  710 566 779 12 C 874.609 82.6178 t 0 r /Helvetica findfont 25.7332 sf 0 0 m (0) show NC gr 
 gsave  710 566 779 12 C 837.574 153.84 t 0 r /Helvetica findfont 25.7332 sf 0 0 m (0.05) show NC gr 
 gsave  710 566 779 12 C 857.516 227.911 t 0 r /Helvetica findfont 25.7332 sf 0 0 m (0.1) show NC gr 
 gsave  710 566 779 12 C 837.574 299.133 t 0 r /Helvetica findfont 25.7332 sf 0 0 m (0.15) show NC gr 
 gsave  710 566 779 12 C 851.818 370.356 t 0 r /Helvetica findfont 25.7332 sf 0 0 m (0.2) show NC gr 
 gsave  710 566 779 12 C 837.574 441.578 t 0 r /Helvetica findfont 25.7332 sf 0 0 m (0.25) show NC gr  1447 93 m 428 Y s 1430 93 m 17 X s 1438 108 m 9 X s 1438 122 m 9 X s 1438 136 m 9 X s 1438 151 m 9 X s 1430 165 m 17 X s 1438 180 m 9 X s 1438 194
 m 9 X s 1438 208 m 9 X s 1438 223 m 9 X s 1430 237 m 17 X s 1438 251 m 9 X s 1438 266 m 9 X s 1438 280 m 9 X s 1438 294 m 9 X s 1430 309 m 17 X s 1438 323 m 9 X s 1438 338 m 9 X s 1438 352 m 9 X s 1438 366 m 9 X s 1430 381 m 17 X s 1438 395 m 9 X s
 1438 409 m 9 X s 1438 424 m 9 X s 1438 438 m 9 X s 1430 452 m 17 X s 1430 452 m 17 X s 1438 467 m 9 X s 1438 481 m 9 X s 1438 496 m 9 X s 1438 510 m 9 X s 1 0 0 c 6 lw black 3 lw 1 0 0 c 1447 107 m -14 -14 d s 1433 93 m s 1443 119 m -10 -10 d s 1418
 93 m s 1403 93 m s 1388 93 m s 1372 93 m s 1364 100 m -7 -7 d s 1364 116 m -13 -14 d s 1342 93 m s 1353 119 m -2 -2 d s 1327 93 m s 1312 93 m s 1297 93 m s 1282 93 m s 1267 93 m s 1252 93 m s 1241 98 m -4 -5 d s 1241 113 m -19 -20 d s 1241 128 m -34
 -35 d s 1241 143 m -13 -14 d s 1218 119 m -26 -26 d s 1241 158 m -13 -13 d s 1214 131 m -38 -38 d s 1239 171 m -11 -11 d s 1214 146 m -53 -53 d s 1214 161 m -14 -14 d s 1197 145 m -51 -52 d s 1214 176 m -14 -14 d s 1187 149 m -56 -56 d s 1214 191 m
 -14 -13 d s 1187 164 m -71 -71 d s 1214 206 m -14 -13 d s 1187 179 m -86 -86 d s 1214 222 m -14 -14 d s 1187 194 m -101 -101 d s 1214 237 m -14 -14 d s 1187 209 m -116 -116 d s 1214 252 m -14 -14 d s 1184 222 m -128 -129 d s 1214 267 m -14 -14 d s
 1173 226 m -96 -96 d s 1066 119 m -16 -17 d s 1041 93 m s 1204 272 m -4 -4 d s 1173 241 m -68 -69 d s 1102 170 m -25 -25 d s 1064 131 m -14 -14 d s 1026 93 m s 1173 256 m -68 -69 d s 1091 174 m -14 -14 d s 1063 146 m -13 -13 d s 1011 93 m cl s 1173
 271 m -68 -69 d s 1091 189 m -14 -14 d s 996 93 m s 1160 274 m -55 -56 d s 1083 196 m -6 -6 d s 995 108 m -14 -14 d s 981 93 m s 1159 288 m -13 -14 d s 1145 273 m -40 -40 d s 991 119 m -10 -10 d s 968 96 m -3 -3 d s 1159 303 m -13 -14 d s 1132 275 m
 -27 -27 d s 968 111 m -14 -14 d s 950 93 m s 1159 318 m -13 -14 d s 1132 290 m -27 -27 d s 961 119 m -7 -7 d s 935 93 m cl s 1159 333 m -13 -14 d s 1132 305 m -27 -27 d s 920 93 m s 1159 348 m -13 -14 d s 1132 321 m -27 -28 d s 913 101 m -8 -8 d s
 1132 336 m -27 -28 d s 913 116 m -14 -13 d s 1132 351 m -27 -28 d s 902 120 m -3 -2 d s 1132 366 m -14 -14 d s 1116 350 m -11 -12 d s 1125 374 m -7 -7 d s 6 lw 899 120 m 14 X -27 Y 41 X 26 Y 14 X -26 Y 13 X 26 Y 14 X -26 Y 55 X 53 Y 14 X -27 Y 13 X
 77 Y 14 X -26 Y 14 X 180 Y 13 X 24 Y 14 X -101 Y 14 X 76 Y 13 X -75 Y 14 X -52 Y 14 X -77 Y 13 X 127 Y 14 X -153 Y 14 X 52 Y 13 X -78 Y 110 X 26 Y 13 X -26 Y 69 X 26 Y 14 X s black 3 lw 899 93 m 548 X s 955 106 m -13 Y s 974 100 m -7 Y s 993 100 m
 -7 Y s 1012 100 m -7 Y s 1031 100 m -7 Y s 1050 106 m -13 Y s 1069 100 m -7 Y s 1088 100 m -7 Y s 1108 100 m -7 Y s 1127 100 m -7 Y s 1146 106 m -13 Y s 1165 100 m -7 Y s 1184 100 m -7 Y s 1203 100 m -7 Y s 1222 100 m -7 Y s 1241 106 m -13 Y s 1260
 100 m -7 Y s 1279 100 m -7 Y s 1298 100 m -7 Y s 1317 100 m -7 Y s 1336 106 m -13 Y s 1355 100 m -7 Y s 1374 100 m -7 Y s 1393 100 m -7 Y s 1412 100 m -7 Y s 1431 106 m -13 Y s 955 106 m -13 Y s 936 100 m -7 Y s 917 100 m -7 Y s 1431 106 m -13 Y s
 899 521 m 548 X s 955 508 m 13 Y s 974 515 m 6 Y s 993 515 m 6 Y s 1012 515 m 6 Y s 1031 515 m 6 Y s 1050 508 m 13 Y s 1069 515 m 6 Y s 1088 515 m 6 Y s 1108 515 m 6 Y s 1127 515 m 6 Y s 1146 508 m 13 Y s 1165 515 m 6 Y s 1184 515 m 6 Y s 1203 515 m
 6 Y s 1222 515 m 6 Y s 1241 508 m 13 Y s 1260 515 m 6 Y s 1279 515 m 6 Y s 1298 515 m 6 Y s 1317 515 m 6 Y s 1336 508 m 13 Y s 1355 515 m 6 Y s 1374 515 m 6 Y s 1393 515 m 6 Y s 1412 515 m 6 Y s 1431 508 m 13 Y s 955 508 m 13 Y s 936 515 m 6 Y s 917
 515 m 6 Y s 1431 508 m 13 Y s 899 93 m 428 Y s 915 93 m -16 X s 907 108 m -8 X s 907 122 m -8 X s 907 136 m -8 X s 907 151 m -8 X s 915 165 m -16 X s 907 180 m -8 X s 907 194 m -8 X s 907 208 m -8 X s 907 223 m -8 X s 915 237 m -16 X s 907 251 m -8
 X s 907 266 m -8 X s 907 280 m -8 X s 907 294 m -8 X s 915 309 m -16 X s 907 323 m -8 X s 907 338 m -8 X s 907 352 m -8 X s 907 366 m -8 X s 915 381 m -16 X s 907 395 m -8 X s 907 409 m -8 X s 907 424 m -8 X s 907 438 m -8 X s 915 452 m -16 X s 915
 452 m -16 X s 907 467 m -8 X s 907 481 m -8 X s 907 496 m -8 X s 907 510 m -8 X s 1447 93 m 428 Y s 1430 93 m 17 X s 1438 108 m 9 X s 1438 122 m 9 X s 1438 136 m 9 X s 1438 151 m 9 X s 1430 165 m 17 X s 1438 180 m 9 X s 1438 194 m 9 X s 1438 208 m 9
 X s 1438 223 m 9 X s 1430 237 m 17 X s 1438 251 m 9 X s 1438 266 m 9 X s 1438 280 m 9 X s 1438 294 m 9 X s 1430 309 m 17 X s 1438 323 m 9 X s 1438 338 m 9 X s 1438 352 m 9 X s 1438 366 m 9 X s 1430 381 m 17 X s 1438 395 m 9 X s 1438 409 m 9 X s 1438
 424 m 9 X s 1438 438 m 9 X s 1430 452 m 17 X s 1430 452 m 17 X s 1438 467 m 9 X s 1438 481 m 9 X s 1438 496 m 9 X s 1438 510 m 9 X s
 gsave  710 566 779 12 C 1474.92 91.0528 t 90 r /Helvetica-Bold findfont 20.0147 sf 0 0 m (U/O\255flow \(S,B\): \(0.0, 0.0\)% / \(0.0, 0.0\)%) show NC gr  0.490196 0.545098 0.615686 c 0.364706 0.419608 0.490196 c 497 38 786 537 bf 0.490196 0.545098
 0.615686 c 786 537 m 497 X s 1283 537 m 38 Y s 1283 575 m -497 X s 786 575 m -38 Y s 1 1 1 c black 1 1 1 c
 gsave  710 566 779 12 C 806.236 549.836 t 0 r /Helvetica-Bold findfont 20.0147 sf 0 0 m (Input variable'PCA'\255transformed : GTND_stocks) show NC gr  0.490196 0.545098 0.615686 c 0.941176 0.941176 0.941176 c 711 566 1534 12 bf black 1 1 0.992157 c
 547 428 1655 93 bf black 547 428 1655 93 bl 1 1 0.992157 c 547 428 1655 93 bf black 547 428 1655 93 bl 0 0 0.933333 c 6 lw 0.49 0.6 0.82 c black 3 lw 0.49 0.6 0.82 c 1655 93 m 60 Y 14 X -60 Y 27 X 59 Y 14 X -59 Y 41 X 60 Y 27 X -1 Y 14 X 1 Y 14 X
 119 Y 13 X -179 Y 14 X 60 Y 14 X 59 Y 13 X -119 Y 28 X 239 Y 13 X -119 Y 14 X 239 Y 14 X -241 Y 14 X 1 Y 13 X 117 Y 14 X 124 Y 14 X -360 Y 13 X 119 Y 14 X -59 Y 14 X 62 Y 13 X -4 Y 14 X 6 Y 14 X -3 Y 13 X -62 Y 14 X 10 Y 14 X -9 Y 13 X 118 Y 14 X
 -178 Y 27 X 59 Y 14 X -59 Y 27 X f 6 lw 0 0 0.933333 c 0.49 0.6 0.82 c 0 0 0.933333 c 1655 153 m 14 X -60 Y 27 X 59 Y 14 X -59 Y 41 X 60 Y 27 X -1 Y 14 X 1 Y 14 X 119 Y 13 X -179 Y 14 X 60 Y 14 X 59 Y 13 X -119 Y 28 X 239 Y 13 X -119 Y 14 X 239 Y 14
 X -241 Y 14 X 1 Y 13 X 117 Y 14 X 124 Y 14 X -360 Y 13 X 119 Y 14 X -59 Y 14 X 62 Y 13 X -4 Y 14 X 6 Y 14 X -3 Y 13 X -62 Y 14 X 10 Y 14 X -9 Y 13 X 118 Y 14 X -178 Y 27 X 59 Y 14 X -59 Y 27 X s black 3 lw 1655 93 m 547 X s
 gsave  711 566 1534 12 C 1923 25.64 t 0 r /Helvetica findfont 28.5925 sf 0 0 m (GTND_terrorist \(PCA\)) show NC gr  1724 106 m -13 Y s 1743 100 m -7 Y s 1761 100 m -7 Y s 1780 100 m -7 Y s 1799 106 m -13 Y s 1818 100 m -7 Y s 1836 100 m -7 Y s 1855
 100 m -7 Y s 1874 106 m -13 Y s 1892 100 m -7 Y s 1911 100 m -7 Y s 1930 100 m -7 Y s 1949 106 m -13 Y s 1967 100 m -7 Y s 1986 100 m -7 Y s 2005 100 m -7 Y s 2024 106 m -13 Y s 2042 100 m -7 Y s 2061 100 m -7 Y s 2080 100 m -7 Y s 2099 106 m -13 Y
 s 2117 100 m -7 Y s 2136 100 m -7 Y s 2155 100 m -7 Y s 2174 106 m -13 Y s 1724 106 m -13 Y s 1705 100 m -7 Y s 1686 100 m -7 Y s 1668 100 m -7 Y s 2174 106 m -13 Y s 2192 100 m -7 Y s
 gsave  711 566 1534 12 C 1712.18 65.5245 t 0 r /Helvetica findfont 25.7332 sf 0 0 m (\2556) show NC gr 
 gsave  711 566 1534 12 C 1786.25 65.5245 t 0 r /Helvetica findfont 25.7332 sf 0 0 m (\2554) show NC gr 
 gsave  711 566 1534 12 C 1860.33 65.5245 t 0 r /Helvetica findfont 25.7332 sf 0 0 m (\2552) show NC gr 
 gsave  711 566 1534 12 C 1940.09 65.5245 t 0 r /Helvetica findfont 25.7332 sf 0 0 m (0) show NC gr 
 gsave  711 566 1534 12 C 2014.17 65.5245 t 0 r /Helvetica findfont 25.7332 sf 0 0 m (2) show NC gr 
 gsave  711 566 1534 12 C 2088.24 65.5245 t 0 r /Helvetica findfont 25.7332 sf 0 0 m (4) show NC gr 
 gsave  711 566 1534 12 C 2162.31 65.5245 t 0 r /Helvetica findfont 25.7332 sf 0 0 m (6) show NC gr  1655 521 m 547 X s 1724 508 m 13 Y s 1743 515 m 6 Y s 1761 515 m 6 Y s 1780 515 m 6 Y s 1799 508 m 13 Y s 1818 515 m 6 Y s 1836 515 m 6 Y s 1855 515
 m 6 Y s 1874 508 m 13 Y s 1892 515 m 6 Y s 1911 515 m 6 Y s 1930 515 m 6 Y s 1949 508 m 13 Y s 1967 515 m 6 Y s 1986 515 m 6 Y s 2005 515 m 6 Y s 2024 508 m 13 Y s 2042 515 m 6 Y s 2061 515 m 6 Y s 2080 515 m 6 Y s 2099 508 m 13 Y s 2117 515 m 6 Y s
 2136 515 m 6 Y s 2155 515 m 6 Y s 2174 508 m 13 Y s 1724 508 m 13 Y s 1705 515 m 6 Y s 1686 515 m 6 Y s 1668 515 m 6 Y s 2174 508 m 13 Y s 2192 515 m 6 Y s 1655 93 m 428 Y s
 gsave  711 566 1534 12 C 1558.34 441.578 t 90 r /Helvetica findfont 28.5925 sf 0 0 m (0.365 ) show NC gr 
 gsave  711 566 1534 12 C 1544.1 435.88 t 90 r /Helvetica findfont 20.0147 sf 0 0 m ( ) show NC gr 
 gsave  711 566 1534 12 C 1558.34 424.485 t 90 r /Helvetica findfont 28.5925 sf 0 0 m (/) show NC gr 
 gsave  711 566 1534 12 C 1566.89 418.787 t 90 r /Helvetica findfont 20.0147 sf 0 0 m ( ) show NC gr 
 gsave  711 566 1534 12 C 1558.34 310.529 t 90 r /Helvetica findfont 28.5925 sf 0 0 m (\(1/N\) dN) show NC gr  1671 93 m -16 X s 1663 106 m -8 X s 1663 118 m -8 X s 1663 130 m -8 X s 1663 142 m -8 X s 1671 154 m -16 X s 1663 167 m -8 X s 1663 179 m
 -8 X s 1663 191 m -8 X s 1663 203 m -8 X s 1671 216 m -16 X s 1663 228 m -8 X s 1663 240 m -8 X s 1663 252 m -8 X s 1663 264 m -8 X s 1671 277 m -16 X s 1663 289 m -8 X s 1663 301 m -8 X s 1663 313 m -8 X s 1663 326 m -8 X s 1671 338 m -16 X s 1663
 350 m -8 X s 1663 362 m -8 X s 1663 374 m -8 X s 1663 387 m -8 X s 1671 399 m -16 X s 1663 411 m -8 X s 1663 423 m -8 X s 1663 436 m -8 X s 1663 448 m -8 X s 1671 460 m -16 X s 1663 472 m -8 X s 1663 484 m -8 X s 1663 497 m -8 X s 1663 509 m -8 X s
 1671 521 m -16 X s 1671 521 m -16 X s
 gsave  711 566 1534 12 C 1632.41 82.6178 t 0 r /Helvetica findfont 25.7332 sf 0 0 m (0) show NC gr 
 gsave  711 566 1534 12 C 1595.38 145.293 t 0 r /Helvetica findfont 25.7332 sf 0 0 m (0.05) show NC gr 
 gsave  711 566 1534 12 C 1615.32 205.12 t 0 r /Helvetica findfont 25.7332 sf 0 0 m (0.1) show NC gr 
 gsave  711 566 1534 12 C 1595.38 267.796 t 0 r /Helvetica findfont 25.7332 sf 0 0 m (0.15) show NC gr 
 gsave  711 566 1534 12 C 1609.62 327.622 t 0 r /Helvetica findfont 25.7332 sf 0 0 m (0.2) show NC gr 
 gsave  711 566 1534 12 C 1595.38 390.298 t 0 r /Helvetica findfont 25.7332 sf 0 0 m (0.25) show NC gr 
 gsave  711 566 1534 12 C 1609.62 450.125 t 0 r /Helvetica findfont 25.7332 sf 0 0 m (0.3) show NC gr 
 gsave  711 566 1534 12 C 1595.38 509.951 t 0 r /Helvetica findfont 25.7332 sf 0 0 m (0.35) show NC gr  2202 93 m 428 Y s 2186 93 m 16 X s 2194 106 m 8 X s 2194 118 m 8 X s 2194 130 m 8 X s 2194 142 m 8 X s 2186 154 m 16 X s 2194 167 m 8 X s 2194 179
 m 8 X s 2194 191 m 8 X s 2194 203 m 8 X s 2186 216 m 16 X s 2194 228 m 8 X s 2194 240 m 8 X s 2194 252 m 8 X s 2194 264 m 8 X s 2186 277 m 16 X s 2194 289 m 8 X s 2194 301 m 8 X s 2194 313 m 8 X s 2194 326 m 8 X s 2186 338 m 16 X s 2194 350 m 8 X s
 2194 362 m 8 X s 2194 374 m 8 X s 2194 387 m 8 X s 2186 399 m 16 X s 2194 411 m 8 X s 2194 423 m 8 X s 2194 436 m 8 X s 2194 448 m 8 X s 2186 460 m 16 X s 2194 472 m 8 X s 2194 484 m 8 X s 2194 497 m 8 X s 2194 509 m 8 X s 2186 521 m 16 X s 2186 521
 m 16 X s 1 0 0 c 6 lw black 3 lw 1 0 0 c 2189 94 m -1 -1 d s 2189 109 m -14 -14 d s 2173 93 m s 2189 124 m -14 -14 d s 2158 93 m cl s 2189 139 m -14 -14 d s 2143 93 m s 2189 154 m -14 -13 d s 2128 93 m s 2189 170 m -14 -14 d s 2120 101 m -7 -8 d s
 2183 179 m -8 -8 d s 2120 116 m -22 -23 d s 2120 131 m -37 -38 d s 2110 136 m -42 -43 d s 2107 148 m -54 -55 d s 2107 163 m -14 -14 d s 2080 136 m -42 -43 d s 2107 178 m -14 -14 d s 2079 150 m -57 -57 d s 2094 180 m -1 -1 d s 2079 166 m -72 -73 d s
 2079 181 m -41 -41 d s 2035 136 m -43 -43 d s 2079 196 m -13 -14 d s 2064 181 m -26 -26 d s 2025 141 m -48 -48 d s 2079 211 m -13 -14 d s 2052 184 m -14 -14 d s 2025 156 m -63 -63 d s 2075 222 m -9 -9 d s 2052 199 m -14 -14 d s 2025 171 m -78 -78 d
 s 2052 214 m -14 -14 d s 2025 186 m -93 -93 d s 2045 222 m -7 -7 d s 2025 202 m -108 -109 d s 2025 217 m -110 -110 d s 1902 93 m s 2025 232 m -110 -110 d s 1901 108 m -14 -15 d s 2025 247 m -55 -55 d s 1958 180 m -43 -43 d s 1901 123 m -29 -30 d s
 2025 262 m -55 -55 d s 1943 180 m -28 -28 d s 1901 138 m -44 -45 d s 2025 277 m -55 -55 d s 1943 195 m -28 -28 d s 1901 154 m -59 -61 d s 2025 293 m -55 -55 d s 1943 210 m -28 -28 d s 1901 169 m -68 -69 d s 1827 93 m s 2025 308 m -41 -42 d s 1982
 265 m -12 -12 d s 1938 221 m -23 -23 d s 1901 184 m -68 -69 d s 1819 101 m -8 -8 d s 2025 323 m -14 -14 d s 2009 307 m -25 -25 d s 1929 227 m -14 -14 d s 1901 199 m -54 -55 d s 1838 136 m -5 -6 d s 1819 116 m -23 -23 d s 2025 338 m -14 -14 d s 1997
 311 m -13 -14 d s 1929 242 m -14 -14 d s 1901 214 m -27 -27 d s 1867 179 m -20 -20 d s 1819 132 m -38 -39 d s 2025 353 m -14 -14 d s 1997 326 m -13 -14 d s 1929 257 m -14 -14 d s 1901 229 m -27 -27 d s 1860 188 m -13 -14 d s 1819 147 m -53 -54 d s
 2025 368 m -14 -13 d s 1997 341 m -13 -14 d s 1922 265 m -7 -7 d s 1901 245 m -13 -14 d s 1880 223 m -6 -6 d s 1860 203 m -13 -14 d s 1819 162 m -54 -55 d s 1751 93 m cl s 2025 384 m -14 -14 d s 1997 356 m -13 -14 d s 1901 260 m -13 -14 d s 1860 218
 m -13 -13 d s 1819 177 m -27 -27 d s 1778 136 m -13 -14 d s 1751 108 m -14 -13 d s 1736 93 m s 2018 392 m -7 -7 d s 1997 371 m -13 -14 d s 1901 275 m -13 -14 d s 1860 234 m -13 -14 d s 1819 192 m -27 -27 d s 1778 151 m -13 -14 d s 1751 123 m -14 -13
 d s 1721 93 m s 1997 386 m -13 -13 d s 1901 290 m -13 -14 d s 1860 249 m -13 -14 d s 1819 207 m -27 -27 d s 1778 166 m -13 -14 d s 1748 136 m -11 -11 d s 1710 97 m -4 -4 d s 1997 401 m -13 -13 d s 1901 305 m -13 -14 d s 1860 264 m -13 -14 d s 1819
 222 m -27 -27 d s 1777 180 m -12 -12 d s 1710 113 m -14 -14 d s 1691 93 m s 1997 417 m -13 -14 d s 1888 307 m s 1806 224 m -14 -14 d s 1710 128 m -14 -14 d s 1676 93 m s 1997 432 m -13 -14 d s 1806 239 m -14 -14 d s 1705 138 m -9 -9 d s 1661 93 m cl
 s 1997 447 m -13 -14 d s 1806 254 m -14 -13 d s 1997 462 m -13 -14 d s 1801 265 m -9 -9 d s 1997 477 m -13 -13 d s 1987 482 m -3 -3 d s 6 lw 1655 93 m 41 X 45 Y 14 X -45 Y 27 X 43 Y 14 X -43 Y 14 X 87 Y 13 X -44 Y 14 X 129 Y 14 X -43 Y 13 X -129 Y
 14 X 43 Y 14 X 129 Y 13 X -86 Y 14 X 44 Y 14 X 84 Y 13 X -214 Y 14 X 172 Y 14 X -44 Y 14 X -43 Y 13 X 2 Y 14 X 85 Y 14 X 217 Y 13 X -175 Y 14 X 85 Y 14 X -256 Y 13 X 86 Y 14 X -41 Y 14 X 41 Y 13 X -86 Y 14 X 44 Y 14 X -44 Y 13 X -43 Y 55 X 86 Y 14 X
 -86 Y 13 X s black 3 lw 1655 93 m 547 X s 1724 106 m -13 Y s 1743 100 m -7 Y s 1761 100 m -7 Y s 1780 100 m -7 Y s 1799 106 m -13 Y s 1818 100 m -7 Y s 1836 100 m -7 Y s 1855 100 m -7 Y s 1874 106 m -13 Y s 1892 100 m -7 Y s 1911 100 m -7 Y s 1930
 100 m -7 Y s 1949 106 m -13 Y s 1967 100 m -7 Y s 1986 100 m -7 Y s 2005 100 m -7 Y s 2024 106 m -13 Y s 2042 100 m -7 Y s 2061 100 m -7 Y s 2080 100 m -7 Y s 2099 106 m -13 Y s 2117 100 m -7 Y s 2136 100 m -7 Y s 2155 100 m -7 Y s 2174 106 m -13 Y
 s 1724 106 m -13 Y s 1705 100 m -7 Y s 1686 100 m -7 Y s 1668 100 m -7 Y s 2174 106 m -13 Y s 2192 100 m -7 Y s 1655 521 m 547 X s 1724 508 m 13 Y s 1743 515 m 6 Y s 1761 515 m 6 Y s 1780 515 m 6 Y s 1799 508 m 13 Y s 1818 515 m 6 Y s 1836 515 m 6 Y
 s 1855 515 m 6 Y s 1874 508 m 13 Y s 1892 515 m 6 Y s 1911 515 m 6 Y s 1930 515 m 6 Y s 1949 508 m 13 Y s 1967 515 m 6 Y s 1986 515 m 6 Y s 2005 515 m 6 Y s 2024 508 m 13 Y s 2042 515 m 6 Y s 2061 515 m 6 Y s 2080 515 m 6 Y s 2099 508 m 13 Y s 2117
 515 m 6 Y s 2136 515 m 6 Y s 2155 515 m 6 Y s 2174 508 m 13 Y s 1724 508 m 13 Y s 1705 515 m 6 Y s 1686 515 m 6 Y s 1668 515 m 6 Y s 2174 508 m 13 Y s 2192 515 m 6 Y s 1655 93 m 428 Y s 1671 93 m -16 X s 1663 106 m -8 X s 1663 118 m -8 X s 1663 130
 m -8 X s 1663 142 m -8 X s 1671 154 m -16 X s 1663 167 m -8 X s 1663 179 m -8 X s 1663 191 m -8 X s 1663 203 m -8 X s 1671 216 m -16 X s 1663 228 m -8 X s 1663 240 m -8 X s 1663 252 m -8 X s 1663 264 m -8 X s 1671 277 m -16 X s 1663 289 m -8 X s
 1663 301 m -8 X s 1663 313 m -8 X s 1663 326 m -8 X s 1671 338 m -16 X s 1663 350 m -8 X s 1663 362 m -8 X s 1663 374 m -8 X s 1663 387 m -8 X s 1671 399 m -16 X s 1663 411 m -8 X s 1663 423 m -8 X s 1663 436 m -8 X s 1663 448 m -8 X s 1671 460 m
 -16 X s 1663 472 m -8 X s 1663 484 m -8 X s 1663 497 m -8 X s 1663 509 m -8 X s 1671 521 m -16 X s 1671 521 m -16 X s 2202 93 m 428 Y s 2186 93 m 16 X s 2194 106 m 8 X s 2194 118 m 8 X s 2194 130 m 8 X s 2194 142 m 8 X s 2186 154 m 16 X s 2194 167 m
 8 X s 2194 179 m 8 X s 2194 191 m 8 X s 2194 203 m 8 X s 2186 216 m 16 X s 2194 228 m 8 X s 2194 240 m 8 X s 2194 252 m 8 X s 2194 264 m 8 X s 2186 277 m 16 X s 2194 289 m 8 X s 2194 301 m 8 X s 2194 313 m 8 X s 2194 326 m 8 X s 2186 338 m 16 X s
 2194 350 m 8 X s 2194 362 m 8 X s 2194 374 m 8 X s 2194 387 m 8 X s 2186 399 m 16 X s 2194 411 m 8 X s 2194 423 m 8 X s 2194 436 m 8 X s 2194 448 m 8 X s 2186 460 m 16 X s 2194 472 m 8 X s 2194 484 m 8 X s 2194 497 m 8 X s 2194 509 m 8 X s 2186 521
 m 16 X s 2186 521 m 16 X s
 gsave  711 566 1534 12 C 2230.83 91.0528 t 90 r /Helvetica-Bold findfont 20.0147 sf 0 0 m (U/O\255flow \(S,B\): \(0.0, 0.0\)% / \(0.0, 0.0\)%) show NC gr  0.490196 0.545098 0.615686 c 0.364706 0.419608 0.490196 c 497 38 1542 537 bf 0.490196 0.545098
 0.615686 c 1542 537 m 497 X s 2039 537 m 38 Y s 2039 575 m -497 X s 1542 575 m -38 Y s 1 1 1 c black 1 1 1 c
 gsave  711 566 1534 12 C 1555.49 549.836 t 0 r /Helvetica-Bold findfont 20.0147 sf 0 0 m (Input variable'PCA'\255transformed : GTND_terrorist) show NC gr 
 gr  gr showpage
end
%%EOF
