%!PS-Adobe-2.0 EPSF-2.0
%%BoundingBox:  0 0 567 295
%%Title: plots/variables_id_c3.eps: Input variables (training sample)
%%Creator: ROOT Version 5.34/09
%%CreationDate: Sat Jan  4 23:52:52 2014
%%EndComments
%%BeginProlog
80 dict begin
/s {stroke} def /l {lineto} def /m {moveto} def /t {translate} def
/r {rotate} def /rl {roll}  def /R {repeat} def
/d {rlineto} def /rm {rmoveto} def /gr {grestore} def /f {eofill} def
/c {setrgbcolor} def /black {0 setgray} def /sd {setdash} def
/cl {closepath} def /sf {scalefont setfont} def /lw {setlinewidth} def
/box {m dup 0 exch d exch 0 d 0 exch neg d cl} def
/NC{systemdict begin initclip end}def/C{NC box clip newpath}def
/bl {box s} def /bf {box f} def /Y { 0 exch d} def /X { 0 d} def 
/K {{pop pop 0 moveto} exch kshow} bind def
/ita {/ang 15 def gsave [1 0 ang dup sin exch cos div 1 0 0] concat} def 
/mp {newpath /y exch def /x exch def} def
/side {[w .77 mul w .23 mul] .385 w mul sd w 0 l currentpoint t -144 r} def
/mr {mp x y w2 0 360 arc} def /m24 {mr s} def /m20 {mr f} def
/mb {mp x y w2 add m w2 neg 0 d 0 w neg d w 0 d 0 w d cl} def
/mt {mp x y w2 add m w2 neg w neg d w 0 d cl} def
/m21 {mb f} def /m25 {mb s} def /m22 {mt f} def /m26{mt s} def
/m23 {mp x y w2 sub m w2 w d w neg 0 d cl f} def
/m27 {mp x y w2 add m w3 neg w2 neg d w3 w2 neg d w3 w2 d cl s} def
/m28 {mp x w2 sub y w2 sub w3 add m w3 0 d  0 w3 neg d w3 0 d 0 w3 d w3 0 d  0 w3 d w3 neg 0 d 0 w3 d w3 neg 0 d 0 w3 neg d w3 neg 0 d cl s } def
/m29 {mp gsave x w2 sub y w2 add w3 sub m currentpoint t 4 {side} repeat cl fill gr} def
/m30 {mp gsave x w2 sub y w2 add w3 sub m currentpoint t 4 {side} repeat cl s gr} def
/m31 {mp x y w2 sub m 0 w d x w2 sub y m w 0 d x w2 sub y w2 add m w w neg d x w2 sub y w2 sub m w w d s} def
/m32 {mp x y w2 sub m w2 w d w neg 0 d cl s} def
/m33 {mp x y w2 add m w3 neg w2 neg d w3 w2 neg d w3 w2 d cl f} def
/m34 {mp x w2 sub y w2 sub w3 add m w3 0 d  0 w3 neg d w3 0 d 0 w3 d w3 0 d  0 w3 d w3 neg 0 d 0 w3 d w3 neg 0 d 0 w3 neg d w3 neg 0 d cl f } def
/m2 {mp x y w2 sub m 0 w d x w2 sub y m w 0 d s} def
/m5 {mp x w2 sub y w2 sub m w w d x w2 sub y w2 add m w w neg d s} def
/reEncode {exch findfont dup length dict begin {1 index /FID eq  {pop pop} {def} ifelse } forall /Encoding exch def currentdict end dup /FontName get exch definefont pop } def [/Times-Bold /Times-Italic /Times-BoldItalic /Helvetica /Helvetica-Oblique
 /Helvetica-Bold /Helvetica-BoldOblique /Courier /Courier-Oblique /Courier-Bold /Courier-BoldOblique /Times-Roman /AvantGarde-Book /AvantGarde-BookOblique /AvantGarde-Demi /AvantGarde-DemiOblique /Bookman-Demi /Bookman-DemiItalic /Bookman-Light
 /Bookman-LightItalic /Helvetica-Narrow /Helvetica-Narrow-Bold /Helvetica-Narrow-BoldOblique /Helvetica-Narrow-Oblique /NewCenturySchlbk-Roman /NewCenturySchlbk-Bold /NewCenturySchlbk-BoldItalic /NewCenturySchlbk-Italic /Palatino-Bold
 /Palatino-BoldItalic /Palatino-Italic /Palatino-Roman ] {ISOLatin1Encoding reEncode } forall
%%EndProlog
%%BeginSetup
%%EndSetup
newpath  gsave  .25 .25 scale  gsave  0 0 t 0.490196 0.545098 0.615686 c[  ] 0 sd 3 lw 0.941176 0.941176 0.941176 c 2268 1179 0 0 bf 0.490196 0.545098 0.615686 c 0.941176 0.941176 0.941176 c 710 566 23 602 bf black 1 1 0.992157 c 548 428 143 683 bf
 black 548 428 143 683 bl 1 1 0.992157 c 548 428 143 683 bf black 548 428 143 683 bl 0 0 0.933333 c 6 lw 0.49 0.6 0.82 c black 3 lw 0.49 0.6 0.82 c 143 683 m 55 X 38 Y 28 X -38 Y 82 X 38 Y 13 X 39 Y 14 X -39 Y 14 X 41 Y 13 X -79 Y 14 X 39 Y 14 X -39
 Y 13 X 192 Y 14 X -76 Y 14 X 37 Y 13 X 79 Y 14 X 77 Y 14 X -195 Y 13 X 83 Y 14 X -82 Y 14 X -77 Y 13 X 76 Y 14 X -75 Y 14 X -1 Y 13 X 1 Y 14 X -39 Y 14 X 39 Y 27 X -39 Y 55 X 45 Y 14 X -45 Y f 6 lw 0 0 0.933333 c 0.49 0.6 0.82 c 0 0 0.933333 c 143
 683 m 55 X 38 Y 28 X -38 Y 82 X 38 Y 13 X 39 Y 14 X -39 Y 14 X 41 Y 13 X -79 Y 14 X 39 Y 14 X -39 Y 13 X 192 Y 14 X -76 Y 14 X 37 Y 13 X 79 Y 14 X 77 Y 14 X -195 Y 13 X 83 Y 14 X -82 Y 14 X -77 Y 13 X 76 Y 14 X -75 Y 14 X -1 Y 13 X 1 Y 14 X -39 Y 14
 X 39 Y 27 X -39 Y 55 X 45 Y 14 X s black 3 lw 143 683 m 548 X s
 gsave  710 566 23 602 C 546.987 612.511 t 0 r /Helvetica findfont 28.5925 sf 0 0 m (GTND_war) show NC gr  172 696 m -13 Y s 191 690 m -7 Y s 210 690 m -7 Y s 229 690 m -7 Y s 248 690 m -7 Y s 267 696 m -13 Y s 286 690 m -7 Y s 305 690 m -7 Y s 324
 690 m -7 Y s 342 690 m -7 Y s 361 696 m -13 Y s 380 690 m -7 Y s 399 690 m -7 Y s 418 690 m -7 Y s 437 690 m -7 Y s 456 696 m -13 Y s 475 690 m -7 Y s 494 690 m -7 Y s 513 690 m -7 Y s 532 690 m -7 Y s 551 696 m -13 Y s 570 690 m -7 Y s 589 690 m -7
 Y s 608 690 m -7 Y s 627 690 m -7 Y s 646 696 m -13 Y s 172 696 m -13 Y s 153 690 m -7 Y s 646 696 m -13 Y s 665 690 m -7 Y s 684 690 m -7 Y s
 gsave  710 566 23 602 C 150.991 655.245 t 0 r /Helvetica findfont 25.7332 sf 0 0 m (\25530) show NC gr 
 gsave  710 566 23 602 C 245.005 655.245 t 0 r /Helvetica findfont 25.7332 sf 0 0 m (\25520) show NC gr 
 gsave  710 566 23 602 C 339.018 655.245 t 0 r /Helvetica findfont 25.7332 sf 0 0 m (\25510) show NC gr 
 gsave  710 566 23 602 C 447.276 655.245 t 0 r /Helvetica findfont 25.7332 sf 0 0 m (0) show NC gr 
 gsave  710 566 23 602 C 535.591 655.245 t 0 r /Helvetica findfont 25.7332 sf 0 0 m (10) show NC gr 
 gsave  710 566 23 602 C 629.605 655.245 t 0 r /Helvetica findfont 25.7332 sf 0 0 m (20) show NC gr  143 1111 m 548 X s 172 1098 m 13 Y s 191 1104 m 7 Y s 210 1104 m 7 Y s 229 1104 m 7 Y s 248 1104 m 7 Y s 267 1098 m 13 Y s 286 1104 m 7 Y s 305 1104
 m 7 Y s 324 1104 m 7 Y s 342 1104 m 7 Y s 361 1098 m 13 Y s 380 1104 m 7 Y s 399 1104 m 7 Y s 418 1104 m 7 Y s 437 1104 m 7 Y s 456 1098 m 13 Y s 475 1104 m 7 Y s 494 1104 m 7 Y s 513 1104 m 7 Y s 532 1104 m 7 Y s 551 1098 m 13 Y s 570 1104 m 7 Y s
 589 1104 m 7 Y s 608 1104 m 7 Y s 627 1104 m 7 Y s 646 1098 m 13 Y s 172 1098 m 13 Y s 153 1104 m 7 Y s 646 1098 m 13 Y s 665 1104 m 7 Y s 684 1104 m 7 Y s 143 683 m 428 Y s
 gsave  710 566 23 602 C 45.5822 1045.54 t 90 r /Helvetica findfont 28.5925 sf 0 0 m (1.44 ) show NC gr 
 gsave  710 566 23 602 C 31.3378 1039.84 t 90 r /Helvetica findfont 20.0147 sf 0 0 m ( ) show NC gr 
 gsave  710 566 23 602 C 45.5822 1028.45 t 90 r /Helvetica findfont 28.5925 sf 0 0 m (/) show NC gr 
 gsave  710 566 23 602 C 54.1289 1022.75 t 90 r /Helvetica findfont 20.0147 sf 0 0 m ( ) show NC gr 
 gsave  710 566 23 602 C 45.5822 914.494 t 90 r /Helvetica findfont 28.5925 sf 0 0 m (\(1/N\) dN) show NC gr  160 683 m -17 X s 152 699 m -9 X s 152 714 m -9 X s 152 730 m -9 X s 160 745 m -17 X s 152 761 m -9 X s 152 777 m -9 X s 152 792 m -9 X s
 160 808 m -17 X s 152 823 m -9 X s 152 839 m -9 X s 152 855 m -9 X s 160 870 m -17 X s 152 886 m -9 X s 152 902 m -9 X s 152 917 m -9 X s 160 933 m -17 X s 152 948 m -9 X s 152 964 m -9 X s 152 980 m -9 X s 160 995 m -17 X s 152 1011 m -9 X s 152
 1026 m -9 X s 152 1042 m -9 X s 160 1058 m -17 X s 160 1058 m -17 X s 152 1073 m -9 X s 152 1089 m -9 X s 152 1104 m -9 X s
 gsave  710 566 23 602 C 119.653 672.338 t 0 r /Helvetica findfont 25.7332 sf 0 0 m (0) show NC gr 
 gsave  710 566 23 602 C 82.6178 735.014 t 0 r /Helvetica findfont 25.7332 sf 0 0 m (0.02) show NC gr 
 gsave  710 566 23 602 C 82.6178 797.689 t 0 r /Helvetica findfont 25.7332 sf 0 0 m (0.04) show NC gr 
 gsave  710 566 23 602 C 82.6178 860.365 t 0 r /Helvetica findfont 25.7332 sf 0 0 m (0.06) show NC gr 
 gsave  710 566 23 602 C 82.6178 923.04 t 0 r /Helvetica findfont 25.7332 sf 0 0 m (0.08) show NC gr 
 gsave  710 566 23 602 C 102.56 985.716 t 0 r /Helvetica findfont 25.7332 sf 0 0 m (0.1) show NC gr 
 gsave  710 566 23 602 C 82.6178 1048.39 t 0 r /Helvetica findfont 25.7332 sf 0 0 m (0.12) show NC gr  691 683 m 428 Y s 674 683 m 17 X s 683 699 m 8 X s 683 714 m 8 X s 683 730 m 8 X s 674 745 m 17 X s 683 761 m 8 X s 683 777 m 8 X s 683 792 m 8 X s
 674 808 m 17 X s 683 823 m 8 X s 683 839 m 8 X s 683 855 m 8 X s 674 870 m 17 X s 683 886 m 8 X s 683 902 m 8 X s 683 917 m 8 X s 674 933 m 17 X s 683 948 m 8 X s 683 964 m 8 X s 683 980 m 8 X s 674 995 m 17 X s 683 1011 m 8 X s 683 1026 m 8 X s 683
 1042 m 8 X s 674 1058 m 17 X s 674 1058 m 17 X s 683 1073 m 8 X s 683 1089 m 8 X s 683 1104 m 8 X s 1 0 0 c 6 lw black 3 lw 1 0 0 c 676 683 m s 661 683 m s 646 683 m cl s 631 683 m s 616 683 m s 609 690 m -8 -7 d s 609 706 m -14 -14 d s 586 683 m s
 598 711 m -3 -4 d s 571 683 m s 556 683 m s 554 696 m -13 -13 d s 554 711 m -28 -28 d s 554 726 m -14 -13 d s 538 710 m -27 -27 d s 550 738 m -10 -10 d s 526 714 m -30 -31 d s 526 729 m -45 -46 d s 526 744 m -61 -61 d s 526 760 m -76 -77 d s 526 775
 m -91 -92 d s 526 790 m -13 -14 d s 504 767 m -84 -84 d s 514 793 m -1 -2 d s 499 778 m -94 -95 d s 499 793 m -109 -110 d s 499 808 m -68 -69 d s 430 738 m -54 -54 d s 375 683 m s 499 823 m -68 -69 d s 417 740 m -41 -41 d s 362 685 m -2 -2 d s 499
 838 m -68 -69 d s 417 756 m -14 -14 d s 400 739 m -24 -25 d s 362 701 m -17 -18 d s 499 853 m -68 -68 d s 412 766 m -9 -9 d s 390 743 m -14 -13 d s 357 710 m -27 -27 d s 499 869 m -68 -69 d s 390 758 m -14 -13 d s 342 711 m -27 -28 d s 499 884 m -68
 -69 d s 384 768 m -8 -8 d s 335 719 m -27 -28 d s 300 683 m cl s 499 899 m -68 -69 d s 335 734 m -14 -14 d s 312 710 m -4 -4 d s 285 683 m s 499 914 m -55 -55 d s 434 849 m -3 -4 d s 335 749 m -14 -14 d s 280 694 m -10 -11 d s 499 929 m -41 -41 d s
 449 879 m -5 -5 d s 335 764 m -14 -14 d s 280 709 m -26 -26 d s 499 944 m -41 -41 d s 335 779 m -14 -14 d s 267 710 m -14 -13 d s 239 683 m cl s 499 959 m -41 -41 d s 334 794 m -13 -13 d s 224 683 m s 499 975 m -27 -28 d s 209 683 m s 496 987 m -24
 -25 d s 194 683 m s 485 991 m -13 -14 d s 179 683 m s 485 1006 m -13 -13 d s 164 683 m cl s 485 1022 m -13 -14 d s 157 691 m -8 -8 d s 485 1037 m -13 -14 d s 157 706 m -14 -13 d s 485 1052 m -13 -14 d s 146 711 m -3 -3 d s 485 1067 m -13 -14 d s 475
 1072 m -3 -4 d s 6 lw 143 711 m 14 X -28 Y 96 X 28 Y 14 X -1 Y 13 X -27 Y 28 X 27 Y 13 X 84 Y 14 X -83 Y 14 X -1 Y 13 X -27 Y 14 X 85 Y 14 X -29 Y 13 X 27 Y 14 X -28 Y 14 X 111 Y 13 X 30 Y 14 X 53 Y 14 X 140 Y 13 X -85 Y 14 X -220 Y 14 X 26 Y 13 X
 -83 Y 14 X 28 Y 14 X -55 Y 41 X 28 Y 14 X -28 Y 82 X s black 3 lw 143 683 m 548 X s 172 696 m -13 Y s 191 690 m -7 Y s 210 690 m -7 Y s 229 690 m -7 Y s 248 690 m -7 Y s 267 696 m -13 Y s 286 690 m -7 Y s 305 690 m -7 Y s 324 690 m -7 Y s 342 690 m
 -7 Y s 361 696 m -13 Y s 380 690 m -7 Y s 399 690 m -7 Y s 418 690 m -7 Y s 437 690 m -7 Y s 456 696 m -13 Y s 475 690 m -7 Y s 494 690 m -7 Y s 513 690 m -7 Y s 532 690 m -7 Y s 551 696 m -13 Y s 570 690 m -7 Y s 589 690 m -7 Y s 608 690 m -7 Y s
 627 690 m -7 Y s 646 696 m -13 Y s 172 696 m -13 Y s 153 690 m -7 Y s 646 696 m -13 Y s 665 690 m -7 Y s 684 690 m -7 Y s 143 1111 m 548 X s 172 1098 m 13 Y s 191 1104 m 7 Y s 210 1104 m 7 Y s 229 1104 m 7 Y s 248 1104 m 7 Y s 267 1098 m 13 Y s 286
 1104 m 7 Y s 305 1104 m 7 Y s 324 1104 m 7 Y s 342 1104 m 7 Y s 361 1098 m 13 Y s 380 1104 m 7 Y s 399 1104 m 7 Y s 418 1104 m 7 Y s 437 1104 m 7 Y s 456 1098 m 13 Y s 475 1104 m 7 Y s 494 1104 m 7 Y s 513 1104 m 7 Y s 532 1104 m 7 Y s 551 1098 m 13
 Y s 570 1104 m 7 Y s 589 1104 m 7 Y s 608 1104 m 7 Y s 627 1104 m 7 Y s 646 1098 m 13 Y s 172 1098 m 13 Y s 153 1104 m 7 Y s 646 1098 m 13 Y s 665 1104 m 7 Y s 684 1104 m 7 Y s 143 683 m 428 Y s 160 683 m -17 X s 152 699 m -9 X s 152 714 m -9 X s
 152 730 m -9 X s 160 745 m -17 X s 152 761 m -9 X s 152 777 m -9 X s 152 792 m -9 X s 160 808 m -17 X s 152 823 m -9 X s 152 839 m -9 X s 152 855 m -9 X s 160 870 m -17 X s 152 886 m -9 X s 152 902 m -9 X s 152 917 m -9 X s 160 933 m -17 X s 152 948
 m -9 X s 152 964 m -9 X s 152 980 m -9 X s 160 995 m -17 X s 152 1011 m -9 X s 152 1026 m -9 X s 152 1042 m -9 X s 160 1058 m -17 X s 160 1058 m -17 X s 152 1073 m -9 X s 152 1089 m -9 X s 152 1104 m -9 X s 691 683 m 428 Y s 674 683 m 17 X s 683 699
 m 8 X s 683 714 m 8 X s 683 730 m 8 X s 674 745 m 17 X s 683 761 m 8 X s 683 777 m 8 X s 683 792 m 8 X s 674 808 m 17 X s 683 823 m 8 X s 683 839 m 8 X s 683 855 m 8 X s 674 870 m 17 X s 683 886 m 8 X s 683 902 m 8 X s 683 917 m 8 X s 674 933 m 17 X
 s 683 948 m 8 X s 683 964 m 8 X s 683 980 m 8 X s 674 995 m 17 X s 683 1011 m 8 X s 683 1026 m 8 X s 683 1042 m 8 X s 674 1058 m 17 X s 674 1058 m 17 X s 683 1073 m 8 X s 683 1089 m 8 X s 683 1104 m 8 X s
 gsave  710 566 23 602 C 719.017 680.773 t 90 r /Helvetica-Bold findfont 20.0147 sf 0 0 m (U/O\255flow \(S,B\): \(0.0, 0.0\)% / \(0.0, 0.0\)%) show NC gr  0.490196 0.545098 0.615686 c 0.364706 0.419608 0.490196 c 364 38 30 1127 bf 0.490196 0.545098
 0.615686 c 30 1127 m 364 X s 394 1127 m 38 Y s 394 1165 m -364 X s 30 1165 m -38 Y s 1 1 1 c black 1 1 1 c
 gsave  710 566 23 602 C 34.1867 1139.56 t 0 r /Helvetica-Bold findfont 28.5925 sf 0 0 m (Input variable: GTND_war) show NC gr  0.490196 0.545098 0.615686 c 0.941176 0.941176 0.941176 c 710 566 779 602 bf 0.490196 0.545098 0.615686 c 0.941176
 0.941176 0.941176 c 711 566 1534 602 bf 0.490196 0.545098 0.615686 c 0.941176 0.941176 0.941176 c 710 566 23 12 bf 0.490196 0.545098 0.615686 c 0.941176 0.941176 0.941176 c 710 566 779 12 bf 0.490196 0.545098 0.615686 c 0.941176 0.941176 0.941176 c
 711 566 1534 12 bf
 gr  gr showpage
end
%%EOF
