%!PS-Adobe-2.0 EPSF-2.0
%%BoundingBox:  0 0 567 295
%%Title: plots/variables_gauss_deco_c3.eps: Input variables 'Gauss_Deco'-transformed (training sample)
%%Creator: ROOT Version 5.34/09
%%CreationDate: Sat Jan  4 23:53:58 2014
%%EndComments
%%BeginProlog
80 dict begin
/s {stroke} def /l {lineto} def /m {moveto} def /t {translate} def
/r {rotate} def /rl {roll}  def /R {repeat} def
/d {rlineto} def /rm {rmoveto} def /gr {grestore} def /f {eofill} def
/c {setrgbcolor} def /black {0 setgray} def /sd {setdash} def
/cl {closepath} def /sf {scalefont setfont} def /lw {setlinewidth} def
/box {m dup 0 exch d exch 0 d 0 exch neg d cl} def
/NC{systemdict begin initclip end}def/C{NC box clip newpath}def
/bl {box s} def /bf {box f} def /Y { 0 exch d} def /X { 0 d} def 
/K {{pop pop 0 moveto} exch kshow} bind def
/ita {/ang 15 def gsave [1 0 ang dup sin exch cos div 1 0 0] concat} def 
/mp {newpath /y exch def /x exch def} def
/side {[w .77 mul w .23 mul] .385 w mul sd w 0 l currentpoint t -144 r} def
/mr {mp x y w2 0 360 arc} def /m24 {mr s} def /m20 {mr f} def
/mb {mp x y w2 add m w2 neg 0 d 0 w neg d w 0 d 0 w d cl} def
/mt {mp x y w2 add m w2 neg w neg d w 0 d cl} def
/m21 {mb f} def /m25 {mb s} def /m22 {mt f} def /m26{mt s} def
/m23 {mp x y w2 sub m w2 w d w neg 0 d cl f} def
/m27 {mp x y w2 add m w3 neg w2 neg d w3 w2 neg d w3 w2 d cl s} def
/m28 {mp x w2 sub y w2 sub w3 add m w3 0 d  0 w3 neg d w3 0 d 0 w3 d w3 0 d  0 w3 d w3 neg 0 d 0 w3 d w3 neg 0 d 0 w3 neg d w3 neg 0 d cl s } def
/m29 {mp gsave x w2 sub y w2 add w3 sub m currentpoint t 4 {side} repeat cl fill gr} def
/m30 {mp gsave x w2 sub y w2 add w3 sub m currentpoint t 4 {side} repeat cl s gr} def
/m31 {mp x y w2 sub m 0 w d x w2 sub y m w 0 d x w2 sub y w2 add m w w neg d x w2 sub y w2 sub m w w d s} def
/m32 {mp x y w2 sub m w2 w d w neg 0 d cl s} def
/m33 {mp x y w2 add m w3 neg w2 neg d w3 w2 neg d w3 w2 d cl f} def
/m34 {mp x w2 sub y w2 sub w3 add m w3 0 d  0 w3 neg d w3 0 d 0 w3 d w3 0 d  0 w3 d w3 neg 0 d 0 w3 d w3 neg 0 d 0 w3 neg d w3 neg 0 d cl f } def
/m2 {mp x y w2 sub m 0 w d x w2 sub y m w 0 d s} def
/m5 {mp x w2 sub y w2 sub m w w d x w2 sub y w2 add m w w neg d s} def
/reEncode {exch findfont dup length dict begin {1 index /FID eq  {pop pop} {def} ifelse } forall /Encoding exch def currentdict end dup /FontName get exch definefont pop } def [/Times-Bold /Times-Italic /Times-BoldItalic /Helvetica /Helvetica-Oblique
 /Helvetica-Bold /Helvetica-BoldOblique /Courier /Courier-Oblique /Courier-Bold /Courier-BoldOblique /Times-Roman /AvantGarde-Book /AvantGarde-BookOblique /AvantGarde-Demi /AvantGarde-DemiOblique /Bookman-Demi /Bookman-DemiItalic /Bookman-Light
 /Bookman-LightItalic /Helvetica-Narrow /Helvetica-Narrow-Bold /Helvetica-Narrow-BoldOblique /Helvetica-Narrow-Oblique /NewCenturySchlbk-Roman /NewCenturySchlbk-Bold /NewCenturySchlbk-BoldItalic /NewCenturySchlbk-Italic /Palatino-Bold
 /Palatino-BoldItalic /Palatino-Italic /Palatino-Roman ] {ISOLatin1Encoding reEncode } forall
%%EndProlog
%%BeginSetup
%%EndSetup
newpath  gsave  .25 .25 scale  gsave  0 0 t 0.490196 0.545098 0.615686 c[  ] 0 sd 3 lw 0.941176 0.941176 0.941176 c 2268 1179 0 0 bf 0.490196 0.545098 0.615686 c 0.941176 0.941176 0.941176 c 710 566 23 602 bf black 1 1 0.992157 c 548 428 143 683 bf
 black 548 428 143 683 bl 1 1 0.992157 c 548 428 143 683 bf black 548 428 143 683 bl 0 0 0.933333 c 6 lw 0.49 0.6 0.82 c black 3 lw 0.49 0.6 0.82 c 143 683 m 151 X 38 Y 14 X 39 Y 13 X 115 Y 14 X 78 Y 14 X 119 Y 13 X -76 Y 14 X -3 Y 14 X -234 Y 13 X
 120 Y 14 X -119 Y 14 X 78 Y 13 X -155 Y 14 X 39 Y 14 X -39 Y 205 X 45 Y 14 X -45 Y f 6 lw 0 0 0.933333 c 0.49 0.6 0.82 c 0 0 0.933333 c 143 683 m 151 X 38 Y 14 X 39 Y 13 X 115 Y 14 X 78 Y 14 X 119 Y 13 X -76 Y 14 X -3 Y 14 X -234 Y 13 X 120 Y 14 X
 -119 Y 14 X 78 Y 13 X -155 Y 14 X 39 Y 14 X -39 Y 205 X 45 Y 14 X s black 3 lw 143 683 m 548 X s
 gsave  710 566 23 602 C 356.111 615.36 t 0 r /Helvetica findfont 28.5925 sf 0 0 m (GTND_war \(Gauss_Deco\)) show NC gr  160 696 m -13 Y s 186 690 m -7 Y s 212 690 m -7 Y s 238 690 m -7 Y s 264 696 m -13 Y s 290 690 m -7 Y s 316 690 m -7 Y s 342 690
 m -7 Y s 368 696 m -13 Y s 394 690 m -7 Y s 420 690 m -7 Y s 447 690 m -7 Y s 473 696 m -13 Y s 499 690 m -7 Y s 525 690 m -7 Y s 551 690 m -7 Y s 577 696 m -13 Y s 603 690 m -7 Y s 629 690 m -7 Y s 655 690 m -7 Y s 681 696 m -13 Y s 160 696 m -13 Y
 s 681 696 m -13 Y s
 gsave  710 566 23 602 C 148.142 655.245 t 0 r /Helvetica findfont 25.7332 sf 0 0 m (\2554) show NC gr 
 gsave  710 566 23 602 C 250.702 655.245 t 0 r /Helvetica findfont 25.7332 sf 0 0 m (\2552) show NC gr 
 gsave  710 566 23 602 C 358.96 655.245 t 0 r /Helvetica findfont 25.7332 sf 0 0 m (0) show NC gr 
 gsave  710 566 23 602 C 461.52 655.245 t 0 r /Helvetica findfont 25.7332 sf 0 0 m (2) show NC gr 
 gsave  710 566 23 602 C 566.929 655.245 t 0 r /Helvetica findfont 25.7332 sf 0 0 m (4) show NC gr 
 gsave  710 566 23 602 C 669.489 655.245 t 0 r /Helvetica findfont 25.7332 sf 0 0 m (6) show NC gr  143 1111 m 548 X s 160 1098 m 13 Y s 186 1104 m 7 Y s 212 1104 m 7 Y s 238 1104 m 7 Y s 264 1098 m 13 Y s 290 1104 m 7 Y s 316 1104 m 7 Y s 342 1104 m
 7 Y s 368 1098 m 13 Y s 394 1104 m 7 Y s 420 1104 m 7 Y s 447 1104 m 7 Y s 473 1098 m 13 Y s 499 1104 m 7 Y s 525 1104 m 7 Y s 551 1104 m 7 Y s 577 1098 m 13 Y s 603 1104 m 7 Y s 629 1104 m 7 Y s 655 1104 m 7 Y s 681 1098 m 13 Y s 160 1098 m 13 Y s
 681 1098 m 13 Y s 143 683 m 428 Y s
 gsave  710 566 23 602 C 45.5822 1031.3 t 90 r /Helvetica findfont 28.5925 sf 0 0 m (0.263 ) show NC gr 
 gsave  710 566 23 602 C 31.3378 1025.6 t 90 r /Helvetica findfont 20.0147 sf 0 0 m ( ) show NC gr 
 gsave  710 566 23 602 C 45.5822 1014.2 t 90 r /Helvetica findfont 28.5925 sf 0 0 m (/) show NC gr 
 gsave  710 566 23 602 C 54.1289 1008.51 t 90 r /Helvetica findfont 20.0147 sf 0 0 m ( ) show NC gr 
 gsave  710 566 23 602 C 45.5822 900.249 t 90 r /Helvetica findfont 28.5925 sf 0 0 m (\(1/N\) dN) show NC gr  160 683 m -17 X s 152 694 m -9 X s 152 706 m -9 X s 152 717 m -9 X s 152 729 m -9 X s 160 740 m -17 X s 152 752 m -9 X s 152 763 m -9 X s
 152 775 m -9 X s 152 786 m -9 X s 160 797 m -17 X s 152 809 m -9 X s 152 820 m -9 X s 152 832 m -9 X s 152 843 m -9 X s 160 855 m -17 X s 152 866 m -9 X s 152 877 m -9 X s 152 889 m -9 X s 152 900 m -9 X s 160 912 m -17 X s 152 923 m -9 X s 152 935
 m -9 X s 152 946 m -9 X s 152 958 m -9 X s 160 969 m -17 X s 152 980 m -9 X s 152 992 m -9 X s 152 1003 m -9 X s 152 1015 m -9 X s 160 1026 m -17 X s 152 1038 m -9 X s 152 1049 m -9 X s 152 1061 m -9 X s 152 1072 m -9 X s 160 1083 m -17 X s 160 1083
 m -17 X s 152 1095 m -9 X s 152 1106 m -9 X s
 gsave  710 566 23 602 C 119.653 672.338 t 0 r /Helvetica findfont 25.7332 sf 0 0 m (0) show NC gr 
 gsave  710 566 23 602 C 102.56 729.316 t 0 r /Helvetica findfont 25.7332 sf 0 0 m (0.1) show NC gr 
 gsave  710 566 23 602 C 96.8623 786.294 t 0 r /Helvetica findfont 25.7332 sf 0 0 m (0.2) show NC gr 
 gsave  710 566 23 602 C 96.8623 843.271 t 0 r /Helvetica findfont 25.7332 sf 0 0 m (0.3) show NC gr 
 gsave  710 566 23 602 C 96.8623 903.098 t 0 r /Helvetica findfont 25.7332 sf 0 0 m (0.4) show NC gr 
 gsave  710 566 23 602 C 96.8623 960.076 t 0 r /Helvetica findfont 25.7332 sf 0 0 m (0.5) show NC gr 
 gsave  710 566 23 602 C 96.8623 1017.05 t 0 r /Helvetica findfont 25.7332 sf 0 0 m (0.6) show NC gr 
 gsave  710 566 23 602 C 96.8623 1074.03 t 0 r /Helvetica findfont 25.7332 sf 0 0 m (0.7) show NC gr  691 683 m 428 Y s 674 683 m 17 X s 683 694 m 8 X s 683 706 m 8 X s 683 717 m 8 X s 683 729 m 8 X s 674 740 m 17 X s 683 752 m 8 X s 683 763 m 8 X s
 683 775 m 8 X s 683 786 m 8 X s 674 797 m 17 X s 683 809 m 8 X s 683 820 m 8 X s 683 832 m 8 X s 683 843 m 8 X s 674 855 m 17 X s 683 866 m 8 X s 683 877 m 8 X s 683 889 m 8 X s 683 900 m 8 X s 674 912 m 17 X s 683 923 m 8 X s 683 935 m 8 X s 683
 946 m 8 X s 683 958 m 8 X s 674 969 m 17 X s 683 980 m 8 X s 683 992 m 8 X s 683 1003 m 8 X s 683 1015 m 8 X s 674 1026 m 17 X s 683 1038 m 8 X s 683 1049 m 8 X s 683 1061 m 8 X s 683 1072 m 8 X s 674 1083 m 17 X s 674 1083 m 17 X s 683 1095 m 8 X s
 683 1106 m 8 X s 1 0 0 c 6 lw black 3 lw 1 0 0 c 676 683 m s 661 683 m s 646 683 m s 631 683 m s 616 683 m s 601 683 m s 586 683 m s 571 683 m s 556 683 m s 541 683 m s 526 683 m s 511 683 m s 499 687 m -3 -4 d s 499 702 m -14 -14 d s 481 683 m s
 493 711 m -8 -8 d s 465 683 m s 450 683 m s 444 692 m -9 -9 d s 444 707 m -24 -24 d s 444 722 m -39 -39 d s 444 738 m -54 -55 d s 444 753 m -69 -70 d s 443 766 m -83 -83 d s 428 767 m -83 -84 d s 417 771 m -87 -88 d s 417 786 m -102 -103 d s 417 801
 m -117 -118 d s 417 816 m -132 -133 d s 417 831 m -137 -137 d s 270 683 m cl s 417 847 m -137 -138 d s 254 683 m s 405 849 m -125 -125 d s 239 683 m s 403 863 m -82 -82 d s 308 767 m -28 -28 d s 224 683 m s 403 878 m -82 -82 d s 308 782 m -28 -28 d
 s 209 683 m s 403 893 m -68 -68 d s 333 822 m -12 -11 d s 305 795 m -11 -12 d s 194 683 m s 403 909 m -68 -69 d s 179 683 m s 403 924 m -13 -14 d s 386 907 m -51 -52 d s 164 683 m s 403 939 m -13 -14 d s 376 911 m -41 -41 d s 157 691 m -8 -8 d s 403
 954 m -13 -14 d s 376 927 m -41 -42 d s 157 706 m -14 -13 d s 403 969 m -13 -13 d s 376 942 m -41 -41 d s 146 711 m -3 -3 d s 403 984 m -13 -13 d s 376 957 m -41 -41 d s 395 991 m -5 -5 d s 376 972 m -27 -27 d s 338 934 m -3 -3 d s 376 987 m -14 -13
 d s 352 963 m -3 -3 d s 363 989 m -1 X s 6 lw 143 711 m 14 X -28 Y 123 X 86 Y 14 X 26 Y 14 X -29 Y 13 X 56 Y 14 X 112 Y 14 X 29 Y 13 X 26 Y 14 X -82 Y 14 X 84 Y 13 X -142 Y 14 X -82 Y 14 X -1 Y 13 X -83 Y 41 X 28 Y 14 X -28 Y 192 X s black 3 lw 143
 683 m 548 X s 160 696 m -13 Y s 186 690 m -7 Y s 212 690 m -7 Y s 238 690 m -7 Y s 264 696 m -13 Y s 290 690 m -7 Y s 316 690 m -7 Y s 342 690 m -7 Y s 368 696 m -13 Y s 394 690 m -7 Y s 420 690 m -7 Y s 447 690 m -7 Y s 473 696 m -13 Y s 499 690 m
 -7 Y s 525 690 m -7 Y s 551 690 m -7 Y s 577 696 m -13 Y s 603 690 m -7 Y s 629 690 m -7 Y s 655 690 m -7 Y s 681 696 m -13 Y s 160 696 m -13 Y s 681 696 m -13 Y s 143 1111 m 548 X s 160 1098 m 13 Y s 186 1104 m 7 Y s 212 1104 m 7 Y s 238 1104 m 7 Y
 s 264 1098 m 13 Y s 290 1104 m 7 Y s 316 1104 m 7 Y s 342 1104 m 7 Y s 368 1098 m 13 Y s 394 1104 m 7 Y s 420 1104 m 7 Y s 447 1104 m 7 Y s 473 1098 m 13 Y s 499 1104 m 7 Y s 525 1104 m 7 Y s 551 1104 m 7 Y s 577 1098 m 13 Y s 603 1104 m 7 Y s 629
 1104 m 7 Y s 655 1104 m 7 Y s 681 1098 m 13 Y s 160 1098 m 13 Y s 681 1098 m 13 Y s 143 683 m 428 Y s 160 683 m -17 X s 152 694 m -9 X s 152 706 m -9 X s 152 717 m -9 X s 152 729 m -9 X s 160 740 m -17 X s 152 752 m -9 X s 152 763 m -9 X s 152 775 m
 -9 X s 152 786 m -9 X s 160 797 m -17 X s 152 809 m -9 X s 152 820 m -9 X s 152 832 m -9 X s 152 843 m -9 X s 160 855 m -17 X s 152 866 m -9 X s 152 877 m -9 X s 152 889 m -9 X s 152 900 m -9 X s 160 912 m -17 X s 152 923 m -9 X s 152 935 m -9 X s
 152 946 m -9 X s 152 958 m -9 X s 160 969 m -17 X s 152 980 m -9 X s 152 992 m -9 X s 152 1003 m -9 X s 152 1015 m -9 X s 160 1026 m -17 X s 152 1038 m -9 X s 152 1049 m -9 X s 152 1061 m -9 X s 152 1072 m -9 X s 160 1083 m -17 X s 160 1083 m -17 X
 s 152 1095 m -9 X s 152 1106 m -9 X s 691 683 m 428 Y s 674 683 m 17 X s 683 694 m 8 X s 683 706 m 8 X s 683 717 m 8 X s 683 729 m 8 X s 674 740 m 17 X s 683 752 m 8 X s 683 763 m 8 X s 683 775 m 8 X s 683 786 m 8 X s 674 797 m 17 X s 683 809 m 8 X
 s 683 820 m 8 X s 683 832 m 8 X s 683 843 m 8 X s 674 855 m 17 X s 683 866 m 8 X s 683 877 m 8 X s 683 889 m 8 X s 683 900 m 8 X s 674 912 m 17 X s 683 923 m 8 X s 683 935 m 8 X s 683 946 m 8 X s 683 958 m 8 X s 674 969 m 17 X s 683 980 m 8 X s 683
 992 m 8 X s 683 1003 m 8 X s 683 1015 m 8 X s 674 1026 m 17 X s 683 1038 m 8 X s 683 1049 m 8 X s 683 1061 m 8 X s 683 1072 m 8 X s 674 1083 m 17 X s 674 1083 m 17 X s 683 1095 m 8 X s 683 1106 m 8 X s
 gsave  710 566 23 602 C 719.017 680.773 t 90 r /Helvetica-Bold findfont 20.0147 sf 0 0 m (U/O\255flow \(S,B\): \(0.0, 0.0\)% / \(0.0, 0.0\)%) show NC gr  0.490196 0.545098 0.615686 c 0.364706 0.419608 0.490196 c 497 38 30 1127 bf 0.490196 0.545098
 0.615686 c 30 1127 m 497 X s 527 1127 m 38 Y s 527 1165 m -497 X s 30 1165 m -38 Y s 1 1 1 c black 1 1 1 c
 gsave  710 566 23 602 C 22.7911 1139.56 t 0 r /Helvetica-Bold findfont 20.0147 sf 0 0 m (Input variable'Gauss_Deco'\255transformed : GTND_war) show NC gr  0.490196 0.545098 0.615686 c 0.941176 0.941176 0.941176 c 710 566 779 602 bf 0.490196 0.545098
 0.615686 c 0.941176 0.941176 0.941176 c 711 566 1534 602 bf 0.490196 0.545098 0.615686 c 0.941176 0.941176 0.941176 c 710 566 23 12 bf 0.490196 0.545098 0.615686 c 0.941176 0.941176 0.941176 c 710 566 779 12 bf 0.490196 0.545098 0.615686 c 0.941176
 0.941176 0.941176 c 711 566 1534 12 bf
 gr  gr showpage
end
%%EOF
