%!PS-Adobe-2.0 EPSF-2.0
%%BoundingBox:  0 0 567 295
%%Title: plots/variables_deco_c2.eps: Input variables 'Deco'-transformed (training sample)
%%Creator: ROOT Version 5.34/09
%%CreationDate: Sat Jan  4 23:53:29 2014
%%EndComments
%%BeginProlog
80 dict begin
/s {stroke} def /l {lineto} def /m {moveto} def /t {translate} def
/r {rotate} def /rl {roll}  def /R {repeat} def
/d {rlineto} def /rm {rmoveto} def /gr {grestore} def /f {eofill} def
/c {setrgbcolor} def /black {0 setgray} def /sd {setdash} def
/cl {closepath} def /sf {scalefont setfont} def /lw {setlinewidth} def
/box {m dup 0 exch d exch 0 d 0 exch neg d cl} def
/NC{systemdict begin initclip end}def/C{NC box clip newpath}def
/bl {box s} def /bf {box f} def /Y { 0 exch d} def /X { 0 d} def 
/K {{pop pop 0 moveto} exch kshow} bind def
/ita {/ang 15 def gsave [1 0 ang dup sin exch cos div 1 0 0] concat} def 
/mp {newpath /y exch def /x exch def} def
/side {[w .77 mul w .23 mul] .385 w mul sd w 0 l currentpoint t -144 r} def
/mr {mp x y w2 0 360 arc} def /m24 {mr s} def /m20 {mr f} def
/mb {mp x y w2 add m w2 neg 0 d 0 w neg d w 0 d 0 w d cl} def
/mt {mp x y w2 add m w2 neg w neg d w 0 d cl} def
/m21 {mb f} def /m25 {mb s} def /m22 {mt f} def /m26{mt s} def
/m23 {mp x y w2 sub m w2 w d w neg 0 d cl f} def
/m27 {mp x y w2 add m w3 neg w2 neg d w3 w2 neg d w3 w2 d cl s} def
/m28 {mp x w2 sub y w2 sub w3 add m w3 0 d  0 w3 neg d w3 0 d 0 w3 d w3 0 d  0 w3 d w3 neg 0 d 0 w3 d w3 neg 0 d 0 w3 neg d w3 neg 0 d cl s } def
/m29 {mp gsave x w2 sub y w2 add w3 sub m currentpoint t 4 {side} repeat cl fill gr} def
/m30 {mp gsave x w2 sub y w2 add w3 sub m currentpoint t 4 {side} repeat cl s gr} def
/m31 {mp x y w2 sub m 0 w d x w2 sub y m w 0 d x w2 sub y w2 add m w w neg d x w2 sub y w2 sub m w w d s} def
/m32 {mp x y w2 sub m w2 w d w neg 0 d cl s} def
/m33 {mp x y w2 add m w3 neg w2 neg d w3 w2 neg d w3 w2 d cl f} def
/m34 {mp x w2 sub y w2 sub w3 add m w3 0 d  0 w3 neg d w3 0 d 0 w3 d w3 0 d  0 w3 d w3 neg 0 d 0 w3 d w3 neg 0 d 0 w3 neg d w3 neg 0 d cl f } def
/m2 {mp x y w2 sub m 0 w d x w2 sub y m w 0 d s} def
/m5 {mp x w2 sub y w2 sub m w w d x w2 sub y w2 add m w w neg d s} def
/reEncode {exch findfont dup length dict begin {1 index /FID eq  {pop pop} {def} ifelse } forall /Encoding exch def currentdict end dup /FontName get exch definefont pop } def [/Times-Bold /Times-Italic /Times-BoldItalic /Helvetica /Helvetica-Oblique
 /Helvetica-Bold /Helvetica-BoldOblique /Courier /Courier-Oblique /Courier-Bold /Courier-BoldOblique /Times-Roman /AvantGarde-Book /AvantGarde-BookOblique /AvantGarde-Demi /AvantGarde-DemiOblique /Bookman-Demi /Bookman-DemiItalic /Bookman-Light
 /Bookman-LightItalic /Helvetica-Narrow /Helvetica-Narrow-Bold /Helvetica-Narrow-BoldOblique /Helvetica-Narrow-Oblique /NewCenturySchlbk-Roman /NewCenturySchlbk-Bold /NewCenturySchlbk-BoldItalic /NewCenturySchlbk-Italic /Palatino-Bold
 /Palatino-BoldItalic /Palatino-Italic /Palatino-Roman ] {ISOLatin1Encoding reEncode } forall
%%EndProlog
%%BeginSetup
%%EndSetup
newpath  gsave  .25 .25 scale  gsave  0 0 t 0.490196 0.545098 0.615686 c[  ] 0 sd 3 lw 0.941176 0.941176 0.941176 c 2268 1179 0 0 bf 0.490196 0.545098 0.615686 c 0.941176 0.941176 0.941176 c 710 566 23 602 bf black 1 1 0.992157 c 548 428 143 683 bf
 black 548 428 143 683 bl 1 1 0.992157 c 548 428 143 683 bf black 548 428 143 683 bl 0 0 0.933333 c 6 lw 0.49 0.6 0.82 c black 3 lw 0.49 0.6 0.82 c 143 683 m 45 Y 14 X -45 Y 151 X 90 Y 13 X -90 Y 28 X 45 Y 13 X 44 Y 14 X 223 Y 14 X -42 Y 13 X 97 Y 14
 X -99 Y 14 X -39 Y 13 X 135 Y 14 X -231 Y 14 X -42 Y 13 X -91 Y 14 X 133 Y 14 X -88 Y 13 X 1 Y 14 X -46 Y 151 X f 6 lw 0 0 0.933333 c 0.49 0.6 0.82 c 0 0 0.933333 c 143 728 m 14 X -45 Y 151 X 90 Y 13 X -90 Y 28 X 45 Y 13 X 44 Y 14 X 223 Y 14 X -42 Y
 13 X 97 Y 14 X -99 Y 14 X -39 Y 13 X 135 Y 14 X -231 Y 14 X -42 Y 13 X -91 Y 14 X 133 Y 14 X -88 Y 13 X 1 Y 14 X -46 Y 151 X s black 3 lw 143 683 m 548 X s
 gsave  710 566 23 602 C 447.276 615.36 t 0 r /Helvetica findfont 28.5925 sf 0 0 m (GTND_gold \(Deco\)) show NC gr  193 696 m -13 Y s 205 690 m -7 Y s 217 690 m -7 Y s 228 690 m -7 Y s 240 690 m -7 Y s 252 696 m -13 Y s 263 690 m -7 Y s 275 690 m -7
 Y s 287 690 m -7 Y s 298 690 m -7 Y s 310 696 m -13 Y s 322 690 m -7 Y s 334 690 m -7 Y s 345 690 m -7 Y s 357 690 m -7 Y s 369 696 m -13 Y s 380 690 m -7 Y s 392 690 m -7 Y s 404 690 m -7 Y s 415 690 m -7 Y s 427 696 m -13 Y s 439 690 m -7 Y s 451
 690 m -7 Y s 462 690 m -7 Y s 474 690 m -7 Y s 486 696 m -13 Y s 497 690 m -7 Y s 509 690 m -7 Y s 521 690 m -7 Y s 532 690 m -7 Y s 544 696 m -13 Y s 556 690 m -7 Y s 568 690 m -7 Y s 579 690 m -7 Y s 591 690 m -7 Y s 603 696 m -13 Y s 614 690 m -7
 Y s 626 690 m -7 Y s 638 690 m -7 Y s 650 690 m -7 Y s 661 696 m -13 Y s 193 696 m -13 Y s 181 690 m -7 Y s 170 690 m -7 Y s 158 690 m -7 Y s 146 690 m -7 Y s 661 696 m -13 Y s 673 690 m -7 Y s 685 690 m -7 Y s
 gsave  710 566 23 602 C 179.48 655.245 t 0 r /Helvetica findfont 25.7332 sf 0 0 m (\2554) show NC gr 
 gsave  710 566 23 602 C 239.307 655.245 t 0 r /Helvetica findfont 25.7332 sf 0 0 m (\2553) show NC gr 
 gsave  710 566 23 602 C 296.285 655.245 t 0 r /Helvetica findfont 25.7332 sf 0 0 m (\2552) show NC gr 
 gsave  710 566 23 602 C 356.111 655.245 t 0 r /Helvetica findfont 25.7332 sf 0 0 m (\2551) show NC gr 
 gsave  710 566 23 602 C 415.938 655.245 t 0 r /Helvetica findfont 25.7332 sf 0 0 m (0) show NC gr 
 gsave  710 566 23 602 C 478.614 655.245 t 0 r /Helvetica findfont 25.7332 sf 0 0 m (1) show NC gr 
 gsave  710 566 23 602 C 535.591 655.245 t 0 r /Helvetica findfont 25.7332 sf 0 0 m (2) show NC gr 
 gsave  710 566 23 602 C 592.569 655.245 t 0 r /Helvetica findfont 25.7332 sf 0 0 m (3) show NC gr 
 gsave  710 566 23 602 C 652.396 655.245 t 0 r /Helvetica findfont 25.7332 sf 0 0 m (4) show NC gr  143 1111 m 548 X s 193 1098 m 13 Y s 205 1104 m 7 Y s 217 1104 m 7 Y s 228 1104 m 7 Y s 240 1104 m 7 Y s 252 1098 m 13 Y s 263 1104 m 7 Y s 275 1104 m
 7 Y s 287 1104 m 7 Y s 298 1104 m 7 Y s 310 1098 m 13 Y s 322 1104 m 7 Y s 334 1104 m 7 Y s 345 1104 m 7 Y s 357 1104 m 7 Y s 369 1098 m 13 Y s 380 1104 m 7 Y s 392 1104 m 7 Y s 404 1104 m 7 Y s 415 1104 m 7 Y s 427 1098 m 13 Y s 439 1104 m 7 Y s
 451 1104 m 7 Y s 462 1104 m 7 Y s 474 1104 m 7 Y s 486 1098 m 13 Y s 497 1104 m 7 Y s 509 1104 m 7 Y s 521 1104 m 7 Y s 532 1104 m 7 Y s 544 1098 m 13 Y s 556 1104 m 7 Y s 568 1104 m 7 Y s 579 1104 m 7 Y s 591 1104 m 7 Y s 603 1098 m 13 Y s 614 1104
 m 7 Y s 626 1104 m 7 Y s 638 1104 m 7 Y s 650 1104 m 7 Y s 661 1098 m 13 Y s 193 1098 m 13 Y s 181 1104 m 7 Y s 170 1104 m 7 Y s 158 1104 m 7 Y s 146 1104 m 7 Y s 661 1098 m 13 Y s 673 1104 m 7 Y s 685 1104 m 7 Y s 143 683 m 428 Y s
 gsave  710 566 23 602 C 45.5822 1031.3 t 90 r /Helvetica findfont 28.5925 sf 0 0 m (0.234 ) show NC gr 
 gsave  710 566 23 602 C 31.3378 1025.6 t 90 r /Helvetica findfont 20.0147 sf 0 0 m ( ) show NC gr 
 gsave  710 566 23 602 C 45.5822 1014.2 t 90 r /Helvetica findfont 28.5925 sf 0 0 m (/) show NC gr 
 gsave  710 566 23 602 C 54.1289 1008.51 t 90 r /Helvetica findfont 20.0147 sf 0 0 m ( ) show NC gr 
 gsave  710 566 23 602 C 45.5822 900.249 t 90 r /Helvetica findfont 28.5925 sf 0 0 m (\(1/N\) dN) show NC gr  160 683 m -17 X s 152 695 m -9 X s 152 707 m -9 X s 152 718 m -9 X s 152 730 m -9 X s 160 742 m -17 X s 152 754 m -9 X s 152 766 m -9 X s
 152 777 m -9 X s 152 789 m -9 X s 160 801 m -17 X s 152 813 m -9 X s 152 825 m -9 X s 152 837 m -9 X s 152 848 m -9 X s 160 860 m -17 X s 152 872 m -9 X s 152 884 m -9 X s 152 896 m -9 X s 152 907 m -9 X s 160 919 m -17 X s 152 931 m -9 X s 152 943
 m -9 X s 152 955 m -9 X s 152 966 m -9 X s 160 978 m -17 X s 152 990 m -9 X s 152 1002 m -9 X s 152 1014 m -9 X s 152 1025 m -9 X s 160 1037 m -17 X s 152 1049 m -9 X s 152 1061 m -9 X s 152 1073 m -9 X s 152 1084 m -9 X s 160 1096 m -17 X s 160
 1096 m -17 X s 152 1108 m -9 X s
 gsave  710 566 23 602 C 119.653 672.338 t 0 r /Helvetica findfont 25.7332 sf 0 0 m (0) show NC gr 
 gsave  710 566 23 602 C 102.56 732.165 t 0 r /Helvetica findfont 25.7332 sf 0 0 m (0.1) show NC gr 
 gsave  710 566 23 602 C 96.8623 791.991 t 0 r /Helvetica findfont 25.7332 sf 0 0 m (0.2) show NC gr 
 gsave  710 566 23 602 C 96.8623 848.969 t 0 r /Helvetica findfont 25.7332 sf 0 0 m (0.3) show NC gr 
 gsave  710 566 23 602 C 96.8623 908.796 t 0 r /Helvetica findfont 25.7332 sf 0 0 m (0.4) show NC gr 
 gsave  710 566 23 602 C 96.8623 968.623 t 0 r /Helvetica findfont 25.7332 sf 0 0 m (0.5) show NC gr 
 gsave  710 566 23 602 C 96.8623 1028.45 t 0 r /Helvetica findfont 25.7332 sf 0 0 m (0.6) show NC gr 
 gsave  710 566 23 602 C 96.8623 1085.43 t 0 r /Helvetica findfont 25.7332 sf 0 0 m (0.7) show NC gr  691 683 m 428 Y s 674 683 m 17 X s 683 695 m 8 X s 683 707 m 8 X s 683 718 m 8 X s 683 730 m 8 X s 674 742 m 17 X s 683 754 m 8 X s 683 766 m 8 X s
 683 777 m 8 X s 683 789 m 8 X s 674 801 m 17 X s 683 813 m 8 X s 683 825 m 8 X s 683 837 m 8 X s 683 848 m 8 X s 674 860 m 17 X s 683 872 m 8 X s 683 884 m 8 X s 683 896 m 8 X s 683 907 m 8 X s 674 919 m 17 X s 683 931 m 8 X s 683 943 m 8 X s 683
 955 m 8 X s 683 966 m 8 X s 674 978 m 17 X s 683 990 m 8 X s 683 1002 m 8 X s 683 1014 m 8 X s 683 1025 m 8 X s 674 1037 m 17 X s 683 1049 m 8 X s 683 1061 m 8 X s 683 1073 m 8 X s 683 1084 m 8 X s 674 1096 m 17 X s 674 1096 m 17 X s 683 1108 m 8 X
 s 1 0 0 c 6 lw black 3 lw 1 0 0 c 691 697 m -14 -14 d s 676 683 m s 691 712 m -14 -13 d s 661 683 m s 679 715 m -2 -1 d s 646 683 m s 631 683 m s 616 683 m s 601 683 m cl s 595 692 m -9 -9 d s 595 707 m -14 -14 d s 571 683 m s 588 716 m -7 -8 d s
 556 683 m s 554 696 m -13 -13 d s 554 711 m -28 -28 d s 543 715 m -32 -32 d s 528 715 m -29 -28 d s 496 683 m s 513 715 m -14 -13 d s 485 688 m -4 -5 d s 513 731 m -14 -14 d s 485 703 m -20 -20 d s 513 746 m -14 -14 d s 485 718 m -35 -35 d s 513 761
 m -14 -14 d s 485 733 m -50 -50 d s 513 776 m -14 -14 d s 485 749 m -65 -66 d s 513 791 m -14 -13 d s 485 764 m -80 -81 d s 513 806 m -14 -13 d s 485 779 m -95 -96 d s 503 812 m -4 -4 d s 473 782 m -98 -99 d s 472 795 m -112 -112 d s 472 811 m -127
 -128 d s 472 826 m -137 -138 d s 330 683 m s 472 841 m -123 -124 d s 347 715 m -12 -12 d s 321 690 m -6 -7 d s 472 856 m -96 -96 d s 363 747 m -14 -15 d s 321 705 m -13 -14 d s 300 683 m s 472 871 m -96 -96 d s 350 749 m -1 -2 d s 317 716 m -9 -10 d
 s 294 692 m -9 -9 d s 472 886 m -41 -41 d s 429 843 m -53 -53 d s 294 708 m -24 -25 d s 472 902 m -41 -42 d s 417 847 m -41 -42 d s 287 716 m -20 -21 d s 254 683 m s 465 910 m -34 -34 d s 417 862 m -41 -42 d s 272 716 m -5 -6 d s 239 683 m cl s 458
 918 m -27 -27 d s 417 877 m -41 -41 d s 224 683 m cl s 458 933 m -27 -27 d s 417 892 m -41 -41 d s 209 683 m s 458 949 m -27 -28 d s 417 907 m -27 -27 d s 388 878 m -12 -12 d s 194 683 m cl s 458 964 m -27 -28 d s 417 922 m -27 -27 d s 179 683 m cl
 s 453 974 m -22 -23 d s 417 938 m -27 -28 d s 164 683 m cl s 444 980 m -13 -13 d s 417 953 m -27 -28 d s 149 683 m cl s 444 995 m -13 -13 d s 417 968 m -27 -28 d s 444 1011 m -13 -14 d s 407 973 m -17 -17 d s 444 1026 m -13 -14 d s 403 984 m -13 -13
 d s 444 1041 m -13 -14 d s 403 1000 m -13 -14 d s 444 1056 m -13 -14 d s 396 1008 m -6 -7 d s 444 1071 m -13 -14 d s 6 lw 143 683 m 124 X 33 Y 27 X -33 Y 14 X 33 Y 13 X -33 Y 14 X 32 Y 14 X 34 Y 13 X -2 Y 14 X 131 Y 14 X 130 Y 13 X -35 Y 14 X -130 Y
 14 X 229 Y 13 X -98 Y 14 X -64 Y 14 X -128 Y 13 X -99 Y 14 X 129 Y 14 X -97 Y 41 X -32 Y 27 X 33 Y 14 X -33 Y 82 X 32 Y 14 X s black 3 lw 143 683 m 548 X s 193 696 m -13 Y s 205 690 m -7 Y s 217 690 m -7 Y s 228 690 m -7 Y s 240 690 m -7 Y s 252 696
 m -13 Y s 263 690 m -7 Y s 275 690 m -7 Y s 287 690 m -7 Y s 298 690 m -7 Y s 310 696 m -13 Y s 322 690 m -7 Y s 334 690 m -7 Y s 345 690 m -7 Y s 357 690 m -7 Y s 369 696 m -13 Y s 380 690 m -7 Y s 392 690 m -7 Y s 404 690 m -7 Y s 415 690 m -7 Y s
 427 696 m -13 Y s 439 690 m -7 Y s 451 690 m -7 Y s 462 690 m -7 Y s 474 690 m -7 Y s 486 696 m -13 Y s 497 690 m -7 Y s 509 690 m -7 Y s 521 690 m -7 Y s 532 690 m -7 Y s 544 696 m -13 Y s 556 690 m -7 Y s 568 690 m -7 Y s 579 690 m -7 Y s 591 690
 m -7 Y s 603 696 m -13 Y s 614 690 m -7 Y s 626 690 m -7 Y s 638 690 m -7 Y s 650 690 m -7 Y s 661 696 m -13 Y s 193 696 m -13 Y s 181 690 m -7 Y s 170 690 m -7 Y s 158 690 m -7 Y s 146 690 m -7 Y s 661 696 m -13 Y s 673 690 m -7 Y s 685 690 m -7 Y
 s 143 1111 m 548 X s 193 1098 m 13 Y s 205 1104 m 7 Y s 217 1104 m 7 Y s 228 1104 m 7 Y s 240 1104 m 7 Y s 252 1098 m 13 Y s 263 1104 m 7 Y s 275 1104 m 7 Y s 287 1104 m 7 Y s 298 1104 m 7 Y s 310 1098 m 13 Y s 322 1104 m 7 Y s 334 1104 m 7 Y s 345
 1104 m 7 Y s 357 1104 m 7 Y s 369 1098 m 13 Y s 380 1104 m 7 Y s 392 1104 m 7 Y s 404 1104 m 7 Y s 415 1104 m 7 Y s 427 1098 m 13 Y s 439 1104 m 7 Y s 451 1104 m 7 Y s 462 1104 m 7 Y s 474 1104 m 7 Y s 486 1098 m 13 Y s 497 1104 m 7 Y s 509 1104 m 7
 Y s 521 1104 m 7 Y s 532 1104 m 7 Y s 544 1098 m 13 Y s 556 1104 m 7 Y s 568 1104 m 7 Y s 579 1104 m 7 Y s 591 1104 m 7 Y s 603 1098 m 13 Y s 614 1104 m 7 Y s 626 1104 m 7 Y s 638 1104 m 7 Y s 650 1104 m 7 Y s 661 1098 m 13 Y s 193 1098 m 13 Y s 181
 1104 m 7 Y s 170 1104 m 7 Y s 158 1104 m 7 Y s 146 1104 m 7 Y s 661 1098 m 13 Y s 673 1104 m 7 Y s 685 1104 m 7 Y s 143 683 m 428 Y s 160 683 m -17 X s 152 695 m -9 X s 152 707 m -9 X s 152 718 m -9 X s 152 730 m -9 X s 160 742 m -17 X s 152 754 m
 -9 X s 152 766 m -9 X s 152 777 m -9 X s 152 789 m -9 X s 160 801 m -17 X s 152 813 m -9 X s 152 825 m -9 X s 152 837 m -9 X s 152 848 m -9 X s 160 860 m -17 X s 152 872 m -9 X s 152 884 m -9 X s 152 896 m -9 X s 152 907 m -9 X s 160 919 m -17 X s
 152 931 m -9 X s 152 943 m -9 X s 152 955 m -9 X s 152 966 m -9 X s 160 978 m -17 X s 152 990 m -9 X s 152 1002 m -9 X s 152 1014 m -9 X s 152 1025 m -9 X s 160 1037 m -17 X s 152 1049 m -9 X s 152 1061 m -9 X s 152 1073 m -9 X s 152 1084 m -9 X s
 160 1096 m -17 X s 160 1096 m -17 X s 152 1108 m -9 X s 691 683 m 428 Y s 674 683 m 17 X s 683 695 m 8 X s 683 707 m 8 X s 683 718 m 8 X s 683 730 m 8 X s 674 742 m 17 X s 683 754 m 8 X s 683 766 m 8 X s 683 777 m 8 X s 683 789 m 8 X s 674 801 m 17
 X s 683 813 m 8 X s 683 825 m 8 X s 683 837 m 8 X s 683 848 m 8 X s 674 860 m 17 X s 683 872 m 8 X s 683 884 m 8 X s 683 896 m 8 X s 683 907 m 8 X s 674 919 m 17 X s 683 931 m 8 X s 683 943 m 8 X s 683 955 m 8 X s 683 966 m 8 X s 674 978 m 17 X s
 683 990 m 8 X s 683 1002 m 8 X s 683 1014 m 8 X s 683 1025 m 8 X s 674 1037 m 17 X s 683 1049 m 8 X s 683 1061 m 8 X s 683 1073 m 8 X s 683 1084 m 8 X s 674 1096 m 17 X s 674 1096 m 17 X s 683 1108 m 8 X s
 gsave  710 566 23 602 C 719.017 680.773 t 90 r /Helvetica-Bold findfont 20.0147 sf 0 0 m (U/O\255flow \(S,B\): \(0.0, 0.0\)% / \(0.0, 0.0\)%) show NC gr  0.490196 0.545098 0.615686 c 0.364706 0.419608 0.490196 c 497 38 30 1127 bf 0.490196 0.545098
 0.615686 c 30 1127 m 497 X s 527 1127 m 38 Y s 527 1165 m -497 X s 30 1165 m -38 Y s 1 1 1 c black 1 1 1 c
 gsave  710 566 23 602 C 25.64 1139.56 t 0 r /Helvetica-Bold findfont 22.874 sf 0 0 m (Input variable'Deco'\255transformed : GTND_gold) show NC gr  0.490196 0.545098 0.615686 c 0.941176 0.941176 0.941176 c 710 566 779 602 bf black 1 1 0.992157 c 548
 428 899 683 bf black 548 428 899 683 bl 1 1 0.992157 c 548 428 899 683 bf black 548 428 899 683 bl 0 0 0.933333 c 6 lw 0.49 0.6 0.82 c black 3 lw 0.49 0.6 0.82 c 899 683 m 55 X 35 Y 14 X 1 Y 13 X -36 Y 14 X 35 Y 14 X -35 Y 68 X 37 Y 14 X -37 Y 96 X
 70 Y 13 X 70 Y 14 X -70 Y 14 X 142 Y 13 X -36 Y 14 X 213 Y 14 X -144 Y 13 X -102 Y 14 X -73 Y 14 X -32 Y 13 X -2 Y 14 X -36 Y 14 X 147 Y 13 X -111 Y 14 X -36 Y 27 X 70 Y 14 X -70 Y 28 X f 6 lw 0 0 0.933333 c 0.49 0.6 0.82 c 0 0 0.933333 c 899 683 m
 55 X 35 Y 14 X 1 Y 13 X -36 Y 14 X 35 Y 14 X -35 Y 68 X 37 Y 14 X -37 Y 96 X 70 Y 13 X 70 Y 14 X -70 Y 14 X 142 Y 13 X -36 Y 14 X 213 Y 14 X -144 Y 13 X -102 Y 14 X -73 Y 14 X -32 Y 13 X -2 Y 14 X -36 Y 14 X 147 Y 13 X -111 Y 14 X -36 Y 27 X 70 Y 14
 X -70 Y 28 X s black 3 lw 899 683 m 548 X s
 gsave  710 566 779 602 C 1165.2 615.36 t 0 r /Helvetica findfont 28.5925 sf 0 0 m (GTND_holiday \(Deco\)) show NC gr  924 696 m -13 Y s 940 690 m -7 Y s 956 690 m -7 Y s 972 690 m -7 Y s 988 690 m -7 Y s 1004 696 m -13 Y s 1021 690 m -7 Y s 1037 690
 m -7 Y s 1053 690 m -7 Y s 1069 690 m -7 Y s 1085 696 m -13 Y s 1101 690 m -7 Y s 1118 690 m -7 Y s 1134 690 m -7 Y s 1150 690 m -7 Y s 1166 696 m -13 Y s 1182 690 m -7 Y s 1198 690 m -7 Y s 1214 690 m -7 Y s 1231 690 m -7 Y s 1247 696 m -13 Y s
 1263 690 m -7 Y s 1279 690 m -7 Y s 1295 690 m -7 Y s 1311 690 m -7 Y s 1328 696 m -13 Y s 1344 690 m -7 Y s 1360 690 m -7 Y s 1376 690 m -7 Y s 1392 690 m -7 Y s 1408 696 m -13 Y s 924 696 m -13 Y s 908 690 m -7 Y s 1408 696 m -13 Y s 1424 690 m -7
 Y s 1441 690 m -7 Y s
 gsave  710 566 779 602 C 911.645 655.245 t 0 r /Helvetica findfont 25.7332 sf 0 0 m (\2554) show NC gr 
 gsave  710 566 779 602 C 991.414 655.245 t 0 r /Helvetica findfont 25.7332 sf 0 0 m (\2553) show NC gr 
 gsave  710 566 779 602 C 1071.18 655.245 t 0 r /Helvetica findfont 25.7332 sf 0 0 m (\2552) show NC gr 
 gsave  710 566 779 602 C 1153.8 655.245 t 0 r /Helvetica findfont 25.7332 sf 0 0 m (\2551) show NC gr 
 gsave  710 566 779 602 C 1236.42 655.245 t 0 r /Helvetica findfont 25.7332 sf 0 0 m (0) show NC gr 
 gsave  710 566 779 602 C 1319.04 655.245 t 0 r /Helvetica findfont 25.7332 sf 0 0 m (1) show NC gr 
 gsave  710 566 779 602 C 1398.81 655.245 t 0 r /Helvetica findfont 25.7332 sf 0 0 m (2) show NC gr  899 1111 m 548 X s 924 1098 m 13 Y s 940 1104 m 7 Y s 956 1104 m 7 Y s 972 1104 m 7 Y s 988 1104 m 7 Y s 1004 1098 m 13 Y s 1021 1104 m 7 Y s 1037
 1104 m 7 Y s 1053 1104 m 7 Y s 1069 1104 m 7 Y s 1085 1098 m 13 Y s 1101 1104 m 7 Y s 1118 1104 m 7 Y s 1134 1104 m 7 Y s 1150 1104 m 7 Y s 1166 1098 m 13 Y s 1182 1104 m 7 Y s 1198 1104 m 7 Y s 1214 1104 m 7 Y s 1231 1104 m 7 Y s 1247 1098 m 13 Y s
 1263 1104 m 7 Y s 1279 1104 m 7 Y s 1295 1104 m 7 Y s 1311 1104 m 7 Y s 1328 1098 m 13 Y s 1344 1104 m 7 Y s 1360 1104 m 7 Y s 1376 1104 m 7 Y s 1392 1104 m 7 Y s 1408 1098 m 13 Y s 924 1098 m 13 Y s 908 1104 m 7 Y s 1408 1098 m 13 Y s 1424 1104 m 7
 Y s 1441 1104 m 7 Y s 899 683 m 428 Y s
 gsave  710 566 779 602 C 803.387 1031.3 t 90 r /Helvetica findfont 28.5925 sf 0 0 m (0.169 ) show NC gr 
 gsave  710 566 779 602 C 789.143 1025.6 t 90 r /Helvetica findfont 20.0147 sf 0 0 m ( ) show NC gr 
 gsave  710 566 779 602 C 803.387 1014.2 t 90 r /Helvetica findfont 28.5925 sf 0 0 m (/) show NC gr 
 gsave  710 566 779 602 C 811.934 1008.51 t 90 r /Helvetica findfont 20.0147 sf 0 0 m ( ) show NC gr 
 gsave  710 566 779 602 C 803.387 900.249 t 90 r /Helvetica findfont 28.5925 sf 0 0 m (\(1/N\) dN) show NC gr  915 683 m -16 X s 907 700 m -8 X s 907 717 m -8 X s 907 733 m -8 X s 915 750 m -16 X s 907 767 m -8 X s 907 784 m -8 X s 907 801 m -8 X s
 915 817 m -16 X s 907 834 m -8 X s 907 851 m -8 X s 907 868 m -8 X s 915 885 m -16 X s 907 902 m -8 X s 907 918 m -8 X s 907 935 m -8 X s 915 952 m -16 X s 907 969 m -8 X s 907 986 m -8 X s 907 1002 m -8 X s 915 1019 m -16 X s 907 1036 m -8 X s 907
 1053 m -8 X s 907 1070 m -8 X s 915 1086 m -16 X s 915 1086 m -16 X s 907 1103 m -8 X s
 gsave  710 566 779 602 C 874.609 672.338 t 0 r /Helvetica findfont 25.7332 sf 0 0 m (0) show NC gr 
 gsave  710 566 779 602 C 851.818 740.711 t 0 r /Helvetica findfont 25.7332 sf 0 0 m (0.2) show NC gr 
 gsave  710 566 779 602 C 851.818 806.236 t 0 r /Helvetica findfont 25.7332 sf 0 0 m (0.4) show NC gr 
 gsave  710 566 779 602 C 851.818 874.609 t 0 r /Helvetica findfont 25.7332 sf 0 0 m (0.6) show NC gr 
 gsave  710 566 779 602 C 851.818 942.983 t 0 r /Helvetica findfont 25.7332 sf 0 0 m (0.8) show NC gr 
 gsave  710 566 779 602 C 877.458 1008.51 t 0 r /Helvetica findfont 25.7332 sf 0 0 m (1) show NC gr 
 gsave  710 566 779 602 C 851.818 1076.88 t 0 r /Helvetica findfont 25.7332 sf 0 0 m (1.2) show NC gr  1447 683 m 428 Y s 1430 683 m 17 X s 1438 700 m 9 X s 1438 717 m 9 X s 1438 733 m 9 X s 1430 750 m 17 X s 1438 767 m 9 X s 1438 784 m 9 X s 1438
 801 m 9 X s 1430 817 m 17 X s 1438 834 m 9 X s 1438 851 m 9 X s 1438 868 m 9 X s 1430 885 m 17 X s 1438 902 m 9 X s 1438 918 m 9 X s 1438 935 m 9 X s 1430 952 m 17 X s 1438 969 m 9 X s 1438 986 m 9 X s 1438 1002 m 9 X s 1430 1019 m 17 X s 1438 1036
 m 9 X s 1438 1053 m 9 X s 1438 1070 m 9 X s 1430 1086 m 17 X s 1430 1086 m 17 X s 1438 1103 m 9 X s 1 0 0 c 6 lw black 3 lw 1 0 0 c 1447 697 m -14 -14 d s 1443 709 m -24 -24 d s 1418 683 m s 1433 713 m -14 -13 d s 1403 683 m s 1433 728 m -14 -13 d s
 1392 687 m -4 -4 d s 1433 744 m -14 -14 d s 1392 702 m -14 -13 d s 1372 683 m s 1433 759 m -14 -14 d s 1392 718 m -14 -14 d s 1364 690 m -7 -7 d s 1419 760 m s 1392 733 m -14 -14 d s 1364 705 m -13 -13 d s 1342 683 m s 1364 720 m -13 -13 d s 1337
 693 m -10 -10 d s 1363 734 m -12 -12 d s 1337 708 m -25 -25 d s 1323 709 m -26 -26 d s 1323 725 m -41 -42 d s 1319 735 m -52 -52 d s 1303 734 m -51 -51 d s 1296 742 m -59 -59 d s 1296 758 m -74 -75 d s 1296 773 m -89 -90 d s 1293 784 m -101 -101 d s
 1282 789 m -95 -96 d s 1176 683 m s 1282 804 m -95 -96 d s 1173 695 m -12 -12 d s 1282 819 m -95 -96 d s 1172 708 m -13 -12 d s 1146 683 m s 1282 834 m -95 -95 d s 1146 697 m -14 -13 d s 1131 683 m s 1282 850 m -82 -83 d s 1194 761 m -7 -7 d s 1141
 708 m -9 -9 d s 1116 683 m s 1282 865 m -82 -83 d s 1101 683 m s 1282 880 m -54 -55 d s 1214 811 m -14 -13 d s 1086 683 m cl s 1282 895 m -54 -55 d s 1214 826 m -14 -13 d s 1071 683 m s 1282 910 m -54 -55 d s 1207 835 m -7 -7 d s 1056 683 m s 1282
 925 m -54 -55 d s 1041 683 m s 1282 940 m -41 -41 d s 1229 886 m -1 -1 d s 1026 683 m s 1282 955 m -41 -41 d s 1011 683 m cl s 1274 961 m -33 -32 d s 996 683 m s 1269 972 m -28 -28 d s 995 698 m -14 -14 d s 981 683 m cl s 1269 987 m -28 -28 d s 991
 709 m -10 -10 d s 965 683 m s 1255 989 m -14 -14 d s 950 683 m s 935 683 m cl s 920 683 m cl s 913 691 m -8 -8 d s 913 706 m -14 -14 d s 900 708 m -1 -1 d s 6 lw 899 708 m 14 X -25 Y 68 X 26 Y 14 X -26 Y 137 X 25 Y 14 X -25 Y 13 X 25 Y 14 X -25 Y 14
 X 78 Y 13 X 74 Y 14 X -25 Y 14 X 76 Y 13 X 102 Y 14 X 1 Y 14 X -28 Y 13 X -177 Y 14 X -50 Y 14 X 1 Y 13 X -27 Y 14 X -25 Y 14 X 51 Y 13 X -51 Y 14 X 50 Y 14 X -50 Y 27 X 77 Y 14 X -51 Y 14 X s black 3 lw 899 683 m 548 X s 924 696 m -13 Y s 940 690 m
 -7 Y s 956 690 m -7 Y s 972 690 m -7 Y s 988 690 m -7 Y s 1004 696 m -13 Y s 1021 690 m -7 Y s 1037 690 m -7 Y s 1053 690 m -7 Y s 1069 690 m -7 Y s 1085 696 m -13 Y s 1101 690 m -7 Y s 1118 690 m -7 Y s 1134 690 m -7 Y s 1150 690 m -7 Y s 1166 696
 m -13 Y s 1182 690 m -7 Y s 1198 690 m -7 Y s 1214 690 m -7 Y s 1231 690 m -7 Y s 1247 696 m -13 Y s 1263 690 m -7 Y s 1279 690 m -7 Y s 1295 690 m -7 Y s 1311 690 m -7 Y s 1328 696 m -13 Y s 1344 690 m -7 Y s 1360 690 m -7 Y s 1376 690 m -7 Y s
 1392 690 m -7 Y s 1408 696 m -13 Y s 924 696 m -13 Y s 908 690 m -7 Y s 1408 696 m -13 Y s 1424 690 m -7 Y s 1441 690 m -7 Y s 899 1111 m 548 X s 924 1098 m 13 Y s 940 1104 m 7 Y s 956 1104 m 7 Y s 972 1104 m 7 Y s 988 1104 m 7 Y s 1004 1098 m 13 Y
 s 1021 1104 m 7 Y s 1037 1104 m 7 Y s 1053 1104 m 7 Y s 1069 1104 m 7 Y s 1085 1098 m 13 Y s 1101 1104 m 7 Y s 1118 1104 m 7 Y s 1134 1104 m 7 Y s 1150 1104 m 7 Y s 1166 1098 m 13 Y s 1182 1104 m 7 Y s 1198 1104 m 7 Y s 1214 1104 m 7 Y s 1231 1104 m
 7 Y s 1247 1098 m 13 Y s 1263 1104 m 7 Y s 1279 1104 m 7 Y s 1295 1104 m 7 Y s 1311 1104 m 7 Y s 1328 1098 m 13 Y s 1344 1104 m 7 Y s 1360 1104 m 7 Y s 1376 1104 m 7 Y s 1392 1104 m 7 Y s 1408 1098 m 13 Y s 924 1098 m 13 Y s 908 1104 m 7 Y s 1408
 1098 m 13 Y s 1424 1104 m 7 Y s 1441 1104 m 7 Y s 899 683 m 428 Y s 915 683 m -16 X s 907 700 m -8 X s 907 717 m -8 X s 907 733 m -8 X s 915 750 m -16 X s 907 767 m -8 X s 907 784 m -8 X s 907 801 m -8 X s 915 817 m -16 X s 907 834 m -8 X s 907 851
 m -8 X s 907 868 m -8 X s 915 885 m -16 X s 907 902 m -8 X s 907 918 m -8 X s 907 935 m -8 X s 915 952 m -16 X s 907 969 m -8 X s 907 986 m -8 X s 907 1002 m -8 X s 915 1019 m -16 X s 907 1036 m -8 X s 907 1053 m -8 X s 907 1070 m -8 X s 915 1086 m
 -16 X s 915 1086 m -16 X s 907 1103 m -8 X s 1447 683 m 428 Y s 1430 683 m 17 X s 1438 700 m 9 X s 1438 717 m 9 X s 1438 733 m 9 X s 1430 750 m 17 X s 1438 767 m 9 X s 1438 784 m 9 X s 1438 801 m 9 X s 1430 817 m 17 X s 1438 834 m 9 X s 1438 851 m 9
 X s 1438 868 m 9 X s 1430 885 m 17 X s 1438 902 m 9 X s 1438 918 m 9 X s 1438 935 m 9 X s 1430 952 m 17 X s 1438 969 m 9 X s 1438 986 m 9 X s 1438 1002 m 9 X s 1430 1019 m 17 X s 1438 1036 m 9 X s 1438 1053 m 9 X s 1438 1070 m 9 X s 1430 1086 m 17 X
 s 1430 1086 m 17 X s 1438 1103 m 9 X s
 gsave  710 566 779 602 C 1474.92 680.773 t 90 r /Helvetica-Bold findfont 20.0147 sf 0 0 m (U/O\255flow \(S,B\): \(0.0, 0.0\)% / \(0.0, 0.0\)%) show NC gr  0.490196 0.545098 0.615686 c 0.364706 0.419608 0.490196 c 497 38 786 1127 bf 0.490196 0.545098
 0.615686 c 786 1127 m 497 X s 1283 1127 m 38 Y s 1283 1165 m -497 X s 786 1165 m -38 Y s 1 1 1 c black 1 1 1 c
 gsave  710 566 779 602 C 800.538 1139.56 t 0 r /Helvetica-Bold findfont 20.0147 sf 0 0 m (Input variable'Deco'\255transformed : GTND_holiday) show NC gr  0.490196 0.545098 0.615686 c 0.941176 0.941176 0.941176 c 711 566 1534 602 bf black 1 1
 0.992157 c 547 428 1655 683 bf black 547 428 1655 683 bl 1 1 0.992157 c 547 428 1655 683 bf black 547 428 1655 683 bl 0 0 0.933333 c 6 lw 0.49 0.6 0.82 c black 3 lw 0.49 0.6 0.82 c 1655 683 m 14 X 55 Y 14 X -55 Y 68 X 55 Y 14 X -55 Y 27 X 111 Y 14 X
 -55 Y 13 X 164 Y 14 X -110 Y 14 X 55 Y 13 X -55 Y 14 X 55 Y 14 X 109 Y 13 X -109 Y 14 X 9 Y 14 X 45 Y 14 X 170 Y 13 X -110 Y 14 X -167 Y 14 X -112 Y 13 X 110 Y 14 X 5 Y 14 X -60 Y 13 X -55 Y 28 X 57 Y 13 X -2 Y 14 X -55 Y 82 X 58 Y 14 X -58 Y 13 X f
 6 lw 0 0 0.933333 c 0.49 0.6 0.82 c 0 0 0.933333 c 1655 683 m 14 X 55 Y 14 X -55 Y 68 X 55 Y 14 X -55 Y 27 X 111 Y 14 X -55 Y 13 X 164 Y 14 X -110 Y 14 X 55 Y 13 X -55 Y 14 X 55 Y 14 X 109 Y 13 X -109 Y 14 X 9 Y 14 X 45 Y 14 X 170 Y 13 X -110 Y 14 X
 -167 Y 14 X -112 Y 13 X 110 Y 14 X 5 Y 14 X -60 Y 13 X -55 Y 28 X 57 Y 13 X -2 Y 14 X -55 Y 82 X 58 Y 14 X -58 Y 13 X s black 3 lw 1655 683 m 547 X s
 gsave  711 566 1534 602 C 1914.45 615.36 t 0 r /Helvetica findfont 28.5925 sf 0 0 m (GTND_inflation \(Deco\)) show NC gr  1661 696 m -13 Y s 1679 690 m -7 Y s 1696 690 m -7 Y s 1713 690 m -7 Y s 1730 690 m -7 Y s 1748 696 m -13 Y s 1765 690 m -7 Y s
 1782 690 m -7 Y s 1799 690 m -7 Y s 1817 690 m -7 Y s 1834 696 m -13 Y s 1851 690 m -7 Y s 1868 690 m -7 Y s 1886 690 m -7 Y s 1903 690 m -7 Y s 1920 696 m -13 Y s 1937 690 m -7 Y s 1955 690 m -7 Y s 1972 690 m -7 Y s 1989 690 m -7 Y s 2007 696 m
 -13 Y s 2024 690 m -7 Y s 2041 690 m -7 Y s 2058 690 m -7 Y s 2076 690 m -7 Y s 2093 696 m -13 Y s 2110 690 m -7 Y s 2127 690 m -7 Y s 2145 690 m -7 Y s 2162 690 m -7 Y s 2179 696 m -13 Y s 1661 696 m -13 Y s 2179 696 m -13 Y s 2196 690 m -7 Y s
 gsave  711 566 1534 602 C 1649.51 655.245 t 0 r /Helvetica findfont 25.7332 sf 0 0 m (\2553) show NC gr 
 gsave  711 566 1534 602 C 1734.97 655.245 t 0 r /Helvetica findfont 25.7332 sf 0 0 m (\2552) show NC gr 
 gsave  711 566 1534 602 C 1820.44 655.245 t 0 r /Helvetica findfont 25.7332 sf 0 0 m (\2551) show NC gr 
 gsave  711 566 1534 602 C 1911.61 655.245 t 0 r /Helvetica findfont 25.7332 sf 0 0 m (0) show NC gr 
 gsave  711 566 1534 602 C 1999.92 655.245 t 0 r /Helvetica findfont 25.7332 sf 0 0 m (1) show NC gr 
 gsave  711 566 1534 602 C 2082.54 655.245 t 0 r /Helvetica findfont 25.7332 sf 0 0 m (2) show NC gr 
 gsave  711 566 1534 602 C 2168.01 655.245 t 0 r /Helvetica findfont 25.7332 sf 0 0 m (3) show NC gr  1655 1111 m 547 X s 1661 1098 m 13 Y s 1679 1104 m 7 Y s 1696 1104 m 7 Y s 1713 1104 m 7 Y s 1730 1104 m 7 Y s 1748 1098 m 13 Y s 1765 1104 m 7 Y s
 1782 1104 m 7 Y s 1799 1104 m 7 Y s 1817 1104 m 7 Y s 1834 1098 m 13 Y s 1851 1104 m 7 Y s 1868 1104 m 7 Y s 1886 1104 m 7 Y s 1903 1104 m 7 Y s 1920 1098 m 13 Y s 1937 1104 m 7 Y s 1955 1104 m 7 Y s 1972 1104 m 7 Y s 1989 1104 m 7 Y s 2007 1098 m
 13 Y s 2024 1104 m 7 Y s 2041 1104 m 7 Y s 2058 1104 m 7 Y s 2076 1104 m 7 Y s 2093 1098 m 13 Y s 2110 1104 m 7 Y s 2127 1104 m 7 Y s 2145 1104 m 7 Y s 2162 1104 m 7 Y s 2179 1098 m 13 Y s 1661 1098 m 13 Y s 2179 1098 m 13 Y s 2196 1104 m 7 Y s 1655
 683 m 428 Y s
 gsave  711 566 1534 602 C 1558.34 1031.3 t 90 r /Helvetica findfont 28.5925 sf 0 0 m (0.159 ) show NC gr 
 gsave  711 566 1534 602 C 1544.1 1025.6 t 90 r /Helvetica findfont 20.0147 sf 0 0 m ( ) show NC gr 
 gsave  711 566 1534 602 C 1558.34 1014.2 t 90 r /Helvetica findfont 28.5925 sf 0 0 m (/) show NC gr 
 gsave  711 566 1534 602 C 1566.89 1008.51 t 90 r /Helvetica findfont 20.0147 sf 0 0 m ( ) show NC gr 
 gsave  711 566 1534 602 C 1558.34 900.249 t 90 r /Helvetica findfont 28.5925 sf 0 0 m (\(1/N\) dN) show NC gr  1671 683 m -16 X s 1663 693 m -8 X s 1663 703 m -8 X s 1663 713 m -8 X s 1663 722 m -8 X s 1671 732 m -16 X s 1663 742 m -8 X s 1663 752 m
 -8 X s 1663 762 m -8 X s 1663 772 m -8 X s 1671 782 m -16 X s 1663 791 m -8 X s 1663 801 m -8 X s 1663 811 m -8 X s 1663 821 m -8 X s 1671 831 m -16 X s 1663 841 m -8 X s 1663 850 m -8 X s 1663 860 m -8 X s 1663 870 m -8 X s 1671 880 m -16 X s 1663
 890 m -8 X s 1663 900 m -8 X s 1663 910 m -8 X s 1663 919 m -8 X s 1671 929 m -16 X s 1663 939 m -8 X s 1663 949 m -8 X s 1663 959 m -8 X s 1663 969 m -8 X s 1671 978 m -16 X s 1663 988 m -8 X s 1663 998 m -8 X s 1663 1008 m -8 X s 1663 1018 m -8 X
 s 1671 1028 m -16 X s 1663 1038 m -8 X s 1663 1047 m -8 X s 1663 1057 m -8 X s 1663 1067 m -8 X s 1671 1077 m -16 X s 1671 1077 m -16 X s 1663 1087 m -8 X s 1663 1097 m -8 X s 1663 1107 m -8 X s
 gsave  711 566 1534 602 C 1632.41 672.338 t 0 r /Helvetica findfont 25.7332 sf 0 0 m (0) show NC gr 
 gsave  711 566 1534 602 C 1615.32 723.618 t 0 r /Helvetica findfont 25.7332 sf 0 0 m (0.1) show NC gr 
 gsave  711 566 1534 602 C 1609.62 772.049 t 0 r /Helvetica findfont 25.7332 sf 0 0 m (0.2) show NC gr 
 gsave  711 566 1534 602 C 1609.62 820.48 t 0 r /Helvetica findfont 25.7332 sf 0 0 m (0.3) show NC gr 
 gsave  711 566 1534 602 C 1609.62 868.911 t 0 r /Helvetica findfont 25.7332 sf 0 0 m (0.4) show NC gr 
 gsave  711 566 1534 602 C 1609.62 920.192 t 0 r /Helvetica findfont 25.7332 sf 0 0 m (0.5) show NC gr 
 gsave  711 566 1534 602 C 1609.62 968.623 t 0 r /Helvetica findfont 25.7332 sf 0 0 m (0.6) show NC gr 
 gsave  711 566 1534 602 C 1609.62 1017.05 t 0 r /Helvetica findfont 25.7332 sf 0 0 m (0.7) show NC gr 
 gsave  711 566 1534 602 C 1609.62 1068.33 t 0 r /Helvetica findfont 25.7332 sf 0 0 m (0.8) show NC gr  2202 683 m 428 Y s 2186 683 m 16 X s 2194 693 m 8 X s 2194 703 m 8 X s 2194 713 m 8 X s 2194 722 m 8 X s 2186 732 m 16 X s 2194 742 m 8 X s 2194
 752 m 8 X s 2194 762 m 8 X s 2194 772 m 8 X s 2186 782 m 16 X s 2194 791 m 8 X s 2194 801 m 8 X s 2194 811 m 8 X s 2194 821 m 8 X s 2186 831 m 16 X s 2194 841 m 8 X s 2194 850 m 8 X s 2194 860 m 8 X s 2194 870 m 8 X s 2186 880 m 16 X s 2194 890 m 8
 X s 2194 900 m 8 X s 2194 910 m 8 X s 2194 919 m 8 X s 2186 929 m 16 X s 2194 939 m 8 X s 2194 949 m 8 X s 2194 959 m 8 X s 2194 969 m 8 X s 2186 978 m 16 X s 2194 988 m 8 X s 2194 998 m 8 X s 2194 1008 m 8 X s 2194 1018 m 8 X s 2186 1028 m 16 X s
 2194 1038 m 8 X s 2194 1047 m 8 X s 2194 1057 m 8 X s 2194 1067 m 8 X s 2186 1077 m 16 X s 2186 1077 m 16 X s 2194 1087 m 8 X s 2194 1097 m 8 X s 2194 1107 m 8 X s 1 0 0 c 6 lw black 3 lw 1 0 0 c 2188 683 m s 2175 685 m -2 -2 d s 2175 700 m -14 -14
 d s 2158 683 m s 2175 715 m -14 -14 d s 2143 683 m s 2168 724 m -7 -7 d s 2128 683 m s 2113 683 m s 2107 692 m -9 -9 d s 2107 707 m -14 -14 d s 2083 683 m s 2107 722 m -14 -14 d s 2068 683 m s 2053 683 m s 2052 697 m -14 -14 d s 2052 713 m -30 -30 d
 s 2048 724 m -41 -41 d s 2038 729 m -46 -46 d s 2038 744 m -13 -13 d s 2017 723 m -40 -40 d s 2038 760 m -13 -14 d s 2011 732 m -49 -49 d s 2026 762 m -1 -1 d s 2011 747 m -55 -55 d s 1947 683 m s 2011 762 m -55 -55 d s 1943 694 m -11 -11 d s 2011
 778 m -55 -56 d s 1943 709 m -26 -26 d s 2011 793 m -55 -55 d s 1943 724 m -41 -41 d s 2011 808 m -55 -55 d s 1943 739 m -56 -56 d s 2011 823 m -55 -55 d s 1943 754 m -71 -71 d s 2011 838 m -55 -55 d s 1943 769 m -86 -86 d s 2001 844 m -31 -32 d s
 1960 802 m -4 -4 d s 1943 785 m -101 -102 d s 1984 842 m -14 -15 d s 1943 800 m -116 -117 d s 1984 856 m -14 -14 d s 1943 815 m -132 -132 d s 1984 871 m -14 -13 d s 1943 830 m -14 -14 d s 1915 803 m -119 -120 d s 1984 886 m -14 -13 d s 1943 845 m
 -14 -14 d s 1915 818 m -134 -135 d s 1984 902 m -14 -14 d s 1943 860 m -14 -13 d s 1915 833 m -137 -138 d s 1766 683 m s 1984 917 m -14 -14 d s 1943 876 m -14 -14 d s 1908 841 m -34 -34 d s 1869 802 m -91 -92 d s 1751 683 m cl s 1973 921 m -3 -3 d s
 1936 884 m -7 -7 d s 1901 849 m -27 -27 d s 1860 808 m -41 -41 d s 1815 763 m -37 -37 d s 1751 698 m -15 -15 d s 1901 865 m -13 -14 d s 1879 842 m -5 -5 d s 1860 823 m -41 -41 d s 1806 768 m -28 -27 d s 1751 713 m -27 -27 d s 1721 683 m s 1901 880 m
 -13 -14 d s 1860 838 m -41 -41 d s 1806 783 m -28 -27 d s 1745 722 m -21 -21 d s 1710 687 m -4 -4 d s 1901 895 m -13 -14 d s 1860 854 m -41 -42 d s 1806 799 m -28 -28 d s 1730 723 m -6 -7 d s 1710 702 m -19 -19 d s 1901 910 m -13 -14 d s 1860 869 m
 -41 -41 d s 1806 814 m -28 -28 d s 1710 717 m -27 -27 d s 1676 683 m cl s 1897 920 m -9 -9 d s 1860 883 m -27 -27 d s 1820 843 m -1 X s 1806 829 m -28 -28 d s 1701 723 m -18 -18 d s 1661 683 m cl s 1847 885 m -14 -13 d s 1804 842 m -26 -25 d s 1685
 723 m -2 -3 d s 1847 901 m -14 -14 d s 1790 843 m -12 -11 d s 1847 916 m -14 -14 d s 1847 931 m -14 -14 d s 1847 946 m -14 -14 d s 1847 961 m -14 -14 d s 6 lw 1655 683 m 28 X 40 Y 27 X -40 Y 14 X 40 Y 13 X -1 Y 14 X -39 Y 27 X 160 Y 14 X -1 Y 14 X
 -79 Y 13 X 80 Y 14 X 119 Y 14 X -79 Y 13 X -81 Y 14 X 40 Y 14 X 78 Y 13 X -79 Y 14 X -39 Y 14 X 82 Y 14 X -201 Y 13 X 119 Y 14 X 119 Y 14 X -79 Y 13 X 2 Y 14 X -121 Y 14 X 39 Y 13 X -38 Y 14 X -41 Y 41 X 40 Y 14 X -40 Y 54 X 41 Y 14 X -41 Y 27 X s
 black 3 lw 1655 683 m 547 X s 1661 696 m -13 Y s 1679 690 m -7 Y s 1696 690 m -7 Y s 1713 690 m -7 Y s 1730 690 m -7 Y s 1748 696 m -13 Y s 1765 690 m -7 Y s 1782 690 m -7 Y s 1799 690 m -7 Y s 1817 690 m -7 Y s 1834 696 m -13 Y s 1851 690 m -7 Y s
 1868 690 m -7 Y s 1886 690 m -7 Y s 1903 690 m -7 Y s 1920 696 m -13 Y s 1937 690 m -7 Y s 1955 690 m -7 Y s 1972 690 m -7 Y s 1989 690 m -7 Y s 2007 696 m -13 Y s 2024 690 m -7 Y s 2041 690 m -7 Y s 2058 690 m -7 Y s 2076 690 m -7 Y s 2093 696 m
 -13 Y s 2110 690 m -7 Y s 2127 690 m -7 Y s 2145 690 m -7 Y s 2162 690 m -7 Y s 2179 696 m -13 Y s 1661 696 m -13 Y s 2179 696 m -13 Y s 2196 690 m -7 Y s 1655 1111 m 547 X s 1661 1098 m 13 Y s 1679 1104 m 7 Y s 1696 1104 m 7 Y s 1713 1104 m 7 Y s
 1730 1104 m 7 Y s 1748 1098 m 13 Y s 1765 1104 m 7 Y s 1782 1104 m 7 Y s 1799 1104 m 7 Y s 1817 1104 m 7 Y s 1834 1098 m 13 Y s 1851 1104 m 7 Y s 1868 1104 m 7 Y s 1886 1104 m 7 Y s 1903 1104 m 7 Y s 1920 1098 m 13 Y s 1937 1104 m 7 Y s 1955 1104 m
 7 Y s 1972 1104 m 7 Y s 1989 1104 m 7 Y s 2007 1098 m 13 Y s 2024 1104 m 7 Y s 2041 1104 m 7 Y s 2058 1104 m 7 Y s 2076 1104 m 7 Y s 2093 1098 m 13 Y s 2110 1104 m 7 Y s 2127 1104 m 7 Y s 2145 1104 m 7 Y s 2162 1104 m 7 Y s 2179 1098 m 13 Y s 1661
 1098 m 13 Y s 2179 1098 m 13 Y s 2196 1104 m 7 Y s 1655 683 m 428 Y s 1671 683 m -16 X s 1663 693 m -8 X s 1663 703 m -8 X s 1663 713 m -8 X s 1663 722 m -8 X s 1671 732 m -16 X s 1663 742 m -8 X s 1663 752 m -8 X s 1663 762 m -8 X s 1663 772 m -8 X
 s 1671 782 m -16 X s 1663 791 m -8 X s 1663 801 m -8 X s 1663 811 m -8 X s 1663 821 m -8 X s 1671 831 m -16 X s 1663 841 m -8 X s 1663 850 m -8 X s 1663 860 m -8 X s 1663 870 m -8 X s 1671 880 m -16 X s 1663 890 m -8 X s 1663 900 m -8 X s 1663 910 m
 -8 X s 1663 919 m -8 X s 1671 929 m -16 X s 1663 939 m -8 X s 1663 949 m -8 X s 1663 959 m -8 X s 1663 969 m -8 X s 1671 978 m -16 X s 1663 988 m -8 X s 1663 998 m -8 X s 1663 1008 m -8 X s 1663 1018 m -8 X s 1671 1028 m -16 X s 1663 1038 m -8 X s
 1663 1047 m -8 X s 1663 1057 m -8 X s 1663 1067 m -8 X s 1671 1077 m -16 X s 1671 1077 m -16 X s 1663 1087 m -8 X s 1663 1097 m -8 X s 1663 1107 m -8 X s 2202 683 m 428 Y s 2186 683 m 16 X s 2194 693 m 8 X s 2194 703 m 8 X s 2194 713 m 8 X s 2194
 722 m 8 X s 2186 732 m 16 X s 2194 742 m 8 X s 2194 752 m 8 X s 2194 762 m 8 X s 2194 772 m 8 X s 2186 782 m 16 X s 2194 791 m 8 X s 2194 801 m 8 X s 2194 811 m 8 X s 2194 821 m 8 X s 2186 831 m 16 X s 2194 841 m 8 X s 2194 850 m 8 X s 2194 860 m 8
 X s 2194 870 m 8 X s 2186 880 m 16 X s 2194 890 m 8 X s 2194 900 m 8 X s 2194 910 m 8 X s 2194 919 m 8 X s 2186 929 m 16 X s 2194 939 m 8 X s 2194 949 m 8 X s 2194 959 m 8 X s 2194 969 m 8 X s 2186 978 m 16 X s 2194 988 m 8 X s 2194 998 m 8 X s 2194
 1008 m 8 X s 2194 1018 m 8 X s 2186 1028 m 16 X s 2194 1038 m 8 X s 2194 1047 m 8 X s 2194 1057 m 8 X s 2194 1067 m 8 X s 2186 1077 m 16 X s 2186 1077 m 16 X s 2194 1087 m 8 X s 2194 1097 m 8 X s 2194 1107 m 8 X s
 gsave  711 566 1534 602 C 2230.83 680.773 t 90 r /Helvetica-Bold findfont 20.0147 sf 0 0 m (U/O\255flow \(S,B\): \(0.0, 0.0\)% / \(0.0, 0.0\)%) show NC gr  0.490196 0.545098 0.615686 c 0.364706 0.419608 0.490196 c 497 38 1542 1127 bf 0.490196
 0.545098 0.615686 c 1542 1127 m 497 X s 2039 1127 m 38 Y s 2039 1165 m -497 X s 1542 1165 m -38 Y s 1 1 1 c black 1 1 1 c
 gsave  711 566 1534 602 C 1552.65 1139.56 t 0 r /Helvetica-Bold findfont 20.0147 sf 0 0 m (Input variable'Deco'\255transformed : GTND_inflation) show NC gr  0.490196 0.545098 0.615686 c 0.941176 0.941176 0.941176 c 710 566 23 12 bf black 1 1
 0.992157 c 548 428 143 93 bf black 548 428 143 93 bl 1 1 0.992157 c 548 428 143 93 bf black 548 428 143 93 bl 0 0 0.933333 c 6 lw 0.49 0.6 0.82 c black 3 lw 0.49 0.6 0.82 c 143 93 m 96 X 55 Y 14 X -55 Y 14 X 56 Y 27 X -1 Y 27 X 290 Y 14 X 44 Y 14 X
 -223 Y 27 X 111 Y 14 X -111 Y 13 X 2 Y 14 X 112 Y 14 X -280 Y 13 X 223 Y 14 X 116 Y 14 X -284 Y 13 X -55 Y 14 X 56 Y 14 X -1 Y 13 X -55 Y 14 X 56 Y 27 X -56 Y 55 X 61 Y 14 X -61 Y 55 X f 6 lw 0 0 0.933333 c 0.49 0.6 0.82 c 0 0 0.933333 c 143 93 m 96
 X 55 Y 14 X -55 Y 14 X 56 Y 27 X -1 Y 27 X 290 Y 14 X 44 Y 14 X -223 Y 27 X 111 Y 14 X -111 Y 13 X 2 Y 14 X 112 Y 14 X -280 Y 13 X 223 Y 14 X 116 Y 14 X -284 Y 13 X -55 Y 14 X 56 Y 14 X -1 Y 13 X -55 Y 14 X 56 Y 27 X -56 Y 55 X 61 Y 14 X -61 Y 55 X
 s black 3 lw 143 93 m 548 X s
 gsave  710 566 23 12 C 398.845 25.64 t 0 r /Helvetica findfont 28.5925 sf 0 0 m (GTND_markets \(Deco\)) show NC gr  163 106 m -13 Y s 178 100 m -7 Y s 192 100 m -7 Y s 207 100 m -7 Y s 221 100 m -7 Y s 236 106 m -13 Y s 250 100 m -7 Y s 264 100 m -7
 Y s 279 100 m -7 Y s 293 100 m -7 Y s 308 106 m -13 Y s 322 100 m -7 Y s 337 100 m -7 Y s 351 100 m -7 Y s 365 100 m -7 Y s 380 106 m -13 Y s 394 100 m -7 Y s 409 100 m -7 Y s 423 100 m -7 Y s 438 100 m -7 Y s 452 106 m -13 Y s 466 100 m -7 Y s 481
 100 m -7 Y s 495 100 m -7 Y s 510 100 m -7 Y s 524 106 m -13 Y s 539 100 m -7 Y s 553 100 m -7 Y s 568 100 m -7 Y s 582 100 m -7 Y s 596 106 m -13 Y s 611 100 m -7 Y s 625 100 m -7 Y s 640 100 m -7 Y s 654 100 m -7 Y s 669 106 m -13 Y s 163 106 m
 -13 Y s 149 100 m -7 Y s 669 106 m -13 Y s 683 100 m -7 Y s
 gsave  710 566 23 12 C 150.991 65.5245 t 0 r /Helvetica findfont 25.7332 sf 0 0 m (\2553) show NC gr 
 gsave  710 566 23 12 C 222.213 65.5245 t 0 r /Helvetica findfont 25.7332 sf 0 0 m (\2552) show NC gr 
 gsave  710 566 23 12 C 296.285 65.5245 t 0 r /Helvetica findfont 25.7332 sf 0 0 m (\2551) show NC gr 
 gsave  710 566 23 12 C 370.356 65.5245 t 0 r /Helvetica findfont 25.7332 sf 0 0 m (0) show NC gr 
 gsave  710 566 23 12 C 444.427 65.5245 t 0 r /Helvetica findfont 25.7332 sf 0 0 m (1) show NC gr 
 gsave  710 566 23 12 C 515.649 65.5245 t 0 r /Helvetica findfont 25.7332 sf 0 0 m (2) show NC gr 
 gsave  710 566 23 12 C 586.871 65.5245 t 0 r /Helvetica findfont 25.7332 sf 0 0 m (3) show NC gr 
 gsave  710 566 23 12 C 658.094 65.5245 t 0 r /Helvetica findfont 25.7332 sf 0 0 m (4) show NC gr  143 521 m 548 X s 163 508 m 13 Y s 178 515 m 6 Y s 192 515 m 6 Y s 207 515 m 6 Y s 221 515 m 6 Y s 236 508 m 13 Y s 250 515 m 6 Y s 264 515 m 6 Y s 279
 515 m 6 Y s 293 515 m 6 Y s 308 508 m 13 Y s 322 515 m 6 Y s 337 515 m 6 Y s 351 515 m 6 Y s 365 515 m 6 Y s 380 508 m 13 Y s 394 515 m 6 Y s 409 515 m 6 Y s 423 515 m 6 Y s 438 515 m 6 Y s 452 508 m 13 Y s 466 515 m 6 Y s 481 515 m 6 Y s 495 515 m
 6 Y s 510 515 m 6 Y s 524 508 m 13 Y s 539 515 m 6 Y s 553 515 m 6 Y s 568 515 m 6 Y s 582 515 m 6 Y s 596 508 m 13 Y s 611 515 m 6 Y s 625 515 m 6 Y s 640 515 m 6 Y s 654 515 m 6 Y s 669 508 m 13 Y s 163 508 m 13 Y s 149 515 m 6 Y s 669 508 m 13 Y
 s 683 515 m 6 Y s 143 93 m 428 Y s
 gsave  710 566 23 12 C 45.5822 458.671 t 90 r /Helvetica findfont 28.5925 sf 0 0 m (0.19 ) show NC gr 
 gsave  710 566 23 12 C 31.3378 452.974 t 90 r /Helvetica findfont 20.0147 sf 0 0 m ( ) show NC gr 
 gsave  710 566 23 12 C 45.5822 441.578 t 90 r /Helvetica findfont 28.5925 sf 0 0 m (/) show NC gr 
 gsave  710 566 23 12 C 54.1289 435.88 t 90 r /Helvetica findfont 20.0147 sf 0 0 m ( ) show NC gr 
 gsave  710 566 23 12 C 45.5822 327.622 t 90 r /Helvetica findfont 28.5925 sf 0 0 m (\(1/N\) dN) show NC gr  160 93 m -17 X s 152 105 m -9 X s 152 117 m -9 X s 152 129 m -9 X s 152 141 m -9 X s 160 153 m -17 X s 152 164 m -9 X s 152 176 m -9 X s 152
 188 m -9 X s 152 200 m -9 X s 160 212 m -17 X s 152 224 m -9 X s 152 236 m -9 X s 152 247 m -9 X s 152 259 m -9 X s 160 271 m -17 X s 152 283 m -9 X s 152 295 m -9 X s 152 307 m -9 X s 152 319 m -9 X s 160 330 m -17 X s 152 342 m -9 X s 152 354 m -9
 X s 152 366 m -9 X s 152 378 m -9 X s 160 390 m -17 X s 152 402 m -9 X s 152 413 m -9 X s 152 425 m -9 X s 152 437 m -9 X s 160 449 m -17 X s 152 461 m -9 X s 152 473 m -9 X s 152 485 m -9 X s 152 496 m -9 X s 160 508 m -17 X s 160 508 m -17 X s 152
 520 m -9 X s
 gsave  710 566 23 12 C 119.653 82.6178 t 0 r /Helvetica findfont 25.7332 sf 0 0 m (0) show NC gr 
 gsave  710 566 23 12 C 102.56 142.445 t 0 r /Helvetica findfont 25.7332 sf 0 0 m (0.1) show NC gr 
 gsave  710 566 23 12 C 96.8623 202.271 t 0 r /Helvetica findfont 25.7332 sf 0 0 m (0.2) show NC gr 
 gsave  710 566 23 12 C 96.8623 262.098 t 0 r /Helvetica findfont 25.7332 sf 0 0 m (0.3) show NC gr 
 gsave  710 566 23 12 C 96.8623 319.076 t 0 r /Helvetica findfont 25.7332 sf 0 0 m (0.4) show NC gr 
 gsave  710 566 23 12 C 96.8623 378.902 t 0 r /Helvetica findfont 25.7332 sf 0 0 m (0.5) show NC gr 
 gsave  710 566 23 12 C 96.8623 438.729 t 0 r /Helvetica findfont 25.7332 sf 0 0 m (0.6) show NC gr 
 gsave  710 566 23 12 C 96.8623 498.556 t 0 r /Helvetica findfont 25.7332 sf 0 0 m (0.7) show NC gr  691 93 m 428 Y s 674 93 m 17 X s 683 105 m 8 X s 683 117 m 8 X s 683 129 m 8 X s 683 141 m 8 X s 674 153 m 17 X s 683 164 m 8 X s 683 176 m 8 X s 683
 188 m 8 X s 683 200 m 8 X s 674 212 m 17 X s 683 224 m 8 X s 683 236 m 8 X s 683 247 m 8 X s 683 259 m 8 X s 674 271 m 17 X s 683 283 m 8 X s 683 295 m 8 X s 683 307 m 8 X s 683 319 m 8 X s 674 330 m 17 X s 683 342 m 8 X s 683 354 m 8 X s 683 366 m
 8 X s 683 378 m 8 X s 674 390 m 17 X s 683 402 m 8 X s 683 413 m 8 X s 683 425 m 8 X s 683 437 m 8 X s 674 449 m 17 X s 683 461 m 8 X s 683 473 m 8 X s 683 485 m 8 X s 683 496 m 8 X s 674 508 m 17 X s 674 508 m 17 X s 683 520 m 8 X s 1 0 0 c 6 lw
 black 3 lw 1 0 0 c 691 108 m -14 -14 d s 676 93 m s 691 123 m -14 -14 d s 661 93 m s 688 135 m -11 -11 d s 646 93 m cl s 631 93 m s 616 93 m s 601 93 m s 586 93 m s 571 93 m s 556 93 m s 541 93 m s 526 94 m -1 Y s 526 109 m -13 -14 d s 511 93 m s
 526 124 m -13 -13 d s 499 97 m -3 -4 d s 520 133 m -7 -7 d s 499 112 m -18 -19 d s 499 127 m -34 -34 d s 499 142 m -49 -49 d s 499 157 m -64 -64 d s 499 173 m -27 -28 d s 460 133 m -40 -40 d s 485 174 m -13 -14 d s 458 147 m -53 -54 d s 458 162 m
 -68 -69 d s 458 177 m -83 -84 d s 458 192 m -98 -99 d s 458 207 m -113 -114 d s 448 212 m -118 -119 d s 433 212 m -118 -119 d s 431 225 m -131 -132 d s 431 240 m -146 -147 d s 428 253 m -158 -160 d s 417 257 m -150 -151 d s 254 93 m s 417 272 m -150
 -151 d s 253 107 m -14 -14 d s 417 287 m -27 -27 d s 382 252 m -102 -102 d s 253 122 m -14 -14 d s 224 93 m s 409 294 m -19 -19 d s 376 261 m -96 -96 d s 253 137 m -14 -14 d s 209 93 m s 403 304 m -13 -14 d s 376 276 m -96 -96 d s 253 152 m -14 -13
 d s 194 93 m s 403 319 m -13 -14 d s 376 291 m -96 -96 d s 253 168 m -14 -14 d s 179 93 m s 403 334 m -13 -14 d s 376 307 m -96 -97 d s 245 175 m -6 -6 d s 164 93 m cl s 403 349 m -13 -13 d s 376 322 m -96 -97 d s 149 93 m cl s 403 364 m -13 -13 d s
 376 337 m -68 -69 d s 294 254 m -14 -13 d s 403 380 m -13 -14 d s 376 352 m -14 -14 d s 358 334 m -37 -37 d s 317 293 m -9 -10 d s 281 257 m -1 -1 d s 403 395 m -13 -14 d s 376 367 m -14 -14 d s 349 340 m -28 -28 d s 403 410 m -13 -14 d s 367 373 m
 -5 -4 d s 349 355 m -14 -14 d s 327 333 m -6 -6 d s 403 425 m -13 -14 d s 349 370 m -14 -14 d s 403 440 m -13 -14 d s 349 385 m -14 -14 d s 402 454 m -12 -12 d s 349 400 m -14 -13 d s 346 413 m -11 -11 d s 6 lw 143 93 m 96 X 82 Y 14 X -82 Y 14 X 42
 Y 13 X 122 Y 14 X -3 Y 14 X 39 Y 13 X 40 Y 14 X 80 Y 14 X -79 Y 13 X 39 Y 14 X -121 Y 14 X 202 Y 13 X -160 Y 14 X -41 Y 14 X -41 Y 27 X -79 Y 14 X 41 Y 13 X -1 Y 14 X -80 Y 14 X 40 Y 13 X -40 Y 151 X 42 Y 14 X s black 3 lw 143 93 m 548 X s 163 106 m
 -13 Y s 178 100 m -7 Y s 192 100 m -7 Y s 207 100 m -7 Y s 221 100 m -7 Y s 236 106 m -13 Y s 250 100 m -7 Y s 264 100 m -7 Y s 279 100 m -7 Y s 293 100 m -7 Y s 308 106 m -13 Y s 322 100 m -7 Y s 337 100 m -7 Y s 351 100 m -7 Y s 365 100 m -7 Y s
 380 106 m -13 Y s 394 100 m -7 Y s 409 100 m -7 Y s 423 100 m -7 Y s 438 100 m -7 Y s 452 106 m -13 Y s 466 100 m -7 Y s 481 100 m -7 Y s 495 100 m -7 Y s 510 100 m -7 Y s 524 106 m -13 Y s 539 100 m -7 Y s 553 100 m -7 Y s 568 100 m -7 Y s 582 100
 m -7 Y s 596 106 m -13 Y s 611 100 m -7 Y s 625 100 m -7 Y s 640 100 m -7 Y s 654 100 m -7 Y s 669 106 m -13 Y s 163 106 m -13 Y s 149 100 m -7 Y s 669 106 m -13 Y s 683 100 m -7 Y s 143 521 m 548 X s 163 508 m 13 Y s 178 515 m 6 Y s 192 515 m 6 Y s
 207 515 m 6 Y s 221 515 m 6 Y s 236 508 m 13 Y s 250 515 m 6 Y s 264 515 m 6 Y s 279 515 m 6 Y s 293 515 m 6 Y s 308 508 m 13 Y s 322 515 m 6 Y s 337 515 m 6 Y s 351 515 m 6 Y s 365 515 m 6 Y s 380 508 m 13 Y s 394 515 m 6 Y s 409 515 m 6 Y s 423
 515 m 6 Y s 438 515 m 6 Y s 452 508 m 13 Y s 466 515 m 6 Y s 481 515 m 6 Y s 495 515 m 6 Y s 510 515 m 6 Y s 524 508 m 13 Y s 539 515 m 6 Y s 553 515 m 6 Y s 568 515 m 6 Y s 582 515 m 6 Y s 596 508 m 13 Y s 611 515 m 6 Y s 625 515 m 6 Y s 640 515 m
 6 Y s 654 515 m 6 Y s 669 508 m 13 Y s 163 508 m 13 Y s 149 515 m 6 Y s 669 508 m 13 Y s 683 515 m 6 Y s 143 93 m 428 Y s 160 93 m -17 X s 152 105 m -9 X s 152 117 m -9 X s 152 129 m -9 X s 152 141 m -9 X s 160 153 m -17 X s 152 164 m -9 X s 152 176
 m -9 X s 152 188 m -9 X s 152 200 m -9 X s 160 212 m -17 X s 152 224 m -9 X s 152 236 m -9 X s 152 247 m -9 X s 152 259 m -9 X s 160 271 m -17 X s 152 283 m -9 X s 152 295 m -9 X s 152 307 m -9 X s 152 319 m -9 X s 160 330 m -17 X s 152 342 m -9 X s
 152 354 m -9 X s 152 366 m -9 X s 152 378 m -9 X s 160 390 m -17 X s 152 402 m -9 X s 152 413 m -9 X s 152 425 m -9 X s 152 437 m -9 X s 160 449 m -17 X s 152 461 m -9 X s 152 473 m -9 X s 152 485 m -9 X s 152 496 m -9 X s 160 508 m -17 X s 160 508
 m -17 X s 152 520 m -9 X s 691 93 m 428 Y s 674 93 m 17 X s 683 105 m 8 X s 683 117 m 8 X s 683 129 m 8 X s 683 141 m 8 X s 674 153 m 17 X s 683 164 m 8 X s 683 176 m 8 X s 683 188 m 8 X s 683 200 m 8 X s 674 212 m 17 X s 683 224 m 8 X s 683 236 m 8
 X s 683 247 m 8 X s 683 259 m 8 X s 674 271 m 17 X s 683 283 m 8 X s 683 295 m 8 X s 683 307 m 8 X s 683 319 m 8 X s 674 330 m 17 X s 683 342 m 8 X s 683 354 m 8 X s 683 366 m 8 X s 683 378 m 8 X s 674 390 m 17 X s 683 402 m 8 X s 683 413 m 8 X s
 683 425 m 8 X s 683 437 m 8 X s 674 449 m 17 X s 683 461 m 8 X s 683 473 m 8 X s 683 485 m 8 X s 683 496 m 8 X s 674 508 m 17 X s 674 508 m 17 X s 683 520 m 8 X s
 gsave  710 566 23 12 C 719.017 91.0528 t 90 r /Helvetica-Bold findfont 20.0147 sf 0 0 m (U/O\255flow \(S,B\): \(0.0, 0.0\)% / \(0.0, 0.0\)%) show NC gr  0.490196 0.545098 0.615686 c 0.364706 0.419608 0.490196 c 497 38 30 537 bf 0.490196 0.545098
 0.615686 c 30 537 m 497 X s 527 537 m 38 Y s 527 575 m -497 X s 30 575 m -38 Y s 1 1 1 c black 1 1 1 c
 gsave  710 566 23 12 C 39.8845 549.836 t 0 r /Helvetica-Bold findfont 20.0147 sf 0 0 m (Input variable'Deco'\255transformed : GTND_markets) show NC gr  0.490196 0.545098 0.615686 c 0.941176 0.941176 0.941176 c 710 566 779 12 bf black 1 1 0.992157 c
 548 428 899 93 bf black 548 428 899 93 bl 1 1 0.992157 c 548 428 899 93 bf black 548 428 899 93 bl 0 0 0.933333 c 6 lw 0.49 0.6 0.82 c black 3 lw 0.49 0.6 0.82 c 899 93 m 123 X 36 Y 14 X 35 Y 28 X 176 Y 13 X -136 Y 14 X 67 Y 14 X 36 Y 13 X 175 Y 14
 X -143 Y 14 X -105 Y 13 X -35 Y 14 X -71 Y 14 X 1 Y 13 X 36 Y 14 X -72 Y 191 X 39 Y 14 X -39 Y 28 X f 6 lw 0 0 0.933333 c 0.49 0.6 0.82 c 0 0 0.933333 c 899 93 m 123 X 36 Y 14 X 35 Y 28 X 176 Y 13 X -136 Y 14 X 67 Y 14 X 36 Y 13 X 175 Y 14 X -143 Y
 14 X -105 Y 13 X -35 Y 14 X -71 Y 14 X 1 Y 13 X 36 Y 14 X -72 Y 191 X 39 Y 14 X -39 Y 28 X s black 3 lw 899 93 m 548 X s
 gsave  710 566 779 12 C 1173.74 25.64 t 0 r /Helvetica findfont 28.5925 sf 0 0 m (GTND_stocks \(Deco\)) show NC gr  925 106 m -13 Y s 949 100 m -7 Y s 974 100 m -7 Y s 998 100 m -7 Y s 1023 106 m -13 Y s 1047 100 m -7 Y s 1072 100 m -7 Y s 1096 100
 m -7 Y s 1121 106 m -13 Y s 1145 100 m -7 Y s 1170 100 m -7 Y s 1194 100 m -7 Y s 1219 106 m -13 Y s 1244 100 m -7 Y s 1268 100 m -7 Y s 1293 100 m -7 Y s 1317 106 m -13 Y s 1342 100 m -7 Y s 1366 100 m -7 Y s 1391 100 m -7 Y s 1415 106 m -13 Y s
 925 106 m -13 Y s 900 100 m -7 Y s 1415 106 m -13 Y s 1440 100 m -7 Y s
 gsave  710 566 779 12 C 911.645 65.5245 t 0 r /Helvetica findfont 25.7332 sf 0 0 m (\2554) show NC gr 
 gsave  710 566 779 12 C 1008.51 65.5245 t 0 r /Helvetica findfont 25.7332 sf 0 0 m (\2552) show NC gr 
 gsave  710 566 779 12 C 1111.07 65.5245 t 0 r /Helvetica findfont 25.7332 sf 0 0 m (0) show NC gr 
 gsave  710 566 779 12 C 1207.93 65.5245 t 0 r /Helvetica findfont 25.7332 sf 0 0 m (2) show NC gr 
 gsave  710 566 779 12 C 1307.64 65.5245 t 0 r /Helvetica findfont 25.7332 sf 0 0 m (4) show NC gr 
 gsave  710 566 779 12 C 1404.5 65.5245 t 0 r /Helvetica findfont 25.7332 sf 0 0 m (6) show NC gr  899 521 m 548 X s 925 508 m 13 Y s 949 515 m 6 Y s 974 515 m 6 Y s 998 515 m 6 Y s 1023 508 m 13 Y s 1047 515 m 6 Y s 1072 515 m 6 Y s 1096 515 m 6 Y s
 1121 508 m 13 Y s 1145 515 m 6 Y s 1170 515 m 6 Y s 1194 515 m 6 Y s 1219 508 m 13 Y s 1244 515 m 6 Y s 1268 515 m 6 Y s 1293 515 m 6 Y s 1317 508 m 13 Y s 1342 515 m 6 Y s 1366 515 m 6 Y s 1391 515 m 6 Y s 1415 508 m 13 Y s 925 508 m 13 Y s 900 515
 m 6 Y s 1415 508 m 13 Y s 1440 515 m 6 Y s 899 93 m 428 Y s
 gsave  710 566 779 12 C 803.387 441.578 t 90 r /Helvetica findfont 28.5925 sf 0 0 m (0.279 ) show NC gr 
 gsave  710 566 779 12 C 789.143 435.88 t 90 r /Helvetica findfont 20.0147 sf 0 0 m ( ) show NC gr 
 gsave  710 566 779 12 C 803.387 424.485 t 90 r /Helvetica findfont 28.5925 sf 0 0 m (/) show NC gr 
 gsave  710 566 779 12 C 811.934 418.787 t 90 r /Helvetica findfont 20.0147 sf 0 0 m ( ) show NC gr 
 gsave  710 566 779 12 C 803.387 310.529 t 90 r /Helvetica findfont 28.5925 sf 0 0 m (\(1/N\) dN) show NC gr  915 93 m -16 X s 907 104 m -8 X s 907 115 m -8 X s 907 127 m -8 X s 907 138 m -8 X s 915 149 m -16 X s 907 160 m -8 X s 907 171 m -8 X s 907
 182 m -8 X s 907 193 m -8 X s 915 204 m -16 X s 907 215 m -8 X s 907 226 m -8 X s 907 237 m -8 X s 907 248 m -8 X s 915 259 m -16 X s 907 270 m -8 X s 907 282 m -8 X s 907 293 m -8 X s 907 304 m -8 X s 915 315 m -16 X s 907 326 m -8 X s 907 337 m -8
 X s 907 348 m -8 X s 907 359 m -8 X s 915 370 m -16 X s 907 381 m -8 X s 907 392 m -8 X s 907 403 m -8 X s 907 414 m -8 X s 915 426 m -16 X s 907 437 m -8 X s 907 448 m -8 X s 907 459 m -8 X s 907 470 m -8 X s 915 481 m -16 X s 915 481 m -16 X s 907
 492 m -8 X s 907 503 m -8 X s 907 514 m -8 X s
 gsave  710 566 779 12 C 874.609 82.6178 t 0 r /Helvetica findfont 25.7332 sf 0 0 m (0) show NC gr 
 gsave  710 566 779 12 C 857.516 139.596 t 0 r /Helvetica findfont 25.7332 sf 0 0 m (0.1) show NC gr 
 gsave  710 566 779 12 C 851.818 193.725 t 0 r /Helvetica findfont 25.7332 sf 0 0 m (0.2) show NC gr 
 gsave  710 566 779 12 C 851.818 250.702 t 0 r /Helvetica findfont 25.7332 sf 0 0 m (0.3) show NC gr 
 gsave  710 566 779 12 C 851.818 304.831 t 0 r /Helvetica findfont 25.7332 sf 0 0 m (0.4) show NC gr 
 gsave  710 566 779 12 C 851.818 358.96 t 0 r /Helvetica findfont 25.7332 sf 0 0 m (0.5) show NC gr 
 gsave  710 566 779 12 C 851.818 415.938 t 0 r /Helvetica findfont 25.7332 sf 0 0 m (0.6) show NC gr 
 gsave  710 566 779 12 C 851.818 470.067 t 0 r /Helvetica findfont 25.7332 sf 0 0 m (0.7) show NC gr  1447 93 m 428 Y s 1430 93 m 17 X s 1438 104 m 9 X s 1438 115 m 9 X s 1438 127 m 9 X s 1438 138 m 9 X s 1430 149 m 17 X s 1438 160 m 9 X s 1438 171 m
 9 X s 1438 182 m 9 X s 1438 193 m 9 X s 1430 204 m 17 X s 1438 215 m 9 X s 1438 226 m 9 X s 1438 237 m 9 X s 1438 248 m 9 X s 1430 259 m 17 X s 1438 270 m 9 X s 1438 282 m 9 X s 1438 293 m 9 X s 1438 304 m 9 X s 1430 315 m 17 X s 1438 326 m 9 X s
 1438 337 m 9 X s 1438 348 m 9 X s 1438 359 m 9 X s 1430 370 m 17 X s 1438 381 m 9 X s 1438 392 m 9 X s 1438 403 m 9 X s 1438 414 m 9 X s 1430 426 m 17 X s 1438 437 m 9 X s 1438 448 m 9 X s 1438 459 m 9 X s 1438 470 m 9 X s 1430 481 m 17 X s 1430 481
 m 17 X s 1438 492 m 9 X s 1438 503 m 9 X s 1438 514 m 9 X s 1 0 0 c 6 lw black 3 lw 1 0 0 c 1433 93 m s 1418 93 m s 1403 93 m s 1388 93 m s 1372 93 m s 1357 93 m s 1342 93 m s 1327 93 m s 1312 93 m s 1297 93 m s 1282 93 m s 1267 93 m s 1252 93 m s
 1237 93 m cl s 1222 93 m s 1214 101 m -7 -8 d s 1214 116 m -22 -23 d s 1202 118 m -26 -25 d s 1200 132 m -39 -39 d s 1200 147 m -54 -54 d s 1200 162 m -69 -69 d s 1194 171 m -78 -78 d s 1177 170 m -76 -77 d s 1162 169 m -76 -76 d s 1159 182 m -88
 -89 d s 1159 197 m -103 -104 d s 1159 212 m -118 -119 d s 1159 227 m -133 -134 d s 1159 242 m -109 -109 d s 1036 119 m -25 -26 d s 1149 247 m -99 -99 d s 1021 119 m -12 -12 d s 996 93 m s 1146 259 m -82 -83 d s 1057 170 m -7 -7 d s 981 93 m s 1146
 274 m -82 -82 d s 965 93 m cl s 1146 289 m -82 -82 d s 950 93 m s 1146 304 m -28 -27 d s 1113 271 m -49 -49 d s 935 93 m s 1146 319 m -28 -27 d s 1105 278 m -28 -27 d s 1075 248 m -11 -11 d s 920 93 m s 1134 323 m -16 -16 d s 1105 293 m -28 -27 d s
 905 93 m cl s 1132 336 m -14 -14 d s 1105 308 m -28 -27 d s 1132 351 m -14 -14 d s 1105 323 m -14 -13 d s 1078 296 m -1 X s 1132 366 m -14 -14 d s 1105 338 m -14 -13 d s 1132 381 m -14 -14 d s 1105 354 m -14 -14 d s 1132 396 m -14 -14 d s 1105 369 m
 -14 -14 d s 1132 411 m -14 -14 d s 1105 384 m -14 -14 d s 1129 423 m -11 -10 d s 1105 399 m -14 -14 d s 1105 414 m -14 -14 d s 1099 424 m -8 -9 d s 6 lw 899 93 m 110 X 26 Y 41 X 51 Y 14 X 78 Y 13 X 48 Y 14 X 128 Y 14 X -153 Y 13 X 152 Y 14 X -100 Y
 14 X -76 Y 13 X -78 Y 14 X 1 Y 14 X 1 Y 13 X -53 Y 14 X -25 Y 233 X s black 3 lw 899 93 m 548 X s 925 106 m -13 Y s 949 100 m -7 Y s 974 100 m -7 Y s 998 100 m -7 Y s 1023 106 m -13 Y s 1047 100 m -7 Y s 1072 100 m -7 Y s 1096 100 m -7 Y s 1121 106
 m -13 Y s 1145 100 m -7 Y s 1170 100 m -7 Y s 1194 100 m -7 Y s 1219 106 m -13 Y s 1244 100 m -7 Y s 1268 100 m -7 Y s 1293 100 m -7 Y s 1317 106 m -13 Y s 1342 100 m -7 Y s 1366 100 m -7 Y s 1391 100 m -7 Y s 1415 106 m -13 Y s 925 106 m -13 Y s
 900 100 m -7 Y s 1415 106 m -13 Y s 1440 100 m -7 Y s 899 521 m 548 X s 925 508 m 13 Y s 949 515 m 6 Y s 974 515 m 6 Y s 998 515 m 6 Y s 1023 508 m 13 Y s 1047 515 m 6 Y s 1072 515 m 6 Y s 1096 515 m 6 Y s 1121 508 m 13 Y s 1145 515 m 6 Y s 1170 515
 m 6 Y s 1194 515 m 6 Y s 1219 508 m 13 Y s 1244 515 m 6 Y s 1268 515 m 6 Y s 1293 515 m 6 Y s 1317 508 m 13 Y s 1342 515 m 6 Y s 1366 515 m 6 Y s 1391 515 m 6 Y s 1415 508 m 13 Y s 925 508 m 13 Y s 900 515 m 6 Y s 1415 508 m 13 Y s 1440 515 m 6 Y s
 899 93 m 428 Y s 915 93 m -16 X s 907 104 m -8 X s 907 115 m -8 X s 907 127 m -8 X s 907 138 m -8 X s 915 149 m -16 X s 907 160 m -8 X s 907 171 m -8 X s 907 182 m -8 X s 907 193 m -8 X s 915 204 m -16 X s 907 215 m -8 X s 907 226 m -8 X s 907 237 m
 -8 X s 907 248 m -8 X s 915 259 m -16 X s 907 270 m -8 X s 907 282 m -8 X s 907 293 m -8 X s 907 304 m -8 X s 915 315 m -16 X s 907 326 m -8 X s 907 337 m -8 X s 907 348 m -8 X s 907 359 m -8 X s 915 370 m -16 X s 907 381 m -8 X s 907 392 m -8 X s
 907 403 m -8 X s 907 414 m -8 X s 915 426 m -16 X s 907 437 m -8 X s 907 448 m -8 X s 907 459 m -8 X s 907 470 m -8 X s 915 481 m -16 X s 915 481 m -16 X s 907 492 m -8 X s 907 503 m -8 X s 907 514 m -8 X s 1447 93 m 428 Y s 1430 93 m 17 X s 1438
 104 m 9 X s 1438 115 m 9 X s 1438 127 m 9 X s 1438 138 m 9 X s 1430 149 m 17 X s 1438 160 m 9 X s 1438 171 m 9 X s 1438 182 m 9 X s 1438 193 m 9 X s 1430 204 m 17 X s 1438 215 m 9 X s 1438 226 m 9 X s 1438 237 m 9 X s 1438 248 m 9 X s 1430 259 m 17
 X s 1438 270 m 9 X s 1438 282 m 9 X s 1438 293 m 9 X s 1438 304 m 9 X s 1430 315 m 17 X s 1438 326 m 9 X s 1438 337 m 9 X s 1438 348 m 9 X s 1438 359 m 9 X s 1430 370 m 17 X s 1438 381 m 9 X s 1438 392 m 9 X s 1438 403 m 9 X s 1438 414 m 9 X s 1430
 426 m 17 X s 1438 437 m 9 X s 1438 448 m 9 X s 1438 459 m 9 X s 1438 470 m 9 X s 1430 481 m 17 X s 1430 481 m 17 X s 1438 492 m 9 X s 1438 503 m 9 X s 1438 514 m 9 X s
 gsave  710 566 779 12 C 1474.92 91.0528 t 90 r /Helvetica-Bold findfont 20.0147 sf 0 0 m (U/O\255flow \(S,B\): \(0.0, 0.0\)% / \(0.0, 0.0\)%) show NC gr  0.490196 0.545098 0.615686 c 0.364706 0.419608 0.490196 c 497 38 786 537 bf 0.490196 0.545098
 0.615686 c 786 537 m 497 X s 1283 537 m 38 Y s 1283 575 m -497 X s 786 575 m -38 Y s 1 1 1 c black 1 1 1 c
 gsave  710 566 779 12 C 803.387 549.836 t 0 r /Helvetica-Bold findfont 20.0147 sf 0 0 m (Input variable'Deco'\255transformed : GTND_stocks) show NC gr  0.490196 0.545098 0.615686 c 0.941176 0.941176 0.941176 c 711 566 1534 12 bf black 1 1 0.992157 c
 547 428 1655 93 bf black 547 428 1655 93 bl 1 1 0.992157 c 547 428 1655 93 bf black 547 428 1655 93 bl 0 0 0.933333 c 6 lw 0.49 0.6 0.82 c black 3 lw 0.49 0.6 0.82 c 1655 93 m 14 X 32 Y 14 X 5 Y 13 X -37 Y 14 X 63 Y 14 X 1 Y 13 X 284 Y 14 X -27 Y 14
 X 59 Y 13 X -191 Y 14 X -125 Y 27 X -64 Y 28 X 63 Y 13 X 1 Y 14 X -32 Y 14 X -32 Y 13 X 35 Y 14 X -3 Y 14 X -32 Y 273 X f 6 lw 0 0 0.933333 c 0.49 0.6 0.82 c 0 0 0.933333 c 1655 93 m 14 X 32 Y 14 X 5 Y 13 X -37 Y 14 X 63 Y 14 X 1 Y 13 X 284 Y 14 X
 -27 Y 14 X 59 Y 13 X -191 Y 14 X -125 Y 27 X -64 Y 28 X 63 Y 13 X 1 Y 14 X -32 Y 14 X -32 Y 13 X 35 Y 14 X -3 Y 14 X -32 Y 273 X s black 3 lw 1655 93 m 547 X s
 gsave  711 566 1534 12 C 1917.3 25.64 t 0 r /Helvetica findfont 28.5925 sf 0 0 m (GTND_terrorist \(Deco\)) show NC gr  1714 106 m -13 Y s 1726 100 m -7 Y s 1738 100 m -7 Y s 1750 100 m -7 Y s 1762 100 m -7 Y s 1774 106 m -13 Y s 1786 100 m -7 Y s
 1798 100 m -7 Y s 1810 100 m -7 Y s 1822 100 m -7 Y s 1834 106 m -13 Y s 1846 100 m -7 Y s 1858 100 m -7 Y s 1870 100 m -7 Y s 1882 100 m -7 Y s 1894 106 m -13 Y s 1906 100 m -7 Y s 1918 100 m -7 Y s 1930 100 m -7 Y s 1942 100 m -7 Y s 1954 106 m
 -13 Y s 1966 100 m -7 Y s 1978 100 m -7 Y s 1990 100 m -7 Y s 2002 100 m -7 Y s 2014 106 m -13 Y s 2026 100 m -7 Y s 2038 100 m -7 Y s 2050 100 m -7 Y s 2062 100 m -7 Y s 2074 106 m -13 Y s 2086 100 m -7 Y s 2098 100 m -7 Y s 2110 100 m -7 Y s 2122
 100 m -7 Y s 2134 106 m -13 Y s 2146 100 m -7 Y s 2158 100 m -7 Y s 2170 100 m -7 Y s 2182 100 m -7 Y s 2193 106 m -13 Y s 1714 106 m -13 Y s 1702 100 m -7 Y s 1691 100 m -7 Y s 1679 100 m -7 Y s 1667 100 m -7 Y s 2193 106 m -13 Y s
 gsave  711 566 1534 12 C 1700.79 65.5245 t 0 r /Helvetica findfont 25.7332 sf 0 0 m (\2551) show NC gr 
 gsave  711 566 1534 12 C 1763.46 65.5245 t 0 r /Helvetica findfont 25.7332 sf 0 0 m (0) show NC gr 
 gsave  711 566 1534 12 C 1826.14 65.5245 t 0 r /Helvetica findfont 25.7332 sf 0 0 m (1) show NC gr 
 gsave  711 566 1534 12 C 1883.12 65.5245 t 0 r /Helvetica findfont 25.7332 sf 0 0 m (2) show NC gr 
 gsave  711 566 1534 12 C 1942.94 65.5245 t 0 r /Helvetica findfont 25.7332 sf 0 0 m (3) show NC gr 
 gsave  711 566 1534 12 C 2002.77 65.5245 t 0 r /Helvetica findfont 25.7332 sf 0 0 m (4) show NC gr 
 gsave  711 566 1534 12 C 2062.6 65.5245 t 0 r /Helvetica findfont 25.7332 sf 0 0 m (5) show NC gr 
 gsave  711 566 1534 12 C 2122.42 65.5245 t 0 r /Helvetica findfont 25.7332 sf 0 0 m (6) show NC gr 
 gsave  711 566 1534 12 C 2182.25 65.5245 t 0 r /Helvetica findfont 25.7332 sf 0 0 m (7) show NC gr  1655 521 m 547 X s 1714 508 m 13 Y s 1726 515 m 6 Y s 1738 515 m 6 Y s 1750 515 m 6 Y s 1762 515 m 6 Y s 1774 508 m 13 Y s 1786 515 m 6 Y s 1798 515
 m 6 Y s 1810 515 m 6 Y s 1822 515 m 6 Y s 1834 508 m 13 Y s 1846 515 m 6 Y s 1858 515 m 6 Y s 1870 515 m 6 Y s 1882 515 m 6 Y s 1894 508 m 13 Y s 1906 515 m 6 Y s 1918 515 m 6 Y s 1930 515 m 6 Y s 1942 515 m 6 Y s 1954 508 m 13 Y s 1966 515 m 6 Y s
 1978 515 m 6 Y s 1990 515 m 6 Y s 2002 515 m 6 Y s 2014 508 m 13 Y s 2026 515 m 6 Y s 2038 515 m 6 Y s 2050 515 m 6 Y s 2062 515 m 6 Y s 2074 508 m 13 Y s 2086 515 m 6 Y s 2098 515 m 6 Y s 2110 515 m 6 Y s 2122 515 m 6 Y s 2134 508 m 13 Y s 2146 515
 m 6 Y s 2158 515 m 6 Y s 2170 515 m 6 Y s 2182 515 m 6 Y s 2193 508 m 13 Y s 1714 508 m 13 Y s 1702 515 m 6 Y s 1691 515 m 6 Y s 1679 515 m 6 Y s 1667 515 m 6 Y s 2193 508 m 13 Y s 1655 93 m 428 Y s
 gsave  711 566 1534 12 C 1558.34 441.578 t 90 r /Helvetica findfont 28.5925 sf 0 0 m (0.228 ) show NC gr 
 gsave  711 566 1534 12 C 1544.1 435.88 t 90 r /Helvetica findfont 20.0147 sf 0 0 m ( ) show NC gr 
 gsave  711 566 1534 12 C 1558.34 424.485 t 90 r /Helvetica findfont 28.5925 sf 0 0 m (/) show NC gr 
 gsave  711 566 1534 12 C 1566.89 418.787 t 90 r /Helvetica findfont 20.0147 sf 0 0 m ( ) show NC gr 
 gsave  711 566 1534 12 C 1558.34 310.529 t 90 r /Helvetica findfont 28.5925 sf 0 0 m (\(1/N\) dN) show NC gr  1671 93 m -16 X s 1663 114 m -8 X s 1663 134 m -8 X s 1663 154 m -8 X s 1671 175 m -16 X s 1663 195 m -8 X s 1663 215 m -8 X s 1663 236 m
 -8 X s 1671 256 m -16 X s 1663 277 m -8 X s 1663 297 m -8 X s 1663 317 m -8 X s 1671 338 m -16 X s 1663 358 m -8 X s 1663 378 m -8 X s 1663 399 m -8 X s 1671 419 m -16 X s 1663 439 m -8 X s 1663 460 m -8 X s 1663 480 m -8 X s 1671 500 m -16 X s 1671
 500 m -16 X s 1663 521 m -8 X s
 gsave  711 566 1534 12 C 1632.41 82.6178 t 0 r /Helvetica findfont 25.7332 sf 0 0 m (0) show NC gr 
 gsave  711 566 1534 12 C 1609.62 165.236 t 0 r /Helvetica findfont 25.7332 sf 0 0 m (0.2) show NC gr 
 gsave  711 566 1534 12 C 1609.62 245.005 t 0 r /Helvetica findfont 25.7332 sf 0 0 m (0.4) show NC gr 
 gsave  711 566 1534 12 C 1609.62 327.622 t 0 r /Helvetica findfont 25.7332 sf 0 0 m (0.6) show NC gr 
 gsave  711 566 1534 12 C 1609.62 410.24 t 0 r /Helvetica findfont 25.7332 sf 0 0 m (0.8) show NC gr 
 gsave  711 566 1534 12 C 1635.26 490.009 t 0 r /Helvetica findfont 25.7332 sf 0 0 m (1) show NC gr  2202 93 m 428 Y s 2186 93 m 16 X s 2194 114 m 8 X s 2194 134 m 8 X s 2194 154 m 8 X s 2186 175 m 16 X s 2194 195 m 8 X s 2194 215 m 8 X s 2194 236 m
 8 X s 2186 256 m 16 X s 2194 277 m 8 X s 2194 297 m 8 X s 2194 317 m 8 X s 2186 338 m 16 X s 2194 358 m 8 X s 2194 378 m 8 X s 2194 399 m 8 X s 2186 419 m 16 X s 2194 439 m 8 X s 2194 460 m 8 X s 2194 480 m 8 X s 2186 500 m 16 X s 2186 500 m 16 X s
 2194 521 m 8 X s 1 0 0 c 6 lw black 3 lw 1 0 0 c 2202 108 m -13 -14 d s 2188 93 m s 2196 116 m -7 -7 d s 2173 93 m s 2158 93 m s 2143 93 m s 2128 93 m s 2113 93 m s 2098 93 m s 2083 93 m s 2068 93 m s 2053 93 m s 2038 94 m -1 Y s 2038 109 m -13 -14
 d s 2022 93 m s 2030 116 m -5 -5 d s 2007 93 m s 1992 93 m s 1977 93 m s 1970 101 m -8 -8 d s 1970 116 m -14 -14 d s 1947 93 m s 1932 93 m s 1917 93 m cl s 1915 107 m -13 -14 d s 1911 117 m -10 -9 d s 1887 93 m s 1872 93 m s 1860 97 m -3 -4 d s 1860
 112 m -18 -19 d s 1860 127 m -33 -34 d s 1857 139 m -10 -10 d s 1834 116 m -23 -23 d s 1833 130 m -37 -37 d s 1827 139 m -46 -46 d s 1819 147 m -53 -54 d s 1819 162 m -13 -14 d s 1797 139 m -46 -46 d s 1819 177 m -13 -14 d s 1792 150 m -56 -57 d s
 1819 192 m -13 -13 d s 1792 165 m -71 -72 d s 1819 207 m -13 -13 d s 1792 180 m -82 -83 d s 1706 93 m cl s 1792 195 m -41 -41 d s 1737 140 m -27 -27 d s 1696 99 m -5 -6 d s 1792 210 m -41 -41 d s 1737 155 m -13 -14 d s 1721 139 m -11 -11 d s 1696
 114 m -13 -14 d s 1676 93 m cl s 1792 225 m -41 -41 d s 1737 170 m -13 -13 d s 1683 116 m -1 Y s 1669 102 m -8 -9 d s 1792 241 m -41 -42 d s 1737 186 m -13 -14 d s 1668 116 m -13 -13 d s 1792 256 m -41 -42 d s 1737 201 m -13 -14 d s 1792 271 m -41
 -41 d s 1737 216 m -13 -14 d s 1792 286 m -41 -41 d s 1737 231 m -13 -14 d s 1792 301 m -41 -41 d s 1737 246 m -13 -14 d s 1792 316 m -41 -41 d s 1737 261 m -13 -13 d s 1792 332 m -41 -42 d s 1737 277 m -13 -14 d s 1792 347 m -41 -42 d s 1737 292 m
 -13 -14 d s 1792 362 m -41 -41 d s 1737 307 m -13 -14 d s 1792 377 m -41 -41 d s 1737 322 m -13 -14 d s 1788 388 m -37 -37 d s 1778 394 m -27 -28 d s 1778 409 m -27 -28 d s 1778 424 m -27 -28 d s 1778 439 m -27 -27 d s 1778 454 m -27 -27 d s 1767
 458 m -16 -16 d s 1765 471 m -14 -14 d s 1761 482 m -10 -10 d s 6 lw 1655 116 m 14 X -23 Y 14 X 23 Y 13 X -23 Y 14 X 46 Y 14 X 184 Y 13 X -184 Y 14 X 343 Y 14 X -24 Y 13 X -70 Y 14 X -249 Y 14 X 69 Y 13 X -69 Y 14 X -23 Y 14 X 23 Y 13 X -46 Y 41 X
 24 Y 14 X -24 Y 41 X 23 Y 14 X -23 Y 55 X 23 Y 13 X -23 Y 151 X 23 Y 13 X s black 3 lw 1655 93 m 547 X s 1714 106 m -13 Y s 1726 100 m -7 Y s 1738 100 m -7 Y s 1750 100 m -7 Y s 1762 100 m -7 Y s 1774 106 m -13 Y s 1786 100 m -7 Y s 1798 100 m -7 Y
 s 1810 100 m -7 Y s 1822 100 m -7 Y s 1834 106 m -13 Y s 1846 100 m -7 Y s 1858 100 m -7 Y s 1870 100 m -7 Y s 1882 100 m -7 Y s 1894 106 m -13 Y s 1906 100 m -7 Y s 1918 100 m -7 Y s 1930 100 m -7 Y s 1942 100 m -7 Y s 1954 106 m -13 Y s 1966 100 m
 -7 Y s 1978 100 m -7 Y s 1990 100 m -7 Y s 2002 100 m -7 Y s 2014 106 m -13 Y s 2026 100 m -7 Y s 2038 100 m -7 Y s 2050 100 m -7 Y s 2062 100 m -7 Y s 2074 106 m -13 Y s 2086 100 m -7 Y s 2098 100 m -7 Y s 2110 100 m -7 Y s 2122 100 m -7 Y s 2134
 106 m -13 Y s 2146 100 m -7 Y s 2158 100 m -7 Y s 2170 100 m -7 Y s 2182 100 m -7 Y s 2193 106 m -13 Y s 1714 106 m -13 Y s 1702 100 m -7 Y s 1691 100 m -7 Y s 1679 100 m -7 Y s 1667 100 m -7 Y s 2193 106 m -13 Y s 1655 521 m 547 X s 1714 508 m 13 Y
 s 1726 515 m 6 Y s 1738 515 m 6 Y s 1750 515 m 6 Y s 1762 515 m 6 Y s 1774 508 m 13 Y s 1786 515 m 6 Y s 1798 515 m 6 Y s 1810 515 m 6 Y s 1822 515 m 6 Y s 1834 508 m 13 Y s 1846 515 m 6 Y s 1858 515 m 6 Y s 1870 515 m 6 Y s 1882 515 m 6 Y s 1894
 508 m 13 Y s 1906 515 m 6 Y s 1918 515 m 6 Y s 1930 515 m 6 Y s 1942 515 m 6 Y s 1954 508 m 13 Y s 1966 515 m 6 Y s 1978 515 m 6 Y s 1990 515 m 6 Y s 2002 515 m 6 Y s 2014 508 m 13 Y s 2026 515 m 6 Y s 2038 515 m 6 Y s 2050 515 m 6 Y s 2062 515 m 6
 Y s 2074 508 m 13 Y s 2086 515 m 6 Y s 2098 515 m 6 Y s 2110 515 m 6 Y s 2122 515 m 6 Y s 2134 508 m 13 Y s 2146 515 m 6 Y s 2158 515 m 6 Y s 2170 515 m 6 Y s 2182 515 m 6 Y s 2193 508 m 13 Y s 1714 508 m 13 Y s 1702 515 m 6 Y s 1691 515 m 6 Y s
 1679 515 m 6 Y s 1667 515 m 6 Y s 2193 508 m 13 Y s 1655 93 m 428 Y s 1671 93 m -16 X s 1663 114 m -8 X s 1663 134 m -8 X s 1663 154 m -8 X s 1671 175 m -16 X s 1663 195 m -8 X s 1663 215 m -8 X s 1663 236 m -8 X s 1671 256 m -16 X s 1663 277 m -8 X
 s 1663 297 m -8 X s 1663 317 m -8 X s 1671 338 m -16 X s 1663 358 m -8 X s 1663 378 m -8 X s 1663 399 m -8 X s 1671 419 m -16 X s 1663 439 m -8 X s 1663 460 m -8 X s 1663 480 m -8 X s 1671 500 m -16 X s 1671 500 m -16 X s 1663 521 m -8 X s 2202 93 m
 428 Y s 2186 93 m 16 X s 2194 114 m 8 X s 2194 134 m 8 X s 2194 154 m 8 X s 2186 175 m 16 X s 2194 195 m 8 X s 2194 215 m 8 X s 2194 236 m 8 X s 2186 256 m 16 X s 2194 277 m 8 X s 2194 297 m 8 X s 2194 317 m 8 X s 2186 338 m 16 X s 2194 358 m 8 X s
 2194 378 m 8 X s 2194 399 m 8 X s 2186 419 m 16 X s 2194 439 m 8 X s 2194 460 m 8 X s 2194 480 m 8 X s 2186 500 m 16 X s 2186 500 m 16 X s 2194 521 m 8 X s
 gsave  711 566 1534 12 C 2230.83 91.0528 t 90 r /Helvetica-Bold findfont 20.0147 sf 0 0 m (U/O\255flow \(S,B\): \(0.0, 0.0\)% / \(0.0, 0.0\)%) show NC gr  0.490196 0.545098 0.615686 c 0.364706 0.419608 0.490196 c 497 38 1542 537 bf 0.490196 0.545098
 0.615686 c 1542 537 m 497 X s 2039 537 m 38 Y s 2039 575 m -497 X s 1542 575 m -38 Y s 1 1 1 c black 1 1 1 c
 gsave  711 566 1534 12 C 1552.65 549.836 t 0 r /Helvetica-Bold findfont 20.0147 sf 0 0 m (Input variable'Deco'\255transformed : GTND_terrorist) show NC gr 
 gr  gr showpage
end
%%EOF
