%!PS-Adobe-2.0 EPSF-2.0
%%BoundingBox:  0 0 567 295
%%Title: plots/variables_id_c2.eps: Input variables (training sample)
%%Creator: ROOT Version 5.34/09
%%CreationDate: Sat Jan  4 23:52:52 2014
%%EndComments
%%BeginProlog
80 dict begin
/s {stroke} def /l {lineto} def /m {moveto} def /t {translate} def
/r {rotate} def /rl {roll}  def /R {repeat} def
/d {rlineto} def /rm {rmoveto} def /gr {grestore} def /f {eofill} def
/c {setrgbcolor} def /black {0 setgray} def /sd {setdash} def
/cl {closepath} def /sf {scalefont setfont} def /lw {setlinewidth} def
/box {m dup 0 exch d exch 0 d 0 exch neg d cl} def
/NC{systemdict begin initclip end}def/C{NC box clip newpath}def
/bl {box s} def /bf {box f} def /Y { 0 exch d} def /X { 0 d} def 
/K {{pop pop 0 moveto} exch kshow} bind def
/ita {/ang 15 def gsave [1 0 ang dup sin exch cos div 1 0 0] concat} def 
/mp {newpath /y exch def /x exch def} def
/side {[w .77 mul w .23 mul] .385 w mul sd w 0 l currentpoint t -144 r} def
/mr {mp x y w2 0 360 arc} def /m24 {mr s} def /m20 {mr f} def
/mb {mp x y w2 add m w2 neg 0 d 0 w neg d w 0 d 0 w d cl} def
/mt {mp x y w2 add m w2 neg w neg d w 0 d cl} def
/m21 {mb f} def /m25 {mb s} def /m22 {mt f} def /m26{mt s} def
/m23 {mp x y w2 sub m w2 w d w neg 0 d cl f} def
/m27 {mp x y w2 add m w3 neg w2 neg d w3 w2 neg d w3 w2 d cl s} def
/m28 {mp x w2 sub y w2 sub w3 add m w3 0 d  0 w3 neg d w3 0 d 0 w3 d w3 0 d  0 w3 d w3 neg 0 d 0 w3 d w3 neg 0 d 0 w3 neg d w3 neg 0 d cl s } def
/m29 {mp gsave x w2 sub y w2 add w3 sub m currentpoint t 4 {side} repeat cl fill gr} def
/m30 {mp gsave x w2 sub y w2 add w3 sub m currentpoint t 4 {side} repeat cl s gr} def
/m31 {mp x y w2 sub m 0 w d x w2 sub y m w 0 d x w2 sub y w2 add m w w neg d x w2 sub y w2 sub m w w d s} def
/m32 {mp x y w2 sub m w2 w d w neg 0 d cl s} def
/m33 {mp x y w2 add m w3 neg w2 neg d w3 w2 neg d w3 w2 d cl f} def
/m34 {mp x w2 sub y w2 sub w3 add m w3 0 d  0 w3 neg d w3 0 d 0 w3 d w3 0 d  0 w3 d w3 neg 0 d 0 w3 d w3 neg 0 d 0 w3 neg d w3 neg 0 d cl f } def
/m2 {mp x y w2 sub m 0 w d x w2 sub y m w 0 d s} def
/m5 {mp x w2 sub y w2 sub m w w d x w2 sub y w2 add m w w neg d s} def
/reEncode {exch findfont dup length dict begin {1 index /FID eq  {pop pop} {def} ifelse } forall /Encoding exch def currentdict end dup /FontName get exch definefont pop } def [/Times-Bold /Times-Italic /Times-BoldItalic /Helvetica /Helvetica-Oblique
 /Helvetica-Bold /Helvetica-BoldOblique /Courier /Courier-Oblique /Courier-Bold /Courier-BoldOblique /Times-Roman /AvantGarde-Book /AvantGarde-BookOblique /AvantGarde-Demi /AvantGarde-DemiOblique /Bookman-Demi /Bookman-DemiItalic /Bookman-Light
 /Bookman-LightItalic /Helvetica-Narrow /Helvetica-Narrow-Bold /Helvetica-Narrow-BoldOblique /Helvetica-Narrow-Oblique /NewCenturySchlbk-Roman /NewCenturySchlbk-Bold /NewCenturySchlbk-BoldItalic /NewCenturySchlbk-Italic /Palatino-Bold
 /Palatino-BoldItalic /Palatino-Italic /Palatino-Roman ] {ISOLatin1Encoding reEncode } forall
%%EndProlog
%%BeginSetup
%%EndSetup
newpath  gsave  .25 .25 scale  gsave  0 0 t 0.490196 0.545098 0.615686 c[  ] 0 sd 3 lw 0.941176 0.941176 0.941176 c 2268 1179 0 0 bf 0.490196 0.545098 0.615686 c 0.941176 0.941176 0.941176 c 710 566 23 602 bf black 1 1 0.992157 c 548 428 143 683 bf
 black 548 428 143 683 bl 1 1 0.992157 c 548 428 143 683 bf black 548 428 143 683 bl 0 0 0.933333 c 6 lw 0.49 0.6 0.82 c black 3 lw 0.49 0.6 0.82 c 143 683 m 39 Y 14 X -39 Y 123 X 39 Y 14 X -39 Y 14 X 39 Y 13 X -39 Y 14 X 117 Y 14 X -79 Y 13 X 1 Y 14
 X 115 Y 14 X 235 Y 13 X -194 Y 14 X 47 Y 14 X -87 Y 13 X 40 Y 14 X -37 Y 14 X -120 Y 13 X 1 Y 14 X 155 Y 14 X -113 Y 13 X -81 Y 28 X 40 Y 13 X -40 Y 124 X f 6 lw 0 0 0.933333 c 0.49 0.6 0.82 c 0 0 0.933333 c 143 722 m 14 X -39 Y 123 X 39 Y 14 X -39
 Y 14 X 39 Y 13 X -39 Y 14 X 117 Y 14 X -79 Y 13 X 1 Y 14 X 115 Y 14 X 235 Y 13 X -194 Y 14 X 47 Y 14 X -87 Y 13 X 40 Y 14 X -37 Y 14 X -120 Y 13 X 1 Y 14 X 155 Y 14 X -113 Y 13 X -81 Y 28 X 40 Y 13 X -40 Y 124 X s black 3 lw 143 683 m 548 X s
 gsave  710 566 23 602 C 538.44 615.36 t 0 r /Helvetica findfont 28.5925 sf 0 0 m (GTND_gold) show NC gr  184 696 m -13 Y s 208 690 m -7 Y s 232 690 m -7 Y s 257 690 m -7 Y s 281 690 m -7 Y s 305 696 m -13 Y s 329 690 m -7 Y s 354 690 m -7 Y s 378
 690 m -7 Y s 402 690 m -7 Y s 427 696 m -13 Y s 451 690 m -7 Y s 475 690 m -7 Y s 499 690 m -7 Y s 524 690 m -7 Y s 548 696 m -13 Y s 572 690 m -7 Y s 596 690 m -7 Y s 621 690 m -7 Y s 645 690 m -7 Y s 669 696 m -13 Y s 184 696 m -13 Y s 160 690 m
 -7 Y s 669 696 m -13 Y s
 gsave  710 566 23 602 C 162.387 655.245 t 0 r /Helvetica findfont 25.7332 sf 0 0 m (\25510) show NC gr 
 gsave  710 566 23 602 C 293.436 655.245 t 0 r /Helvetica findfont 25.7332 sf 0 0 m (\2555) show NC gr 
 gsave  710 566 23 602 C 415.938 655.245 t 0 r /Helvetica findfont 25.7332 sf 0 0 m (0) show NC gr 
 gsave  710 566 23 602 C 538.44 655.245 t 0 r /Helvetica findfont 25.7332 sf 0 0 m (5) show NC gr 
 gsave  710 566 23 602 C 652.396 655.245 t 0 r /Helvetica findfont 25.7332 sf 0 0 m (10) show NC gr  143 1111 m 548 X s 184 1098 m 13 Y s 208 1104 m 7 Y s 232 1104 m 7 Y s 257 1104 m 7 Y s 281 1104 m 7 Y s 305 1098 m 13 Y s 329 1104 m 7 Y s 354 1104
 m 7 Y s 378 1104 m 7 Y s 402 1104 m 7 Y s 427 1098 m 13 Y s 451 1104 m 7 Y s 475 1104 m 7 Y s 499 1104 m 7 Y s 524 1104 m 7 Y s 548 1098 m 13 Y s 572 1104 m 7 Y s 596 1104 m 7 Y s 621 1104 m 7 Y s 645 1104 m 7 Y s 669 1098 m 13 Y s 184 1098 m 13 Y s
 160 1104 m 7 Y s 669 1098 m 13 Y s 143 683 m 428 Y s
 gsave  710 566 23 602 C 45.5822 1031.3 t 90 r /Helvetica findfont 28.5925 sf 0 0 m (0.564 ) show NC gr 
 gsave  710 566 23 602 C 31.3378 1025.6 t 90 r /Helvetica findfont 20.0147 sf 0 0 m ( ) show NC gr 
 gsave  710 566 23 602 C 45.5822 1014.2 t 90 r /Helvetica findfont 28.5925 sf 0 0 m (/) show NC gr 
 gsave  710 566 23 602 C 54.1289 1008.51 t 90 r /Helvetica findfont 20.0147 sf 0 0 m ( ) show NC gr 
 gsave  710 566 23 602 C 45.5822 900.249 t 90 r /Helvetica findfont 28.5925 sf 0 0 m (\(1/N\) dN) show NC gr  160 683 m -17 X s 152 695 m -9 X s 152 708 m -9 X s 152 720 m -9 X s 152 732 m -9 X s 160 745 m -17 X s 152 757 m -9 X s 152 769 m -9 X s
 152 782 m -9 X s 152 794 m -9 X s 160 807 m -17 X s 152 819 m -9 X s 152 831 m -9 X s 152 844 m -9 X s 152 856 m -9 X s 160 868 m -17 X s 152 881 m -9 X s 152 893 m -9 X s 152 905 m -9 X s 152 918 m -9 X s 160 930 m -17 X s 152 942 m -9 X s 152 955
 m -9 X s 152 967 m -9 X s 152 979 m -9 X s 160 992 m -17 X s 152 1004 m -9 X s 152 1016 m -9 X s 152 1029 m -9 X s 152 1041 m -9 X s 160 1053 m -17 X s 160 1053 m -17 X s 152 1066 m -9 X s 152 1078 m -9 X s 152 1091 m -9 X s 152 1103 m -9 X s
 gsave  710 566 23 602 C 119.653 672.338 t 0 r /Helvetica findfont 25.7332 sf 0 0 m (0) show NC gr 
 gsave  710 566 23 602 C 82.6178 735.014 t 0 r /Helvetica findfont 25.7332 sf 0 0 m (0.05) show NC gr 
 gsave  710 566 23 602 C 102.56 797.689 t 0 r /Helvetica findfont 25.7332 sf 0 0 m (0.1) show NC gr 
 gsave  710 566 23 602 C 82.6178 857.516 t 0 r /Helvetica findfont 25.7332 sf 0 0 m (0.15) show NC gr 
 gsave  710 566 23 602 C 96.8623 920.192 t 0 r /Helvetica findfont 25.7332 sf 0 0 m (0.2) show NC gr 
 gsave  710 566 23 602 C 82.6178 982.867 t 0 r /Helvetica findfont 25.7332 sf 0 0 m (0.25) show NC gr 
 gsave  710 566 23 602 C 96.8623 1042.69 t 0 r /Helvetica findfont 25.7332 sf 0 0 m (0.3) show NC gr  691 683 m 428 Y s 674 683 m 17 X s 683 695 m 8 X s 683 708 m 8 X s 683 720 m 8 X s 683 732 m 8 X s 674 745 m 17 X s 683 757 m 8 X s 683 769 m 8 X s
 683 782 m 8 X s 683 794 m 8 X s 674 807 m 17 X s 683 819 m 8 X s 683 831 m 8 X s 683 844 m 8 X s 683 856 m 8 X s 674 868 m 17 X s 683 881 m 8 X s 683 893 m 8 X s 683 905 m 8 X s 683 918 m 8 X s 674 930 m 17 X s 683 942 m 8 X s 683 955 m 8 X s 683
 967 m 8 X s 683 979 m 8 X s 674 992 m 17 X s 683 1004 m 8 X s 683 1016 m 8 X s 683 1029 m 8 X s 683 1041 m 8 X s 674 1053 m 17 X s 674 1053 m 17 X s 683 1066 m 8 X s 683 1078 m 8 X s 683 1091 m 8 X s 683 1103 m 8 X s 1 0 0 c 6 lw black 3 lw 1 0 0 c
 691 697 m -14 -14 d s 676 683 m s 689 711 m -12 -12 d s 661 683 m s 646 683 m s 631 683 m s 622 689 m -6 -6 d s 622 704 m -13 -14 d s 601 683 m s 614 711 m -5 -5 d s 586 683 m s 571 683 m s 556 683 m s 554 696 m -13 -13 d s 553 711 m -27 -28 d s 540
 713 m -29 -30 d s 540 728 m -41 -41 d s 496 683 m s 540 743 m -41 -41 d s 485 688 m -4 -5 d s 540 758 m -14 -14 d s 521 739 m -22 -22 d s 485 703 m -20 -20 d s 534 767 m -8 -7 d s 506 739 m -7 -7 d s 485 718 m -35 -35 d s 485 733 m -50 -50 d s 485
 749 m -65 -66 d s 485 764 m -80 -81 d s 485 779 m -95 -96 d s 485 794 m -110 -111 d s 485 809 m -27 -27 d s 444 768 m -84 -85 d s 485 824 m -27 -27 d s 444 783 m -68 -69 d s 372 711 m -27 -28 d s 473 827 m -15 -15 d s 444 798 m -68 -68 d s 358 711 m
 -28 -28 d s 472 841 m -14 -14 d s 444 813 m -68 -68 d s 349 717 m -28 -27 d s 315 683 m s 472 856 m -14 -14 d s 444 829 m -27 -28 d s 411 795 m -35 -35 d s 349 732 m -28 -27 d s 300 683 m s 472 871 m -14 -13 d s 444 844 m -27 -28 d s 403 803 m -27
 -28 d s 349 747 m -28 -27 d s 285 683 m s 472 886 m -14 -13 d s 444 859 m -27 -28 d s 403 818 m -27 -28 d s 349 763 m -14 -14 d s 326 740 m -5 -5 d s 270 683 m cl s 472 902 m -14 -14 d s 444 874 m -27 -27 d s 403 833 m -27 -28 d s 338 767 m -3 -3 d
 s 267 695 m -13 -12 d s 463 908 m -5 -5 d s 444 889 m -27 -27 d s 403 848 m -27 -28 d s 267 710 m -14 -13 d s 239 683 m s 444 904 m -27 -27 d s 403 863 m -27 -27 d s 267 726 m -14 -14 d s 224 683 m cl s 444 920 m -27 -28 d s 403 878 m -27 -27 d s
 265 740 m -12 -13 d s 209 683 m s 444 935 m -27 -28 d s 403 893 m -27 -27 d s 194 683 m s 444 950 m -13 -14 d s 428 934 m -11 -12 d s 403 909 m -27 -28 d s 179 683 m cl s 444 965 m -13 -14 d s 403 924 m -13 -14 d s 388 908 m -12 -12 d s 164 683 m cl
 s 444 980 m -13 -13 d s 403 939 m -13 -14 d s 149 683 m s 444 995 m -13 -13 d s 403 954 m -13 -14 d s 444 1011 m -13 -14 d s 399 965 m -9 -9 d s 437 1019 m -6 -7 d s 6 lw 143 683 m 110 X 57 Y 14 X -57 Y 54 X 57 Y 14 X 27 Y 14 X -56 Y 27 X 197 Y 14 X
 57 Y 13 X -170 Y 14 X 139 Y 14 X 85 Y 13 X -252 Y 14 X 141 Y 14 X -81 Y 13 X -144 Y 14 X 56 Y 27 X 28 Y 14 X -56 Y 14 X -28 Y 55 X 28 Y 13 X -28 Y 55 X 28 Y 14 X -28 Y s black 3 lw 143 683 m 548 X s 184 696 m -13 Y s 208 690 m -7 Y s 232 690 m -7 Y
 s 257 690 m -7 Y s 281 690 m -7 Y s 305 696 m -13 Y s 329 690 m -7 Y s 354 690 m -7 Y s 378 690 m -7 Y s 402 690 m -7 Y s 427 696 m -13 Y s 451 690 m -7 Y s 475 690 m -7 Y s 499 690 m -7 Y s 524 690 m -7 Y s 548 696 m -13 Y s 572 690 m -7 Y s 596
 690 m -7 Y s 621 690 m -7 Y s 645 690 m -7 Y s 669 696 m -13 Y s 184 696 m -13 Y s 160 690 m -7 Y s 669 696 m -13 Y s 143 1111 m 548 X s 184 1098 m 13 Y s 208 1104 m 7 Y s 232 1104 m 7 Y s 257 1104 m 7 Y s 281 1104 m 7 Y s 305 1098 m 13 Y s 329 1104
 m 7 Y s 354 1104 m 7 Y s 378 1104 m 7 Y s 402 1104 m 7 Y s 427 1098 m 13 Y s 451 1104 m 7 Y s 475 1104 m 7 Y s 499 1104 m 7 Y s 524 1104 m 7 Y s 548 1098 m 13 Y s 572 1104 m 7 Y s 596 1104 m 7 Y s 621 1104 m 7 Y s 645 1104 m 7 Y s 669 1098 m 13 Y s
 184 1098 m 13 Y s 160 1104 m 7 Y s 669 1098 m 13 Y s 143 683 m 428 Y s 160 683 m -17 X s 152 695 m -9 X s 152 708 m -9 X s 152 720 m -9 X s 152 732 m -9 X s 160 745 m -17 X s 152 757 m -9 X s 152 769 m -9 X s 152 782 m -9 X s 152 794 m -9 X s 160
 807 m -17 X s 152 819 m -9 X s 152 831 m -9 X s 152 844 m -9 X s 152 856 m -9 X s 160 868 m -17 X s 152 881 m -9 X s 152 893 m -9 X s 152 905 m -9 X s 152 918 m -9 X s 160 930 m -17 X s 152 942 m -9 X s 152 955 m -9 X s 152 967 m -9 X s 152 979 m -9
 X s 160 992 m -17 X s 152 1004 m -9 X s 152 1016 m -9 X s 152 1029 m -9 X s 152 1041 m -9 X s 160 1053 m -17 X s 160 1053 m -17 X s 152 1066 m -9 X s 152 1078 m -9 X s 152 1091 m -9 X s 152 1103 m -9 X s 691 683 m 428 Y s 674 683 m 17 X s 683 695 m
 8 X s 683 708 m 8 X s 683 720 m 8 X s 683 732 m 8 X s 674 745 m 17 X s 683 757 m 8 X s 683 769 m 8 X s 683 782 m 8 X s 683 794 m 8 X s 674 807 m 17 X s 683 819 m 8 X s 683 831 m 8 X s 683 844 m 8 X s 683 856 m 8 X s 674 868 m 17 X s 683 881 m 8 X s
 683 893 m 8 X s 683 905 m 8 X s 683 918 m 8 X s 674 930 m 17 X s 683 942 m 8 X s 683 955 m 8 X s 683 967 m 8 X s 683 979 m 8 X s 674 992 m 17 X s 683 1004 m 8 X s 683 1016 m 8 X s 683 1029 m 8 X s 683 1041 m 8 X s 674 1053 m 17 X s 674 1053 m 17 X s
 683 1066 m 8 X s 683 1078 m 8 X s 683 1091 m 8 X s 683 1103 m 8 X s
 gsave  710 566 23 602 C 719.017 680.773 t 90 r /Helvetica-Bold findfont 20.0147 sf 0 0 m (U/O\255flow \(S,B\): \(0.0, 0.0\)% / \(0.0, 0.0\)%) show NC gr  0.490196 0.545098 0.615686 c 0.364706 0.419608 0.490196 c 373 38 30 1127 bf 0.490196 0.545098
 0.615686 c 30 1127 m 373 X s 403 1127 m 38 Y s 403 1165 m -373 X s 30 1165 m -38 Y s 1 1 1 c black 1 1 1 c
 gsave  710 566 23 602 C 34.1867 1139.56 t 0 r /Helvetica-Bold findfont 28.5925 sf 0 0 m (Input variable: GTND_gold) show NC gr  0.490196 0.545098 0.615686 c 0.941176 0.941176 0.941176 c 710 566 779 602 bf black 1 1 0.992157 c 548 428 899 683 bf
 black 548 428 899 683 bl 1 1 0.992157 c 548 428 899 683 bf black 548 428 899 683 bl 0 0 0.933333 c 6 lw 0.49 0.6 0.82 c black 3 lw 0.49 0.6 0.82 c 899 683 m 69 X 56 Y 13 X -28 Y 14 X -28 Y 69 X 29 Y 13 X -29 Y 123 X 82 Y 14 X -27 Y 14 X 139 Y 13 X
 27 Y 14 X 168 Y 14 X -222 Y 13 X -54 Y 14 X -86 Y 14 X -27 Y 13 X 27 Y 14 X -27 Y 27 X 28 Y 14 X 60 Y 14 X -88 Y 27 X 55 Y 14 X -55 Y 14 X f 6 lw 0 0 0.933333 c 0.49 0.6 0.82 c 0 0 0.933333 c 899 683 m 69 X 56 Y 13 X -28 Y 14 X -28 Y 69 X 29 Y 13 X
 -29 Y 123 X 82 Y 14 X -27 Y 14 X 139 Y 13 X 27 Y 14 X 168 Y 14 X -222 Y 13 X -54 Y 14 X -86 Y 14 X -27 Y 13 X 27 Y 14 X -27 Y 27 X 28 Y 14 X 60 Y 14 X -88 Y 27 X 55 Y 14 X -55 Y 14 X s black 3 lw 899 683 m 548 X s
 gsave  710 566 779 602 C 1256.36 615.36 t 0 r /Helvetica findfont 28.5925 sf 0 0 m (GTND_holiday) show NC gr  935 696 m -13 Y s 956 690 m -7 Y s 977 690 m -7 Y s 998 690 m -7 Y s 1020 690 m -7 Y s 1041 696 m -13 Y s 1062 690 m -7 Y s 1083 690 m -7 Y
 s 1104 690 m -7 Y s 1126 690 m -7 Y s 1147 696 m -13 Y s 1168 690 m -7 Y s 1189 690 m -7 Y s 1210 690 m -7 Y s 1232 690 m -7 Y s 1253 696 m -13 Y s 1274 690 m -7 Y s 1295 690 m -7 Y s 1317 690 m -7 Y s 1338 690 m -7 Y s 1359 696 m -13 Y s 935 696 m
 -13 Y s 914 690 m -7 Y s 1359 696 m -13 Y s 1380 690 m -7 Y s 1401 690 m -7 Y s 1423 690 m -7 Y s 1444 690 m -7 Y s
 gsave  710 566 779 602 C 914.494 655.245 t 0 r /Helvetica findfont 25.7332 sf 0 0 m (\25530) show NC gr 
 gsave  710 566 779 602 C 1019.9 655.245 t 0 r /Helvetica findfont 25.7332 sf 0 0 m (\25520) show NC gr 
 gsave  710 566 779 602 C 1125.31 655.245 t 0 r /Helvetica findfont 25.7332 sf 0 0 m (\25510) show NC gr 
 gsave  710 566 779 602 C 1242.12 655.245 t 0 r /Helvetica findfont 25.7332 sf 0 0 m (0) show NC gr 
 gsave  710 566 779 602 C 1344.68 655.245 t 0 r /Helvetica findfont 25.7332 sf 0 0 m (10) show NC gr  899 1111 m 548 X s 935 1098 m 13 Y s 956 1104 m 7 Y s 977 1104 m 7 Y s 998 1104 m 7 Y s 1020 1104 m 7 Y s 1041 1098 m 13 Y s 1062 1104 m 7 Y s 1083
 1104 m 7 Y s 1104 1104 m 7 Y s 1126 1104 m 7 Y s 1147 1098 m 13 Y s 1168 1104 m 7 Y s 1189 1104 m 7 Y s 1210 1104 m 7 Y s 1232 1104 m 7 Y s 1253 1098 m 13 Y s 1274 1104 m 7 Y s 1295 1104 m 7 Y s 1317 1104 m 7 Y s 1338 1104 m 7 Y s 1359 1098 m 13 Y s
 935 1098 m 13 Y s 914 1104 m 7 Y s 1359 1098 m 13 Y s 1380 1104 m 7 Y s 1401 1104 m 7 Y s 1423 1104 m 7 Y s 1444 1104 m 7 Y s 899 683 m 428 Y s
 gsave  710 566 779 602 C 803.387 1048.39 t 90 r /Helvetica findfont 28.5925 sf 0 0 m (1.29 ) show NC gr 
 gsave  710 566 779 602 C 789.143 1042.69 t 90 r /Helvetica findfont 20.0147 sf 0 0 m ( ) show NC gr 
 gsave  710 566 779 602 C 803.387 1031.3 t 90 r /Helvetica findfont 28.5925 sf 0 0 m (/) show NC gr 
 gsave  710 566 779 602 C 811.934 1025.6 t 90 r /Helvetica findfont 20.0147 sf 0 0 m ( ) show NC gr 
 gsave  710 566 779 602 C 803.387 917.343 t 90 r /Helvetica findfont 28.5925 sf 0 0 m (\(1/N\) dN) show NC gr  915 683 m -16 X s 907 693 m -8 X s 907 703 m -8 X s 907 713 m -8 X s 915 723 m -16 X s 907 733 m -8 X s 907 743 m -8 X s 907 753 m -8 X s
 915 763 m -16 X s 907 773 m -8 X s 907 784 m -8 X s 907 794 m -8 X s 915 804 m -16 X s 907 814 m -8 X s 907 824 m -8 X s 907 834 m -8 X s 915 844 m -16 X s 907 854 m -8 X s 907 864 m -8 X s 907 874 m -8 X s 915 884 m -16 X s 907 894 m -8 X s 907 904
 m -8 X s 907 914 m -8 X s 915 924 m -16 X s 907 934 m -8 X s 907 944 m -8 X s 907 954 m -8 X s 915 964 m -16 X s 907 974 m -8 X s 907 985 m -8 X s 907 995 m -8 X s 915 1005 m -16 X s 907 1015 m -8 X s 907 1025 m -8 X s 907 1035 m -8 X s 915 1045 m
 -16 X s 907 1055 m -8 X s 907 1065 m -8 X s 907 1075 m -8 X s 915 1085 m -16 X s 915 1085 m -16 X s 907 1095 m -8 X s 907 1105 m -8 X s
 gsave  710 566 779 602 C 874.609 672.338 t 0 r /Helvetica findfont 25.7332 sf 0 0 m (0) show NC gr 
 gsave  710 566 779 602 C 837.574 712.223 t 0 r /Helvetica findfont 25.7332 sf 0 0 m (0.02) show NC gr 
 gsave  710 566 779 602 C 837.574 752.107 t 0 r /Helvetica findfont 25.7332 sf 0 0 m (0.04) show NC gr 
 gsave  710 566 779 602 C 837.574 794.84 t 0 r /Helvetica findfont 25.7332 sf 0 0 m (0.06) show NC gr 
 gsave  710 566 779 602 C 837.574 834.725 t 0 r /Helvetica findfont 25.7332 sf 0 0 m (0.08) show NC gr 
 gsave  710 566 779 602 C 857.516 874.609 t 0 r /Helvetica findfont 25.7332 sf 0 0 m (0.1) show NC gr 
 gsave  710 566 779 602 C 837.574 914.494 t 0 r /Helvetica findfont 25.7332 sf 0 0 m (0.12) show NC gr 
 gsave  710 566 779 602 C 837.574 954.378 t 0 r /Helvetica findfont 25.7332 sf 0 0 m (0.14) show NC gr 
 gsave  710 566 779 602 C 837.574 994.263 t 0 r /Helvetica findfont 25.7332 sf 0 0 m (0.16) show NC gr 
 gsave  710 566 779 602 C 837.574 1034.15 t 0 r /Helvetica findfont 25.7332 sf 0 0 m (0.18) show NC gr 
 gsave  710 566 779 602 C 851.818 1074.03 t 0 r /Helvetica findfont 25.7332 sf 0 0 m (0.2) show NC gr  1447 683 m 428 Y s 1430 683 m 17 X s 1438 693 m 9 X s 1438 703 m 9 X s 1438 713 m 9 X s 1430 723 m 17 X s 1438 733 m 9 X s 1438 743 m 9 X s 1438
 753 m 9 X s 1430 763 m 17 X s 1438 773 m 9 X s 1438 784 m 9 X s 1438 794 m 9 X s 1430 804 m 17 X s 1438 814 m 9 X s 1438 824 m 9 X s 1438 834 m 9 X s 1430 844 m 17 X s 1438 854 m 9 X s 1438 864 m 9 X s 1438 874 m 9 X s 1430 884 m 17 X s 1438 894 m 9
 X s 1438 904 m 9 X s 1438 914 m 9 X s 1430 924 m 17 X s 1438 934 m 9 X s 1438 944 m 9 X s 1438 954 m 9 X s 1430 964 m 17 X s 1438 974 m 9 X s 1438 985 m 9 X s 1438 995 m 9 X s 1430 1005 m 17 X s 1438 1015 m 9 X s 1438 1025 m 9 X s 1438 1035 m 9 X s
 1430 1045 m 17 X s 1438 1055 m 9 X s 1438 1065 m 9 X s 1438 1075 m 9 X s 1430 1085 m 17 X s 1430 1085 m 17 X s 1438 1095 m 9 X s 1438 1105 m 9 X s 1 0 0 c 6 lw black 3 lw 1 0 0 c 1447 697 m -14 -14 d s 1437 703 m -19 -20 d s 1433 713 m -28 -27 d s
 1403 683 m s 1433 728 m -14 -13 d s 1407 703 m -2 -2 d s 1392 687 m -4 -4 d s 1433 744 m -14 -14 d s 1392 702 m -20 -19 d s 1392 718 m -14 -14 d s 1377 703 m -20 -20 d s 1382 723 m -4 -4 d s 1362 703 m -20 -20 d s 1348 704 m -21 -21 d s 1332 703 m
 -9 -9 d s 1312 683 m s 1310 696 m -13 -13 d s 1310 711 m -28 -28 d s 1307 723 m -40 -40 d s 1296 727 m -44 -44 d s 1296 742 m -59 -59 d s 1296 758 m -74 -75 d s 1296 773 m -82 -83 d s 1207 683 m s 1296 788 m -82 -82 d s 1200 692 m -8 -9 d s 1296 803
 m -82 -82 d s 1200 707 m -24 -24 d s 1296 818 m -82 -82 d s 1200 722 m -13 -14 d s 1182 704 m -9 -9 d s 1161 683 m s 1296 833 m -82 -82 d s 1146 683 m s 1290 842 m -8 -8 d s 1271 823 m -30 -30 d s 1230 782 m -16 -16 d s 1146 697 m -14 -13 d s 1131
 683 m s 1269 836 m -28 -28 d s 1228 795 m -14 -14 d s 1136 703 m -4 -4 d s 1116 683 m cl s 1269 851 m -28 -27 d s 1228 810 m -14 -14 d s 1101 683 m s 1269 866 m -28 -27 d s 1228 825 m -14 -14 d s 1086 683 m s 1269 881 m -28 -27 d s 1228 840 m -14
 -14 d s 1071 683 m s 1269 896 m -28 -27 d s 1228 855 m -14 -14 d s 1056 683 m s 1269 911 m -28 -27 d s 1228 870 m -14 -13 d s 1041 683 m s 1269 926 m -28 -27 d s 1226 883 m -12 -11 d s 1026 683 m s 1269 942 m -28 -28 d s 1022 695 m -11 -12 d s 1269
 957 m -28 -28 d s 1016 703 m -7 -7 d s 996 683 m s 1259 962 m -18 -18 d s 981 683 m s 1255 973 m -14 -14 d s 965 683 m s 1250 983 m -9 -8 d s 950 683 m s 935 683 m cl s 920 683 m s 913 691 m -8 -8 d s 910 703 m -11 -11 d s 6 lw 899 703 m 14 X -20 Y
 96 X 20 Y 13 X -20 Y 110 X 20 Y 14 X -20 Y 27 X 21 Y 14 X 19 Y 13 X -40 Y 14 X 200 Y 14 X -101 Y 13 X 201 Y 14 X -21 Y 14 X -139 Y 13 X 19 Y 14 X -119 Y 14 X -40 Y 13 X 20 Y 14 X 1 Y 14 X -1 Y 27 X 20 Y 14 X -40 Y 13 X 20 Y 14 X 41 Y 14 X -41 Y 14 X
 -20 Y s black 3 lw 899 683 m 548 X s 935 696 m -13 Y s 956 690 m -7 Y s 977 690 m -7 Y s 998 690 m -7 Y s 1020 690 m -7 Y s 1041 696 m -13 Y s 1062 690 m -7 Y s 1083 690 m -7 Y s 1104 690 m -7 Y s 1126 690 m -7 Y s 1147 696 m -13 Y s 1168 690 m -7 Y
 s 1189 690 m -7 Y s 1210 690 m -7 Y s 1232 690 m -7 Y s 1253 696 m -13 Y s 1274 690 m -7 Y s 1295 690 m -7 Y s 1317 690 m -7 Y s 1338 690 m -7 Y s 1359 696 m -13 Y s 935 696 m -13 Y s 914 690 m -7 Y s 1359 696 m -13 Y s 1380 690 m -7 Y s 1401 690 m
 -7 Y s 1423 690 m -7 Y s 1444 690 m -7 Y s 899 1111 m 548 X s 935 1098 m 13 Y s 956 1104 m 7 Y s 977 1104 m 7 Y s 998 1104 m 7 Y s 1020 1104 m 7 Y s 1041 1098 m 13 Y s 1062 1104 m 7 Y s 1083 1104 m 7 Y s 1104 1104 m 7 Y s 1126 1104 m 7 Y s 1147 1098
 m 13 Y s 1168 1104 m 7 Y s 1189 1104 m 7 Y s 1210 1104 m 7 Y s 1232 1104 m 7 Y s 1253 1098 m 13 Y s 1274 1104 m 7 Y s 1295 1104 m 7 Y s 1317 1104 m 7 Y s 1338 1104 m 7 Y s 1359 1098 m 13 Y s 935 1098 m 13 Y s 914 1104 m 7 Y s 1359 1098 m 13 Y s 1380
 1104 m 7 Y s 1401 1104 m 7 Y s 1423 1104 m 7 Y s 1444 1104 m 7 Y s 899 683 m 428 Y s 915 683 m -16 X s 907 693 m -8 X s 907 703 m -8 X s 907 713 m -8 X s 915 723 m -16 X s 907 733 m -8 X s 907 743 m -8 X s 907 753 m -8 X s 915 763 m -16 X s 907 773
 m -8 X s 907 784 m -8 X s 907 794 m -8 X s 915 804 m -16 X s 907 814 m -8 X s 907 824 m -8 X s 907 834 m -8 X s 915 844 m -16 X s 907 854 m -8 X s 907 864 m -8 X s 907 874 m -8 X s 915 884 m -16 X s 907 894 m -8 X s 907 904 m -8 X s 907 914 m -8 X s
 915 924 m -16 X s 907 934 m -8 X s 907 944 m -8 X s 907 954 m -8 X s 915 964 m -16 X s 907 974 m -8 X s 907 985 m -8 X s 907 995 m -8 X s 915 1005 m -16 X s 907 1015 m -8 X s 907 1025 m -8 X s 907 1035 m -8 X s 915 1045 m -16 X s 907 1055 m -8 X s
 907 1065 m -8 X s 907 1075 m -8 X s 915 1085 m -16 X s 915 1085 m -16 X s 907 1095 m -8 X s 907 1105 m -8 X s 1447 683 m 428 Y s 1430 683 m 17 X s 1438 693 m 9 X s 1438 703 m 9 X s 1438 713 m 9 X s 1430 723 m 17 X s 1438 733 m 9 X s 1438 743 m 9 X s
 1438 753 m 9 X s 1430 763 m 17 X s 1438 773 m 9 X s 1438 784 m 9 X s 1438 794 m 9 X s 1430 804 m 17 X s 1438 814 m 9 X s 1438 824 m 9 X s 1438 834 m 9 X s 1430 844 m 17 X s 1438 854 m 9 X s 1438 864 m 9 X s 1438 874 m 9 X s 1430 884 m 17 X s 1438
 894 m 9 X s 1438 904 m 9 X s 1438 914 m 9 X s 1430 924 m 17 X s 1438 934 m 9 X s 1438 944 m 9 X s 1438 954 m 9 X s 1430 964 m 17 X s 1438 974 m 9 X s 1438 985 m 9 X s 1438 995 m 9 X s 1430 1005 m 17 X s 1438 1015 m 9 X s 1438 1025 m 9 X s 1438 1035
 m 9 X s 1430 1045 m 17 X s 1438 1055 m 9 X s 1438 1065 m 9 X s 1438 1075 m 9 X s 1430 1085 m 17 X s 1430 1085 m 17 X s 1438 1095 m 9 X s 1438 1105 m 9 X s
 gsave  710 566 779 602 C 1474.92 680.773 t 90 r /Helvetica-Bold findfont 20.0147 sf 0 0 m (U/O\255flow \(S,B\): \(0.0, 0.0\)% / \(0.0, 0.0\)%) show NC gr  0.490196 0.545098 0.615686 c 0.364706 0.419608 0.490196 c 413 38 786 1127 bf 0.490196 0.545098
 0.615686 c 786 1127 m 413 X s 1199 1127 m 38 Y s 1199 1165 m -413 X s 786 1165 m -38 Y s 1 1 1 c black 1 1 1 c
 gsave  710 566 779 602 C 791.991 1139.56 t 0 r /Helvetica-Bold findfont 28.5925 sf 0 0 m (Input variable: GTND_holiday) show NC gr  0.490196 0.545098 0.615686 c 0.941176 0.941176 0.941176 c 711 566 1534 602 bf black 1 1 0.992157 c 547 428 1655 683
 bf black 547 428 1655 683 bl 1 1 0.992157 c 547 428 1655 683 bf black 547 428 1655 683 bl 0 0 0.933333 c 6 lw 0.49 0.6 0.82 c black 3 lw 0.49 0.6 0.82 c 1655 683 m 28 X 48 Y 13 X -48 Y 41 X 48 Y 14 X -48 Y 55 X 49 Y 13 X 48 Y 14 X 48 Y 14 X -145 Y
 13 X 48 Y 14 X 98 Y 14 X 47 Y 13 X -88 Y 14 X 136 Y 14 X 5 Y 14 X 143 Y 13 X -51 Y 14 X -193 Y 14 X 1 Y 13 X -48 Y 14 X 47 Y 14 X -92 Y 13 X -53 Y 151 X 51 Y 13 X -51 Y f 6 lw 0 0 0.933333 c 0.49 0.6 0.82 c 0 0 0.933333 c 1655 683 m 28 X 48 Y 13 X
 -48 Y 41 X 48 Y 14 X -48 Y 55 X 49 Y 13 X 48 Y 14 X 48 Y 14 X -145 Y 13 X 48 Y 14 X 98 Y 14 X 47 Y 13 X -88 Y 14 X 136 Y 14 X 5 Y 14 X 143 Y 13 X -51 Y 14 X -193 Y 14 X 1 Y 13 X -48 Y 14 X 47 Y 14 X -92 Y 13 X -53 Y 151 X 51 Y 13 X s black 3 lw 1655
 683 m 547 X s
 gsave  711 566 1534 602 C 2008.47 612.511 t 0 r /Helvetica findfont 28.5925 sf 0 0 m (GTND_inflation) show NC gr  1673 696 m -13 Y s 1690 690 m -7 Y s 1707 690 m -7 Y s 1725 690 m -7 Y s 1742 690 m -7 Y s 1760 696 m -13 Y s 1777 690 m -7 Y s 1795
 690 m -7 Y s 1812 690 m -7 Y s 1829 690 m -7 Y s 1847 696 m -13 Y s 1864 690 m -7 Y s 1882 690 m -7 Y s 1899 690 m -7 Y s 1916 690 m -7 Y s 1934 696 m -13 Y s 1951 690 m -7 Y s 1969 690 m -7 Y s 1986 690 m -7 Y s 2003 690 m -7 Y s 2021 696 m -13 Y s
 2038 690 m -7 Y s 2056 690 m -7 Y s 2073 690 m -7 Y s 2090 690 m -7 Y s 2108 696 m -13 Y s 2125 690 m -7 Y s 2143 690 m -7 Y s 2160 690 m -7 Y s 2177 690 m -7 Y s 2195 696 m -13 Y s 1673 696 m -13 Y s 1655 690 m -7 Y s 2195 696 m -13 Y s
 gsave  711 566 1534 602 C 1652.36 655.245 t 0 r /Helvetica findfont 25.7332 sf 0 0 m (\25530) show NC gr 
 gsave  711 566 1534 602 C 1737.82 655.245 t 0 r /Helvetica findfont 25.7332 sf 0 0 m (\25520) show NC gr 
 gsave  711 566 1534 602 C 1826.14 655.245 t 0 r /Helvetica findfont 25.7332 sf 0 0 m (\25510) show NC gr 
 gsave  711 566 1534 602 C 1923 655.245 t 0 r /Helvetica findfont 25.7332 sf 0 0 m (0) show NC gr 
 gsave  711 566 1534 602 C 2005.62 655.245 t 0 r /Helvetica findfont 25.7332 sf 0 0 m (10) show NC gr 
 gsave  711 566 1534 602 C 2091.09 655.245 t 0 r /Helvetica findfont 25.7332 sf 0 0 m (20) show NC gr 
 gsave  711 566 1534 602 C 2179.4 655.245 t 0 r /Helvetica findfont 25.7332 sf 0 0 m (30) show NC gr  1655 1111 m 547 X s 1673 1098 m 13 Y s 1690 1104 m 7 Y s 1707 1104 m 7 Y s 1725 1104 m 7 Y s 1742 1104 m 7 Y s 1760 1098 m 13 Y s 1777 1104 m 7 Y s
 1795 1104 m 7 Y s 1812 1104 m 7 Y s 1829 1104 m 7 Y s 1847 1098 m 13 Y s 1864 1104 m 7 Y s 1882 1104 m 7 Y s 1899 1104 m 7 Y s 1916 1104 m 7 Y s 1934 1098 m 13 Y s 1951 1104 m 7 Y s 1969 1104 m 7 Y s 1986 1104 m 7 Y s 2003 1104 m 7 Y s 2021 1098 m
 13 Y s 2038 1104 m 7 Y s 2056 1104 m 7 Y s 2073 1104 m 7 Y s 2090 1104 m 7 Y s 2108 1098 m 13 Y s 2125 1104 m 7 Y s 2143 1104 m 7 Y s 2160 1104 m 7 Y s 2177 1104 m 7 Y s 2195 1098 m 13 Y s 1673 1098 m 13 Y s 1655 1104 m 7 Y s 2195 1098 m 13 Y s 1655
 683 m 428 Y s
 gsave  711 566 1534 602 C 1558.34 1045.54 t 90 r /Helvetica findfont 28.5925 sf 0 0 m (1.57 ) show NC gr 
 gsave  711 566 1534 602 C 1544.1 1039.84 t 90 r /Helvetica findfont 20.0147 sf 0 0 m ( ) show NC gr 
 gsave  711 566 1534 602 C 1558.34 1028.45 t 90 r /Helvetica findfont 28.5925 sf 0 0 m (/) show NC gr 
 gsave  711 566 1534 602 C 1566.89 1022.75 t 90 r /Helvetica findfont 20.0147 sf 0 0 m ( ) show NC gr 
 gsave  711 566 1534 602 C 1558.34 914.494 t 90 r /Helvetica findfont 28.5925 sf 0 0 m (\(1/N\) dN) show NC gr  1671 683 m -16 X s 1663 692 m -8 X s 1663 700 m -8 X s 1663 709 m -8 X s 1663 717 m -8 X s 1671 726 m -16 X s 1663 735 m -8 X s 1663 743 m
 -8 X s 1663 752 m -8 X s 1663 760 m -8 X s 1671 769 m -16 X s 1663 777 m -8 X s 1663 786 m -8 X s 1663 795 m -8 X s 1663 803 m -8 X s 1671 812 m -16 X s 1663 820 m -8 X s 1663 829 m -8 X s 1663 838 m -8 X s 1663 846 m -8 X s 1671 855 m -16 X s 1663
 863 m -8 X s 1663 872 m -8 X s 1663 880 m -8 X s 1663 889 m -8 X s 1671 898 m -16 X s 1663 906 m -8 X s 1663 915 m -8 X s 1663 923 m -8 X s 1663 932 m -8 X s 1671 941 m -16 X s 1663 949 m -8 X s 1663 958 m -8 X s 1663 966 m -8 X s 1663 975 m -8 X s
 1671 984 m -16 X s 1663 992 m -8 X s 1663 1001 m -8 X s 1663 1009 m -8 X s 1663 1018 m -8 X s 1671 1026 m -16 X s 1663 1035 m -8 X s 1663 1044 m -8 X s 1663 1052 m -8 X s 1663 1061 m -8 X s 1671 1069 m -16 X s 1671 1069 m -16 X s 1663 1078 m -8 X s
 1663 1087 m -8 X s 1663 1095 m -8 X s 1663 1104 m -8 X s
 gsave  711 566 1534 602 C 1632.41 672.338 t 0 r /Helvetica findfont 25.7332 sf 0 0 m (0) show NC gr 
 gsave  711 566 1534 602 C 1601.08 715.071 t 0 r /Helvetica findfont 25.7332 sf 0 0 m (0.01) show NC gr 
 gsave  711 566 1534 602 C 1595.38 757.805 t 0 r /Helvetica findfont 25.7332 sf 0 0 m (0.02) show NC gr 
 gsave  711 566 1534 602 C 1595.38 800.538 t 0 r /Helvetica findfont 25.7332 sf 0 0 m (0.03) show NC gr 
 gsave  711 566 1534 602 C 1595.38 846.12 t 0 r /Helvetica findfont 25.7332 sf 0 0 m (0.04) show NC gr 
 gsave  711 566 1534 602 C 1595.38 888.854 t 0 r /Helvetica findfont 25.7332 sf 0 0 m (0.05) show NC gr 
 gsave  711 566 1534 602 C 1595.38 931.587 t 0 r /Helvetica findfont 25.7332 sf 0 0 m (0.06) show NC gr 
 gsave  711 566 1534 602 C 1595.38 974.32 t 0 r /Helvetica findfont 25.7332 sf 0 0 m (0.07) show NC gr 
 gsave  711 566 1534 602 C 1595.38 1017.05 t 0 r /Helvetica findfont 25.7332 sf 0 0 m (0.08) show NC gr 
 gsave  711 566 1534 602 C 1595.38 1059.79 t 0 r /Helvetica findfont 25.7332 sf 0 0 m (0.09) show NC gr  2202 683 m 428 Y s 2186 683 m 16 X s 2194 692 m 8 X s 2194 700 m 8 X s 2194 709 m 8 X s 2194 717 m 8 X s 2186 726 m 16 X s 2194 735 m 8 X s 2194
 743 m 8 X s 2194 752 m 8 X s 2194 760 m 8 X s 2186 769 m 16 X s 2194 777 m 8 X s 2194 786 m 8 X s 2194 795 m 8 X s 2194 803 m 8 X s 2186 812 m 16 X s 2194 820 m 8 X s 2194 829 m 8 X s 2194 838 m 8 X s 2194 846 m 8 X s 2186 855 m 16 X s 2194 863 m 8
 X s 2194 872 m 8 X s 2194 880 m 8 X s 2194 889 m 8 X s 2186 898 m 16 X s 2194 906 m 8 X s 2194 915 m 8 X s 2194 923 m 8 X s 2194 932 m 8 X s 2186 941 m 16 X s 2194 949 m 8 X s 2194 958 m 8 X s 2194 966 m 8 X s 2194 975 m 8 X s 2186 984 m 16 X s 2194
 992 m 8 X s 2194 1001 m 8 X s 2194 1009 m 8 X s 2194 1018 m 8 X s 2186 1026 m 16 X s 2194 1035 m 8 X s 2194 1044 m 8 X s 2194 1052 m 8 X s 2194 1061 m 8 X s 2186 1069 m 16 X s 2186 1069 m 16 X s 2194 1078 m 8 X s 2194 1087 m 8 X s 2194 1095 m 8 X s
 2194 1104 m 8 X s 1 0 0 c 6 lw black 3 lw 1 0 0 c 2188 683 m s 2173 683 m s 2158 683 m cl s 2143 683 m s 2134 689 m -6 -6 d s 2134 704 m -14 -14 d s 2113 683 m s 2133 719 m -13 -13 d s 2098 683 m s 2083 683 m s 2068 683 m s 2066 696 m -13 -13 d s
 2066 711 m -14 -14 d s 2038 684 m -1 Y s 2066 726 m -14 -13 d s 2038 699 m -16 -16 d s 2066 742 m -14 -14 d s 2038 714 m -31 -31 d s 2063 754 m -11 -11 d s 2027 718 m -35 -35 d s 2025 731 m -48 -48 d s 2025 746 m -14 -14 d s 1997 718 m -35 -35 d s
 2025 761 m -14 -14 d s 1997 733 m -50 -50 d s 2025 776 m -14 -14 d s 1997 749 m -65 -66 d s 2021 787 m -10 -9 d s 1997 764 m -80 -81 d s 1997 779 m -95 -96 d s 1993 790 m -106 -107 d s 1984 795 m -112 -112 d s 1984 811 m -127 -128 d s 1984 826 m
 -142 -143 d s 1984 841 m -157 -158 d s 1984 856 m -165 -165 d s 1811 683 m s 1984 871 m -83 -82 d s 1901 788 m -82 -82 d s 1806 692 m -10 -9 d s 1984 886 m -83 -82 d s 1885 788 m -66 -67 d s 1806 708 m -25 -25 d s 1984 902 m -83 -83 d s 1874 792 m
 -55 -55 d s 1806 723 m -28 -28 d s 1766 683 m cl s 1984 917 m -14 -14 d s 1959 892 m -30 -30 d s 1925 858 m -24 -24 d s 1874 807 m -41 -42 d s 1822 754 m -3 -2 d s 1806 738 m -14 -14 d s 1786 718 m -8 -8 d s 1751 683 m s 1984 932 m -14 -14 d s 1956
 904 m -27 -27 d s 1912 860 m -11 -11 d s 1874 822 m -41 -41 d s 1806 753 m -14 -14 d s 1736 683 m cl s 1984 947 m -14 -14 d s 1956 920 m -27 -28 d s 1874 837 m -41 -41 d s 1806 768 m -14 -14 d s 1721 683 m s 1982 961 m -12 -12 d s 1950 928 m -21 -21
 d s 1874 852 m -41 -41 d s 1806 783 m -14 -13 d s 1706 683 m s 1935 929 m -6 -7 d s 1865 858 m -32 -32 d s 1794 787 m -2 -2 d s 1696 688 m -5 -5 d s 1849 857 m -16 -16 d s 1696 704 m -13 -14 d s 1676 683 m s 1847 870 m -14 -14 d s 1696 718 m -13 -13
 d s 1661 683 m s 1847 885 m -14 -13 d s 1839 892 m -6 -5 d s 6 lw 1655 683 m 28 X 35 Y 13 X -35 Y 82 X 35 Y 14 X 69 Y 14 X -104 Y 13 X 71 Y 14 X 138 Y 14 X -35 Y 13 X 1 Y 14 X -70 Y 27 X 72 Y 14 X -2 Y 14 X 71 Y 14 X -1 Y 13 X -36 Y 14 X 69 Y 14 X
 -171 Y 13 X -72 Y 14 X 69 Y 14 X -69 Y 13 X -35 Y 14 X 71 Y 14 X -71 Y 54 X 36 Y 14 X -36 Y 68 X s black 3 lw 1655 683 m 547 X s 1673 696 m -13 Y s 1690 690 m -7 Y s 1707 690 m -7 Y s 1725 690 m -7 Y s 1742 690 m -7 Y s 1760 696 m -13 Y s 1777 690 m
 -7 Y s 1795 690 m -7 Y s 1812 690 m -7 Y s 1829 690 m -7 Y s 1847 696 m -13 Y s 1864 690 m -7 Y s 1882 690 m -7 Y s 1899 690 m -7 Y s 1916 690 m -7 Y s 1934 696 m -13 Y s 1951 690 m -7 Y s 1969 690 m -7 Y s 1986 690 m -7 Y s 2003 690 m -7 Y s 2021
 696 m -13 Y s 2038 690 m -7 Y s 2056 690 m -7 Y s 2073 690 m -7 Y s 2090 690 m -7 Y s 2108 696 m -13 Y s 2125 690 m -7 Y s 2143 690 m -7 Y s 2160 690 m -7 Y s 2177 690 m -7 Y s 2195 696 m -13 Y s 1673 696 m -13 Y s 1655 690 m -7 Y s 2195 696 m -13 Y
 s 1655 1111 m 547 X s 1673 1098 m 13 Y s 1690 1104 m 7 Y s 1707 1104 m 7 Y s 1725 1104 m 7 Y s 1742 1104 m 7 Y s 1760 1098 m 13 Y s 1777 1104 m 7 Y s 1795 1104 m 7 Y s 1812 1104 m 7 Y s 1829 1104 m 7 Y s 1847 1098 m 13 Y s 1864 1104 m 7 Y s 1882
 1104 m 7 Y s 1899 1104 m 7 Y s 1916 1104 m 7 Y s 1934 1098 m 13 Y s 1951 1104 m 7 Y s 1969 1104 m 7 Y s 1986 1104 m 7 Y s 2003 1104 m 7 Y s 2021 1098 m 13 Y s 2038 1104 m 7 Y s 2056 1104 m 7 Y s 2073 1104 m 7 Y s 2090 1104 m 7 Y s 2108 1098 m 13 Y s
 2125 1104 m 7 Y s 2143 1104 m 7 Y s 2160 1104 m 7 Y s 2177 1104 m 7 Y s 2195 1098 m 13 Y s 1673 1098 m 13 Y s 1655 1104 m 7 Y s 2195 1098 m 13 Y s 1655 683 m 428 Y s 1671 683 m -16 X s 1663 692 m -8 X s 1663 700 m -8 X s 1663 709 m -8 X s 1663 717 m
 -8 X s 1671 726 m -16 X s 1663 735 m -8 X s 1663 743 m -8 X s 1663 752 m -8 X s 1663 760 m -8 X s 1671 769 m -16 X s 1663 777 m -8 X s 1663 786 m -8 X s 1663 795 m -8 X s 1663 803 m -8 X s 1671 812 m -16 X s 1663 820 m -8 X s 1663 829 m -8 X s 1663
 838 m -8 X s 1663 846 m -8 X s 1671 855 m -16 X s 1663 863 m -8 X s 1663 872 m -8 X s 1663 880 m -8 X s 1663 889 m -8 X s 1671 898 m -16 X s 1663 906 m -8 X s 1663 915 m -8 X s 1663 923 m -8 X s 1663 932 m -8 X s 1671 941 m -16 X s 1663 949 m -8 X s
 1663 958 m -8 X s 1663 966 m -8 X s 1663 975 m -8 X s 1671 984 m -16 X s 1663 992 m -8 X s 1663 1001 m -8 X s 1663 1009 m -8 X s 1663 1018 m -8 X s 1671 1026 m -16 X s 1663 1035 m -8 X s 1663 1044 m -8 X s 1663 1052 m -8 X s 1663 1061 m -8 X s 1671
 1069 m -16 X s 1671 1069 m -16 X s 1663 1078 m -8 X s 1663 1087 m -8 X s 1663 1095 m -8 X s 1663 1104 m -8 X s 2202 683 m 428 Y s 2186 683 m 16 X s 2194 692 m 8 X s 2194 700 m 8 X s 2194 709 m 8 X s 2194 717 m 8 X s 2186 726 m 16 X s 2194 735 m 8 X
 s 2194 743 m 8 X s 2194 752 m 8 X s 2194 760 m 8 X s 2186 769 m 16 X s 2194 777 m 8 X s 2194 786 m 8 X s 2194 795 m 8 X s 2194 803 m 8 X s 2186 812 m 16 X s 2194 820 m 8 X s 2194 829 m 8 X s 2194 838 m 8 X s 2194 846 m 8 X s 2186 855 m 16 X s 2194
 863 m 8 X s 2194 872 m 8 X s 2194 880 m 8 X s 2194 889 m 8 X s 2186 898 m 16 X s 2194 906 m 8 X s 2194 915 m 8 X s 2194 923 m 8 X s 2194 932 m 8 X s 2186 941 m 16 X s 2194 949 m 8 X s 2194 958 m 8 X s 2194 966 m 8 X s 2194 975 m 8 X s 2186 984 m 16
 X s 2194 992 m 8 X s 2194 1001 m 8 X s 2194 1009 m 8 X s 2194 1018 m 8 X s 2186 1026 m 16 X s 2194 1035 m 8 X s 2194 1044 m 8 X s 2194 1052 m 8 X s 2194 1061 m 8 X s 2186 1069 m 16 X s 2186 1069 m 16 X s 2194 1078 m 8 X s 2194 1087 m 8 X s 2194 1095
 m 8 X s 2194 1104 m 8 X s
 gsave  711 566 1534 602 C 2230.83 680.773 t 90 r /Helvetica-Bold findfont 20.0147 sf 0 0 m (U/O\255flow \(S,B\): \(0.0, 0.0\)% / \(0.0, 0.0\)%) show NC gr  0.490196 0.545098 0.615686 c 0.364706 0.419608 0.490196 c 424 38 1542 1127 bf 0.490196
 0.545098 0.615686 c 1542 1127 m 424 X s 1966 1127 m 38 Y s 1966 1165 m -424 X s 1542 1165 m -38 Y s 1 1 1 c black 1 1 1 c
 gsave  711 566 1534 602 C 1546.95 1139.56 t 0 r /Helvetica-Bold findfont 28.5925 sf 0 0 m (Input variable: GTND_inflation) show NC gr  0.490196 0.545098 0.615686 c 0.941176 0.941176 0.941176 c 710 566 23 12 bf black 1 1 0.992157 c 548 428 143 93 bf
 black 548 428 143 93 bl 1 1 0.992157 c 548 428 143 93 bf black 548 428 143 93 bl 0 0 0.933333 c 6 lw 0.49 0.6 0.82 c black 3 lw 0.49 0.6 0.82 c 143 93 m 137 X 32 Y 14 X 6 Y 14 X 26 Y 13 X 64 Y 14 X -32 Y 14 X 33 Y 13 X 260 Y 14 X -99 Y 14 X -224 Y
 13 X 31 Y 28 X 35 Y 13 X -35 Y 14 X -32 Y 14 X -33 Y 13 X 1 Y 14 X -33 Y 137 X 35 Y 14 X -35 Y 41 X f 6 lw 0 0 0.933333 c 0.49 0.6 0.82 c 0 0 0.933333 c 143 93 m 137 X 32 Y 14 X 6 Y 14 X 26 Y 13 X 64 Y 14 X -32 Y 14 X 33 Y 13 X 260 Y 14 X -99 Y 14 X
 -224 Y 13 X 31 Y 28 X 35 Y 13 X -35 Y 14 X -32 Y 14 X -33 Y 13 X 1 Y 14 X -33 Y 137 X 35 Y 14 X -35 Y 41 X s black 3 lw 143 93 m 548 X s
 gsave  710 566 23 12 C 490.009 22.7911 t 0 r /Helvetica findfont 28.5925 sf 0 0 m (GTND_markets) show NC gr  192 106 m -13 Y s 205 100 m -7 Y s 217 100 m -7 Y s 229 100 m -7 Y s 241 100 m -7 Y s 253 106 m -13 Y s 266 100 m -7 Y s 278 100 m -7 Y s
 290 100 m -7 Y s 302 100 m -7 Y s 315 106 m -13 Y s 327 100 m -7 Y s 339 100 m -7 Y s 351 100 m -7 Y s 364 100 m -7 Y s 376 106 m -13 Y s 388 100 m -7 Y s 400 100 m -7 Y s 412 100 m -7 Y s 425 100 m -7 Y s 437 106 m -13 Y s 449 100 m -7 Y s 461 100
 m -7 Y s 474 100 m -7 Y s 486 100 m -7 Y s 498 106 m -13 Y s 510 100 m -7 Y s 522 100 m -7 Y s 535 100 m -7 Y s 547 100 m -7 Y s 559 106 m -13 Y s 571 100 m -7 Y s 584 100 m -7 Y s 596 100 m -7 Y s 608 100 m -7 Y s 620 106 m -13 Y s 632 100 m -7 Y s
 645 100 m -7 Y s 657 100 m -7 Y s 669 100 m -7 Y s 681 106 m -13 Y s 192 106 m -13 Y s 180 100 m -7 Y s 168 100 m -7 Y s 156 100 m -7 Y s 143 100 m -7 Y s 681 106 m -13 Y s
 gsave  710 566 23 12 C 170.933 65.5245 t 0 r /Helvetica findfont 25.7332 sf 0 0 m (\25515) show NC gr 
 gsave  710 566 23 12 C 230.76 65.5245 t 0 r /Helvetica findfont 25.7332 sf 0 0 m (\25510) show NC gr 
 gsave  710 566 23 12 C 301.982 65.5245 t 0 r /Helvetica findfont 25.7332 sf 0 0 m (\2555) show NC gr 
 gsave  710 566 23 12 C 364.658 65.5245 t 0 r /Helvetica findfont 25.7332 sf 0 0 m (0) show NC gr 
 gsave  710 566 23 12 C 427.334 65.5245 t 0 r /Helvetica findfont 25.7332 sf 0 0 m (5) show NC gr 
 gsave  710 566 23 12 C 481.462 65.5245 t 0 r /Helvetica findfont 25.7332 sf 0 0 m (10) show NC gr 
 gsave  710 566 23 12 C 544.138 65.5245 t 0 r /Helvetica findfont 25.7332 sf 0 0 m (15) show NC gr 
 gsave  710 566 23 12 C 603.965 65.5245 t 0 r /Helvetica findfont 25.7332 sf 0 0 m (20) show NC gr 
 gsave  710 566 23 12 C 666.64 65.5245 t 0 r /Helvetica findfont 25.7332 sf 0 0 m (25) show NC gr  143 521 m 548 X s 192 508 m 13 Y s 205 515 m 6 Y s 217 515 m 6 Y s 229 515 m 6 Y s 241 515 m 6 Y s 253 508 m 13 Y s 266 515 m 6 Y s 278 515 m 6 Y s 290
 515 m 6 Y s 302 515 m 6 Y s 315 508 m 13 Y s 327 515 m 6 Y s 339 515 m 6 Y s 351 515 m 6 Y s 364 515 m 6 Y s 376 508 m 13 Y s 388 515 m 6 Y s 400 515 m 6 Y s 412 515 m 6 Y s 425 515 m 6 Y s 437 508 m 13 Y s 449 515 m 6 Y s 461 515 m 6 Y s 474 515 m
 6 Y s 486 515 m 6 Y s 498 508 m 13 Y s 510 515 m 6 Y s 522 515 m 6 Y s 535 515 m 6 Y s 547 515 m 6 Y s 559 508 m 13 Y s 571 515 m 6 Y s 584 515 m 6 Y s 596 515 m 6 Y s 608 515 m 6 Y s 620 508 m 13 Y s 632 515 m 6 Y s 645 515 m 6 Y s 657 515 m 6 Y s
 669 515 m 6 Y s 681 508 m 13 Y s 192 508 m 13 Y s 180 515 m 6 Y s 168 515 m 6 Y s 156 515 m 6 Y s 143 515 m 6 Y s 681 508 m 13 Y s 143 93 m 428 Y s
 gsave  710 566 23 12 C 45.5822 455.822 t 90 r /Helvetica findfont 28.5925 sf 0 0 m (1.12 ) show NC gr 
 gsave  710 566 23 12 C 31.3378 450.125 t 90 r /Helvetica findfont 20.0147 sf 0 0 m ( ) show NC gr 
 gsave  710 566 23 12 C 45.5822 438.729 t 90 r /Helvetica findfont 28.5925 sf 0 0 m (/) show NC gr 
 gsave  710 566 23 12 C 54.1289 433.031 t 90 r /Helvetica findfont 20.0147 sf 0 0 m ( ) show NC gr 
 gsave  710 566 23 12 C 45.5822 324.773 t 90 r /Helvetica findfont 28.5925 sf 0 0 m (\(1/N\) dN) show NC gr  160 93 m -17 X s 152 103 m -9 X s 152 114 m -9 X s 152 124 m -9 X s 160 134 m -17 X s 152 144 m -9 X s 152 154 m -9 X s 152 164 m -9 X s 160
 175 m -17 X s 152 185 m -9 X s 152 195 m -9 X s 152 205 m -9 X s 160 215 m -17 X s 152 225 m -9 X s 152 236 m -9 X s 152 246 m -9 X s 160 256 m -17 X s 152 266 m -9 X s 152 276 m -9 X s 152 286 m -9 X s 160 297 m -17 X s 152 307 m -9 X s 152 317 m
 -9 X s 152 327 m -9 X s 160 337 m -17 X s 152 347 m -9 X s 152 358 m -9 X s 152 368 m -9 X s 160 378 m -17 X s 152 388 m -9 X s 152 398 m -9 X s 152 408 m -9 X s 160 418 m -17 X s 152 429 m -9 X s 152 439 m -9 X s 152 449 m -9 X s 160 459 m -17 X s
 152 469 m -9 X s 152 479 m -9 X s 152 490 m -9 X s 160 500 m -17 X s 160 500 m -17 X s 152 510 m -9 X s 152 520 m -9 X s
 gsave  710 566 23 12 C 119.653 82.6178 t 0 r /Helvetica findfont 25.7332 sf 0 0 m (0) show NC gr 
 gsave  710 566 23 12 C 82.6178 125.351 t 0 r /Helvetica findfont 25.7332 sf 0 0 m (0.02) show NC gr 
 gsave  710 566 23 12 C 82.6178 165.236 t 0 r /Helvetica findfont 25.7332 sf 0 0 m (0.04) show NC gr 
 gsave  710 566 23 12 C 82.6178 205.12 t 0 r /Helvetica findfont 25.7332 sf 0 0 m (0.06) show NC gr 
 gsave  710 566 23 12 C 82.6178 245.005 t 0 r /Helvetica findfont 25.7332 sf 0 0 m (0.08) show NC gr 
 gsave  710 566 23 12 C 102.56 287.738 t 0 r /Helvetica findfont 25.7332 sf 0 0 m (0.1) show NC gr 
 gsave  710 566 23 12 C 82.6178 327.622 t 0 r /Helvetica findfont 25.7332 sf 0 0 m (0.12) show NC gr 
 gsave  710 566 23 12 C 82.6178 367.507 t 0 r /Helvetica findfont 25.7332 sf 0 0 m (0.14) show NC gr 
 gsave  710 566 23 12 C 82.6178 407.391 t 0 r /Helvetica findfont 25.7332 sf 0 0 m (0.16) show NC gr 
 gsave  710 566 23 12 C 82.6178 450.125 t 0 r /Helvetica findfont 25.7332 sf 0 0 m (0.18) show NC gr 
 gsave  710 566 23 12 C 96.8623 490.009 t 0 r /Helvetica findfont 25.7332 sf 0 0 m (0.2) show NC gr  691 93 m 428 Y s 674 93 m 17 X s 683 103 m 8 X s 683 114 m 8 X s 683 124 m 8 X s 674 134 m 17 X s 683 144 m 8 X s 683 154 m 8 X s 683 164 m 8 X s 674
 175 m 17 X s 683 185 m 8 X s 683 195 m 8 X s 683 205 m 8 X s 674 215 m 17 X s 683 225 m 8 X s 683 236 m 8 X s 683 246 m 8 X s 674 256 m 17 X s 683 266 m 8 X s 683 276 m 8 X s 683 286 m 8 X s 674 297 m 17 X s 683 307 m 8 X s 683 317 m 8 X s 683 327 m
 8 X s 674 337 m 17 X s 683 347 m 8 X s 683 358 m 8 X s 683 368 m 8 X s 674 378 m 17 X s 683 388 m 8 X s 683 398 m 8 X s 683 408 m 8 X s 674 418 m 17 X s 683 429 m 8 X s 683 439 m 8 X s 683 449 m 8 X s 674 459 m 17 X s 683 469 m 8 X s 683 479 m 8 X s
 683 490 m 8 X s 674 500 m 17 X s 674 500 m 17 X s 683 510 m 8 X s 683 520 m 8 X s 1 0 0 c 6 lw black 3 lw 1 0 0 c 676 93 m s 661 93 m s 646 93 m s 631 93 m s 616 93 m s 609 101 m -8 -8 d s 609 116 m -14 -14 d s 586 93 m s 595 118 m -1 Y s 571 93 m s
 556 93 m s 541 93 m s 526 93 m s 511 93 m s 496 93 m s 481 93 m s 472 100 m -7 -7 d s 472 115 m -14 -14 d s 450 93 m s 472 130 m -14 -14 d s 435 93 m s 472 145 m -14 -14 d s 431 104 m -11 -11 d s 472 160 m -14 -13 d s 431 119 m -26 -26 d s 459 163 m
 -1 -1 d s 431 134 m -41 -41 d s 431 149 m -56 -56 d s 431 164 m -71 -71 d s 431 180 m -86 -87 d s 431 195 m -101 -102 d s 431 210 m -116 -117 d s 431 225 m -14 -14 d s 414 209 m -114 -116 d s 423 233 m -6 -6 d s 403 213 m -118 -120 d s 403 228 m -95
 -96 d s 294 118 m -24 -25 d s 393 233 m -85 -86 d s 277 116 m -10 -10 d s 254 93 m s 390 245 m -82 -83 d s 239 93 m cl s 390 260 m -82 -83 d s 224 93 m cl s 390 275 m -82 -83 d s 209 93 m s 390 290 m -28 -28 d s 357 257 m -22 -22 d s 333 233 m -12
 -12 d s 311 211 m -3 -4 d s 194 93 m cl s 390 305 m -28 -27 d s 349 264 m -14 -14 d s 179 93 m s 390 320 m -28 -27 d s 349 279 m -14 -14 d s 164 93 m cl s 390 336 m -28 -28 d s 349 294 m -14 -14 d s 149 93 m cl s 387 348 m -25 -25 d s 349 309 m -14
 -13 d s 376 352 m -14 -14 d s 349 325 m -14 -14 d s 376 367 m -14 -14 d s 376 382 m -14 -13 d s 376 398 m -14 -14 d s 376 413 m -14 -14 d s 376 428 m -14 -14 d s 374 441 m -12 -12 d s 6 lw 143 93 m 124 X 23 Y 13 X 2 Y 28 X 93 Y 13 X 22 Y 14 X 93 Y
 14 X -69 Y 13 X 184 Y 14 X -93 Y 14 X -115 Y 13 X -24 Y 14 X 24 Y 14 X -140 Y 27 X 70 Y 14 X -70 Y 123 X 25 Y 14 X -25 Y 82 X s black 3 lw 143 93 m 548 X s 192 106 m -13 Y s 205 100 m -7 Y s 217 100 m -7 Y s 229 100 m -7 Y s 241 100 m -7 Y s 253 106
 m -13 Y s 266 100 m -7 Y s 278 100 m -7 Y s 290 100 m -7 Y s 302 100 m -7 Y s 315 106 m -13 Y s 327 100 m -7 Y s 339 100 m -7 Y s 351 100 m -7 Y s 364 100 m -7 Y s 376 106 m -13 Y s 388 100 m -7 Y s 400 100 m -7 Y s 412 100 m -7 Y s 425 100 m -7 Y s
 437 106 m -13 Y s 449 100 m -7 Y s 461 100 m -7 Y s 474 100 m -7 Y s 486 100 m -7 Y s 498 106 m -13 Y s 510 100 m -7 Y s 522 100 m -7 Y s 535 100 m -7 Y s 547 100 m -7 Y s 559 106 m -13 Y s 571 100 m -7 Y s 584 100 m -7 Y s 596 100 m -7 Y s 608 100
 m -7 Y s 620 106 m -13 Y s 632 100 m -7 Y s 645 100 m -7 Y s 657 100 m -7 Y s 669 100 m -7 Y s 681 106 m -13 Y s 192 106 m -13 Y s 180 100 m -7 Y s 168 100 m -7 Y s 156 100 m -7 Y s 143 100 m -7 Y s 681 106 m -13 Y s 143 521 m 548 X s 192 508 m 13 Y
 s 205 515 m 6 Y s 217 515 m 6 Y s 229 515 m 6 Y s 241 515 m 6 Y s 253 508 m 13 Y s 266 515 m 6 Y s 278 515 m 6 Y s 290 515 m 6 Y s 302 515 m 6 Y s 315 508 m 13 Y s 327 515 m 6 Y s 339 515 m 6 Y s 351 515 m 6 Y s 364 515 m 6 Y s 376 508 m 13 Y s 388
 515 m 6 Y s 400 515 m 6 Y s 412 515 m 6 Y s 425 515 m 6 Y s 437 508 m 13 Y s 449 515 m 6 Y s 461 515 m 6 Y s 474 515 m 6 Y s 486 515 m 6 Y s 498 508 m 13 Y s 510 515 m 6 Y s 522 515 m 6 Y s 535 515 m 6 Y s 547 515 m 6 Y s 559 508 m 13 Y s 571 515 m
 6 Y s 584 515 m 6 Y s 596 515 m 6 Y s 608 515 m 6 Y s 620 508 m 13 Y s 632 515 m 6 Y s 645 515 m 6 Y s 657 515 m 6 Y s 669 515 m 6 Y s 681 508 m 13 Y s 192 508 m 13 Y s 180 515 m 6 Y s 168 515 m 6 Y s 156 515 m 6 Y s 143 515 m 6 Y s 681 508 m 13 Y s
 143 93 m 428 Y s 160 93 m -17 X s 152 103 m -9 X s 152 114 m -9 X s 152 124 m -9 X s 160 134 m -17 X s 152 144 m -9 X s 152 154 m -9 X s 152 164 m -9 X s 160 175 m -17 X s 152 185 m -9 X s 152 195 m -9 X s 152 205 m -9 X s 160 215 m -17 X s 152 225
 m -9 X s 152 236 m -9 X s 152 246 m -9 X s 160 256 m -17 X s 152 266 m -9 X s 152 276 m -9 X s 152 286 m -9 X s 160 297 m -17 X s 152 307 m -9 X s 152 317 m -9 X s 152 327 m -9 X s 160 337 m -17 X s 152 347 m -9 X s 152 358 m -9 X s 152 368 m -9 X s
 160 378 m -17 X s 152 388 m -9 X s 152 398 m -9 X s 152 408 m -9 X s 160 418 m -17 X s 152 429 m -9 X s 152 439 m -9 X s 152 449 m -9 X s 160 459 m -17 X s 152 469 m -9 X s 152 479 m -9 X s 152 490 m -9 X s 160 500 m -17 X s 160 500 m -17 X s 152
 510 m -9 X s 152 520 m -9 X s 691 93 m 428 Y s 674 93 m 17 X s 683 103 m 8 X s 683 114 m 8 X s 683 124 m 8 X s 674 134 m 17 X s 683 144 m 8 X s 683 154 m 8 X s 683 164 m 8 X s 674 175 m 17 X s 683 185 m 8 X s 683 195 m 8 X s 683 205 m 8 X s 674 215
 m 17 X s 683 225 m 8 X s 683 236 m 8 X s 683 246 m 8 X s 674 256 m 17 X s 683 266 m 8 X s 683 276 m 8 X s 683 286 m 8 X s 674 297 m 17 X s 683 307 m 8 X s 683 317 m 8 X s 683 327 m 8 X s 674 337 m 17 X s 683 347 m 8 X s 683 358 m 8 X s 683 368 m 8 X
 s 674 378 m 17 X s 683 388 m 8 X s 683 398 m 8 X s 683 408 m 8 X s 674 418 m 17 X s 683 429 m 8 X s 683 439 m 8 X s 683 449 m 8 X s 674 459 m 17 X s 683 469 m 8 X s 683 479 m 8 X s 683 490 m 8 X s 674 500 m 17 X s 674 500 m 17 X s 683 510 m 8 X s
 683 520 m 8 X s
 gsave  710 566 23 12 C 719.017 91.0528 t 90 r /Helvetica-Bold findfont 20.0147 sf 0 0 m (U/O\255flow \(S,B\): \(0.0, 0.0\)% / \(0.0, 0.0\)%) show NC gr  0.490196 0.545098 0.615686 c 0.364706 0.419608 0.490196 c 424 38 30 537 bf 0.490196 0.545098
 0.615686 c 30 537 m 424 X s 454 537 m 38 Y s 454 575 m -424 X s 30 575 m -38 Y s 1 1 1 c black 1 1 1 c
 gsave  710 566 23 12 C 34.1867 549.836 t 0 r /Helvetica-Bold findfont 28.5925 sf 0 0 m (Input variable: GTND_markets) show NC gr  0.490196 0.545098 0.615686 c 0.941176 0.941176 0.941176 c 710 566 779 12 bf black 1 1 0.992157 c 548 428 899 93 bf
 black 548 428 899 93 bl 1 1 0.992157 c 548 428 899 93 bf black 548 428 899 93 bl 0 0 0.933333 c 6 lw 0.49 0.6 0.82 c black 3 lw 0.49 0.6 0.82 c 899 93 m 137 X 56 Y 14 X -30 Y 14 X 26 Y 13 X 51 Y 14 X 129 Y 14 X 157 Y 13 X -105 Y 14 X -103 Y 14 X
 -129 Y 13 X -52 Y 14 X 52 Y 14 X -52 Y 191 X 28 Y 14 X -28 Y 55 X f 6 lw 0 0 0.933333 c 0.49 0.6 0.82 c 0 0 0.933333 c 899 93 m 137 X 56 Y 14 X -30 Y 14 X 26 Y 13 X 51 Y 14 X 129 Y 14 X 157 Y 13 X -105 Y 14 X -103 Y 14 X -129 Y 13 X -52 Y 14 X 52 Y
 14 X -52 Y 191 X 28 Y 14 X -28 Y 55 X s black 3 lw 899 93 m 548 X s
 gsave  710 566 779 12 C 1267.76 22.7911 t 0 r /Helvetica findfont 28.5925 sf 0 0 m (GTND_stocks) show NC gr  943 106 m -13 Y s 960 100 m -7 Y s 977 100 m -7 Y s 994 100 m -7 Y s 1012 100 m -7 Y s 1029 106 m -13 Y s 1046 100 m -7 Y s 1063 100 m -7 Y
 s 1081 100 m -7 Y s 1098 100 m -7 Y s 1115 106 m -13 Y s 1133 100 m -7 Y s 1150 100 m -7 Y s 1167 100 m -7 Y s 1184 100 m -7 Y s 1202 106 m -13 Y s 1219 100 m -7 Y s 1236 100 m -7 Y s 1253 100 m -7 Y s 1271 100 m -7 Y s 1288 106 m -13 Y s 1305 100 m
 -7 Y s 1322 100 m -7 Y s 1340 100 m -7 Y s 1357 100 m -7 Y s 1374 106 m -13 Y s 943 106 m -13 Y s 925 100 m -7 Y s 908 100 m -7 Y s 1374 106 m -13 Y s 1392 100 m -7 Y s 1409 100 m -7 Y s 1426 100 m -7 Y s 1443 100 m -7 Y s
 gsave  710 566 779 12 C 920.192 65.5245 t 0 r /Helvetica findfont 25.7332 sf 0 0 m (\25520) show NC gr 
 gsave  710 566 779 12 C 1008.51 65.5245 t 0 r /Helvetica findfont 25.7332 sf 0 0 m (\25510) show NC gr 
 gsave  710 566 779 12 C 1105.37 65.5245 t 0 r /Helvetica findfont 25.7332 sf 0 0 m (0) show NC gr 
 gsave  710 566 779 12 C 1185.14 65.5245 t 0 r /Helvetica findfont 25.7332 sf 0 0 m (10) show NC gr 
 gsave  710 566 779 12 C 1273.45 65.5245 t 0 r /Helvetica findfont 25.7332 sf 0 0 m (20) show NC gr 
 gsave  710 566 779 12 C 1358.92 65.5245 t 0 r /Helvetica findfont 25.7332 sf 0 0 m (30) show NC gr  899 521 m 548 X s 943 508 m 13 Y s 960 515 m 6 Y s 977 515 m 6 Y s 994 515 m 6 Y s 1012 515 m 6 Y s 1029 508 m 13 Y s 1046 515 m 6 Y s 1063 515 m 6 Y
 s 1081 515 m 6 Y s 1098 515 m 6 Y s 1115 508 m 13 Y s 1133 515 m 6 Y s 1150 515 m 6 Y s 1167 515 m 6 Y s 1184 515 m 6 Y s 1202 508 m 13 Y s 1219 515 m 6 Y s 1236 515 m 6 Y s 1253 515 m 6 Y s 1271 515 m 6 Y s 1288 508 m 13 Y s 1305 515 m 6 Y s 1322
 515 m 6 Y s 1340 515 m 6 Y s 1357 515 m 6 Y s 1374 508 m 13 Y s 943 508 m 13 Y s 925 515 m 6 Y s 908 515 m 6 Y s 1374 508 m 13 Y s 1392 515 m 6 Y s 1409 515 m 6 Y s 1426 515 m 6 Y s 1443 515 m 6 Y s 899 93 m 428 Y s
 gsave  710 566 779 12 C 803.387 455.822 t 90 r /Helvetica findfont 28.5925 sf 0 0 m (1.58 ) show NC gr 
 gsave  710 566 779 12 C 789.143 450.125 t 90 r /Helvetica findfont 20.0147 sf 0 0 m ( ) show NC gr 
 gsave  710 566 779 12 C 803.387 438.729 t 90 r /Helvetica findfont 28.5925 sf 0 0 m (/) show NC gr 
 gsave  710 566 779 12 C 811.934 433.031 t 90 r /Helvetica findfont 20.0147 sf 0 0 m ( ) show NC gr 
 gsave  710 566 779 12 C 803.387 324.773 t 90 r /Helvetica findfont 28.5925 sf 0 0 m (\(1/N\) dN) show NC gr  915 93 m -16 X s 907 105 m -8 X s 907 116 m -8 X s 907 128 m -8 X s 915 139 m -16 X s 907 151 m -8 X s 907 162 m -8 X s 907 174 m -8 X s 915
 185 m -16 X s 907 197 m -8 X s 907 208 m -8 X s 907 220 m -8 X s 915 232 m -16 X s 907 243 m -8 X s 907 255 m -8 X s 907 266 m -8 X s 915 278 m -16 X s 907 289 m -8 X s 907 301 m -8 X s 907 312 m -8 X s 915 324 m -16 X s 907 335 m -8 X s 907 347 m
 -8 X s 907 358 m -8 X s 915 370 m -16 X s 907 381 m -8 X s 907 393 m -8 X s 907 404 m -8 X s 915 416 m -16 X s 907 427 m -8 X s 907 439 m -8 X s 907 450 m -8 X s 915 462 m -16 X s 907 473 m -8 X s 907 485 m -8 X s 907 496 m -8 X s 915 508 m -16 X s
 915 508 m -16 X s 907 519 m -8 X s
 gsave  710 566 779 12 C 874.609 82.6178 t 0 r /Helvetica findfont 25.7332 sf 0 0 m (0) show NC gr 
 gsave  710 566 779 12 C 837.574 128.2 t 0 r /Helvetica findfont 25.7332 sf 0 0 m (0.02) show NC gr 
 gsave  710 566 779 12 C 837.574 176.631 t 0 r /Helvetica findfont 25.7332 sf 0 0 m (0.04) show NC gr 
 gsave  710 566 779 12 C 837.574 222.213 t 0 r /Helvetica findfont 25.7332 sf 0 0 m (0.06) show NC gr 
 gsave  710 566 779 12 C 837.574 267.796 t 0 r /Helvetica findfont 25.7332 sf 0 0 m (0.08) show NC gr 
 gsave  710 566 779 12 C 857.516 313.378 t 0 r /Helvetica findfont 25.7332 sf 0 0 m (0.1) show NC gr 
 gsave  710 566 779 12 C 837.574 358.96 t 0 r /Helvetica findfont 25.7332 sf 0 0 m (0.12) show NC gr 
 gsave  710 566 779 12 C 837.574 404.542 t 0 r /Helvetica findfont 25.7332 sf 0 0 m (0.14) show NC gr 
 gsave  710 566 779 12 C 837.574 452.974 t 0 r /Helvetica findfont 25.7332 sf 0 0 m (0.16) show NC gr 
 gsave  710 566 779 12 C 837.574 498.556 t 0 r /Helvetica findfont 25.7332 sf 0 0 m (0.18) show NC gr  1447 93 m 428 Y s 1430 93 m 17 X s 1438 105 m 9 X s 1438 116 m 9 X s 1438 128 m 9 X s 1430 139 m 17 X s 1438 151 m 9 X s 1438 162 m 9 X s 1438 174
 m 9 X s 1430 185 m 17 X s 1438 197 m 9 X s 1438 208 m 9 X s 1438 220 m 9 X s 1430 232 m 17 X s 1438 243 m 9 X s 1438 255 m 9 X s 1438 266 m 9 X s 1430 278 m 17 X s 1438 289 m 9 X s 1438 301 m 9 X s 1438 312 m 9 X s 1430 324 m 17 X s 1438 335 m 9 X s
 1438 347 m 9 X s 1438 358 m 9 X s 1430 370 m 17 X s 1438 381 m 9 X s 1438 393 m 9 X s 1438 404 m 9 X s 1430 416 m 17 X s 1438 427 m 9 X s 1438 439 m 9 X s 1438 450 m 9 X s 1430 462 m 17 X s 1438 473 m 9 X s 1438 485 m 9 X s 1438 496 m 9 X s 1430 508
 m 17 X s 1430 508 m 17 X s 1438 519 m 9 X s 1 0 0 c 6 lw black 3 lw 1 0 0 c 1433 93 m s 1418 93 m s 1403 93 m s 1388 93 m s 1372 93 m s 1357 93 m s 1342 93 m s 1327 93 m s 1312 93 m s 1297 93 m s 1282 93 m s 1267 93 m s 1252 93 m s 1237 93 m s 1222
 93 m s 1214 101 m -7 -8 d s 1211 113 m -11 -11 d s 1192 93 m s 1176 93 m s 1173 105 m -12 -12 d s 1173 120 m -27 -27 d s 1173 135 m -42 -42 d s 1173 150 m -57 -57 d s 1173 165 m -72 -72 d s 1161 168 m -75 -75 d s 1159 182 m -88 -89 d s 1159 197 m
 -103 -104 d s 1159 212 m -118 -119 d s 1159 227 m -13 -14 d s 1138 205 m -88 -88 d s 1045 112 m -9 -8 d s 1026 93 m s 1159 242 m -13 -14 d s 1132 215 m -82 -82 d s 1011 93 m s 1159 257 m -13 -13 d s 1125 223 m -48 -48 d s 1070 168 m -20 -20 d s 996
 93 m s 1159 272 m -13 -13 d s 1118 231 m -41 -41 d s 1064 176 m -14 -13 d s 981 93 m s 1159 288 m -13 -14 d s 1118 246 m -41 -41 d s 1059 187 m -9 -9 d s 965 93 m cl s 1159 303 m -13 -14 d s 1118 261 m -41 -41 d s 950 93 m s 1158 317 m -12 -13 d s
 1118 277 m -41 -42 d s 935 93 m cl s 1118 292 m -27 -28 d s 1089 263 m -12 -12 d s 920 93 m cl s 1109 297 m -18 -18 d s 905 93 m s 1105 308 m -14 -14 d s 1105 323 m -14 -13 d s 1105 338 m -14 -13 d s 1105 354 m -14 -14 d s 1105 369 m -14 -14 d s
 1105 384 m -14 -14 d s 1105 399 m -14 -14 d s 1105 414 m -14 -14 d s 1103 428 m -12 -13 d s 6 lw 899 93 m 137 X 19 Y 14 X 75 Y 14 X -19 Y 13 X 95 Y 14 X 165 Y 14 X -131 Y 13 X -74 Y 14 X -18 Y 14 X 112 Y 13 X -149 Y 14 X -75 Y 27 X 20 Y 14 X -20 Y
 233 X s black 3 lw 899 93 m 548 X s 943 106 m -13 Y s 960 100 m -7 Y s 977 100 m -7 Y s 994 100 m -7 Y s 1012 100 m -7 Y s 1029 106 m -13 Y s 1046 100 m -7 Y s 1063 100 m -7 Y s 1081 100 m -7 Y s 1098 100 m -7 Y s 1115 106 m -13 Y s 1133 100 m -7 Y
 s 1150 100 m -7 Y s 1167 100 m -7 Y s 1184 100 m -7 Y s 1202 106 m -13 Y s 1219 100 m -7 Y s 1236 100 m -7 Y s 1253 100 m -7 Y s 1271 100 m -7 Y s 1288 106 m -13 Y s 1305 100 m -7 Y s 1322 100 m -7 Y s 1340 100 m -7 Y s 1357 100 m -7 Y s 1374 106 m
 -13 Y s 943 106 m -13 Y s 925 100 m -7 Y s 908 100 m -7 Y s 1374 106 m -13 Y s 1392 100 m -7 Y s 1409 100 m -7 Y s 1426 100 m -7 Y s 1443 100 m -7 Y s 899 521 m 548 X s 943 508 m 13 Y s 960 515 m 6 Y s 977 515 m 6 Y s 994 515 m 6 Y s 1012 515 m 6 Y
 s 1029 508 m 13 Y s 1046 515 m 6 Y s 1063 515 m 6 Y s 1081 515 m 6 Y s 1098 515 m 6 Y s 1115 508 m 13 Y s 1133 515 m 6 Y s 1150 515 m 6 Y s 1167 515 m 6 Y s 1184 515 m 6 Y s 1202 508 m 13 Y s 1219 515 m 6 Y s 1236 515 m 6 Y s 1253 515 m 6 Y s 1271
 515 m 6 Y s 1288 508 m 13 Y s 1305 515 m 6 Y s 1322 515 m 6 Y s 1340 515 m 6 Y s 1357 515 m 6 Y s 1374 508 m 13 Y s 943 508 m 13 Y s 925 515 m 6 Y s 908 515 m 6 Y s 1374 508 m 13 Y s 1392 515 m 6 Y s 1409 515 m 6 Y s 1426 515 m 6 Y s 1443 515 m 6 Y
 s 899 93 m 428 Y s 915 93 m -16 X s 907 105 m -8 X s 907 116 m -8 X s 907 128 m -8 X s 915 139 m -16 X s 907 151 m -8 X s 907 162 m -8 X s 907 174 m -8 X s 915 185 m -16 X s 907 197 m -8 X s 907 208 m -8 X s 907 220 m -8 X s 915 232 m -16 X s 907
 243 m -8 X s 907 255 m -8 X s 907 266 m -8 X s 915 278 m -16 X s 907 289 m -8 X s 907 301 m -8 X s 907 312 m -8 X s 915 324 m -16 X s 907 335 m -8 X s 907 347 m -8 X s 907 358 m -8 X s 915 370 m -16 X s 907 381 m -8 X s 907 393 m -8 X s 907 404 m -8
 X s 915 416 m -16 X s 907 427 m -8 X s 907 439 m -8 X s 907 450 m -8 X s 915 462 m -16 X s 907 473 m -8 X s 907 485 m -8 X s 907 496 m -8 X s 915 508 m -16 X s 915 508 m -16 X s 907 519 m -8 X s 1447 93 m 428 Y s 1430 93 m 17 X s 1438 105 m 9 X s
 1438 116 m 9 X s 1438 128 m 9 X s 1430 139 m 17 X s 1438 151 m 9 X s 1438 162 m 9 X s 1438 174 m 9 X s 1430 185 m 17 X s 1438 197 m 9 X s 1438 208 m 9 X s 1438 220 m 9 X s 1430 232 m 17 X s 1438 243 m 9 X s 1438 255 m 9 X s 1438 266 m 9 X s 1430 278
 m 17 X s 1438 289 m 9 X s 1438 301 m 9 X s 1438 312 m 9 X s 1430 324 m 17 X s 1438 335 m 9 X s 1438 347 m 9 X s 1438 358 m 9 X s 1430 370 m 17 X s 1438 381 m 9 X s 1438 393 m 9 X s 1438 404 m 9 X s 1430 416 m 17 X s 1438 427 m 9 X s 1438 439 m 9 X s
 1438 450 m 9 X s 1430 462 m 17 X s 1438 473 m 9 X s 1438 485 m 9 X s 1438 496 m 9 X s 1430 508 m 17 X s 1430 508 m 17 X s 1438 519 m 9 X s
 gsave  710 566 779 12 C 1474.92 91.0528 t 90 r /Helvetica-Bold findfont 20.0147 sf 0 0 m (U/O\255flow \(S,B\): \(0.0, 0.0\)% / \(0.0, 0.0\)%) show NC gr  0.490196 0.545098 0.615686 c 0.364706 0.419608 0.490196 c 404 38 786 537 bf 0.490196 0.545098
 0.615686 c 786 537 m 404 X s 1190 537 m 38 Y s 1190 575 m -404 X s 786 575 m -38 Y s 1 1 1 c black 1 1 1 c
 gsave  710 566 779 12 C 789.143 549.836 t 0 r /Helvetica-Bold findfont 28.5925 sf 0 0 m (Input variable: GTND_stocks) show NC gr  0.490196 0.545098 0.615686 c 0.941176 0.941176 0.941176 c 711 566 1534 12 bf black 1 1 0.992157 c 547 428 1655 93 bf
 black 547 428 1655 93 bl 1 1 0.992157 c 547 428 1655 93 bf black 547 428 1655 93 bl 0 0 0.933333 c 6 lw 0.49 0.6 0.82 c black 3 lw 0.49 0.6 0.82 c 1655 93 m 21 Y 14 X -21 Y 27 X 45 Y 14 X -24 Y 14 X 21 Y 13 X 145 Y 14 X 2 Y 14 X 40 Y 13 X -22 Y 14 X
 -186 Y 14 X 21 Y 13 X -21 Y 14 X -21 Y 14 X 41 Y 13 X 22 Y 14 X -63 Y 41 X 21 Y 14 X -21 Y 14 X 23 Y 13 X -23 Y 246 X f 6 lw 0 0 0.933333 c 0.49 0.6 0.82 c 0 0 0.933333 c 1655 114 m 14 X -21 Y 27 X 45 Y 14 X -24 Y 14 X 21 Y 13 X 145 Y 14 X 2 Y 14 X
 40 Y 13 X -22 Y 14 X -186 Y 14 X 21 Y 13 X -21 Y 14 X -21 Y 14 X 41 Y 13 X 22 Y 14 X -63 Y 41 X 21 Y 14 X -21 Y 14 X 23 Y 13 X -23 Y 246 X s black 3 lw 1655 93 m 547 X s
 gsave  711 566 1534 12 C 2008.47 22.7911 t 0 r /Helvetica findfont 28.5925 sf 0 0 m (GTND_terrorist) show NC gr  1688 106 m -13 Y s 1706 100 m -7 Y s 1723 100 m -7 Y s 1741 100 m -7 Y s 1759 100 m -7 Y s 1777 106 m -13 Y s 1795 100 m -7 Y s 1812 100
 m -7 Y s 1830 100 m -7 Y s 1848 100 m -7 Y s 1866 106 m -13 Y s 1884 100 m -7 Y s 1901 100 m -7 Y s 1919 100 m -7 Y s 1937 100 m -7 Y s 1955 106 m -13 Y s 1973 100 m -7 Y s 1990 100 m -7 Y s 2008 100 m -7 Y s 2026 100 m -7 Y s 2044 106 m -13 Y s
 2062 100 m -7 Y s 2079 100 m -7 Y s 2097 100 m -7 Y s 2115 100 m -7 Y s 2133 106 m -13 Y s 1688 106 m -13 Y s 1670 100 m -7 Y s 2133 106 m -13 Y s 2151 100 m -7 Y s 2168 100 m -7 Y s 2186 100 m -7 Y s
 gsave  711 566 1534 12 C 1666.6 65.5245 t 0 r /Helvetica findfont 25.7332 sf 0 0 m (\25510) show NC gr 
 gsave  711 566 1534 12 C 1766.31 65.5245 t 0 r /Helvetica findfont 25.7332 sf 0 0 m (0) show NC gr 
 gsave  711 566 1534 12 C 1848.93 65.5245 t 0 r /Helvetica findfont 25.7332 sf 0 0 m (10) show NC gr 
 gsave  711 566 1534 12 C 1940.09 65.5245 t 0 r /Helvetica findfont 25.7332 sf 0 0 m (20) show NC gr 
 gsave  711 566 1534 12 C 2028.41 65.5245 t 0 r /Helvetica findfont 25.7332 sf 0 0 m (30) show NC gr 
 gsave  711 566 1534 12 C 2116.73 65.5245 t 0 r /Helvetica findfont 25.7332 sf 0 0 m (40) show NC gr  1655 521 m 547 X s 1688 508 m 13 Y s 1706 515 m 6 Y s 1723 515 m 6 Y s 1741 515 m 6 Y s 1759 515 m 6 Y s 1777 508 m 13 Y s 1795 515 m 6 Y s 1812 515
 m 6 Y s 1830 515 m 6 Y s 1848 515 m 6 Y s 1866 508 m 13 Y s 1884 515 m 6 Y s 1901 515 m 6 Y s 1919 515 m 6 Y s 1937 515 m 6 Y s 1955 508 m 13 Y s 1973 515 m 6 Y s 1990 515 m 6 Y s 2008 515 m 6 Y s 2026 515 m 6 Y s 2044 508 m 13 Y s 2062 515 m 6 Y s
 2079 515 m 6 Y s 2097 515 m 6 Y s 2115 515 m 6 Y s 2133 508 m 13 Y s 1688 508 m 13 Y s 1670 515 m 6 Y s 2133 508 m 13 Y s 2151 515 m 6 Y s 2168 515 m 6 Y s 2186 515 m 6 Y s 1655 93 m 428 Y s
 gsave  711 566 1534 12 C 1558.34 455.822 t 90 r /Helvetica findfont 28.5925 sf 0 0 m (1.54 ) show NC gr 
 gsave  711 566 1534 12 C 1544.1 450.125 t 90 r /Helvetica findfont 20.0147 sf 0 0 m ( ) show NC gr 
 gsave  711 566 1534 12 C 1558.34 438.729 t 90 r /Helvetica findfont 28.5925 sf 0 0 m (/) show NC gr 
 gsave  711 566 1534 12 C 1566.89 433.031 t 90 r /Helvetica findfont 20.0147 sf 0 0 m ( ) show NC gr 
 gsave  711 566 1534 12 C 1558.34 324.773 t 90 r /Helvetica findfont 28.5925 sf 0 0 m (\(1/N\) dN) show NC gr  1671 93 m -16 X s 1663 102 m -8 X s 1663 111 m -8 X s 1663 120 m -8 X s 1671 129 m -16 X s 1663 138 m -8 X s 1663 147 m -8 X s 1663 156 m
 -8 X s 1671 165 m -16 X s 1663 174 m -8 X s 1663 183 m -8 X s 1663 192 m -8 X s 1671 201 m -16 X s 1663 210 m -8 X s 1663 219 m -8 X s 1663 228 m -8 X s 1671 237 m -16 X s 1663 246 m -8 X s 1663 255 m -8 X s 1663 264 m -8 X s 1671 273 m -16 X s 1663
 282 m -8 X s 1663 291 m -8 X s 1663 300 m -8 X s 1671 309 m -16 X s 1663 318 m -8 X s 1663 327 m -8 X s 1663 336 m -8 X s 1671 345 m -16 X s 1663 354 m -8 X s 1663 363 m -8 X s 1663 372 m -8 X s 1671 381 m -16 X s 1663 389 m -8 X s 1663 398 m -8 X s
 1663 407 m -8 X s 1671 416 m -16 X s 1663 425 m -8 X s 1663 434 m -8 X s 1663 443 m -8 X s 1671 452 m -16 X s 1663 461 m -8 X s 1663 470 m -8 X s 1663 479 m -8 X s 1671 488 m -16 X s 1671 488 m -16 X s 1663 497 m -8 X s 1663 506 m -8 X s 1663 515 m
 -8 X s
 gsave  711 566 1534 12 C 1632.41 82.6178 t 0 r /Helvetica findfont 25.7332 sf 0 0 m (0) show NC gr 
 gsave  711 566 1534 12 C 1595.38 119.653 t 0 r /Helvetica findfont 25.7332 sf 0 0 m (0.02) show NC gr 
 gsave  711 566 1534 12 C 1595.38 153.84 t 0 r /Helvetica findfont 25.7332 sf 0 0 m (0.04) show NC gr 
 gsave  711 566 1534 12 C 1595.38 190.876 t 0 r /Helvetica findfont 25.7332 sf 0 0 m (0.06) show NC gr 
 gsave  711 566 1534 12 C 1595.38 227.911 t 0 r /Helvetica findfont 25.7332 sf 0 0 m (0.08) show NC gr 
 gsave  711 566 1534 12 C 1615.32 262.098 t 0 r /Helvetica findfont 25.7332 sf 0 0 m (0.1) show NC gr 
 gsave  711 566 1534 12 C 1595.38 299.133 t 0 r /Helvetica findfont 25.7332 sf 0 0 m (0.12) show NC gr 
 gsave  711 566 1534 12 C 1595.38 333.32 t 0 r /Helvetica findfont 25.7332 sf 0 0 m (0.14) show NC gr 
 gsave  711 566 1534 12 C 1595.38 370.356 t 0 r /Helvetica findfont 25.7332 sf 0 0 m (0.16) show NC gr 
 gsave  711 566 1534 12 C 1595.38 407.391 t 0 r /Helvetica findfont 25.7332 sf 0 0 m (0.18) show NC gr 
 gsave  711 566 1534 12 C 1609.62 441.578 t 0 r /Helvetica findfont 25.7332 sf 0 0 m (0.2) show NC gr 
 gsave  711 566 1534 12 C 1595.38 478.614 t 0 r /Helvetica findfont 25.7332 sf 0 0 m (0.22) show NC gr  2202 93 m 428 Y s 2186 93 m 16 X s 2194 102 m 8 X s 2194 111 m 8 X s 2194 120 m 8 X s 2186 129 m 16 X s 2194 138 m 8 X s 2194 147 m 8 X s 2194 156
 m 8 X s 2186 165 m 16 X s 2194 174 m 8 X s 2194 183 m 8 X s 2194 192 m 8 X s 2186 201 m 16 X s 2194 210 m 8 X s 2194 219 m 8 X s 2194 228 m 8 X s 2186 237 m 16 X s 2194 246 m 8 X s 2194 255 m 8 X s 2194 264 m 8 X s 2186 273 m 16 X s 2194 282 m 8 X s
 2194 291 m 8 X s 2194 300 m 8 X s 2186 309 m 16 X s 2194 318 m 8 X s 2194 327 m 8 X s 2194 336 m 8 X s 2186 345 m 16 X s 2194 354 m 8 X s 2194 363 m 8 X s 2194 372 m 8 X s 2186 381 m 16 X s 2194 389 m 8 X s 2194 398 m 8 X s 2194 407 m 8 X s 2186 416
 m 16 X s 2194 425 m 8 X s 2194 434 m 8 X s 2194 443 m 8 X s 2186 452 m 16 X s 2194 461 m 8 X s 2194 470 m 8 X s 2194 479 m 8 X s 2186 488 m 16 X s 2186 488 m 16 X s 2194 497 m 8 X s 2194 506 m 8 X s 2194 515 m 8 X s 1 0 0 c 6 lw black 3 lw 1 0 0 c
 2202 108 m -13 -14 d s 2188 93 m s 2173 93 m s 2158 93 m s 2143 93 m s 2128 93 m s 2113 93 m s 2098 93 m s 2083 93 m s 2068 93 m s 2053 93 m s 2038 94 m -1 Y s 2037 108 m -12 -13 d s 2022 93 m s 2007 93 m s 1992 93 m s 1984 100 m -7 -7 d s 1977 108
 m -7 -7 d s 1962 93 m s 1947 93 m s 1932 93 m s 1917 93 m s 1902 93 m s 1901 108 m -13 -14 d s 1887 93 m s 1874 96 m -2 -3 d s 1872 108 m -12 -11 d s 1857 93 m cl s 1847 99 m -5 -6 d s 1842 108 m -15 -15 d s 1833 115 m -22 -22 d s 1833 130 m -37 -37
 d s 1826 138 m -45 -45 d s 1819 147 m -53 -54 d s 1811 154 m -60 -61 d s 1795 153 m -59 -60 d s 1792 165 m -71 -72 d s 1792 180 m -68 -69 d s 1721 108 m -11 -11 d s 1706 93 m cl s 1792 195 m -68 -69 d s 1696 99 m -5 -6 d s 1792 210 m -55 -55 d s
 1736 154 m -12 -13 d s 1691 108 m -8 -8 d s 1676 93 m s 1792 225 m -55 -55 d s 1669 102 m -8 -9 d s 1792 241 m -27 -28 d s 1764 213 m -27 -27 d s 1660 108 m -5 -5 d s 1779 242 m -14 -14 d s 1751 214 m -14 -13 d s 1778 257 m -13 -14 d s 1751 230 m
 -14 -14 d s 1778 272 m -13 -13 d s 1749 243 m -12 -12 d s 1778 287 m -13 -13 d s 1778 303 m -13 -14 d s 1778 318 m -13 -14 d s 1778 333 m -13 -14 d s 1778 348 m -13 -14 d s 1778 363 m -13 -13 d s 1778 378 m -13 -13 d s 1778 394 m -13 -14 d s 1778
 409 m -13 -14 d s 1778 424 m -13 -14 d s 1778 439 m -13 -14 d s 1778 454 m -13 -13 d s 1778 469 m -13 -13 d s 1776 482 m -11 -11 d s 6 lw 1655 108 m 14 X -15 Y 14 X 15 Y 13 X -15 Y 14 X 15 Y 14 X 46 Y 13 X 89 Y 14 X -30 Y 14 X 269 Y 13 X -240 Y 14 X
 -89 Y 14 X 1 Y 13 X -16 Y 14 X -30 Y 14 X -15 Y 13 X 15 Y 14 X -15 Y 14 X 16 Y 13 X -16 Y 69 X 15 Y 14 X -15 Y 41 X 15 Y 13 X -15 Y 151 X 15 Y 13 X s black 3 lw 1655 93 m 547 X s 1688 106 m -13 Y s 1706 100 m -7 Y s 1723 100 m -7 Y s 1741 100 m -7 Y
 s 1759 100 m -7 Y s 1777 106 m -13 Y s 1795 100 m -7 Y s 1812 100 m -7 Y s 1830 100 m -7 Y s 1848 100 m -7 Y s 1866 106 m -13 Y s 1884 100 m -7 Y s 1901 100 m -7 Y s 1919 100 m -7 Y s 1937 100 m -7 Y s 1955 106 m -13 Y s 1973 100 m -7 Y s 1990 100 m
 -7 Y s 2008 100 m -7 Y s 2026 100 m -7 Y s 2044 106 m -13 Y s 2062 100 m -7 Y s 2079 100 m -7 Y s 2097 100 m -7 Y s 2115 100 m -7 Y s 2133 106 m -13 Y s 1688 106 m -13 Y s 1670 100 m -7 Y s 2133 106 m -13 Y s 2151 100 m -7 Y s 2168 100 m -7 Y s 2186
 100 m -7 Y s 1655 521 m 547 X s 1688 508 m 13 Y s 1706 515 m 6 Y s 1723 515 m 6 Y s 1741 515 m 6 Y s 1759 515 m 6 Y s 1777 508 m 13 Y s 1795 515 m 6 Y s 1812 515 m 6 Y s 1830 515 m 6 Y s 1848 515 m 6 Y s 1866 508 m 13 Y s 1884 515 m 6 Y s 1901 515 m
 6 Y s 1919 515 m 6 Y s 1937 515 m 6 Y s 1955 508 m 13 Y s 1973 515 m 6 Y s 1990 515 m 6 Y s 2008 515 m 6 Y s 2026 515 m 6 Y s 2044 508 m 13 Y s 2062 515 m 6 Y s 2079 515 m 6 Y s 2097 515 m 6 Y s 2115 515 m 6 Y s 2133 508 m 13 Y s 1688 508 m 13 Y s
 1670 515 m 6 Y s 2133 508 m 13 Y s 2151 515 m 6 Y s 2168 515 m 6 Y s 2186 515 m 6 Y s 1655 93 m 428 Y s 1671 93 m -16 X s 1663 102 m -8 X s 1663 111 m -8 X s 1663 120 m -8 X s 1671 129 m -16 X s 1663 138 m -8 X s 1663 147 m -8 X s 1663 156 m -8 X s
 1671 165 m -16 X s 1663 174 m -8 X s 1663 183 m -8 X s 1663 192 m -8 X s 1671 201 m -16 X s 1663 210 m -8 X s 1663 219 m -8 X s 1663 228 m -8 X s 1671 237 m -16 X s 1663 246 m -8 X s 1663 255 m -8 X s 1663 264 m -8 X s 1671 273 m -16 X s 1663 282 m
 -8 X s 1663 291 m -8 X s 1663 300 m -8 X s 1671 309 m -16 X s 1663 318 m -8 X s 1663 327 m -8 X s 1663 336 m -8 X s 1671 345 m -16 X s 1663 354 m -8 X s 1663 363 m -8 X s 1663 372 m -8 X s 1671 381 m -16 X s 1663 389 m -8 X s 1663 398 m -8 X s 1663
 407 m -8 X s 1671 416 m -16 X s 1663 425 m -8 X s 1663 434 m -8 X s 1663 443 m -8 X s 1671 452 m -16 X s 1663 461 m -8 X s 1663 470 m -8 X s 1663 479 m -8 X s 1671 488 m -16 X s 1671 488 m -16 X s 1663 497 m -8 X s 1663 506 m -8 X s 1663 515 m -8 X
 s 2202 93 m 428 Y s 2186 93 m 16 X s 2194 102 m 8 X s 2194 111 m 8 X s 2194 120 m 8 X s 2186 129 m 16 X s 2194 138 m 8 X s 2194 147 m 8 X s 2194 156 m 8 X s 2186 165 m 16 X s 2194 174 m 8 X s 2194 183 m 8 X s 2194 192 m 8 X s 2186 201 m 16 X s 2194
 210 m 8 X s 2194 219 m 8 X s 2194 228 m 8 X s 2186 237 m 16 X s 2194 246 m 8 X s 2194 255 m 8 X s 2194 264 m 8 X s 2186 273 m 16 X s 2194 282 m 8 X s 2194 291 m 8 X s 2194 300 m 8 X s 2186 309 m 16 X s 2194 318 m 8 X s 2194 327 m 8 X s 2194 336 m 8
 X s 2186 345 m 16 X s 2194 354 m 8 X s 2194 363 m 8 X s 2194 372 m 8 X s 2186 381 m 16 X s 2194 389 m 8 X s 2194 398 m 8 X s 2194 407 m 8 X s 2186 416 m 16 X s 2194 425 m 8 X s 2194 434 m 8 X s 2194 443 m 8 X s 2186 452 m 16 X s 2194 461 m 8 X s
 2194 470 m 8 X s 2194 479 m 8 X s 2186 488 m 16 X s 2186 488 m 16 X s 2194 497 m 8 X s 2194 506 m 8 X s 2194 515 m 8 X s
 gsave  711 566 1534 12 C 2230.83 91.0528 t 90 r /Helvetica-Bold findfont 20.0147 sf 0 0 m (U/O\255flow \(S,B\): \(0.0, 0.0\)% / \(0.0, 0.0\)%) show NC gr  0.490196 0.545098 0.615686 c 0.364706 0.419608 0.490196 c 424 38 1542 537 bf 0.490196 0.545098
 0.615686 c 1542 537 m 424 X s 1966 537 m 38 Y s 1966 575 m -424 X s 1542 575 m -38 Y s 1 1 1 c black 1 1 1 c
 gsave  711 566 1534 12 C 1546.95 549.836 t 0 r /Helvetica-Bold findfont 28.5925 sf 0 0 m (Input variable: GTND_terrorist) show NC gr 
 gr  gr showpage
end
%%EOF
