%!PS-Adobe-2.0 EPSF-2.0
%%BoundingBox:  0 0 567 420
%%Title: plots/mva_PDERSPCA.eps: TMVA response PDERSPCA
%%Creator: ROOT Version 5.34/09
%%CreationDate: Wed Dec 18 11:45:32 2013
%%EndComments
%%BeginProlog
80 dict begin
/s {stroke} def /l {lineto} def /m {moveto} def /t {translate} def
/r {rotate} def /rl {roll}  def /R {repeat} def
/d {rlineto} def /rm {rmoveto} def /gr {grestore} def /f {eofill} def
/c {setrgbcolor} def /black {0 setgray} def /sd {setdash} def
/cl {closepath} def /sf {scalefont setfont} def /lw {setlinewidth} def
/box {m dup 0 exch d exch 0 d 0 exch neg d cl} def
/NC{systemdict begin initclip end}def/C{NC box clip newpath}def
/bl {box s} def /bf {box f} def /Y { 0 exch d} def /X { 0 d} def 
/K {{pop pop 0 moveto} exch kshow} bind def
/ita {/ang 15 def gsave [1 0 ang dup sin exch cos div 1 0 0] concat} def 
/mp {newpath /y exch def /x exch def} def
/side {[w .77 mul w .23 mul] .385 w mul sd w 0 l currentpoint t -144 r} def
/mr {mp x y w2 0 360 arc} def /m24 {mr s} def /m20 {mr f} def
/mb {mp x y w2 add m w2 neg 0 d 0 w neg d w 0 d 0 w d cl} def
/mt {mp x y w2 add m w2 neg w neg d w 0 d cl} def
/m21 {mb f} def /m25 {mb s} def /m22 {mt f} def /m26{mt s} def
/m23 {mp x y w2 sub m w2 w d w neg 0 d cl f} def
/m27 {mp x y w2 add m w3 neg w2 neg d w3 w2 neg d w3 w2 d cl s} def
/m28 {mp x w2 sub y w2 sub w3 add m w3 0 d  0 w3 neg d w3 0 d 0 w3 d w3 0 d  0 w3 d w3 neg 0 d 0 w3 d w3 neg 0 d 0 w3 neg d w3 neg 0 d cl s } def
/m29 {mp gsave x w2 sub y w2 add w3 sub m currentpoint t 4 {side} repeat cl fill gr} def
/m30 {mp gsave x w2 sub y w2 add w3 sub m currentpoint t 4 {side} repeat cl s gr} def
/m31 {mp x y w2 sub m 0 w d x w2 sub y m w 0 d x w2 sub y w2 add m w w neg d x w2 sub y w2 sub m w w d s} def
/m32 {mp x y w2 sub m w2 w d w neg 0 d cl s} def
/m33 {mp x y w2 add m w3 neg w2 neg d w3 w2 neg d w3 w2 d cl f} def
/m34 {mp x w2 sub y w2 sub w3 add m w3 0 d  0 w3 neg d w3 0 d 0 w3 d w3 0 d  0 w3 d w3 neg 0 d 0 w3 d w3 neg 0 d 0 w3 neg d w3 neg 0 d cl f } def
/m2 {mp x y w2 sub m 0 w d x w2 sub y m w 0 d s} def
/m5 {mp x w2 sub y w2 sub m w w d x w2 sub y w2 add m w w neg d s} def
/reEncode {exch findfont dup length dict begin {1 index /FID eq  {pop pop} {def} ifelse } forall /Encoding exch def currentdict end dup /FontName get exch definefont pop } def [/Times-Bold /Times-Italic /Times-BoldItalic /Helvetica /Helvetica-Oblique
 /Helvetica-Bold /Helvetica-BoldOblique /Courier /Courier-Oblique /Courier-Bold /Courier-BoldOblique /Times-Roman /AvantGarde-Book /AvantGarde-BookOblique /AvantGarde-Demi /AvantGarde-DemiOblique /Bookman-Demi /Bookman-DemiItalic /Bookman-Light
 /Bookman-LightItalic /Helvetica-Narrow /Helvetica-Narrow-Bold /Helvetica-Narrow-BoldOblique /Helvetica-Narrow-Oblique /NewCenturySchlbk-Roman /NewCenturySchlbk-Bold /NewCenturySchlbk-BoldItalic /NewCenturySchlbk-Italic /Palatino-Bold
 /Palatino-BoldItalic /Palatino-Italic /Palatino-Roman ] {ISOLatin1Encoding reEncode } forall
%%EndProlog
%%BeginSetup
%%EndSetup
newpath  gsave  .25 .25 scale  gsave  0 0 t 0.490196 0.545098 0.615686 c[  ] 0 sd 3 lw 0.941176 0.941176 0.941176 c 2268 1682 0 0 bf black 1 1 0.992157 c 1916 1312 238 202 bf black 1916 1312 238 202 bl 1 1 0.992157 c 1916 1312 238 202 bf black 1916
 1312 238 202 bl 238 202 m 1916 X s
 gsave  2268 1682 0 0 C 1411.62 30.4391 t 0 r /Helvetica-Bold findfont 72.293 sf 0 0 m (PDERSPCA response) show NC gr  238 244 m -42 Y s 279 223 m -21 Y s 321 223 m -21 Y s 362 223 m -21 Y s 403 223 m -21 Y s 444 244 m -42 Y s 486 223 m -21 Y s 527
 223 m -21 Y s 568 223 m -21 Y s 609 223 m -21 Y s 651 244 m -42 Y s 692 223 m -21 Y s 733 223 m -21 Y s 774 223 m -21 Y s 816 223 m -21 Y s 857 244 m -42 Y s 898 223 m -21 Y s 939 223 m -21 Y s 980 223 m -21 Y s 1022 223 m -21 Y s 1063 244 m -42 Y s
 1104 223 m -21 Y s 1145 223 m -21 Y s 1187 223 m -21 Y s 1228 223 m -21 Y s 1269 244 m -42 Y s 1310 223 m -21 Y s 1352 223 m -21 Y s 1393 223 m -21 Y s 1434 223 m -21 Y s 1475 244 m -42 Y s 1517 223 m -21 Y s 1558 223 m -21 Y s 1599 223 m -21 Y s
 1640 223 m -21 Y s 1682 244 m -42 Y s 1723 223 m -21 Y s 1764 223 m -21 Y s 1805 223 m -21 Y s 1847 223 m -21 Y s 1888 244 m -42 Y s 1929 223 m -21 Y s 1970 223 m -21 Y s 2012 223 m -21 Y s 2053 223 m -21 Y s 2094 244 m -42 Y s 2094 244 m -42 Y s
 2135 223 m -21 Y s
 gsave  2268 1682 0 0 C 216.879 129.366 t 0 r /Helvetica-Bold findfont 64.6832 sf 0 0 m (0) show NC gr 
 gsave  2268 1682 0 0 C 399.514 129.366 t 0 r /Helvetica-Bold findfont 64.6832 sf 0 0 m (0.1) show NC gr 
 gsave  2268 1682 0 0 C 601.173 129.366 t 0 r /Helvetica-Bold findfont 64.6832 sf 0 0 m (0.2) show NC gr 
 gsave  2268 1682 0 0 C 810.442 129.366 t 0 r /Helvetica-Bold findfont 64.6832 sf 0 0 m (0.3) show NC gr 
 gsave  2268 1682 0 0 C 1015.91 129.366 t 0 r /Helvetica-Bold findfont 64.6832 sf 0 0 m (0.4) show NC gr 
 gsave  2268 1682 0 0 C 1221.37 129.366 t 0 r /Helvetica-Bold findfont 64.6832 sf 0 0 m (0.5) show NC gr 
 gsave  2268 1682 0 0 C 1426.84 129.366 t 0 r /Helvetica-Bold findfont 64.6832 sf 0 0 m (0.6) show NC gr 
 gsave  2268 1682 0 0 C 1632.3 129.366 t 0 r /Helvetica-Bold findfont 64.6832 sf 0 0 m (0.7) show NC gr 
 gsave  2268 1682 0 0 C 1841.57 129.366 t 0 r /Helvetica-Bold findfont 64.6832 sf 0 0 m (0.8) show NC gr 
 gsave  2268 1682 0 0 C 2047.03 129.366 t 0 r /Helvetica-Bold findfont 64.6832 sf 0 0 m (0.9) show NC gr  238 1514 m 1916 X s 238 1471 m 43 Y s 279 1492 m 22 Y s 321 1492 m 22 Y s 362 1492 m 22 Y s 403 1492 m 22 Y s 444 1471 m 43 Y s 486 1492 m 22 Y
 s 527 1492 m 22 Y s 568 1492 m 22 Y s 609 1492 m 22 Y s 651 1471 m 43 Y s 692 1492 m 22 Y s 733 1492 m 22 Y s 774 1492 m 22 Y s 816 1492 m 22 Y s 857 1471 m 43 Y s 898 1492 m 22 Y s 939 1492 m 22 Y s 980 1492 m 22 Y s 1022 1492 m 22 Y s 1063 1471 m
 43 Y s 1104 1492 m 22 Y s 1145 1492 m 22 Y s 1187 1492 m 22 Y s 1228 1492 m 22 Y s 1269 1471 m 43 Y s 1310 1492 m 22 Y s 1352 1492 m 22 Y s 1393 1492 m 22 Y s 1434 1492 m 22 Y s 1475 1471 m 43 Y s 1517 1492 m 22 Y s 1558 1492 m 22 Y s 1599 1492 m 22
 Y s 1640 1492 m 22 Y s 1682 1471 m 43 Y s 1723 1492 m 22 Y s 1764 1492 m 22 Y s 1805 1492 m 22 Y s 1847 1492 m 22 Y s 1888 1471 m 43 Y s 1929 1492 m 22 Y s 1970 1492 m 22 Y s 2012 1492 m 22 Y s 2053 1492 m 22 Y s 2094 1471 m 43 Y s 2094 1471 m 43 Y
 s 2135 1492 m 22 Y s 238 202 m 1312 Y s
 gsave  2268 1682 0 0 C 64.6832 1430.64 t 90 r /Helvetica-Bold findfont 72.293 sf 0 0 m (dx) show NC gr 
 gsave  2268 1682 0 0 C 30.4391 1411.62 t 90 r /Helvetica-Bold findfont 45.6587 sf 0 0 m ( ) show NC gr 
 gsave  2268 1682 0 0 C 64.6832 1388.79 t 90 r /Helvetica-Bold findfont 72.293 sf 0 0 m (/) show NC gr 
 gsave  2268 1682 0 0 C 30.4391 1369.76 t 90 r /Helvetica-Bold findfont 45.6587 sf 0 0 m ( ) show NC gr 
 gsave  2268 1682 0 0 C 60.8783 1095.81 t 90 r /Helvetica-Bold findfont 72.293 sf 0 0 m (\(1/N\) dN) show NC gr  291 202 m -53 X s 265 237 m -27 X s 265 272 m -27 X s 265 307 m -27 X s 265 342 m -27 X s 291 377 m -53 X s 265 412 m -27 X s 265 447 m
 -27 X s 265 482 m -27 X s 265 517 m -27 X s 291 553 m -53 X s 265 588 m -27 X s 265 623 m -27 X s 265 658 m -27 X s 265 693 m -27 X s 291 728 m -53 X s 265 763 m -27 X s 265 798 m -27 X s 265 833 m -27 X s 265 868 m -27 X s 291 903 m -53 X s 265 938
 m -27 X s 265 973 m -27 X s 265 1009 m -27 X s 265 1044 m -27 X s 291 1079 m -53 X s 265 1114 m -27 X s 265 1149 m -27 X s 265 1184 m -27 X s 265 1219 m -27 X s 291 1254 m -53 X s 265 1289 m -27 X s 265 1324 m -27 X s 265 1359 m -27 X s 265 1394 m
 -27 X s 291 1429 m -53 X s 291 1429 m -53 X s 265 1464 m -27 X s 265 1500 m -27 X s
 gsave  2268 1682 0 0 C 175.025 178.83 t 0 r /Helvetica-Bold findfont 64.6832 sf 0 0 m (0) show NC gr 
 gsave  2268 1682 0 0 C 182.635 353.855 t 0 r /Helvetica-Bold findfont 64.6832 sf 0 0 m (1) show NC gr 
 gsave  2268 1682 0 0 C 175.025 528.88 t 0 r /Helvetica-Bold findfont 64.6832 sf 0 0 m (2) show NC gr 
 gsave  2268 1682 0 0 C 175.025 703.905 t 0 r /Helvetica-Bold findfont 64.6832 sf 0 0 m (3) show NC gr 
 gsave  2268 1682 0 0 C 175.025 878.93 t 0 r /Helvetica-Bold findfont 64.6832 sf 0 0 m (4) show NC gr 
 gsave  2268 1682 0 0 C 175.025 1053.96 t 0 r /Helvetica-Bold findfont 64.6832 sf 0 0 m (5) show NC gr 
 gsave  2268 1682 0 0 C 175.025 1228.98 t 0 r /Helvetica-Bold findfont 64.6832 sf 0 0 m (6) show NC gr 
 gsave  2268 1682 0 0 C 175.025 1404.01 t 0 r /Helvetica-Bold findfont 64.6832 sf 0 0 m (7) show NC gr  2154 202 m 1312 Y s 2101 202 m 53 X s 2128 237 m 26 X s 2128 272 m 26 X s 2128 307 m 26 X s 2128 342 m 26 X s 2101 377 m 53 X s 2128 412 m 26 X s
 2128 447 m 26 X s 2128 482 m 26 X s 2128 517 m 26 X s 2101 553 m 53 X s 2128 588 m 26 X s 2128 623 m 26 X s 2128 658 m 26 X s 2128 693 m 26 X s 2101 728 m 53 X s 2128 763 m 26 X s 2128 798 m 26 X s 2128 833 m 26 X s 2128 868 m 26 X s 2101 903 m 53 X
 s 2128 938 m 26 X s 2128 973 m 26 X s 2128 1009 m 26 X s 2128 1044 m 26 X s 2101 1079 m 53 X s 2128 1114 m 26 X s 2128 1149 m 26 X s 2128 1184 m 26 X s 2128 1219 m 26 X s 2101 1254 m 53 X s 2128 1289 m 26 X s 2128 1324 m 26 X s 2128 1359 m 26 X s
 2128 1394 m 26 X s 2101 1429 m 53 X s 2101 1429 m 53 X s 2128 1464 m 26 X s 2128 1500 m 26 X s 0.490196 0.545098 0.615686 c 0.95 0.95 0.95 c 0.490196 0.545098 0.615686 c 680 202 238 1312 bl 238 1312 m 680 X s 918 1312 m 202 Y s 918 1514 m -680 X s
 238 1514 m -202 Y s black
 gsave  2268 1682 0 0 C 441.368 1442.05 t 0 r /Times-Italic findfont 76.0979 sf 0 0 m (Signal) show NC gr  0.49 0.6 0.82 c 269 1428 m 143 X 70 Y -143 X f 0 0 0.933333 c 6 lw 269 1498 m 143 X s 269 1428 m 143 X s 412 1428 m 70 Y s 269 1428 m 70 Y s
 black
 gsave  2268 1682 0 0 C 441.368 1343.13 t 0 r /Times-Italic findfont 76.0979 sf 0 0 m (Background) show NC gr  1 0 0 c 3 lw 412 1374 m -47 -47 d s 387 1398 m -70 -71 d s 339 1398 m -70 -71 d s 291 1398 m -22 -23 d s 6 lw 0 0 0.933333 c 1 0 0 c 269
 1398 m 143 X s 269 1327 m 143 X s 412 1327 m 71 Y s 269 1327 m 71 Y s 0 0 0.933333 c 0.49 0.6 0.82 c black 3 lw 0.49 0.6 0.82 c 238 202 m 527 X 2 Y 48 X 3 Y 48 X 14 Y 48 X 17 Y 48 X 27 Y 48 X 57 Y 48 X 183 Y 47 X 171 Y 48 X 298 Y 48 X 198 Y 48 X 60
 Y 48 X 40 Y 48 X -191 Y 48 X -323 Y 48 X -179 Y 48 X -122 Y 48 X -92 Y 47 X -47 Y 48 X -7 Y 48 X -1 Y 48 X -68 Y 48 X -7 Y 48 X -4 Y 48 X -14 Y 48 X -12 Y 48 X -3 Y 191 X f 6 lw 0 0 0.933333 c 0.49 0.6 0.82 c 0 0 0.933333 c 238 202 m 527 X 2 Y 48 X
 3 Y 48 X 14 Y 48 X 17 Y 48 X 27 Y 48 X 57 Y 48 X 183 Y 47 X 171 Y 48 X 298 Y 48 X 198 Y 48 X 60 Y 48 X 40 Y 48 X -191 Y 48 X -323 Y 48 X -179 Y 48 X -122 Y 48 X -92 Y 47 X -47 Y 48 X -7 Y 48 X -1 Y 48 X -68 Y 48 X -7 Y 48 X -4 Y 48 X -14 Y 48 X -12
 Y 48 X -3 Y 191 X s 1 0 0 c black 3 lw 1 0 0 c 2126 202 m s 2078 202 m s 2030 202 m s 1982 202 m s 1934 202 m s 1893 209 m -7 -7 d s 1848 212 m -11 -10 d s 1797 209 m -8 -7 d s 1765 225 m -24 -23 d s 1713 222 m -20 -20 d s 1675 232 m -30 -30 d s
 1644 249 m -47 -47 d s 1590 243 m -41 -41 d s 1579 281 m -78 -79 d s 1540 289 m -87 -87 d s 1532 329 m -128 -127 d s 1489 334 m -133 -132 d s 1484 377 m -176 -175 d s 1484 425 m -224 -223 d s 1483 473 m -271 -271 d s 1436 474 m -272 -272 d s 1436
 522 m -320 -320 d s 1436 570 m -368 -368 d s 1436 618 m -416 -416 d s 1411 642 m -439 -440 d s 1388 666 m -465 -464 d s 1388 714 m -431 -431 d s 928 255 m -19 -20 d s 897 223 m -22 -21 d s 1388 762 m -383 -383 d s 958 332 m -1 -1 d s 835 210 m -8 -8
 d s 1388 811 m -335 -336 d s 1020 442 m -15 -15 d s 781 204 m -2 -2 d s 1388 859 m -335 -336 d s 731 202 m s 1388 907 m -288 -288 d s 1073 592 m -20 -21 d s 683 202 m s 1388 955 m -288 -288 d s 635 202 m s 1342 957 m -242 -241 d s 587 202 m s 1340
 1003 m -240 -239 d s 539 202 m s 1340 1051 m -240 -239 d s 494 205 m -4 -3 d s 1340 1099 m -240 -239 d s 442 202 m s 1335 1143 m -187 -187 d s 1126 933 m -26 -25 d s 394 202 m cl s 1292 1148 m -144 -144 d s 346 202 m s 1292 1196 m -144 -144 d s 298
 202 m s 1292 1244 m -144 -144 d s 254 206 m -4 -4 d s 1269 1269 m -121 -121 d s 1244 1292 m -48 -48 d s 1173 1221 m -25 -25 d s 1199 1295 m -3 -3 d s 6 lw 238 206 m 48 X -4 Y 192 X 3 Y 48 X -3 Y 239 X 2 Y 48 X 6 Y 48 X 13 Y 48 X 32 Y 48 X 77 Y 48 X
 110 Y 48 X 150 Y 47 X 341 Y 48 X 288 Y 48 X 74 Y 48 X -26 Y 48 X -126 Y 48 X -186 Y 48 X -315 Y 48 X -169 Y 48 X -139 Y 48 X -45 Y 47 X -46 Y 48 X 6 Y 48 X -27 Y 48 X 3 Y 48 X -16 Y 48 X 3 Y 48 X -3 Y 48 X -7 Y 239 X s black 3 lw 238 202 m 1916 X s
 238 244 m -42 Y s 279 223 m -21 Y s 321 223 m -21 Y s 362 223 m -21 Y s 403 223 m -21 Y s 444 244 m -42 Y s 486 223 m -21 Y s 527 223 m -21 Y s 568 223 m -21 Y s 609 223 m -21 Y s 651 244 m -42 Y s 692 223 m -21 Y s 733 223 m -21 Y s 774 223 m -21 Y
 s 816 223 m -21 Y s 857 244 m -42 Y s 898 223 m -21 Y s 939 223 m -21 Y s 980 223 m -21 Y s 1022 223 m -21 Y s 1063 244 m -42 Y s 1104 223 m -21 Y s 1145 223 m -21 Y s 1187 223 m -21 Y s 1228 223 m -21 Y s 1269 244 m -42 Y s 1310 223 m -21 Y s 1352
 223 m -21 Y s 1393 223 m -21 Y s 1434 223 m -21 Y s 1475 244 m -42 Y s 1517 223 m -21 Y s 1558 223 m -21 Y s 1599 223 m -21 Y s 1640 223 m -21 Y s 1682 244 m -42 Y s 1723 223 m -21 Y s 1764 223 m -21 Y s 1805 223 m -21 Y s 1847 223 m -21 Y s 1888
 244 m -42 Y s 1929 223 m -21 Y s 1970 223 m -21 Y s 2012 223 m -21 Y s 2053 223 m -21 Y s 2094 244 m -42 Y s 2094 244 m -42 Y s 2135 223 m -21 Y s 238 1514 m 1916 X s 238 1471 m 43 Y s 279 1492 m 22 Y s 321 1492 m 22 Y s 362 1492 m 22 Y s 403 1492 m
 22 Y s 444 1471 m 43 Y s 486 1492 m 22 Y s 527 1492 m 22 Y s 568 1492 m 22 Y s 609 1492 m 22 Y s 651 1471 m 43 Y s 692 1492 m 22 Y s 733 1492 m 22 Y s 774 1492 m 22 Y s 816 1492 m 22 Y s 857 1471 m 43 Y s 898 1492 m 22 Y s 939 1492 m 22 Y s 980 1492
 m 22 Y s 1022 1492 m 22 Y s 1063 1471 m 43 Y s 1104 1492 m 22 Y s 1145 1492 m 22 Y s 1187 1492 m 22 Y s 1228 1492 m 22 Y s 1269 1471 m 43 Y s 1310 1492 m 22 Y s 1352 1492 m 22 Y s 1393 1492 m 22 Y s 1434 1492 m 22 Y s 1475 1471 m 43 Y s 1517 1492 m
 22 Y s 1558 1492 m 22 Y s 1599 1492 m 22 Y s 1640 1492 m 22 Y s 1682 1471 m 43 Y s 1723 1492 m 22 Y s 1764 1492 m 22 Y s 1805 1492 m 22 Y s 1847 1492 m 22 Y s 1888 1471 m 43 Y s 1929 1492 m 22 Y s 1970 1492 m 22 Y s 2012 1492 m 22 Y s 2053 1492 m 22
 Y s 2094 1471 m 43 Y s 2094 1471 m 43 Y s 2135 1492 m 22 Y s 238 202 m 1312 Y s 291 202 m -53 X s 265 237 m -27 X s 265 272 m -27 X s 265 307 m -27 X s 265 342 m -27 X s 291 377 m -53 X s 265 412 m -27 X s 265 447 m -27 X s 265 482 m -27 X s 265 517
 m -27 X s 291 553 m -53 X s 265 588 m -27 X s 265 623 m -27 X s 265 658 m -27 X s 265 693 m -27 X s 291 728 m -53 X s 265 763 m -27 X s 265 798 m -27 X s 265 833 m -27 X s 265 868 m -27 X s 291 903 m -53 X s 265 938 m -27 X s 265 973 m -27 X s 265
 1009 m -27 X s 265 1044 m -27 X s 291 1079 m -53 X s 265 1114 m -27 X s 265 1149 m -27 X s 265 1184 m -27 X s 265 1219 m -27 X s 291 1254 m -53 X s 265 1289 m -27 X s 265 1324 m -27 X s 265 1359 m -27 X s 265 1394 m -27 X s 291 1429 m -53 X s 291
 1429 m -53 X s 265 1464 m -27 X s 265 1500 m -27 X s 2154 202 m 1312 Y s 2101 202 m 53 X s 2128 237 m 26 X s 2128 272 m 26 X s 2128 307 m 26 X s 2128 342 m 26 X s 2101 377 m 53 X s 2128 412 m 26 X s 2128 447 m 26 X s 2128 482 m 26 X s 2128 517 m 26
 X s 2101 553 m 53 X s 2128 588 m 26 X s 2128 623 m 26 X s 2128 658 m 26 X s 2128 693 m 26 X s 2101 728 m 53 X s 2128 763 m 26 X s 2128 798 m 26 X s 2128 833 m 26 X s 2128 868 m 26 X s 2101 903 m 53 X s 2128 938 m 26 X s 2128 973 m 26 X s 2128 1009 m
 26 X s 2128 1044 m 26 X s 2101 1079 m 53 X s 2128 1114 m 26 X s 2128 1149 m 26 X s 2128 1184 m 26 X s 2128 1219 m 26 X s 2101 1254 m 53 X s 2128 1289 m 26 X s 2128 1324 m 26 X s 2128 1359 m 26 X s 2128 1394 m 26 X s 2101 1429 m 53 X s 2101 1429 m 53
 X s 2128 1464 m 26 X s 2128 1500 m 26 X s
 gsave  2268 1682 0 0 C 2211.02 193.403 t 90 r /Helvetica-Bold findfont 45.6587 sf 0 0 m (U/O\255flow \(S,B\): \(0.0, 0.0\)% / \(0.0, 0.0\)%) show NC gr  0.490196 0.545098 0.615686 c 0.364706 0.419608 0.490196 c 1587 96 23 1577 bf 0.490196 0.545098
 0.615686 c 23 1577 m 1587 X s 1610 1577 m 96 Y s 1610 1673 m -1587 X s 23 1673 m -96 Y s 1 1 1 c black 1 1 1 c
 gsave  2268 1682 0 0 C 91.3174 1605.67 t 0 r /Helvetica-Bold findfont 72.293 sf 0 0 m (TMVA response for classifier: PDERSPCA) show NC gr 
 gr  gr showpage
end
%%EOF
