%!PS-Adobe-2.0 EPSF-2.0
%%BoundingBox:  0 0 567 420
%%Title: plots/mva_LikelihoodKDE.eps: TMVA response LikelihoodKDE
%%Creator: ROOT Version 5.34/09
%%CreationDate: Wed Dec 18 11:45:30 2013
%%EndComments
%%BeginProlog
80 dict begin
/s {stroke} def /l {lineto} def /m {moveto} def /t {translate} def
/r {rotate} def /rl {roll}  def /R {repeat} def
/d {rlineto} def /rm {rmoveto} def /gr {grestore} def /f {eofill} def
/c {setrgbcolor} def /black {0 setgray} def /sd {setdash} def
/cl {closepath} def /sf {scalefont setfont} def /lw {setlinewidth} def
/box {m dup 0 exch d exch 0 d 0 exch neg d cl} def
/NC{systemdict begin initclip end}def/C{NC box clip newpath}def
/bl {box s} def /bf {box f} def /Y { 0 exch d} def /X { 0 d} def 
/K {{pop pop 0 moveto} exch kshow} bind def
/ita {/ang 15 def gsave [1 0 ang dup sin exch cos div 1 0 0] concat} def 
/mp {newpath /y exch def /x exch def} def
/side {[w .77 mul w .23 mul] .385 w mul sd w 0 l currentpoint t -144 r} def
/mr {mp x y w2 0 360 arc} def /m24 {mr s} def /m20 {mr f} def
/mb {mp x y w2 add m w2 neg 0 d 0 w neg d w 0 d 0 w d cl} def
/mt {mp x y w2 add m w2 neg w neg d w 0 d cl} def
/m21 {mb f} def /m25 {mb s} def /m22 {mt f} def /m26{mt s} def
/m23 {mp x y w2 sub m w2 w d w neg 0 d cl f} def
/m27 {mp x y w2 add m w3 neg w2 neg d w3 w2 neg d w3 w2 d cl s} def
/m28 {mp x w2 sub y w2 sub w3 add m w3 0 d  0 w3 neg d w3 0 d 0 w3 d w3 0 d  0 w3 d w3 neg 0 d 0 w3 d w3 neg 0 d 0 w3 neg d w3 neg 0 d cl s } def
/m29 {mp gsave x w2 sub y w2 add w3 sub m currentpoint t 4 {side} repeat cl fill gr} def
/m30 {mp gsave x w2 sub y w2 add w3 sub m currentpoint t 4 {side} repeat cl s gr} def
/m31 {mp x y w2 sub m 0 w d x w2 sub y m w 0 d x w2 sub y w2 add m w w neg d x w2 sub y w2 sub m w w d s} def
/m32 {mp x y w2 sub m w2 w d w neg 0 d cl s} def
/m33 {mp x y w2 add m w3 neg w2 neg d w3 w2 neg d w3 w2 d cl f} def
/m34 {mp x w2 sub y w2 sub w3 add m w3 0 d  0 w3 neg d w3 0 d 0 w3 d w3 0 d  0 w3 d w3 neg 0 d 0 w3 d w3 neg 0 d 0 w3 neg d w3 neg 0 d cl f } def
/m2 {mp x y w2 sub m 0 w d x w2 sub y m w 0 d s} def
/m5 {mp x w2 sub y w2 sub m w w d x w2 sub y w2 add m w w neg d s} def
/reEncode {exch findfont dup length dict begin {1 index /FID eq  {pop pop} {def} ifelse } forall /Encoding exch def currentdict end dup /FontName get exch definefont pop } def [/Times-Bold /Times-Italic /Times-BoldItalic /Helvetica /Helvetica-Oblique
 /Helvetica-Bold /Helvetica-BoldOblique /Courier /Courier-Oblique /Courier-Bold /Courier-BoldOblique /Times-Roman /AvantGarde-Book /AvantGarde-BookOblique /AvantGarde-Demi /AvantGarde-DemiOblique /Bookman-Demi /Bookman-DemiItalic /Bookman-Light
 /Bookman-LightItalic /Helvetica-Narrow /Helvetica-Narrow-Bold /Helvetica-Narrow-BoldOblique /Helvetica-Narrow-Oblique /NewCenturySchlbk-Roman /NewCenturySchlbk-Bold /NewCenturySchlbk-BoldItalic /NewCenturySchlbk-Italic /Palatino-Bold
 /Palatino-BoldItalic /Palatino-Italic /Palatino-Roman ] {ISOLatin1Encoding reEncode } forall
%%EndProlog
%%BeginSetup
%%EndSetup
newpath  gsave  .25 .25 scale  gsave  0 0 t 0.490196 0.545098 0.615686 c[  ] 0 sd 3 lw 0.941176 0.941176 0.941176 c 2268 1682 0 0 bf black 1 1 0.992157 c 1916 1312 238 202 bf black 1916 1312 238 202 bl 1 1 0.992157 c 1916 1312 238 202 bf black 1916
 1312 238 202 bl 238 202 m 1916 X s
 gsave  2268 1682 0 0 C 1297.47 34.244 t 0 r /Helvetica-Bold findfont 72.293 sf 0 0 m (LikelihoodKDE response) show NC gr  470 244 m -42 Y s 540 223 m -21 Y s 609 223 m -21 Y s 678 223 m -21 Y s 748 223 m -21 Y s 817 244 m -42 Y s 887 223 m -21 Y s
 956 223 m -21 Y s 1026 223 m -21 Y s 1095 223 m -21 Y s 1165 244 m -42 Y s 1234 223 m -21 Y s 1304 223 m -21 Y s 1373 223 m -21 Y s 1443 223 m -21 Y s 1512 244 m -42 Y s 1581 223 m -21 Y s 1651 223 m -21 Y s 1720 223 m -21 Y s 1790 223 m -21 Y s
 1859 244 m -42 Y s 470 244 m -42 Y s 401 223 m -21 Y s 331 223 m -21 Y s 262 223 m -21 Y s 1859 244 m -42 Y s 1929 223 m -21 Y s 1998 223 m -21 Y s 2068 223 m -21 Y s 2137 223 m -21 Y s
 gsave  2268 1682 0 0 C 422.343 129.366 t 0 r /Helvetica-Bold findfont 64.6832 sf 0 0 m (0.3) show NC gr 
 gsave  2268 1682 0 0 C 768.589 129.366 t 0 r /Helvetica-Bold findfont 64.6832 sf 0 0 m (0.4) show NC gr 
 gsave  2268 1682 0 0 C 1118.64 129.366 t 0 r /Helvetica-Bold findfont 64.6832 sf 0 0 m (0.5) show NC gr 
 gsave  2268 1682 0 0 C 1464.88 129.366 t 0 r /Helvetica-Bold findfont 64.6832 sf 0 0 m (0.6) show NC gr 
 gsave  2268 1682 0 0 C 1811.13 129.366 t 0 r /Helvetica-Bold findfont 64.6832 sf 0 0 m (0.7) show NC gr  238 1514 m 1916 X s 470 1471 m 43 Y s 540 1492 m 22 Y s 609 1492 m 22 Y s 678 1492 m 22 Y s 748 1492 m 22 Y s 817 1471 m 43 Y s 887 1492 m 22 Y
 s 956 1492 m 22 Y s 1026 1492 m 22 Y s 1095 1492 m 22 Y s 1165 1471 m 43 Y s 1234 1492 m 22 Y s 1304 1492 m 22 Y s 1373 1492 m 22 Y s 1443 1492 m 22 Y s 1512 1471 m 43 Y s 1581 1492 m 22 Y s 1651 1492 m 22 Y s 1720 1492 m 22 Y s 1790 1492 m 22 Y s
 1859 1471 m 43 Y s 470 1471 m 43 Y s 401 1492 m 22 Y s 331 1492 m 22 Y s 262 1492 m 22 Y s 1859 1471 m 43 Y s 1929 1492 m 22 Y s 1998 1492 m 22 Y s 2068 1492 m 22 Y s 2137 1492 m 22 Y s 238 202 m 1312 Y s
 gsave  2268 1682 0 0 C 64.6832 1430.64 t 90 r /Helvetica-Bold findfont 72.293 sf 0 0 m (dx) show NC gr 
 gsave  2268 1682 0 0 C 30.4391 1411.62 t 90 r /Helvetica-Bold findfont 45.6587 sf 0 0 m ( ) show NC gr 
 gsave  2268 1682 0 0 C 64.6832 1388.79 t 90 r /Helvetica-Bold findfont 72.293 sf 0 0 m (/) show NC gr 
 gsave  2268 1682 0 0 C 30.4391 1369.76 t 90 r /Helvetica-Bold findfont 45.6587 sf 0 0 m ( ) show NC gr 
 gsave  2268 1682 0 0 C 60.8783 1095.81 t 90 r /Helvetica-Bold findfont 72.293 sf 0 0 m (\(1/N\) dN) show NC gr  291 202 m -53 X s 265 231 m -27 X s 265 261 m -27 X s 265 291 m -27 X s 265 320 m -27 X s 291 350 m -53 X s 265 379 m -27 X s 265 409 m
 -27 X s 265 439 m -27 X s 265 468 m -27 X s 291 498 m -53 X s 265 527 m -27 X s 265 557 m -27 X s 265 587 m -27 X s 265 616 m -27 X s 291 646 m -53 X s 265 675 m -27 X s 265 705 m -27 X s 265 735 m -27 X s 265 764 m -27 X s 291 794 m -53 X s 265 823
 m -27 X s 265 853 m -27 X s 265 883 m -27 X s 265 912 m -27 X s 291 942 m -53 X s 265 971 m -27 X s 265 1001 m -27 X s 265 1031 m -27 X s 265 1060 m -27 X s 291 1090 m -53 X s 265 1119 m -27 X s 265 1149 m -27 X s 265 1179 m -27 X s 265 1208 m -27 X
 s 291 1238 m -53 X s 265 1267 m -27 X s 265 1297 m -27 X s 265 1327 m -27 X s 265 1356 m -27 X s 291 1386 m -53 X s 291 1386 m -53 X s 265 1415 m -27 X s 265 1445 m -27 X s 265 1475 m -27 X s 265 1504 m -27 X s
 gsave  2268 1682 0 0 C 175.025 178.83 t 0 r /Helvetica-Bold findfont 64.6832 sf 0 0 m (0) show NC gr 
 gsave  2268 1682 0 0 C 182.635 323.416 t 0 r /Helvetica-Bold findfont 64.6832 sf 0 0 m (1) show NC gr 
 gsave  2268 1682 0 0 C 175.025 471.807 t 0 r /Helvetica-Bold findfont 64.6832 sf 0 0 m (2) show NC gr 
 gsave  2268 1682 0 0 C 175.025 620.198 t 0 r /Helvetica-Bold findfont 64.6832 sf 0 0 m (3) show NC gr 
 gsave  2268 1682 0 0 C 175.025 768.588 t 0 r /Helvetica-Bold findfont 64.6832 sf 0 0 m (4) show NC gr 
 gsave  2268 1682 0 0 C 175.025 916.979 t 0 r /Helvetica-Bold findfont 64.6832 sf 0 0 m (5) show NC gr 
 gsave  2268 1682 0 0 C 175.025 1065.37 t 0 r /Helvetica-Bold findfont 64.6832 sf 0 0 m (6) show NC gr 
 gsave  2268 1682 0 0 C 175.025 1213.76 t 0 r /Helvetica-Bold findfont 64.6832 sf 0 0 m (7) show NC gr 
 gsave  2268 1682 0 0 C 175.025 1362.15 t 0 r /Helvetica-Bold findfont 64.6832 sf 0 0 m (8) show NC gr  2154 202 m 1312 Y s 2101 202 m 53 X s 2128 231 m 26 X s 2128 261 m 26 X s 2128 291 m 26 X s 2128 320 m 26 X s 2101 350 m 53 X s 2128 379 m 26 X s
 2128 409 m 26 X s 2128 439 m 26 X s 2128 468 m 26 X s 2101 498 m 53 X s 2128 527 m 26 X s 2128 557 m 26 X s 2128 587 m 26 X s 2128 616 m 26 X s 2101 646 m 53 X s 2128 675 m 26 X s 2128 705 m 26 X s 2128 735 m 26 X s 2128 764 m 26 X s 2101 794 m 53 X
 s 2128 823 m 26 X s 2128 853 m 26 X s 2128 883 m 26 X s 2128 912 m 26 X s 2101 942 m 53 X s 2128 971 m 26 X s 2128 1001 m 26 X s 2128 1031 m 26 X s 2128 1060 m 26 X s 2101 1090 m 53 X s 2128 1119 m 26 X s 2128 1149 m 26 X s 2128 1179 m 26 X s 2128
 1208 m 26 X s 2101 1238 m 53 X s 2128 1267 m 26 X s 2128 1297 m 26 X s 2128 1327 m 26 X s 2128 1356 m 26 X s 2101 1386 m 53 X s 2101 1386 m 53 X s 2128 1415 m 26 X s 2128 1445 m 26 X s 2128 1475 m 26 X s 2128 1504 m 26 X s 0.490196 0.545098 0.615686
 c 0.95 0.95 0.95 c 0.490196 0.545098 0.615686 c 680 202 238 1312 bl 238 1312 m 680 X s 918 1312 m 202 Y s 918 1514 m -680 X s 238 1514 m -202 Y s black
 gsave  2268 1682 0 0 C 441.368 1442.05 t 0 r /Times-Italic findfont 76.0979 sf 0 0 m (Signal) show NC gr  0.49 0.6 0.82 c 269 1428 m 143 X 70 Y -143 X f 0 0 0.933333 c 6 lw 269 1498 m 143 X s 269 1428 m 143 X s 412 1428 m 70 Y s 269 1428 m 70 Y s
 black
 gsave  2268 1682 0 0 C 441.368 1343.13 t 0 r /Times-Italic findfont 76.0979 sf 0 0 m (Background) show NC gr  1 0 0 c 3 lw 412 1374 m -47 -47 d s 387 1398 m -70 -71 d s 339 1398 m -70 -71 d s 291 1398 m -22 -23 d s 6 lw 0 0 0.933333 c 1 0 0 c 269
 1398 m 143 X s 269 1327 m 143 X s 412 1327 m 71 Y s 269 1327 m 71 Y s 0 0 0.933333 c 0.49 0.6 0.82 c black 3 lw 0.49 0.6 0.82 c 238 202 m 96 X 12 Y 48 X 5 Y 48 X -3 Y 48 X 19 Y 48 X -8 Y 47 X 48 Y 48 X -23 Y 48 X 40 Y 48 X 37 Y 48 X 46 Y 48 X 15 Y
 48 X 50 Y 48 X 36 Y 48 X 68 Y 48 X 74 Y 48 X 47 Y 47 X 126 Y 48 X 486 Y 48 X -383 Y 48 X 100 Y 48 X -28 Y 48 X 21 Y 48 X -42 Y 48 X -70 Y 48 X -175 Y 48 X -78 Y 47 X -90 Y 48 X -118 Y 48 X -15 Y 48 X -29 Y 48 X -76 Y 48 X -20 Y 48 X -39 Y 48 X -7 Y
 48 X -22 Y 48 X 16 Y 48 X -16 Y 47 X -3 Y 48 X -1 Y f 6 lw 0 0 0.933333 c 0.49 0.6 0.82 c 0 0 0.933333 c 238 202 m 96 X 12 Y 48 X 5 Y 48 X -3 Y 48 X 19 Y 48 X -8 Y 47 X 48 Y 48 X -23 Y 48 X 40 Y 48 X 37 Y 48 X 46 Y 48 X 15 Y 48 X 50 Y 48 X 36 Y 48 X
 68 Y 48 X 74 Y 48 X 47 Y 47 X 126 Y 48 X 486 Y 48 X -383 Y 48 X 100 Y 48 X -28 Y 48 X 21 Y 48 X -42 Y 48 X -70 Y 48 X -175 Y 48 X -78 Y 47 X -90 Y 48 X -118 Y 48 X -15 Y 48 X -29 Y 48 X -76 Y 48 X -20 Y 48 X -39 Y 48 X -7 Y 48 X -22 Y 48 X 16 Y 48 X
 -16 Y 47 X -3 Y 48 X -1 Y s 1 0 0 c black 3 lw 1 0 0 c 2126 202 m s 2078 202 m s 2033 205 m -3 -3 d s 1983 203 m -1 -1 d s 1959 227 m -25 -25 d s 1897 214 m -11 -12 d s 1865 230 m -28 -28 d s 1819 232 m -30 -30 d s 1774 234 m -33 -32 d s 1730 239 m
 -37 -37 d s 1723 280 m -78 -78 d s 1705 310 m -108 -108 d s 1675 328 m -126 -126 d s 1634 335 m -133 -133 d s 1627 377 m -174 -175 d s 1598 395 m -194 -193 d s 1579 425 m -223 -223 d s 1579 473 m -271 -271 d s 1572 514 m -312 -312 d s 1532 521 m
 -320 -319 d s 1532 569 m -368 -367 d s 1488 574 m -372 -372 d s 1484 618 m -416 -416 d s 1484 666 m -464 -464 d s 1484 714 m -512 -512 d s 1484 762 m -561 -560 d s 1436 762 m -561 -560 d s 1436 810 m -609 -608 d s 1436 858 m -657 -656 d s 1436 907 m
 -705 -705 d s 1400 919 m -717 -717 d s 1388 955 m -753 -753 d s 1364 979 m -24 -24 d s 1297 912 m -340 -340 d s 949 564 m -40 -40 d s 876 491 m -15 -15 d s 828 443 m -63 -63 d s 741 357 m -154 -155 d s 1292 955 m -144 -143 d s 1115 778 m -15 -14 d s
 1063 727 m -106 -107 d s 777 440 m -12 -12 d s 682 346 m -13 -13 d s 643 306 m -104 -104 d s 1292 1003 m -48 -48 d s 1213 924 m -65 -64 d s 1027 738 m -22 -22 d s 973 684 m -16 -16 d s 593 304 m -103 -102 d s 1284 1043 m -40 -39 d s 1196 956 m -48
 -48 d s 542 301 m -16 -16 d s 525 284 m -83 -82 d s 1196 1004 m -48 -48 d s 440 248 m -10 -11 d s 428 235 m -34 -33 d s 1196 1052 m -48 -48 d s 352 207 m -6 -5 d s 1196 1100 m -48 -48 d s 320 224 m -22 -22 d s 1196 1148 m -48 -48 d s 254 206 m -4 -4
 d s 1196 1196 m -48 -48 d s 1196 1244 m -48 -48 d s 1196 1292 m -48 -47 d s 1151 1295 m -3 -2 d s 6 lw 238 206 m 48 X 18 Y 48 X -17 Y 48 X 28 Y 48 X 13 Y 48 X 36 Y 48 X 17 Y 47 X 3 Y 48 X 2 Y 48 X 40 Y 48 X 11 Y 48 X 83 Y 48 X 3 Y 48 X 48 Y 48 X 73
 Y 48 X 120 Y 48 X 54 Y 48 X -11 Y 47 X 51 Y 48 X 517 Y 48 X -371 Y 48 X 119 Y 48 X -131 Y 48 X 67 Y 48 X -60 Y 48 X -157 Y 48 X -188 Y 48 X -60 Y 47 X -119 Y 48 X -60 Y 48 X -25 Y 48 X -71 Y 48 X -5 Y 48 X -4 Y 48 X -16 Y 48 X 13 Y 48 X -24 Y 48 X 2
 Y 48 X -3 Y 95 X s black 3 lw 238 202 m 1916 X s 470 244 m -42 Y s 540 223 m -21 Y s 609 223 m -21 Y s 678 223 m -21 Y s 748 223 m -21 Y s 817 244 m -42 Y s 887 223 m -21 Y s 956 223 m -21 Y s 1026 223 m -21 Y s 1095 223 m -21 Y s 1165 244 m -42 Y s
 1234 223 m -21 Y s 1304 223 m -21 Y s 1373 223 m -21 Y s 1443 223 m -21 Y s 1512 244 m -42 Y s 1581 223 m -21 Y s 1651 223 m -21 Y s 1720 223 m -21 Y s 1790 223 m -21 Y s 1859 244 m -42 Y s 470 244 m -42 Y s 401 223 m -21 Y s 331 223 m -21 Y s 262
 223 m -21 Y s 1859 244 m -42 Y s 1929 223 m -21 Y s 1998 223 m -21 Y s 2068 223 m -21 Y s 2137 223 m -21 Y s 238 1514 m 1916 X s 470 1471 m 43 Y s 540 1492 m 22 Y s 609 1492 m 22 Y s 678 1492 m 22 Y s 748 1492 m 22 Y s 817 1471 m 43 Y s 887 1492 m
 22 Y s 956 1492 m 22 Y s 1026 1492 m 22 Y s 1095 1492 m 22 Y s 1165 1471 m 43 Y s 1234 1492 m 22 Y s 1304 1492 m 22 Y s 1373 1492 m 22 Y s 1443 1492 m 22 Y s 1512 1471 m 43 Y s 1581 1492 m 22 Y s 1651 1492 m 22 Y s 1720 1492 m 22 Y s 1790 1492 m 22
 Y s 1859 1471 m 43 Y s 470 1471 m 43 Y s 401 1492 m 22 Y s 331 1492 m 22 Y s 262 1492 m 22 Y s 1859 1471 m 43 Y s 1929 1492 m 22 Y s 1998 1492 m 22 Y s 2068 1492 m 22 Y s 2137 1492 m 22 Y s 238 202 m 1312 Y s 291 202 m -53 X s 265 231 m -27 X s 265
 261 m -27 X s 265 291 m -27 X s 265 320 m -27 X s 291 350 m -53 X s 265 379 m -27 X s 265 409 m -27 X s 265 439 m -27 X s 265 468 m -27 X s 291 498 m -53 X s 265 527 m -27 X s 265 557 m -27 X s 265 587 m -27 X s 265 616 m -27 X s 291 646 m -53 X s
 265 675 m -27 X s 265 705 m -27 X s 265 735 m -27 X s 265 764 m -27 X s 291 794 m -53 X s 265 823 m -27 X s 265 853 m -27 X s 265 883 m -27 X s 265 912 m -27 X s 291 942 m -53 X s 265 971 m -27 X s 265 1001 m -27 X s 265 1031 m -27 X s 265 1060 m
 -27 X s 291 1090 m -53 X s 265 1119 m -27 X s 265 1149 m -27 X s 265 1179 m -27 X s 265 1208 m -27 X s 291 1238 m -53 X s 265 1267 m -27 X s 265 1297 m -27 X s 265 1327 m -27 X s 265 1356 m -27 X s 291 1386 m -53 X s 291 1386 m -53 X s 265 1415 m
 -27 X s 265 1445 m -27 X s 265 1475 m -27 X s 265 1504 m -27 X s 2154 202 m 1312 Y s 2101 202 m 53 X s 2128 231 m 26 X s 2128 261 m 26 X s 2128 291 m 26 X s 2128 320 m 26 X s 2101 350 m 53 X s 2128 379 m 26 X s 2128 409 m 26 X s 2128 439 m 26 X s
 2128 468 m 26 X s 2101 498 m 53 X s 2128 527 m 26 X s 2128 557 m 26 X s 2128 587 m 26 X s 2128 616 m 26 X s 2101 646 m 53 X s 2128 675 m 26 X s 2128 705 m 26 X s 2128 735 m 26 X s 2128 764 m 26 X s 2101 794 m 53 X s 2128 823 m 26 X s 2128 853 m 26 X
 s 2128 883 m 26 X s 2128 912 m 26 X s 2101 942 m 53 X s 2128 971 m 26 X s 2128 1001 m 26 X s 2128 1031 m 26 X s 2128 1060 m 26 X s 2101 1090 m 53 X s 2128 1119 m 26 X s 2128 1149 m 26 X s 2128 1179 m 26 X s 2128 1208 m 26 X s 2101 1238 m 53 X s 2128
 1267 m 26 X s 2128 1297 m 26 X s 2128 1327 m 26 X s 2128 1356 m 26 X s 2101 1386 m 53 X s 2101 1386 m 53 X s 2128 1415 m 26 X s 2128 1445 m 26 X s 2128 1475 m 26 X s 2128 1504 m 26 X s
 gsave  2268 1682 0 0 C 2211.02 193.403 t 90 r /Helvetica-Bold findfont 45.6587 sf 0 0 m (U/O\255flow \(S,B\): \(0.0, 0.0\)% / \(0.0, 0.0\)%) show NC gr  0.490196 0.545098 0.615686 c 0.364706 0.419608 0.490196 c 1587 96 23 1577 bf 0.490196 0.545098
 0.615686 c 23 1577 m 1587 X s 1610 1577 m 96 Y s 1610 1673 m -1587 X s 23 1673 m -96 Y s 1 1 1 c black 1 1 1 c
 gsave  2268 1682 0 0 C 76.0979 1605.67 t 0 r /Helvetica-Bold findfont 68.4881 sf 0 0 m (TMVA response for classifier: LikelihoodKDE) show NC gr 
 gr  gr showpage
end
%%EOF
