%!PS-Adobe-2.0 EPSF-2.0
%%BoundingBox:  0 0 567 420
%%Title: plots/mva_MLPBFGS.eps: TMVA response MLPBFGS
%%Creator: ROOT Version 5.34/09
%%CreationDate: Wed Dec 18 11:45:31 2013
%%EndComments
%%BeginProlog
80 dict begin
/s {stroke} def /l {lineto} def /m {moveto} def /t {translate} def
/r {rotate} def /rl {roll}  def /R {repeat} def
/d {rlineto} def /rm {rmoveto} def /gr {grestore} def /f {eofill} def
/c {setrgbcolor} def /black {0 setgray} def /sd {setdash} def
/cl {closepath} def /sf {scalefont setfont} def /lw {setlinewidth} def
/box {m dup 0 exch d exch 0 d 0 exch neg d cl} def
/NC{systemdict begin initclip end}def/C{NC box clip newpath}def
/bl {box s} def /bf {box f} def /Y { 0 exch d} def /X { 0 d} def 
/K {{pop pop 0 moveto} exch kshow} bind def
/ita {/ang 15 def gsave [1 0 ang dup sin exch cos div 1 0 0] concat} def 
/mp {newpath /y exch def /x exch def} def
/side {[w .77 mul w .23 mul] .385 w mul sd w 0 l currentpoint t -144 r} def
/mr {mp x y w2 0 360 arc} def /m24 {mr s} def /m20 {mr f} def
/mb {mp x y w2 add m w2 neg 0 d 0 w neg d w 0 d 0 w d cl} def
/mt {mp x y w2 add m w2 neg w neg d w 0 d cl} def
/m21 {mb f} def /m25 {mb s} def /m22 {mt f} def /m26{mt s} def
/m23 {mp x y w2 sub m w2 w d w neg 0 d cl f} def
/m27 {mp x y w2 add m w3 neg w2 neg d w3 w2 neg d w3 w2 d cl s} def
/m28 {mp x w2 sub y w2 sub w3 add m w3 0 d  0 w3 neg d w3 0 d 0 w3 d w3 0 d  0 w3 d w3 neg 0 d 0 w3 d w3 neg 0 d 0 w3 neg d w3 neg 0 d cl s } def
/m29 {mp gsave x w2 sub y w2 add w3 sub m currentpoint t 4 {side} repeat cl fill gr} def
/m30 {mp gsave x w2 sub y w2 add w3 sub m currentpoint t 4 {side} repeat cl s gr} def
/m31 {mp x y w2 sub m 0 w d x w2 sub y m w 0 d x w2 sub y w2 add m w w neg d x w2 sub y w2 sub m w w d s} def
/m32 {mp x y w2 sub m w2 w d w neg 0 d cl s} def
/m33 {mp x y w2 add m w3 neg w2 neg d w3 w2 neg d w3 w2 d cl f} def
/m34 {mp x w2 sub y w2 sub w3 add m w3 0 d  0 w3 neg d w3 0 d 0 w3 d w3 0 d  0 w3 d w3 neg 0 d 0 w3 d w3 neg 0 d 0 w3 neg d w3 neg 0 d cl f } def
/m2 {mp x y w2 sub m 0 w d x w2 sub y m w 0 d s} def
/m5 {mp x w2 sub y w2 sub m w w d x w2 sub y w2 add m w w neg d s} def
/reEncode {exch findfont dup length dict begin {1 index /FID eq  {pop pop} {def} ifelse } forall /Encoding exch def currentdict end dup /FontName get exch definefont pop } def [/Times-Bold /Times-Italic /Times-BoldItalic /Helvetica /Helvetica-Oblique
 /Helvetica-Bold /Helvetica-BoldOblique /Courier /Courier-Oblique /Courier-Bold /Courier-BoldOblique /Times-Roman /AvantGarde-Book /AvantGarde-BookOblique /AvantGarde-Demi /AvantGarde-DemiOblique /Bookman-Demi /Bookman-DemiItalic /Bookman-Light
 /Bookman-LightItalic /Helvetica-Narrow /Helvetica-Narrow-Bold /Helvetica-Narrow-BoldOblique /Helvetica-Narrow-Oblique /NewCenturySchlbk-Roman /NewCenturySchlbk-Bold /NewCenturySchlbk-BoldItalic /NewCenturySchlbk-Italic /Palatino-Bold
 /Palatino-BoldItalic /Palatino-Italic /Palatino-Roman ] {ISOLatin1Encoding reEncode } forall
%%EndProlog
%%BeginSetup
%%EndSetup
newpath  gsave  .25 .25 scale  gsave  0 0 t 0.490196 0.545098 0.615686 c[  ] 0 sd 3 lw 0.941176 0.941176 0.941176 c 2268 1682 0 0 bf black 1 1 0.992157 c 1916 1312 238 202 bf black 1916 1312 238 202 bl 1 1 0.992157 c 1916 1312 238 202 bf black 1916
 1312 238 202 bl 238 202 m 1916 X s
 gsave  2268 1682 0 0 C 1457.27 30.4391 t 0 r /Helvetica-Bold findfont 72.293 sf 0 0 m (MLPBFGS response) show NC gr  437 244 m -42 Y s 492 223 m -21 Y s 547 223 m -21 Y s 602 223 m -21 Y s 657 244 m -42 Y s 712 223 m -21 Y s 767 223 m -21 Y s 823
 223 m -21 Y s 878 244 m -42 Y s 933 223 m -21 Y s 988 223 m -21 Y s 1043 223 m -21 Y s 1098 244 m -42 Y s 1153 223 m -21 Y s 1208 223 m -21 Y s 1264 223 m -21 Y s 1319 244 m -42 Y s 1374 223 m -21 Y s 1429 223 m -21 Y s 1484 223 m -21 Y s 1539 244 m
 -42 Y s 1594 223 m -21 Y s 1649 223 m -21 Y s 1704 223 m -21 Y s 1760 244 m -42 Y s 1815 223 m -21 Y s 1870 223 m -21 Y s 1925 223 m -21 Y s 1980 244 m -42 Y s 437 244 m -42 Y s 382 223 m -21 Y s 327 223 m -21 Y s 271 223 m -21 Y s 1980 244 m -42 Y
 s 2035 223 m -21 Y s 2090 223 m -21 Y s 2145 223 m -21 Y s
 gsave  2268 1682 0 0 C 376.684 129.366 t 0 r /Helvetica-Bold findfont 64.6832 sf 0 0 m (\2550.2) show NC gr 
 gsave  2268 1682 0 0 C 635.417 129.366 t 0 r /Helvetica-Bold findfont 64.6832 sf 0 0 m (0) show NC gr 
 gsave  2268 1682 0 0 C 829.467 129.366 t 0 r /Helvetica-Bold findfont 64.6832 sf 0 0 m (0.2) show NC gr 
 gsave  2268 1682 0 0 C 1050.15 129.366 t 0 r /Helvetica-Bold findfont 64.6832 sf 0 0 m (0.4) show NC gr 
 gsave  2268 1682 0 0 C 1270.83 129.366 t 0 r /Helvetica-Bold findfont 64.6832 sf 0 0 m (0.6) show NC gr 
 gsave  2268 1682 0 0 C 1491.52 129.366 t 0 r /Helvetica-Bold findfont 64.6832 sf 0 0 m (0.8) show NC gr 
 gsave  2268 1682 0 0 C 1742.64 129.366 t 0 r /Helvetica-Bold findfont 64.6832 sf 0 0 m (1) show NC gr 
 gsave  2268 1682 0 0 C 1932.89 129.366 t 0 r /Helvetica-Bold findfont 64.6832 sf 0 0 m (1.2) show NC gr  238 1514 m 1916 X s 437 1471 m 43 Y s 492 1492 m 22 Y s 547 1492 m 22 Y s 602 1492 m 22 Y s 657 1471 m 43 Y s 712 1492 m 22 Y s 767 1492 m 22 Y
 s 823 1492 m 22 Y s 878 1471 m 43 Y s 933 1492 m 22 Y s 988 1492 m 22 Y s 1043 1492 m 22 Y s 1098 1471 m 43 Y s 1153 1492 m 22 Y s 1208 1492 m 22 Y s 1264 1492 m 22 Y s 1319 1471 m 43 Y s 1374 1492 m 22 Y s 1429 1492 m 22 Y s 1484 1492 m 22 Y s 1539
 1471 m 43 Y s 1594 1492 m 22 Y s 1649 1492 m 22 Y s 1704 1492 m 22 Y s 1760 1471 m 43 Y s 1815 1492 m 22 Y s 1870 1492 m 22 Y s 1925 1492 m 22 Y s 1980 1471 m 43 Y s 437 1471 m 43 Y s 382 1492 m 22 Y s 327 1492 m 22 Y s 271 1492 m 22 Y s 1980 1471 m
 43 Y s 2035 1492 m 22 Y s 2090 1492 m 22 Y s 2145 1492 m 22 Y s 238 202 m 1312 Y s
 gsave  2268 1682 0 0 C 64.6832 1430.64 t 90 r /Helvetica-Bold findfont 72.293 sf 0 0 m (dx) show NC gr 
 gsave  2268 1682 0 0 C 30.4391 1411.62 t 90 r /Helvetica-Bold findfont 45.6587 sf 0 0 m ( ) show NC gr 
 gsave  2268 1682 0 0 C 64.6832 1388.79 t 90 r /Helvetica-Bold findfont 72.293 sf 0 0 m (/) show NC gr 
 gsave  2268 1682 0 0 C 30.4391 1369.76 t 90 r /Helvetica-Bold findfont 45.6587 sf 0 0 m ( ) show NC gr 
 gsave  2268 1682 0 0 C 60.8783 1095.81 t 90 r /Helvetica-Bold findfont 72.293 sf 0 0 m (\(1/N\) dN) show NC gr  291 202 m -53 X s 265 252 m -27 X s 265 302 m -27 X s 265 352 m -27 X s 265 402 m -27 X s 291 452 m -53 X s 265 502 m -27 X s 265 552 m
 -27 X s 265 602 m -27 X s 265 652 m -27 X s 291 702 m -53 X s 265 752 m -27 X s 265 802 m -27 X s 265 852 m -27 X s 265 902 m -27 X s 291 953 m -53 X s 265 1003 m -27 X s 265 1053 m -27 X s 265 1103 m -27 X s 265 1153 m -27 X s 291 1203 m -53 X s
 265 1253 m -27 X s 265 1303 m -27 X s 265 1353 m -27 X s 265 1403 m -27 X s 291 1453 m -53 X s 291 1453 m -53 X s 265 1503 m -27 X s
 gsave  2268 1682 0 0 C 175.025 178.83 t 0 r /Helvetica-Bold findfont 64.6832 sf 0 0 m (0) show NC gr 
 gsave  2268 1682 0 0 C 182.635 426.148 t 0 r /Helvetica-Bold findfont 64.6832 sf 0 0 m (1) show NC gr 
 gsave  2268 1682 0 0 C 175.025 677.271 t 0 r /Helvetica-Bold findfont 64.6832 sf 0 0 m (2) show NC gr 
 gsave  2268 1682 0 0 C 175.025 928.394 t 0 r /Helvetica-Bold findfont 64.6832 sf 0 0 m (3) show NC gr 
 gsave  2268 1682 0 0 C 175.025 1179.52 t 0 r /Helvetica-Bold findfont 64.6832 sf 0 0 m (4) show NC gr 
 gsave  2268 1682 0 0 C 175.025 1426.84 t 0 r /Helvetica-Bold findfont 64.6832 sf 0 0 m (5) show NC gr  2154 202 m 1312 Y s 2101 202 m 53 X s 2128 252 m 26 X s 2128 302 m 26 X s 2128 352 m 26 X s 2128 402 m 26 X s 2101 452 m 53 X s 2128 502 m 26 X s
 2128 552 m 26 X s 2128 602 m 26 X s 2128 652 m 26 X s 2101 702 m 53 X s 2128 752 m 26 X s 2128 802 m 26 X s 2128 852 m 26 X s 2128 902 m 26 X s 2101 953 m 53 X s 2128 1003 m 26 X s 2128 1053 m 26 X s 2128 1103 m 26 X s 2128 1153 m 26 X s 2101 1203 m
 53 X s 2128 1253 m 26 X s 2128 1303 m 26 X s 2128 1353 m 26 X s 2128 1403 m 26 X s 2101 1453 m 53 X s 2101 1453 m 53 X s 2128 1503 m 26 X s 0.490196 0.545098 0.615686 c 0.95 0.95 0.95 c 0.490196 0.545098 0.615686 c 680 202 238 1312 bl 238 1312 m 680
 X s 918 1312 m 202 Y s 918 1514 m -680 X s 238 1514 m -202 Y s black
 gsave  2268 1682 0 0 C 441.368 1442.05 t 0 r /Times-Italic findfont 76.0979 sf 0 0 m (Signal) show NC gr  0.49 0.6 0.82 c 269 1428 m 143 X 70 Y -143 X f 0 0 0.933333 c 6 lw 269 1498 m 143 X s 269 1428 m 143 X s 412 1428 m 70 Y s 269 1428 m 70 Y s
 black
 gsave  2268 1682 0 0 C 441.368 1343.13 t 0 r /Times-Italic findfont 76.0979 sf 0 0 m (Background) show NC gr  1 0 0 c 3 lw 412 1374 m -47 -47 d s 387 1398 m -70 -71 d s 339 1398 m -70 -71 d s 291 1398 m -22 -23 d s 6 lw 0 0 0.933333 c 1 0 0 c 269
 1398 m 143 X s 269 1327 m 143 X s 412 1327 m 71 Y s 269 1327 m 71 Y s 0 0 0.933333 c 0.49 0.6 0.82 c black 3 lw 0.49 0.6 0.82 c 238 202 m 335 X 1 Y 48 X 1 Y 48 X 2 Y 48 X -2 Y 48 X 3 Y 96 X 8 Y 48 X 8 Y 48 X 25 Y 48 X 3 Y 48 X 29 Y 47 X 114 Y 48 X
 225 Y 48 X 277 Y 48 X 311 Y 48 X -69 Y 48 X -233 Y 48 X -211 Y 48 X -150 Y 48 X -37 Y 48 X -142 Y 47 X -35 Y 48 X -56 Y 48 X -35 Y 48 X -17 Y 48 X -13 Y 48 X -1 Y 48 X -3 Y 48 X -1 Y 96 X -2 Y 95 X 2 Y 48 X -2 Y f 6 lw 0 0 0.933333 c 0.49 0.6 0.82 c
 0 0 0.933333 c 238 202 m 335 X 1 Y 48 X 1 Y 48 X 2 Y 48 X -2 Y 48 X 3 Y 96 X 8 Y 48 X 8 Y 48 X 25 Y 48 X 3 Y 48 X 29 Y 47 X 114 Y 48 X 225 Y 48 X 277 Y 48 X 311 Y 48 X -69 Y 48 X -233 Y 48 X -211 Y 48 X -150 Y 48 X -37 Y 48 X -142 Y 47 X -35 Y 48 X
 -56 Y 48 X -35 Y 48 X -17 Y 48 X -13 Y 48 X -1 Y 48 X -3 Y 48 X -1 Y 96 X -2 Y 95 X 2 Y 48 X -2 Y s 1 0 0 c black 3 lw 1 0 0 c 2126 202 m s 2078 202 m s 2030 202 m s 1982 202 m s 1934 202 m s 1886 202 m s 1837 202 m s 1791 204 m -2 -2 d s 1746 207 m
 -5 -5 d s 1696 204 m -3 -2 d s 1654 211 m -9 -9 d s 1610 215 m -13 -13 d s 1579 233 m -30 -31 d s 1558 259 m -57 -57 d s 1532 281 m -79 -79 d s 1532 329 m -128 -127 d s 1522 367 m -166 -165 d s 1484 377 m -176 -175 d s 1472 414 m -212 -212 d s 1436
 426 m -224 -224 d s 1436 474 m -272 -272 d s 1428 514 m -312 -312 d s 1388 522 m -320 -320 d s 1388 570 m -368 -368 d s 1388 618 m -416 -416 d s 1388 666 m -288 -287 d s 1097 375 m -174 -173 d s 1388 714 m -288 -287 d s 1016 342 m -11 -11 d s 959
 285 m -2 -2 d s 932 259 m -57 -57 d s 1360 735 m -260 -260 d s 852 227 m -25 -25 d s 1340 763 m -240 -240 d s 809 231 m -30 -29 d s 1340 811 m -192 -192 d s 1107 578 m -7 -7 d s 743 213 m -12 -11 d s 1340 859 m -192 -192 d s 695 213 m -12 -11 d s
 1340 907 m -192 -192 d s 644 211 m -9 -9 d s 1340 955 m -192 -192 d s 588 203 m -1 -1 d s 1340 1003 m -192 -191 d s 540 203 m -1 -1 d s 1340 1051 m -144 -143 d s 1162 873 m -14 -13 d s 492 204 m -2 -2 d s 1314 1074 m -118 -118 d s 444 204 m -2 -2 d
 s 1292 1100 m -96 -96 d s 394 202 m cl s 1292 1148 m -48 -48 d s 1198 1054 m -2 -2 d s 347 202 m -1 X s 1292 1196 m -48 -48 d s 299 203 m -1 -1 d s 1292 1244 m -48 -48 d s 251 203 m -1 -1 d s 1292 1292 m -48 -48 d s 1247 1295 m -3 -3 d s 6 lw 238
 203 m 96 X -1 Y 96 X 2 Y 96 X -1 Y 95 X 8 Y 48 X 2 Y 96 X 18 Y 48 X -4 Y 48 X 8 Y 48 X 24 Y 48 X 26 Y 48 X 57 Y 48 X 33 Y 47 X 203 Y 48 X 295 Y 48 X 181 Y 48 X 241 Y 48 X -221 Y 48 X -339 Y 48 X -221 Y 48 X -100 Y 48 X -47 Y 48 X -108 Y 47 X -44 Y
 48 X -4 Y 48 X -7 Y 48 X 3 Y 48 X -3 Y 48 X -2 Y 335 X s black 3 lw 238 202 m 1916 X s 437 244 m -42 Y s 492 223 m -21 Y s 547 223 m -21 Y s 602 223 m -21 Y s 657 244 m -42 Y s 712 223 m -21 Y s 767 223 m -21 Y s 823 223 m -21 Y s 878 244 m -42 Y s
 933 223 m -21 Y s 988 223 m -21 Y s 1043 223 m -21 Y s 1098 244 m -42 Y s 1153 223 m -21 Y s 1208 223 m -21 Y s 1264 223 m -21 Y s 1319 244 m -42 Y s 1374 223 m -21 Y s 1429 223 m -21 Y s 1484 223 m -21 Y s 1539 244 m -42 Y s 1594 223 m -21 Y s 1649
 223 m -21 Y s 1704 223 m -21 Y s 1760 244 m -42 Y s 1815 223 m -21 Y s 1870 223 m -21 Y s 1925 223 m -21 Y s 1980 244 m -42 Y s 437 244 m -42 Y s 382 223 m -21 Y s 327 223 m -21 Y s 271 223 m -21 Y s 1980 244 m -42 Y s 2035 223 m -21 Y s 2090 223 m
 -21 Y s 2145 223 m -21 Y s 238 1514 m 1916 X s 437 1471 m 43 Y s 492 1492 m 22 Y s 547 1492 m 22 Y s 602 1492 m 22 Y s 657 1471 m 43 Y s 712 1492 m 22 Y s 767 1492 m 22 Y s 823 1492 m 22 Y s 878 1471 m 43 Y s 933 1492 m 22 Y s 988 1492 m 22 Y s 1043
 1492 m 22 Y s 1098 1471 m 43 Y s 1153 1492 m 22 Y s 1208 1492 m 22 Y s 1264 1492 m 22 Y s 1319 1471 m 43 Y s 1374 1492 m 22 Y s 1429 1492 m 22 Y s 1484 1492 m 22 Y s 1539 1471 m 43 Y s 1594 1492 m 22 Y s 1649 1492 m 22 Y s 1704 1492 m 22 Y s 1760
 1471 m 43 Y s 1815 1492 m 22 Y s 1870 1492 m 22 Y s 1925 1492 m 22 Y s 1980 1471 m 43 Y s 437 1471 m 43 Y s 382 1492 m 22 Y s 327 1492 m 22 Y s 271 1492 m 22 Y s 1980 1471 m 43 Y s 2035 1492 m 22 Y s 2090 1492 m 22 Y s 2145 1492 m 22 Y s 238 202 m
 1312 Y s 291 202 m -53 X s 265 252 m -27 X s 265 302 m -27 X s 265 352 m -27 X s 265 402 m -27 X s 291 452 m -53 X s 265 502 m -27 X s 265 552 m -27 X s 265 602 m -27 X s 265 652 m -27 X s 291 702 m -53 X s 265 752 m -27 X s 265 802 m -27 X s 265
 852 m -27 X s 265 902 m -27 X s 291 953 m -53 X s 265 1003 m -27 X s 265 1053 m -27 X s 265 1103 m -27 X s 265 1153 m -27 X s 291 1203 m -53 X s 265 1253 m -27 X s 265 1303 m -27 X s 265 1353 m -27 X s 265 1403 m -27 X s 291 1453 m -53 X s 291 1453
 m -53 X s 265 1503 m -27 X s 2154 202 m 1312 Y s 2101 202 m 53 X s 2128 252 m 26 X s 2128 302 m 26 X s 2128 352 m 26 X s 2128 402 m 26 X s 2101 452 m 53 X s 2128 502 m 26 X s 2128 552 m 26 X s 2128 602 m 26 X s 2128 652 m 26 X s 2101 702 m 53 X s
 2128 752 m 26 X s 2128 802 m 26 X s 2128 852 m 26 X s 2128 902 m 26 X s 2101 953 m 53 X s 2128 1003 m 26 X s 2128 1053 m 26 X s 2128 1103 m 26 X s 2128 1153 m 26 X s 2101 1203 m 53 X s 2128 1253 m 26 X s 2128 1303 m 26 X s 2128 1353 m 26 X s 2128
 1403 m 26 X s 2101 1453 m 53 X s 2101 1453 m 53 X s 2128 1503 m 26 X s
 gsave  2268 1682 0 0 C 2211.02 193.403 t 90 r /Helvetica-Bold findfont 45.6587 sf 0 0 m (U/O\255flow \(S,B\): \(0.0, 0.0\)% / \(0.0, 0.0\)%) show NC gr  0.490196 0.545098 0.615686 c 0.364706 0.419608 0.490196 c 1586 96 23 1577 bf 0.490196 0.545098
 0.615686 c 23 1577 m 1586 X s 1609 1577 m 96 Y s 1609 1673 m -1586 X s 23 1673 m -96 Y s 1 1 1 c black 1 1 1 c
 gsave  2268 1682 0 0 C 79.9028 1605.67 t 0 r /Helvetica-Bold findfont 76.0979 sf 0 0 m (TMVA response for classifier: MLPBFGS) show NC gr 
 gr  gr showpage
end
%%EOF
