%!PS-Adobe-2.0 EPSF-2.0
%%BoundingBox:  0 0 567 420
%%Title: plots/mva_TMlpANN.eps: TMVA response TMlpANN
%%Creator: ROOT Version 5.34/09
%%CreationDate: Wed Dec 18 11:45:33 2013
%%EndComments
%%BeginProlog
80 dict begin
/s {stroke} def /l {lineto} def /m {moveto} def /t {translate} def
/r {rotate} def /rl {roll}  def /R {repeat} def
/d {rlineto} def /rm {rmoveto} def /gr {grestore} def /f {eofill} def
/c {setrgbcolor} def /black {0 setgray} def /sd {setdash} def
/cl {closepath} def /sf {scalefont setfont} def /lw {setlinewidth} def
/box {m dup 0 exch d exch 0 d 0 exch neg d cl} def
/NC{systemdict begin initclip end}def/C{NC box clip newpath}def
/bl {box s} def /bf {box f} def /Y { 0 exch d} def /X { 0 d} def 
/K {{pop pop 0 moveto} exch kshow} bind def
/ita {/ang 15 def gsave [1 0 ang dup sin exch cos div 1 0 0] concat} def 
/mp {newpath /y exch def /x exch def} def
/side {[w .77 mul w .23 mul] .385 w mul sd w 0 l currentpoint t -144 r} def
/mr {mp x y w2 0 360 arc} def /m24 {mr s} def /m20 {mr f} def
/mb {mp x y w2 add m w2 neg 0 d 0 w neg d w 0 d 0 w d cl} def
/mt {mp x y w2 add m w2 neg w neg d w 0 d cl} def
/m21 {mb f} def /m25 {mb s} def /m22 {mt f} def /m26{mt s} def
/m23 {mp x y w2 sub m w2 w d w neg 0 d cl f} def
/m27 {mp x y w2 add m w3 neg w2 neg d w3 w2 neg d w3 w2 d cl s} def
/m28 {mp x w2 sub y w2 sub w3 add m w3 0 d  0 w3 neg d w3 0 d 0 w3 d w3 0 d  0 w3 d w3 neg 0 d 0 w3 d w3 neg 0 d 0 w3 neg d w3 neg 0 d cl s } def
/m29 {mp gsave x w2 sub y w2 add w3 sub m currentpoint t 4 {side} repeat cl fill gr} def
/m30 {mp gsave x w2 sub y w2 add w3 sub m currentpoint t 4 {side} repeat cl s gr} def
/m31 {mp x y w2 sub m 0 w d x w2 sub y m w 0 d x w2 sub y w2 add m w w neg d x w2 sub y w2 sub m w w d s} def
/m32 {mp x y w2 sub m w2 w d w neg 0 d cl s} def
/m33 {mp x y w2 add m w3 neg w2 neg d w3 w2 neg d w3 w2 d cl f} def
/m34 {mp x w2 sub y w2 sub w3 add m w3 0 d  0 w3 neg d w3 0 d 0 w3 d w3 0 d  0 w3 d w3 neg 0 d 0 w3 d w3 neg 0 d 0 w3 neg d w3 neg 0 d cl f } def
/m2 {mp x y w2 sub m 0 w d x w2 sub y m w 0 d s} def
/m5 {mp x w2 sub y w2 sub m w w d x w2 sub y w2 add m w w neg d s} def
/reEncode {exch findfont dup length dict begin {1 index /FID eq  {pop pop} {def} ifelse } forall /Encoding exch def currentdict end dup /FontName get exch definefont pop } def [/Times-Bold /Times-Italic /Times-BoldItalic /Helvetica /Helvetica-Oblique
 /Helvetica-Bold /Helvetica-BoldOblique /Courier /Courier-Oblique /Courier-Bold /Courier-BoldOblique /Times-Roman /AvantGarde-Book /AvantGarde-BookOblique /AvantGarde-Demi /AvantGarde-DemiOblique /Bookman-Demi /Bookman-DemiItalic /Bookman-Light
 /Bookman-LightItalic /Helvetica-Narrow /Helvetica-Narrow-Bold /Helvetica-Narrow-BoldOblique /Helvetica-Narrow-Oblique /NewCenturySchlbk-Roman /NewCenturySchlbk-Bold /NewCenturySchlbk-BoldItalic /NewCenturySchlbk-Italic /Palatino-Bold
 /Palatino-BoldItalic /Palatino-Italic /Palatino-Roman ] {ISOLatin1Encoding reEncode } forall
%%EndProlog
%%BeginSetup
%%EndSetup
newpath  gsave  .25 .25 scale  gsave  0 0 t 0.490196 0.545098 0.615686 c[  ] 0 sd 3 lw 0.941176 0.941176 0.941176 c 2268 1682 0 0 bf black 1 1 0.992157 c 1916 1312 238 202 bf black 1916 1312 238 202 bl 1 1 0.992157 c 1916 1312 238 202 bf black 1916
 1312 238 202 bl 238 202 m 1916 X s
 gsave  2268 1682 0 0 C 1487.71 34.244 t 0 r /Helvetica-Bold findfont 72.293 sf 0 0 m (TMlpANN response) show NC gr  366 244 m -42 Y s 445 223 m -21 Y s 523 223 m -21 Y s 601 223 m -21 Y s 680 244 m -42 Y s 758 223 m -21 Y s 837 223 m -21 Y s 915 223
 m -21 Y s 993 244 m -42 Y s 1072 223 m -21 Y s 1150 223 m -21 Y s 1228 223 m -21 Y s 1307 244 m -42 Y s 1385 223 m -21 Y s 1464 223 m -21 Y s 1542 223 m -21 Y s 1620 244 m -42 Y s 1699 223 m -21 Y s 1777 223 m -21 Y s 1855 223 m -21 Y s 1934 244 m
 -42 Y s 366 244 m -42 Y s 288 223 m -21 Y s 1934 244 m -42 Y s 2012 223 m -21 Y s 2090 223 m -21 Y s
 gsave  2268 1682 0 0 C 346.245 129.366 t 0 r /Helvetica-Bold findfont 64.6832 sf 0 0 m (0) show NC gr 
 gsave  2268 1682 0 0 C 631.612 129.366 t 0 r /Helvetica-Bold findfont 64.6832 sf 0 0 m (0.2) show NC gr 
 gsave  2268 1682 0 0 C 947.418 129.366 t 0 r /Helvetica-Bold findfont 64.6832 sf 0 0 m (0.4) show NC gr 
 gsave  2268 1682 0 0 C 1259.42 129.366 t 0 r /Helvetica-Bold findfont 64.6832 sf 0 0 m (0.6) show NC gr 
 gsave  2268 1682 0 0 C 1571.42 129.366 t 0 r /Helvetica-Bold findfont 64.6832 sf 0 0 m (0.8) show NC gr 
 gsave  2268 1682 0 0 C 1917.67 129.366 t 0 r /Helvetica-Bold findfont 64.6832 sf 0 0 m (1) show NC gr  238 1514 m 1916 X s 366 1471 m 43 Y s 445 1492 m 22 Y s 523 1492 m 22 Y s 601 1492 m 22 Y s 680 1471 m 43 Y s 758 1492 m 22 Y s 837 1492 m 22 Y s
 915 1492 m 22 Y s 993 1471 m 43 Y s 1072 1492 m 22 Y s 1150 1492 m 22 Y s 1228 1492 m 22 Y s 1307 1471 m 43 Y s 1385 1492 m 22 Y s 1464 1492 m 22 Y s 1542 1492 m 22 Y s 1620 1471 m 43 Y s 1699 1492 m 22 Y s 1777 1492 m 22 Y s 1855 1492 m 22 Y s 1934
 1471 m 43 Y s 366 1471 m 43 Y s 288 1492 m 22 Y s 1934 1471 m 43 Y s 2012 1492 m 22 Y s 2090 1492 m 22 Y s 238 202 m 1312 Y s
 gsave  2268 1682 0 0 C 64.6832 1430.64 t 90 r /Helvetica-Bold findfont 72.293 sf 0 0 m (dx) show NC gr 
 gsave  2268 1682 0 0 C 30.4391 1411.62 t 90 r /Helvetica-Bold findfont 45.6587 sf 0 0 m ( ) show NC gr 
 gsave  2268 1682 0 0 C 64.6832 1388.79 t 90 r /Helvetica-Bold findfont 72.293 sf 0 0 m (/) show NC gr 
 gsave  2268 1682 0 0 C 30.4391 1369.76 t 90 r /Helvetica-Bold findfont 45.6587 sf 0 0 m ( ) show NC gr 
 gsave  2268 1682 0 0 C 60.8783 1095.81 t 90 r /Helvetica-Bold findfont 72.293 sf 0 0 m (\(1/N\) dN) show NC gr  291 202 m -53 X s 265 228 m -27 X s 265 255 m -27 X s 265 281 m -27 X s 265 308 m -27 X s 291 334 m -53 X s 265 361 m -27 X s 265 387 m
 -27 X s 265 414 m -27 X s 265 441 m -27 X s 291 467 m -53 X s 265 494 m -27 X s 265 520 m -27 X s 265 547 m -27 X s 265 573 m -27 X s 291 600 m -53 X s 265 626 m -27 X s 265 653 m -27 X s 265 679 m -27 X s 265 706 m -27 X s 291 732 m -53 X s 265 759
 m -27 X s 265 785 m -27 X s 265 812 m -27 X s 265 838 m -27 X s 291 865 m -53 X s 265 891 m -27 X s 265 918 m -27 X s 265 945 m -27 X s 265 971 m -27 X s 291 998 m -53 X s 265 1024 m -27 X s 265 1051 m -27 X s 265 1077 m -27 X s 265 1104 m -27 X s
 291 1130 m -53 X s 265 1157 m -27 X s 265 1183 m -27 X s 265 1210 m -27 X s 265 1236 m -27 X s 291 1263 m -53 X s 265 1289 m -27 X s 265 1316 m -27 X s 265 1342 m -27 X s 265 1369 m -27 X s 291 1395 m -53 X s 291 1395 m -53 X s 265 1422 m -27 X s
 265 1449 m -27 X s 265 1475 m -27 X s 265 1502 m -27 X s
 gsave  2268 1682 0 0 C 175.025 178.83 t 0 r /Helvetica-Bold findfont 64.6832 sf 0 0 m (0) show NC gr 
 gsave  2268 1682 0 0 C 121.757 308.196 t 0 r /Helvetica-Bold findfont 64.6832 sf 0 0 m (0.5) show NC gr 
 gsave  2268 1682 0 0 C 182.635 441.368 t 0 r /Helvetica-Bold findfont 64.6832 sf 0 0 m (1) show NC gr 
 gsave  2268 1682 0 0 C 121.757 574.539 t 0 r /Helvetica-Bold findfont 64.6832 sf 0 0 m (1.5) show NC gr 
 gsave  2268 1682 0 0 C 175.025 707.71 t 0 r /Helvetica-Bold findfont 64.6832 sf 0 0 m (2) show NC gr 
 gsave  2268 1682 0 0 C 121.757 840.881 t 0 r /Helvetica-Bold findfont 64.6832 sf 0 0 m (2.5) show NC gr 
 gsave  2268 1682 0 0 C 175.025 974.053 t 0 r /Helvetica-Bold findfont 64.6832 sf 0 0 m (3) show NC gr 
 gsave  2268 1682 0 0 C 121.757 1107.22 t 0 r /Helvetica-Bold findfont 64.6832 sf 0 0 m (3.5) show NC gr 
 gsave  2268 1682 0 0 C 175.025 1236.59 t 0 r /Helvetica-Bold findfont 64.6832 sf 0 0 m (4) show NC gr 
 gsave  2268 1682 0 0 C 121.757 1369.76 t 0 r /Helvetica-Bold findfont 64.6832 sf 0 0 m (4.5) show NC gr  2154 202 m 1312 Y s 2101 202 m 53 X s 2128 228 m 26 X s 2128 255 m 26 X s 2128 281 m 26 X s 2128 308 m 26 X s 2101 334 m 53 X s 2128 361 m 26 X
 s 2128 387 m 26 X s 2128 414 m 26 X s 2128 441 m 26 X s 2101 467 m 53 X s 2128 494 m 26 X s 2128 520 m 26 X s 2128 547 m 26 X s 2128 573 m 26 X s 2101 600 m 53 X s 2128 626 m 26 X s 2128 653 m 26 X s 2128 679 m 26 X s 2128 706 m 26 X s 2101 732 m 53
 X s 2128 759 m 26 X s 2128 785 m 26 X s 2128 812 m 26 X s 2128 838 m 26 X s 2101 865 m 53 X s 2128 891 m 26 X s 2128 918 m 26 X s 2128 945 m 26 X s 2128 971 m 26 X s 2101 998 m 53 X s 2128 1024 m 26 X s 2128 1051 m 26 X s 2128 1077 m 26 X s 2128
 1104 m 26 X s 2101 1130 m 53 X s 2128 1157 m 26 X s 2128 1183 m 26 X s 2128 1210 m 26 X s 2128 1236 m 26 X s 2101 1263 m 53 X s 2128 1289 m 26 X s 2128 1316 m 26 X s 2128 1342 m 26 X s 2128 1369 m 26 X s 2101 1395 m 53 X s 2101 1395 m 53 X s 2128
 1422 m 26 X s 2128 1449 m 26 X s 2128 1475 m 26 X s 2128 1502 m 26 X s 0.490196 0.545098 0.615686 c 0.95 0.95 0.95 c 0.490196 0.545098 0.615686 c 680 202 238 1312 bl 238 1312 m 680 X s 918 1312 m 202 Y s 918 1514 m -680 X s 238 1514 m -202 Y s black
 gsave  2268 1682 0 0 C 441.368 1442.05 t 0 r /Times-Italic findfont 76.0979 sf 0 0 m (Signal) show NC gr  0.49 0.6 0.82 c 269 1428 m 143 X 70 Y -143 X f 0 0 0.933333 c 6 lw 269 1498 m 143 X s 269 1428 m 143 X s 412 1428 m 70 Y s 269 1428 m 70 Y s
 black
 gsave  2268 1682 0 0 C 441.368 1343.13 t 0 r /Times-Italic findfont 76.0979 sf 0 0 m (Background) show NC gr  1 0 0 c 3 lw 412 1374 m -47 -47 d s 387 1398 m -70 -71 d s 339 1398 m -70 -71 d s 291 1398 m -22 -23 d s 6 lw 0 0 0.933333 c 1 0 0 c 269
 1398 m 143 X s 269 1327 m 143 X s 412 1327 m 71 Y s 269 1327 m 71 Y s 0 0 0.933333 c 0.49 0.6 0.82 c black 3 lw 0.49 0.6 0.82 c 238 202 m 1 Y 48 X -1 Y 192 X 12 Y 48 X -9 Y 47 X 1 Y 48 X -2 Y 48 X 2 Y 48 X 13 Y 48 X 12 Y 48 X 18 Y 48 X 20 Y 48 X 26
 Y 48 X 51 Y 48 X 145 Y 48 X 99 Y 47 X 172 Y 48 X 109 Y 48 X 118 Y 48 X 173 Y 48 X 133 Y 48 X -230 Y 48 X -275 Y 48 X -98 Y 48 X -129 Y 48 X -9 Y 47 X -87 Y 48 X -34 Y 48 X -85 Y 48 X -47 Y 48 X -62 Y 48 X -6 Y 48 X -18 Y 48 X -7 Y 48 X 6 Y 48 X -9 Y
 48 X -1 Y 47 X 1 Y 48 X -3 Y f 6 lw 0 0 0.933333 c 0.49 0.6 0.82 c 0 0 0.933333 c 238 203 m 48 X -1 Y 192 X 12 Y 48 X -9 Y 47 X 1 Y 48 X -2 Y 48 X 2 Y 48 X 13 Y 48 X 12 Y 48 X 18 Y 48 X 20 Y 48 X 26 Y 48 X 51 Y 48 X 145 Y 48 X 99 Y 47 X 172 Y 48 X
 109 Y 48 X 118 Y 48 X 173 Y 48 X 133 Y 48 X -230 Y 48 X -275 Y 48 X -98 Y 48 X -129 Y 48 X -9 Y 47 X -87 Y 48 X -34 Y 48 X -85 Y 48 X -47 Y 48 X -62 Y 48 X -6 Y 48 X -18 Y 48 X -7 Y 48 X 6 Y 48 X -9 Y 48 X -1 Y 47 X 1 Y 48 X -3 Y s 1 0 0 c black 3
 lw 1 0 0 c 2126 202 m s 2079 203 m -1 -1 d s 2031 203 m -1 -1 d s 1984 204 m -2 -2 d s 1937 205 m -3 -3 d s 1889 205 m -3 -3 d s 1840 204 m -3 -2 d s 1794 206 m -5 -4 d s 1754 215 m -13 -13 d s 1721 230 m -28 -28 d s 1675 232 m -30 -30 d s 1666 271
 m -69 -69 d s 1627 280 m -78 -78 d s 1627 329 m -126 -127 d s 1593 342 m -140 -140 d s 1579 377 m -175 -175 d s 1547 392 m -191 -190 d s 1526 420 m -218 -218 d s 1484 425 m -224 -223 d s 1484 473 m -272 -271 d s 1455 493 m -291 -291 d s 1436 522 m
 -320 -320 d s 1436 570 m -368 -368 d s 1429 611 m -409 -409 d s 1388 618 m -416 -416 d s 1388 666 m -465 -464 d s 1388 714 m -513 -512 d s 1388 762 m -561 -560 d s 1388 811 m -609 -609 d s 1388 859 m -431 -431 d s 950 421 m -41 -41 d s 903 374 m -42
 -42 d s 843 314 m -30 -30 d s 783 254 m -52 -52 d s 1388 907 m -383 -383 d s 990 509 m -33 -33 d s 743 262 m -60 -60 d s 1380 947 m -375 -375 d s 673 240 m -38 -38 d s 1340 955 m -287 -287 d s 1041 656 m -36 -36 d s 636 251 m -15 -14 d s 605 220 m
 -18 -18 d s 1340 1003 m -287 -287 d s 553 216 m -14 -14 d s 1340 1051 m -287 -287 d s 504 216 m -14 -14 d s 1340 1099 m -240 -239 d s 1076 836 m -23 -24 d s 457 216 m -15 -14 d s 1336 1143 m -188 -187 d s 1114 921 m -14 -13 d s 399 207 m -5 -5 d s
 1292 1148 m -96 -96 d s 1186 1041 m -38 -37 d s 346 202 m s 1262 1166 m -18 -18 d s 1225 1129 m -29 -29 d s 298 202 m s 250 202 m s 6 lw 238 202 m 144 X 5 Y 48 X 9 Y 143 X 4 Y 48 X 31 Y 48 X -11 Y 48 X 22 Y 48 X -8 Y 48 X 60 Y 48 X 60 Y 48 X 47 Y 48
 X 88 Y 48 X 147 Y 48 X 180 Y 47 X 85 Y 48 X 120 Y 48 X 88 Y 48 X 37 Y 48 X -23 Y 48 X -196 Y 48 X -336 Y 48 X -118 Y 48 X -73 Y 48 X -28 Y 47 X -50 Y 48 X -71 Y 48 X -41 Y 48 X -15 Y 48 X -9 Y 48 X -2 Y 48 X 1 Y 96 X -1 Y 48 X -1 Y 95 X -1 Y 48 X s
 black 3 lw 238 202 m 1916 X s 366 244 m -42 Y s 445 223 m -21 Y s 523 223 m -21 Y s 601 223 m -21 Y s 680 244 m -42 Y s 758 223 m -21 Y s 837 223 m -21 Y s 915 223 m -21 Y s 993 244 m -42 Y s 1072 223 m -21 Y s 1150 223 m -21 Y s 1228 223 m -21 Y s
 1307 244 m -42 Y s 1385 223 m -21 Y s 1464 223 m -21 Y s 1542 223 m -21 Y s 1620 244 m -42 Y s 1699 223 m -21 Y s 1777 223 m -21 Y s 1855 223 m -21 Y s 1934 244 m -42 Y s 366 244 m -42 Y s 288 223 m -21 Y s 1934 244 m -42 Y s 2012 223 m -21 Y s 2090
 223 m -21 Y s 238 1514 m 1916 X s 366 1471 m 43 Y s 445 1492 m 22 Y s 523 1492 m 22 Y s 601 1492 m 22 Y s 680 1471 m 43 Y s 758 1492 m 22 Y s 837 1492 m 22 Y s 915 1492 m 22 Y s 993 1471 m 43 Y s 1072 1492 m 22 Y s 1150 1492 m 22 Y s 1228 1492 m 22
 Y s 1307 1471 m 43 Y s 1385 1492 m 22 Y s 1464 1492 m 22 Y s 1542 1492 m 22 Y s 1620 1471 m 43 Y s 1699 1492 m 22 Y s 1777 1492 m 22 Y s 1855 1492 m 22 Y s 1934 1471 m 43 Y s 366 1471 m 43 Y s 288 1492 m 22 Y s 1934 1471 m 43 Y s 2012 1492 m 22 Y s
 2090 1492 m 22 Y s 238 202 m 1312 Y s 291 202 m -53 X s 265 228 m -27 X s 265 255 m -27 X s 265 281 m -27 X s 265 308 m -27 X s 291 334 m -53 X s 265 361 m -27 X s 265 387 m -27 X s 265 414 m -27 X s 265 441 m -27 X s 291 467 m -53 X s 265 494 m -27
 X s 265 520 m -27 X s 265 547 m -27 X s 265 573 m -27 X s 291 600 m -53 X s 265 626 m -27 X s 265 653 m -27 X s 265 679 m -27 X s 265 706 m -27 X s 291 732 m -53 X s 265 759 m -27 X s 265 785 m -27 X s 265 812 m -27 X s 265 838 m -27 X s 291 865 m
 -53 X s 265 891 m -27 X s 265 918 m -27 X s 265 945 m -27 X s 265 971 m -27 X s 291 998 m -53 X s 265 1024 m -27 X s 265 1051 m -27 X s 265 1077 m -27 X s 265 1104 m -27 X s 291 1130 m -53 X s 265 1157 m -27 X s 265 1183 m -27 X s 265 1210 m -27 X s
 265 1236 m -27 X s 291 1263 m -53 X s 265 1289 m -27 X s 265 1316 m -27 X s 265 1342 m -27 X s 265 1369 m -27 X s 291 1395 m -53 X s 291 1395 m -53 X s 265 1422 m -27 X s 265 1449 m -27 X s 265 1475 m -27 X s 265 1502 m -27 X s 2154 202 m 1312 Y s
 2101 202 m 53 X s 2128 228 m 26 X s 2128 255 m 26 X s 2128 281 m 26 X s 2128 308 m 26 X s 2101 334 m 53 X s 2128 361 m 26 X s 2128 387 m 26 X s 2128 414 m 26 X s 2128 441 m 26 X s 2101 467 m 53 X s 2128 494 m 26 X s 2128 520 m 26 X s 2128 547 m 26 X
 s 2128 573 m 26 X s 2101 600 m 53 X s 2128 626 m 26 X s 2128 653 m 26 X s 2128 679 m 26 X s 2128 706 m 26 X s 2101 732 m 53 X s 2128 759 m 26 X s 2128 785 m 26 X s 2128 812 m 26 X s 2128 838 m 26 X s 2101 865 m 53 X s 2128 891 m 26 X s 2128 918 m 26
 X s 2128 945 m 26 X s 2128 971 m 26 X s 2101 998 m 53 X s 2128 1024 m 26 X s 2128 1051 m 26 X s 2128 1077 m 26 X s 2128 1104 m 26 X s 2101 1130 m 53 X s 2128 1157 m 26 X s 2128 1183 m 26 X s 2128 1210 m 26 X s 2128 1236 m 26 X s 2101 1263 m 53 X s
 2128 1289 m 26 X s 2128 1316 m 26 X s 2128 1342 m 26 X s 2128 1369 m 26 X s 2101 1395 m 53 X s 2101 1395 m 53 X s 2128 1422 m 26 X s 2128 1449 m 26 X s 2128 1475 m 26 X s 2128 1502 m 26 X s
 gsave  2268 1682 0 0 C 2211.02 193.403 t 90 r /Helvetica-Bold findfont 45.6587 sf 0 0 m (U/O\255flow \(S,B\): \(0.0, 0.0\)% / \(0.0, 0.0\)%) show NC gr  0.490196 0.545098 0.615686 c 0.364706 0.419608 0.490196 c 1552 96 23 1577 bf 0.490196 0.545098
 0.615686 c 23 1577 m 1552 X s 1575 1577 m 96 Y s 1575 1673 m -1552 X s 23 1673 m -96 Y s 1 1 1 c black 1 1 1 c
 gsave  2268 1682 0 0 C 76.0979 1605.67 t 0 r /Helvetica-Bold findfont 76.0979 sf 0 0 m (TMVA response for classifier: TMlpANN) show NC gr 
 gr  gr showpage
end
%%EOF
