%!PS-Adobe-2.0 EPSF-2.0
%%BoundingBox:  0 0 567 420
%%Title: plots/mva_MLPBNN.eps: TMVA response MLPBNN
%%Creator: ROOT Version 5.34/09
%%CreationDate: Wed Dec 18 11:45:31 2013
%%EndComments
%%BeginProlog
80 dict begin
/s {stroke} def /l {lineto} def /m {moveto} def /t {translate} def
/r {rotate} def /rl {roll}  def /R {repeat} def
/d {rlineto} def /rm {rmoveto} def /gr {grestore} def /f {eofill} def
/c {setrgbcolor} def /black {0 setgray} def /sd {setdash} def
/cl {closepath} def /sf {scalefont setfont} def /lw {setlinewidth} def
/box {m dup 0 exch d exch 0 d 0 exch neg d cl} def
/NC{systemdict begin initclip end}def/C{NC box clip newpath}def
/bl {box s} def /bf {box f} def /Y { 0 exch d} def /X { 0 d} def 
/K {{pop pop 0 moveto} exch kshow} bind def
/ita {/ang 15 def gsave [1 0 ang dup sin exch cos div 1 0 0] concat} def 
/mp {newpath /y exch def /x exch def} def
/side {[w .77 mul w .23 mul] .385 w mul sd w 0 l currentpoint t -144 r} def
/mr {mp x y w2 0 360 arc} def /m24 {mr s} def /m20 {mr f} def
/mb {mp x y w2 add m w2 neg 0 d 0 w neg d w 0 d 0 w d cl} def
/mt {mp x y w2 add m w2 neg w neg d w 0 d cl} def
/m21 {mb f} def /m25 {mb s} def /m22 {mt f} def /m26{mt s} def
/m23 {mp x y w2 sub m w2 w d w neg 0 d cl f} def
/m27 {mp x y w2 add m w3 neg w2 neg d w3 w2 neg d w3 w2 d cl s} def
/m28 {mp x w2 sub y w2 sub w3 add m w3 0 d  0 w3 neg d w3 0 d 0 w3 d w3 0 d  0 w3 d w3 neg 0 d 0 w3 d w3 neg 0 d 0 w3 neg d w3 neg 0 d cl s } def
/m29 {mp gsave x w2 sub y w2 add w3 sub m currentpoint t 4 {side} repeat cl fill gr} def
/m30 {mp gsave x w2 sub y w2 add w3 sub m currentpoint t 4 {side} repeat cl s gr} def
/m31 {mp x y w2 sub m 0 w d x w2 sub y m w 0 d x w2 sub y w2 add m w w neg d x w2 sub y w2 sub m w w d s} def
/m32 {mp x y w2 sub m w2 w d w neg 0 d cl s} def
/m33 {mp x y w2 add m w3 neg w2 neg d w3 w2 neg d w3 w2 d cl f} def
/m34 {mp x w2 sub y w2 sub w3 add m w3 0 d  0 w3 neg d w3 0 d 0 w3 d w3 0 d  0 w3 d w3 neg 0 d 0 w3 d w3 neg 0 d 0 w3 neg d w3 neg 0 d cl f } def
/m2 {mp x y w2 sub m 0 w d x w2 sub y m w 0 d s} def
/m5 {mp x w2 sub y w2 sub m w w d x w2 sub y w2 add m w w neg d s} def
/reEncode {exch findfont dup length dict begin {1 index /FID eq  {pop pop} {def} ifelse } forall /Encoding exch def currentdict end dup /FontName get exch definefont pop } def [/Times-Bold /Times-Italic /Times-BoldItalic /Helvetica /Helvetica-Oblique
 /Helvetica-Bold /Helvetica-BoldOblique /Courier /Courier-Oblique /Courier-Bold /Courier-BoldOblique /Times-Roman /AvantGarde-Book /AvantGarde-BookOblique /AvantGarde-Demi /AvantGarde-DemiOblique /Bookman-Demi /Bookman-DemiItalic /Bookman-Light
 /Bookman-LightItalic /Helvetica-Narrow /Helvetica-Narrow-Bold /Helvetica-Narrow-BoldOblique /Helvetica-Narrow-Oblique /NewCenturySchlbk-Roman /NewCenturySchlbk-Bold /NewCenturySchlbk-BoldItalic /NewCenturySchlbk-Italic /Palatino-Bold
 /Palatino-BoldItalic /Palatino-Italic /Palatino-Roman ] {ISOLatin1Encoding reEncode } forall
%%EndProlog
%%BeginSetup
%%EndSetup
newpath  gsave  .25 .25 scale  gsave  0 0 t 0.490196 0.545098 0.615686 c[  ] 0 sd 3 lw 0.941176 0.941176 0.941176 c 2268 1682 0 0 bf black 1 1 0.992157 c 1916 1312 238 202 bf black 1916 1312 238 202 bl 1 1 0.992157 c 1916 1312 238 202 bf black 1916
 1312 238 202 bl 238 202 m 1916 X s
 gsave  2268 1682 0 0 C 1502.93 34.244 t 0 r /Helvetica-Bold findfont 72.293 sf 0 0 m (MLPBNN response) show NC gr  265 244 m -42 Y s 314 223 m -21 Y s 363 223 m -21 Y s 412 223 m -21 Y s 461 244 m -42 Y s 510 223 m -21 Y s 559 223 m -21 Y s 609 223
 m -21 Y s 658 244 m -42 Y s 707 223 m -21 Y s 756 223 m -21 Y s 805 223 m -21 Y s 854 244 m -42 Y s 903 223 m -21 Y s 952 223 m -21 Y s 1001 223 m -21 Y s 1051 244 m -42 Y s 1100 223 m -21 Y s 1149 223 m -21 Y s 1198 223 m -21 Y s 1247 244 m -42 Y s
 1296 223 m -21 Y s 1345 223 m -21 Y s 1394 223 m -21 Y s 1443 244 m -42 Y s 1493 223 m -21 Y s 1542 223 m -21 Y s 1591 223 m -21 Y s 1640 244 m -42 Y s 1689 223 m -21 Y s 1738 223 m -21 Y s 1787 223 m -21 Y s 1836 244 m -42 Y s 1885 223 m -21 Y s
 1934 223 m -21 Y s 1984 223 m -21 Y s 2033 244 m -42 Y s 265 244 m -42 Y s 2033 244 m -42 Y s 2082 223 m -21 Y s 2131 223 m -21 Y s
 gsave  2268 1682 0 0 C 205.464 129.366 t 0 r /Helvetica-Bold findfont 64.6832 sf 0 0 m (\2550.4) show NC gr 
 gsave  2268 1682 0 0 C 403.319 129.366 t 0 r /Helvetica-Bold findfont 64.6832 sf 0 0 m (\2550.2) show NC gr 
 gsave  2268 1682 0 0 C 635.417 129.366 t 0 r /Helvetica-Bold findfont 64.6832 sf 0 0 m (0) show NC gr 
 gsave  2268 1682 0 0 C 806.637 129.366 t 0 r /Helvetica-Bold findfont 64.6832 sf 0 0 m (0.2) show NC gr 
 gsave  2268 1682 0 0 C 1004.49 129.366 t 0 r /Helvetica-Bold findfont 64.6832 sf 0 0 m (0.4) show NC gr 
 gsave  2268 1682 0 0 C 1198.54 129.366 t 0 r /Helvetica-Bold findfont 64.6832 sf 0 0 m (0.6) show NC gr 
 gsave  2268 1682 0 0 C 1396.4 129.366 t 0 r /Helvetica-Bold findfont 64.6832 sf 0 0 m (0.8) show NC gr 
 gsave  2268 1682 0 0 C 1620.88 129.366 t 0 r /Helvetica-Bold findfont 64.6832 sf 0 0 m (1) show NC gr 
 gsave  2268 1682 0 0 C 1788.3 129.366 t 0 r /Helvetica-Bold findfont 64.6832 sf 0 0 m (1.2) show NC gr 
 gsave  2268 1682 0 0 C 1986.15 129.366 t 0 r /Helvetica-Bold findfont 64.6832 sf 0 0 m (1.4) show NC gr  238 1514 m 1916 X s 265 1471 m 43 Y s 314 1492 m 22 Y s 363 1492 m 22 Y s 412 1492 m 22 Y s 461 1471 m 43 Y s 510 1492 m 22 Y s 559 1492 m 22 Y
 s 609 1492 m 22 Y s 658 1471 m 43 Y s 707 1492 m 22 Y s 756 1492 m 22 Y s 805 1492 m 22 Y s 854 1471 m 43 Y s 903 1492 m 22 Y s 952 1492 m 22 Y s 1001 1492 m 22 Y s 1051 1471 m 43 Y s 1100 1492 m 22 Y s 1149 1492 m 22 Y s 1198 1492 m 22 Y s 1247
 1471 m 43 Y s 1296 1492 m 22 Y s 1345 1492 m 22 Y s 1394 1492 m 22 Y s 1443 1471 m 43 Y s 1493 1492 m 22 Y s 1542 1492 m 22 Y s 1591 1492 m 22 Y s 1640 1471 m 43 Y s 1689 1492 m 22 Y s 1738 1492 m 22 Y s 1787 1492 m 22 Y s 1836 1471 m 43 Y s 1885
 1492 m 22 Y s 1934 1492 m 22 Y s 1984 1492 m 22 Y s 2033 1471 m 43 Y s 265 1471 m 43 Y s 2033 1471 m 43 Y s 2082 1492 m 22 Y s 2131 1492 m 22 Y s 238 202 m 1312 Y s
 gsave  2268 1682 0 0 C 64.6832 1430.64 t 90 r /Helvetica-Bold findfont 72.293 sf 0 0 m (dx) show NC gr 
 gsave  2268 1682 0 0 C 30.4391 1411.62 t 90 r /Helvetica-Bold findfont 45.6587 sf 0 0 m ( ) show NC gr 
 gsave  2268 1682 0 0 C 64.6832 1388.79 t 90 r /Helvetica-Bold findfont 72.293 sf 0 0 m (/) show NC gr 
 gsave  2268 1682 0 0 C 30.4391 1369.76 t 90 r /Helvetica-Bold findfont 45.6587 sf 0 0 m ( ) show NC gr 
 gsave  2268 1682 0 0 C 60.8783 1095.81 t 90 r /Helvetica-Bold findfont 72.293 sf 0 0 m (\(1/N\) dN) show NC gr  291 202 m -53 X s 265 246 m -27 X s 265 290 m -27 X s 265 334 m -27 X s 265 378 m -27 X s 291 422 m -53 X s 265 466 m -27 X s 265 510 m
 -27 X s 265 554 m -27 X s 265 598 m -27 X s 291 642 m -53 X s 265 686 m -27 X s 265 730 m -27 X s 265 774 m -27 X s 265 818 m -27 X s 291 862 m -53 X s 265 906 m -27 X s 265 950 m -27 X s 265 994 m -27 X s 265 1038 m -27 X s 291 1082 m -53 X s 265
 1126 m -27 X s 265 1170 m -27 X s 265 1214 m -27 X s 265 1258 m -27 X s 291 1302 m -53 X s 291 1302 m -53 X s 265 1346 m -27 X s 265 1390 m -27 X s 265 1434 m -27 X s 265 1478 m -27 X s
 gsave  2268 1682 0 0 C 175.025 178.83 t 0 r /Helvetica-Bold findfont 64.6832 sf 0 0 m (0) show NC gr 
 gsave  2268 1682 0 0 C 182.635 395.709 t 0 r /Helvetica-Bold findfont 64.6832 sf 0 0 m (1) show NC gr 
 gsave  2268 1682 0 0 C 175.025 616.393 t 0 r /Helvetica-Bold findfont 64.6832 sf 0 0 m (2) show NC gr 
 gsave  2268 1682 0 0 C 175.025 837.077 t 0 r /Helvetica-Bold findfont 64.6832 sf 0 0 m (3) show NC gr 
 gsave  2268 1682 0 0 C 175.025 1057.76 t 0 r /Helvetica-Bold findfont 64.6832 sf 0 0 m (4) show NC gr 
 gsave  2268 1682 0 0 C 175.025 1278.44 t 0 r /Helvetica-Bold findfont 64.6832 sf 0 0 m (5) show NC gr  2154 202 m 1312 Y s 2101 202 m 53 X s 2128 246 m 26 X s 2128 290 m 26 X s 2128 334 m 26 X s 2128 378 m 26 X s 2101 422 m 53 X s 2128 466 m 26 X s
 2128 510 m 26 X s 2128 554 m 26 X s 2128 598 m 26 X s 2101 642 m 53 X s 2128 686 m 26 X s 2128 730 m 26 X s 2128 774 m 26 X s 2128 818 m 26 X s 2101 862 m 53 X s 2128 906 m 26 X s 2128 950 m 26 X s 2128 994 m 26 X s 2128 1038 m 26 X s 2101 1082 m 53
 X s 2128 1126 m 26 X s 2128 1170 m 26 X s 2128 1214 m 26 X s 2128 1258 m 26 X s 2101 1302 m 53 X s 2101 1302 m 53 X s 2128 1346 m 26 X s 2128 1390 m 26 X s 2128 1434 m 26 X s 2128 1478 m 26 X s 0.490196 0.545098 0.615686 c 0.95 0.95 0.95 c 0.490196
 0.545098 0.615686 c 680 202 238 1312 bl 238 1312 m 680 X s 918 1312 m 202 Y s 918 1514 m -680 X s 238 1514 m -202 Y s black
 gsave  2268 1682 0 0 C 441.368 1442.05 t 0 r /Times-Italic findfont 76.0979 sf 0 0 m (Signal) show NC gr  0.49 0.6 0.82 c 269 1428 m 143 X 70 Y -143 X f 0 0 0.933333 c 6 lw 269 1498 m 143 X s 269 1428 m 143 X s 412 1428 m 70 Y s 269 1428 m 70 Y s
 black
 gsave  2268 1682 0 0 C 441.368 1343.13 t 0 r /Times-Italic findfont 76.0979 sf 0 0 m (Background) show NC gr  1 0 0 c 3 lw 412 1374 m -47 -47 d s 387 1398 m -70 -71 d s 339 1398 m -70 -71 d s 291 1398 m -22 -23 d s 6 lw 0 0 0.933333 c 1 0 0 c 269
 1398 m 143 X s 269 1327 m 143 X s 412 1327 m 71 Y s 269 1327 m 71 Y s 0 0 0.933333 c 0.49 0.6 0.82 c black 3 lw 0.49 0.6 0.82 c 238 202 m 431 X 2 Y 48 X -2 Y 48 X 6 Y 96 X 11 Y 48 X 6 Y 48 X 8 Y 48 X 45 Y 48 X 53 Y 47 X 237 Y 48 X 364 Y 48 X 363 Y
 48 X -258 Y 48 X -411 Y 48 X -172 Y 48 X -93 Y 48 X -65 Y 48 X -4 Y 48 X -37 Y 47 X -22 Y 48 X 6 Y 48 X -14 Y 48 X -12 Y 48 X -3 Y 48 X -3 Y 48 X -3 Y 96 X -1 Y 96 X -1 Y 95 X f 6 lw 0 0 0.933333 c 0.49 0.6 0.82 c 0 0 0.933333 c 238 202 m 431 X 2 Y
 48 X -2 Y 48 X 6 Y 96 X 11 Y 48 X 6 Y 48 X 8 Y 48 X 45 Y 48 X 53 Y 47 X 237 Y 48 X 364 Y 48 X 363 Y 48 X -258 Y 48 X -411 Y 48 X -172 Y 48 X -93 Y 48 X -65 Y 48 X -4 Y 48 X -37 Y 47 X -22 Y 48 X 6 Y 48 X -14 Y 48 X -12 Y 48 X -3 Y 48 X -3 Y 48 X -3
 Y 96 X -1 Y 96 X -1 Y 95 X s 1 0 0 c black 3 lw 1 0 0 c 2126 202 m s 2078 202 m s 2030 202 m s 1982 202 m s 1934 202 m s 1886 202 m s 1837 202 m s 1789 202 m s 1742 203 m -1 -1 d s 1694 203 m -1 -1 d s 1646 203 m -1 -1 d s 1603 208 m -6 -6 d s 1553
 206 m -4 -4 d s 1512 214 m -11 -12 d s 1484 233 m -31 -31 d s 1437 235 m -33 -33 d s 1402 247 m -46 -45 d s 1388 281 m -80 -79 d s 1377 318 m -117 -116 d s 1340 330 m -128 -128 d s 1340 378 m -176 -176 d s 1340 426 m -224 -224 d s 1340 474 m -272
 -272 d s 1340 522 m -320 -320 d s 1323 553 m -351 -351 d s 1292 570 m -369 -368 d s 1292 619 m -239 -240 d s 1019 346 m -14 -15 d s 968 295 m -93 -93 d s 1292 667 m -192 -192 d s 1084 458 m -31 -31 d s 915 289 m -6 -6 d s 883 258 m -22 -22 d s 860
 235 m -33 -33 d s 1292 715 m -192 -192 d s 802 225 m -23 -23 d s 1292 763 m -192 -192 d s 745 216 m -14 -14 d s 1292 811 m -192 -192 d s 688 207 m -5 -5 d s 1292 859 m -192 -192 d s 641 208 m -6 -6 d s 1292 907 m -144 -144 d s 1140 756 m -40 -40 d s
 589 204 m -2 -2 d s 1283 946 m -135 -134 d s 540 204 m -1 -2 d s 1244 955 m -96 -95 d s 491 202 m -1 X s 1244 1004 m -96 -96 d s 444 203 m -2 -1 d s 1244 1052 m -96 -96 d s 394 202 m s 1244 1100 m -96 -96 d s 347 203 m -1 -1 d s 1244 1148 m -96 -96
 d s 298 202 m s 1244 1196 m -48 -48 d s 1156 1108 m -8 -8 d s 251 203 m -1 -1 d s 1211 1211 m -15 -15 d s 6 lw 238 203 m 48 X -1 Y 48 X 1 Y 48 X -1 Y 48 X 1 Y 48 X -1 Y 48 X 2 Y 95 X 4 Y 48 X -1 Y 48 X 9 Y 48 X 9 Y 48 X 10 Y 48 X 23 Y 48 X 31 Y 48 X
 6 Y 48 X 51 Y 48 X 112 Y 47 X 298 Y 48 X 352 Y 48 X 103 Y 48 X -265 Y 48 X -393 Y 48 X -235 Y 48 X -71 Y 48 X -12 Y 48 X -21 Y 48 X -8 Y 47 X 2 Y 48 X -5 Y 144 X -1 Y 383 X s black 3 lw 238 202 m 1916 X s 265 244 m -42 Y s 314 223 m -21 Y s 363 223
 m -21 Y s 412 223 m -21 Y s 461 244 m -42 Y s 510 223 m -21 Y s 559 223 m -21 Y s 609 223 m -21 Y s 658 244 m -42 Y s 707 223 m -21 Y s 756 223 m -21 Y s 805 223 m -21 Y s 854 244 m -42 Y s 903 223 m -21 Y s 952 223 m -21 Y s 1001 223 m -21 Y s 1051
 244 m -42 Y s 1100 223 m -21 Y s 1149 223 m -21 Y s 1198 223 m -21 Y s 1247 244 m -42 Y s 1296 223 m -21 Y s 1345 223 m -21 Y s 1394 223 m -21 Y s 1443 244 m -42 Y s 1493 223 m -21 Y s 1542 223 m -21 Y s 1591 223 m -21 Y s 1640 244 m -42 Y s 1689
 223 m -21 Y s 1738 223 m -21 Y s 1787 223 m -21 Y s 1836 244 m -42 Y s 1885 223 m -21 Y s 1934 223 m -21 Y s 1984 223 m -21 Y s 2033 244 m -42 Y s 265 244 m -42 Y s 2033 244 m -42 Y s 2082 223 m -21 Y s 2131 223 m -21 Y s 238 1514 m 1916 X s 265
 1471 m 43 Y s 314 1492 m 22 Y s 363 1492 m 22 Y s 412 1492 m 22 Y s 461 1471 m 43 Y s 510 1492 m 22 Y s 559 1492 m 22 Y s 609 1492 m 22 Y s 658 1471 m 43 Y s 707 1492 m 22 Y s 756 1492 m 22 Y s 805 1492 m 22 Y s 854 1471 m 43 Y s 903 1492 m 22 Y s
 952 1492 m 22 Y s 1001 1492 m 22 Y s 1051 1471 m 43 Y s 1100 1492 m 22 Y s 1149 1492 m 22 Y s 1198 1492 m 22 Y s 1247 1471 m 43 Y s 1296 1492 m 22 Y s 1345 1492 m 22 Y s 1394 1492 m 22 Y s 1443 1471 m 43 Y s 1493 1492 m 22 Y s 1542 1492 m 22 Y s
 1591 1492 m 22 Y s 1640 1471 m 43 Y s 1689 1492 m 22 Y s 1738 1492 m 22 Y s 1787 1492 m 22 Y s 1836 1471 m 43 Y s 1885 1492 m 22 Y s 1934 1492 m 22 Y s 1984 1492 m 22 Y s 2033 1471 m 43 Y s 265 1471 m 43 Y s 2033 1471 m 43 Y s 2082 1492 m 22 Y s
 2131 1492 m 22 Y s 238 202 m 1312 Y s 291 202 m -53 X s 265 246 m -27 X s 265 290 m -27 X s 265 334 m -27 X s 265 378 m -27 X s 291 422 m -53 X s 265 466 m -27 X s 265 510 m -27 X s 265 554 m -27 X s 265 598 m -27 X s 291 642 m -53 X s 265 686 m -27
 X s 265 730 m -27 X s 265 774 m -27 X s 265 818 m -27 X s 291 862 m -53 X s 265 906 m -27 X s 265 950 m -27 X s 265 994 m -27 X s 265 1038 m -27 X s 291 1082 m -53 X s 265 1126 m -27 X s 265 1170 m -27 X s 265 1214 m -27 X s 265 1258 m -27 X s 291
 1302 m -53 X s 291 1302 m -53 X s 265 1346 m -27 X s 265 1390 m -27 X s 265 1434 m -27 X s 265 1478 m -27 X s 2154 202 m 1312 Y s 2101 202 m 53 X s 2128 246 m 26 X s 2128 290 m 26 X s 2128 334 m 26 X s 2128 378 m 26 X s 2101 422 m 53 X s 2128 466 m
 26 X s 2128 510 m 26 X s 2128 554 m 26 X s 2128 598 m 26 X s 2101 642 m 53 X s 2128 686 m 26 X s 2128 730 m 26 X s 2128 774 m 26 X s 2128 818 m 26 X s 2101 862 m 53 X s 2128 906 m 26 X s 2128 950 m 26 X s 2128 994 m 26 X s 2128 1038 m 26 X s 2101
 1082 m 53 X s 2128 1126 m 26 X s 2128 1170 m 26 X s 2128 1214 m 26 X s 2128 1258 m 26 X s 2101 1302 m 53 X s 2101 1302 m 53 X s 2128 1346 m 26 X s 2128 1390 m 26 X s 2128 1434 m 26 X s 2128 1478 m 26 X s
 gsave  2268 1682 0 0 C 2211.02 193.403 t 90 r /Helvetica-Bold findfont 45.6587 sf 0 0 m (U/O\255flow \(S,B\): \(0.0, 0.0\)% / \(0.0, 0.0\)%) show NC gr  0.490196 0.545098 0.615686 c 0.364706 0.419608 0.490196 c 1533 96 23 1577 bf 0.490196 0.545098
 0.615686 c 23 1577 m 1533 X s 1556 1577 m 96 Y s 1556 1673 m -1533 X s 23 1673 m -96 Y s 1 1 1 c black 1 1 1 c
 gsave  2268 1682 0 0 C 76.0979 1605.67 t 0 r /Helvetica-Bold findfont 76.0979 sf 0 0 m (TMVA response for classifier: MLPBNN) show NC gr 
 gr  gr showpage
end
%%EOF
