%!PS-Adobe-2.0 EPSF-2.0
%%BoundingBox:  0 0 567 420
%%Title: plots/mva_BDTD.eps: TMVA response BDTD
%%Creator: ROOT Version 5.34/09
%%CreationDate: Wed Dec 18 11:45:32 2013
%%EndComments
%%BeginProlog
80 dict begin
/s {stroke} def /l {lineto} def /m {moveto} def /t {translate} def
/r {rotate} def /rl {roll}  def /R {repeat} def
/d {rlineto} def /rm {rmoveto} def /gr {grestore} def /f {eofill} def
/c {setrgbcolor} def /black {0 setgray} def /sd {setdash} def
/cl {closepath} def /sf {scalefont setfont} def /lw {setlinewidth} def
/box {m dup 0 exch d exch 0 d 0 exch neg d cl} def
/NC{systemdict begin initclip end}def/C{NC box clip newpath}def
/bl {box s} def /bf {box f} def /Y { 0 exch d} def /X { 0 d} def 
/K {{pop pop 0 moveto} exch kshow} bind def
/ita {/ang 15 def gsave [1 0 ang dup sin exch cos div 1 0 0] concat} def 
/mp {newpath /y exch def /x exch def} def
/side {[w .77 mul w .23 mul] .385 w mul sd w 0 l currentpoint t -144 r} def
/mr {mp x y w2 0 360 arc} def /m24 {mr s} def /m20 {mr f} def
/mb {mp x y w2 add m w2 neg 0 d 0 w neg d w 0 d 0 w d cl} def
/mt {mp x y w2 add m w2 neg w neg d w 0 d cl} def
/m21 {mb f} def /m25 {mb s} def /m22 {mt f} def /m26{mt s} def
/m23 {mp x y w2 sub m w2 w d w neg 0 d cl f} def
/m27 {mp x y w2 add m w3 neg w2 neg d w3 w2 neg d w3 w2 d cl s} def
/m28 {mp x w2 sub y w2 sub w3 add m w3 0 d  0 w3 neg d w3 0 d 0 w3 d w3 0 d  0 w3 d w3 neg 0 d 0 w3 d w3 neg 0 d 0 w3 neg d w3 neg 0 d cl s } def
/m29 {mp gsave x w2 sub y w2 add w3 sub m currentpoint t 4 {side} repeat cl fill gr} def
/m30 {mp gsave x w2 sub y w2 add w3 sub m currentpoint t 4 {side} repeat cl s gr} def
/m31 {mp x y w2 sub m 0 w d x w2 sub y m w 0 d x w2 sub y w2 add m w w neg d x w2 sub y w2 sub m w w d s} def
/m32 {mp x y w2 sub m w2 w d w neg 0 d cl s} def
/m33 {mp x y w2 add m w3 neg w2 neg d w3 w2 neg d w3 w2 d cl f} def
/m34 {mp x w2 sub y w2 sub w3 add m w3 0 d  0 w3 neg d w3 0 d 0 w3 d w3 0 d  0 w3 d w3 neg 0 d 0 w3 d w3 neg 0 d 0 w3 neg d w3 neg 0 d cl f } def
/m2 {mp x y w2 sub m 0 w d x w2 sub y m w 0 d s} def
/m5 {mp x w2 sub y w2 sub m w w d x w2 sub y w2 add m w w neg d s} def
/reEncode {exch findfont dup length dict begin {1 index /FID eq  {pop pop} {def} ifelse } forall /Encoding exch def currentdict end dup /FontName get exch definefont pop } def [/Times-Bold /Times-Italic /Times-BoldItalic /Helvetica /Helvetica-Oblique
 /Helvetica-Bold /Helvetica-BoldOblique /Courier /Courier-Oblique /Courier-Bold /Courier-BoldOblique /Times-Roman /AvantGarde-Book /AvantGarde-BookOblique /AvantGarde-Demi /AvantGarde-DemiOblique /Bookman-Demi /Bookman-DemiItalic /Bookman-Light
 /Bookman-LightItalic /Helvetica-Narrow /Helvetica-Narrow-Bold /Helvetica-Narrow-BoldOblique /Helvetica-Narrow-Oblique /NewCenturySchlbk-Roman /NewCenturySchlbk-Bold /NewCenturySchlbk-BoldItalic /NewCenturySchlbk-Italic /Palatino-Bold
 /Palatino-BoldItalic /Palatino-Italic /Palatino-Roman ] {ISOLatin1Encoding reEncode } forall
%%EndProlog
%%BeginSetup
%%EndSetup
newpath  gsave  .25 .25 scale  gsave  0 0 t 0.490196 0.545098 0.615686 c[  ] 0 sd 3 lw 0.941176 0.941176 0.941176 c 2268 1682 0 0 bf black 1 1 0.992157 c 1916 1312 238 202 bf black 1916 1312 238 202 bl 1 1 0.992157 c 1916 1312 238 202 bf black 1916
 1312 238 202 bl 238 202 m 1916 X s
 gsave  2268 1682 0 0 C 1609.47 34.244 t 0 r /Helvetica-Bold findfont 72.293 sf 0 0 m (BDTD response) show NC gr  319 244 m -42 Y s 399 223 m -21 Y s 478 223 m -21 Y s 558 223 m -21 Y s 637 244 m -42 Y s 717 223 m -21 Y s 796 223 m -21 Y s 875 223 m
 -21 Y s 955 244 m -42 Y s 1034 223 m -21 Y s 1114 223 m -21 Y s 1193 223 m -21 Y s 1273 244 m -42 Y s 1352 223 m -21 Y s 1432 223 m -21 Y s 1511 223 m -21 Y s 1590 244 m -42 Y s 1670 223 m -21 Y s 1749 223 m -21 Y s 1829 223 m -21 Y s 1908 244 m -42
 Y s 319 244 m -42 Y s 240 223 m -21 Y s 1908 244 m -42 Y s 1988 223 m -21 Y s 2067 223 m -21 Y s 2146 223 m -21 Y s
 gsave  2268 1682 0 0 C 258.733 129.366 t 0 r /Helvetica-Bold findfont 64.6832 sf 0 0 m (\2550.4) show NC gr 
 gsave  2268 1682 0 0 C 578.344 129.366 t 0 r /Helvetica-Bold findfont 64.6832 sf 0 0 m (\2550.2) show NC gr 
 gsave  2268 1682 0 0 C 932.199 129.366 t 0 r /Helvetica-Bold findfont 64.6832 sf 0 0 m (0) show NC gr 
 gsave  2268 1682 0 0 C 1225.18 129.366 t 0 r /Helvetica-Bold findfont 64.6832 sf 0 0 m (0.2) show NC gr 
 gsave  2268 1682 0 0 C 1540.98 129.366 t 0 r /Helvetica-Bold findfont 64.6832 sf 0 0 m (0.4) show NC gr 
 gsave  2268 1682 0 0 C 1860.59 129.366 t 0 r /Helvetica-Bold findfont 64.6832 sf 0 0 m (0.6) show NC gr  238 1514 m 1916 X s 319 1471 m 43 Y s 399 1492 m 22 Y s 478 1492 m 22 Y s 558 1492 m 22 Y s 637 1471 m 43 Y s 717 1492 m 22 Y s 796 1492 m 22 Y
 s 875 1492 m 22 Y s 955 1471 m 43 Y s 1034 1492 m 22 Y s 1114 1492 m 22 Y s 1193 1492 m 22 Y s 1273 1471 m 43 Y s 1352 1492 m 22 Y s 1432 1492 m 22 Y s 1511 1492 m 22 Y s 1590 1471 m 43 Y s 1670 1492 m 22 Y s 1749 1492 m 22 Y s 1829 1492 m 22 Y s
 1908 1471 m 43 Y s 319 1471 m 43 Y s 240 1492 m 22 Y s 1908 1471 m 43 Y s 1988 1492 m 22 Y s 2067 1492 m 22 Y s 2146 1492 m 22 Y s 238 202 m 1312 Y s
 gsave  2268 1682 0 0 C 64.6832 1430.64 t 90 r /Helvetica-Bold findfont 72.293 sf 0 0 m (dx) show NC gr 
 gsave  2268 1682 0 0 C 30.4391 1411.62 t 90 r /Helvetica-Bold findfont 45.6587 sf 0 0 m ( ) show NC gr 
 gsave  2268 1682 0 0 C 64.6832 1388.79 t 90 r /Helvetica-Bold findfont 72.293 sf 0 0 m (/) show NC gr 
 gsave  2268 1682 0 0 C 30.4391 1369.76 t 90 r /Helvetica-Bold findfont 45.6587 sf 0 0 m ( ) show NC gr 
 gsave  2268 1682 0 0 C 60.8783 1095.81 t 90 r /Helvetica-Bold findfont 72.293 sf 0 0 m (\(1/N\) dN) show NC gr  291 202 m -53 X s 265 260 m -27 X s 265 318 m -27 X s 265 376 m -27 X s 291 434 m -53 X s 265 492 m -27 X s 265 549 m -27 X s 265 607 m
 -27 X s 291 665 m -53 X s 265 723 m -27 X s 265 781 m -27 X s 265 839 m -27 X s 291 897 m -53 X s 265 955 m -27 X s 265 1013 m -27 X s 265 1071 m -27 X s 291 1129 m -53 X s 265 1187 m -27 X s 265 1245 m -27 X s 265 1303 m -27 X s 291 1361 m -53 X s
 291 1361 m -53 X s 265 1419 m -27 X s 265 1477 m -27 X s
 gsave  2268 1682 0 0 C 175.025 178.83 t 0 r /Helvetica-Bold findfont 64.6832 sf 0 0 m (0) show NC gr 
 gsave  2268 1682 0 0 C 175.025 407.124 t 0 r /Helvetica-Bold findfont 64.6832 sf 0 0 m (2) show NC gr 
 gsave  2268 1682 0 0 C 175.025 639.222 t 0 r /Helvetica-Bold findfont 64.6832 sf 0 0 m (4) show NC gr 
 gsave  2268 1682 0 0 C 175.025 871.321 t 0 r /Helvetica-Bold findfont 64.6832 sf 0 0 m (6) show NC gr 
 gsave  2268 1682 0 0 C 175.025 1103.42 t 0 r /Helvetica-Bold findfont 64.6832 sf 0 0 m (8) show NC gr 
 gsave  2268 1682 0 0 C 136.976 1335.52 t 0 r /Helvetica-Bold findfont 64.6832 sf 0 0 m (10) show NC gr  2154 202 m 1312 Y s 2101 202 m 53 X s 2128 260 m 26 X s 2128 318 m 26 X s 2128 376 m 26 X s 2101 434 m 53 X s 2128 492 m 26 X s 2128 549 m 26 X s
 2128 607 m 26 X s 2101 665 m 53 X s 2128 723 m 26 X s 2128 781 m 26 X s 2128 839 m 26 X s 2101 897 m 53 X s 2128 955 m 26 X s 2128 1013 m 26 X s 2128 1071 m 26 X s 2101 1129 m 53 X s 2128 1187 m 26 X s 2128 1245 m 26 X s 2128 1303 m 26 X s 2101 1361
 m 53 X s 2101 1361 m 53 X s 2128 1419 m 26 X s 2128 1477 m 26 X s 0.490196 0.545098 0.615686 c 0.95 0.95 0.95 c 0.490196 0.545098 0.615686 c 680 202 238 1312 bl 238 1312 m 680 X s 918 1312 m 202 Y s 918 1514 m -680 X s 238 1514 m -202 Y s black
 gsave  2268 1682 0 0 C 441.368 1442.05 t 0 r /Times-Italic findfont 76.0979 sf 0 0 m (Signal) show NC gr  0.49 0.6 0.82 c 269 1428 m 143 X 70 Y -143 X f 0 0 0.933333 c 6 lw 269 1498 m 143 X s 269 1428 m 143 X s 412 1428 m 70 Y s 269 1428 m 70 Y s
 black
 gsave  2268 1682 0 0 C 441.368 1343.13 t 0 r /Times-Italic findfont 76.0979 sf 0 0 m (Background) show NC gr  1 0 0 c 3 lw 412 1374 m -47 -47 d s 387 1398 m -70 -71 d s 339 1398 m -70 -71 d s 291 1398 m -22 -23 d s 6 lw 0 0 0.933333 c 1 0 0 c 269
 1398 m 143 X s 269 1327 m 143 X s 412 1327 m 71 Y s 269 1327 m 71 Y s 0 0 0.933333 c 0.49 0.6 0.82 c black 3 lw 0.49 0.6 0.82 c 238 202 m 383 X 2 Y 48 X -2 Y 48 X 8 Y 48 X 5 Y 48 X 11 Y 48 X 89 Y 48 X 278 Y 48 X 583 Y 48 X 87 Y 48 X -425 Y 47 X -363
 Y 48 X -150 Y 48 X -54 Y 48 X -26 Y 48 X -29 Y 48 X -3 Y 96 X -4 Y 48 X -1 Y 48 X -3 Y 47 X 5 Y 48 X 8 Y 48 X -3 Y 48 X -9 Y 96 X -3 Y 48 X 1 Y 48 X -1 Y 96 X 1 Y 143 X -2 Y f 6 lw 0 0 0.933333 c 0.49 0.6 0.82 c 0 0 0.933333 c 238 202 m 383 X 2 Y 48
 X -2 Y 48 X 8 Y 48 X 5 Y 48 X 11 Y 48 X 89 Y 48 X 278 Y 48 X 583 Y 48 X 87 Y 48 X -425 Y 47 X -363 Y 48 X -150 Y 48 X -54 Y 48 X -26 Y 48 X -29 Y 48 X -3 Y 96 X -4 Y 48 X -1 Y 48 X -3 Y 47 X 5 Y 48 X 8 Y 48 X -3 Y 48 X -9 Y 96 X -3 Y 48 X 1 Y 48 X
 -1 Y 96 X 1 Y 143 X -2 Y s 1 0 0 c black 3 lw 1 0 0 c 2126 202 m s 2078 202 m s 2030 202 m s 1982 202 m s 1934 202 m s 1886 202 m s 1837 202 m s 1789 202 m s 1741 202 m s 1693 202 m s 1645 202 m s 1597 202 m s 1549 202 m s 1501 202 m s 1453 202 m s
 1404 202 m s 1356 202 m s 1308 202 m s 1262 204 m -2 -2 d s 1223 213 m -11 -11 d s 1191 229 m -27 -27 d s 1148 234 m -32 -32 d s 1148 282 m -80 -80 d s 1148 331 m -128 -129 d s 1114 345 m -142 -143 d s 1100 379 m -177 -177 d s 1100 427 m -225 -225 d
 s 1100 475 m -273 -273 d s 1100 523 m -321 -321 d s 1100 571 m -287 -287 d s 789 260 m -24 -24 d s 761 232 m -30 -30 d s 1089 608 m -228 -228 d s 832 351 m -19 -19 d s 695 213 m -12 -11 d s 1053 620 m -192 -192 d s 652 219 m -17 -17 d s 1053 668 m
 -144 -144 d s 879 495 m -18 -19 d s 592 207 m -5 -5 d s 1053 716 m -144 -144 d s 543 206 m -4 -4 d s 1053 764 m -144 -144 d s 496 207 m -6 -5 d s 1053 812 m -144 -144 d s 445 204 m -3 -2 d s 1053 860 m -144 -144 d s 395 203 m -1 -1 d s 1053 908 m
 -144 -144 d s 348 204 m -2 -2 d s 1053 956 m -144 -143 d s 300 203 m -2 -1 d s 1053 1004 m -96 -95 d s 925 877 m -16 -16 d s 251 203 m -1 -1 d s 1053 1053 m -96 -96 d s 1053 1101 m -96 -96 d s 1010 1107 m -53 -54 d s 1005 1149 m -48 -48 d s 1005
 1197 m -48 -48 d s 1005 1245 m -48 -48 d s 1005 1293 m -48 -48 d s 958 1295 m -1 -2 d s 6 lw 238 203 m 96 X 1 Y 48 X -1 Y 48 X 1 Y 48 X 3 Y 48 X -1 Y 47 X 1 Y 48 X 12 Y 48 X -6 Y 48 X 19 Y 48 X 28 Y 48 X 91 Y 48 X 144 Y 48 X 382 Y 48 X 418 Y 48 X
 -188 Y 48 X -499 Y 47 X -263 Y 48 X -116 Y 48 X -16 Y 48 X -9 Y 48 X -2 Y 862 X s black 3 lw 238 202 m 1916 X s 319 244 m -42 Y s 399 223 m -21 Y s 478 223 m -21 Y s 558 223 m -21 Y s 637 244 m -42 Y s 717 223 m -21 Y s 796 223 m -21 Y s 875 223 m
 -21 Y s 955 244 m -42 Y s 1034 223 m -21 Y s 1114 223 m -21 Y s 1193 223 m -21 Y s 1273 244 m -42 Y s 1352 223 m -21 Y s 1432 223 m -21 Y s 1511 223 m -21 Y s 1590 244 m -42 Y s 1670 223 m -21 Y s 1749 223 m -21 Y s 1829 223 m -21 Y s 1908 244 m -42
 Y s 319 244 m -42 Y s 240 223 m -21 Y s 1908 244 m -42 Y s 1988 223 m -21 Y s 2067 223 m -21 Y s 2146 223 m -21 Y s 238 1514 m 1916 X s 319 1471 m 43 Y s 399 1492 m 22 Y s 478 1492 m 22 Y s 558 1492 m 22 Y s 637 1471 m 43 Y s 717 1492 m 22 Y s 796
 1492 m 22 Y s 875 1492 m 22 Y s 955 1471 m 43 Y s 1034 1492 m 22 Y s 1114 1492 m 22 Y s 1193 1492 m 22 Y s 1273 1471 m 43 Y s 1352 1492 m 22 Y s 1432 1492 m 22 Y s 1511 1492 m 22 Y s 1590 1471 m 43 Y s 1670 1492 m 22 Y s 1749 1492 m 22 Y s 1829 1492
 m 22 Y s 1908 1471 m 43 Y s 319 1471 m 43 Y s 240 1492 m 22 Y s 1908 1471 m 43 Y s 1988 1492 m 22 Y s 2067 1492 m 22 Y s 2146 1492 m 22 Y s 238 202 m 1312 Y s 291 202 m -53 X s 265 260 m -27 X s 265 318 m -27 X s 265 376 m -27 X s 291 434 m -53 X s
 265 492 m -27 X s 265 549 m -27 X s 265 607 m -27 X s 291 665 m -53 X s 265 723 m -27 X s 265 781 m -27 X s 265 839 m -27 X s 291 897 m -53 X s 265 955 m -27 X s 265 1013 m -27 X s 265 1071 m -27 X s 291 1129 m -53 X s 265 1187 m -27 X s 265 1245 m
 -27 X s 265 1303 m -27 X s 291 1361 m -53 X s 291 1361 m -53 X s 265 1419 m -27 X s 265 1477 m -27 X s 2154 202 m 1312 Y s 2101 202 m 53 X s 2128 260 m 26 X s 2128 318 m 26 X s 2128 376 m 26 X s 2101 434 m 53 X s 2128 492 m 26 X s 2128 549 m 26 X s
 2128 607 m 26 X s 2101 665 m 53 X s 2128 723 m 26 X s 2128 781 m 26 X s 2128 839 m 26 X s 2101 897 m 53 X s 2128 955 m 26 X s 2128 1013 m 26 X s 2128 1071 m 26 X s 2101 1129 m 53 X s 2128 1187 m 26 X s 2128 1245 m 26 X s 2128 1303 m 26 X s 2101 1361
 m 53 X s 2101 1361 m 53 X s 2128 1419 m 26 X s 2128 1477 m 26 X s
 gsave  2268 1682 0 0 C 2211.02 193.403 t 90 r /Helvetica-Bold findfont 45.6587 sf 0 0 m (U/O\255flow \(S,B\): \(0.0, 0.0\)% / \(0.0, 0.0\)%) show NC gr  0.490196 0.545098 0.615686 c 0.364706 0.419608 0.490196 c 1415 96 23 1577 bf 0.490196 0.545098
 0.615686 c 23 1577 m 1415 X s 1438 1577 m 96 Y s 1438 1673 m -1415 X s 23 1673 m -96 Y s 1 1 1 c black 1 1 1 c
 gsave  2268 1682 0 0 C 72.293 1605.67 t 0 r /Helvetica-Bold findfont 76.0979 sf 0 0 m (TMVA response for classifier: BDTD) show NC gr 
 gr  gr showpage
end
%%EOF
