%!PS-Adobe-2.0 EPSF-2.0
%%BoundingBox:  0 0 567 420
%%Title: plots/mva_MLP.eps: TMVA response MLP
%%Creator: ROOT Version 5.34/09
%%CreationDate: Wed Dec 18 11:45:30 2013
%%EndComments
%%BeginProlog
80 dict begin
/s {stroke} def /l {lineto} def /m {moveto} def /t {translate} def
/r {rotate} def /rl {roll}  def /R {repeat} def
/d {rlineto} def /rm {rmoveto} def /gr {grestore} def /f {eofill} def
/c {setrgbcolor} def /black {0 setgray} def /sd {setdash} def
/cl {closepath} def /sf {scalefont setfont} def /lw {setlinewidth} def
/box {m dup 0 exch d exch 0 d 0 exch neg d cl} def
/NC{systemdict begin initclip end}def/C{NC box clip newpath}def
/bl {box s} def /bf {box f} def /Y { 0 exch d} def /X { 0 d} def 
/K {{pop pop 0 moveto} exch kshow} bind def
/ita {/ang 15 def gsave [1 0 ang dup sin exch cos div 1 0 0] concat} def 
/mp {newpath /y exch def /x exch def} def
/side {[w .77 mul w .23 mul] .385 w mul sd w 0 l currentpoint t -144 r} def
/mr {mp x y w2 0 360 arc} def /m24 {mr s} def /m20 {mr f} def
/mb {mp x y w2 add m w2 neg 0 d 0 w neg d w 0 d 0 w d cl} def
/mt {mp x y w2 add m w2 neg w neg d w 0 d cl} def
/m21 {mb f} def /m25 {mb s} def /m22 {mt f} def /m26{mt s} def
/m23 {mp x y w2 sub m w2 w d w neg 0 d cl f} def
/m27 {mp x y w2 add m w3 neg w2 neg d w3 w2 neg d w3 w2 d cl s} def
/m28 {mp x w2 sub y w2 sub w3 add m w3 0 d  0 w3 neg d w3 0 d 0 w3 d w3 0 d  0 w3 d w3 neg 0 d 0 w3 d w3 neg 0 d 0 w3 neg d w3 neg 0 d cl s } def
/m29 {mp gsave x w2 sub y w2 add w3 sub m currentpoint t 4 {side} repeat cl fill gr} def
/m30 {mp gsave x w2 sub y w2 add w3 sub m currentpoint t 4 {side} repeat cl s gr} def
/m31 {mp x y w2 sub m 0 w d x w2 sub y m w 0 d x w2 sub y w2 add m w w neg d x w2 sub y w2 sub m w w d s} def
/m32 {mp x y w2 sub m w2 w d w neg 0 d cl s} def
/m33 {mp x y w2 add m w3 neg w2 neg d w3 w2 neg d w3 w2 d cl f} def
/m34 {mp x w2 sub y w2 sub w3 add m w3 0 d  0 w3 neg d w3 0 d 0 w3 d w3 0 d  0 w3 d w3 neg 0 d 0 w3 d w3 neg 0 d 0 w3 neg d w3 neg 0 d cl f } def
/m2 {mp x y w2 sub m 0 w d x w2 sub y m w 0 d s} def
/m5 {mp x w2 sub y w2 sub m w w d x w2 sub y w2 add m w w neg d s} def
/reEncode {exch findfont dup length dict begin {1 index /FID eq  {pop pop} {def} ifelse } forall /Encoding exch def currentdict end dup /FontName get exch definefont pop } def [/Times-Bold /Times-Italic /Times-BoldItalic /Helvetica /Helvetica-Oblique
 /Helvetica-Bold /Helvetica-BoldOblique /Courier /Courier-Oblique /Courier-Bold /Courier-BoldOblique /Times-Roman /AvantGarde-Book /AvantGarde-BookOblique /AvantGarde-Demi /AvantGarde-DemiOblique /Bookman-Demi /Bookman-DemiItalic /Bookman-Light
 /Bookman-LightItalic /Helvetica-Narrow /Helvetica-Narrow-Bold /Helvetica-Narrow-BoldOblique /Helvetica-Narrow-Oblique /NewCenturySchlbk-Roman /NewCenturySchlbk-Bold /NewCenturySchlbk-BoldItalic /NewCenturySchlbk-Italic /Palatino-Bold
 /Palatino-BoldItalic /Palatino-Italic /Palatino-Roman ] {ISOLatin1Encoding reEncode } forall
%%EndProlog
%%BeginSetup
%%EndSetup
newpath  gsave  .25 .25 scale  gsave  0 0 t 0.490196 0.545098 0.615686 c[  ] 0 sd 3 lw 0.941176 0.941176 0.941176 c 2268 1682 0 0 bf black 1 1 0.992157 c 1916 1312 238 202 bf black 1916 1312 238 202 bl 1 1 0.992157 c 1916 1312 238 202 bf black 1916
 1312 238 202 bl 238 202 m 1916 X s
 gsave  2268 1682 0 0 C 1658.93 34.244 t 0 r /Helvetica-Bold findfont 72.293 sf 0 0 m (MLP response) show NC gr  359 244 m -42 Y s 418 223 m -21 Y s 476 223 m -21 Y s 535 223 m -21 Y s 594 244 m -42 Y s 653 223 m -21 Y s 711 223 m -21 Y s 770 223 m
 -21 Y s 829 244 m -42 Y s 888 223 m -21 Y s 946 223 m -21 Y s 1005 223 m -21 Y s 1064 244 m -42 Y s 1123 223 m -21 Y s 1181 223 m -21 Y s 1240 223 m -21 Y s 1299 244 m -42 Y s 1358 223 m -21 Y s 1416 223 m -21 Y s 1475 223 m -21 Y s 1534 244 m -42 Y
 s 1593 223 m -21 Y s 1652 223 m -21 Y s 1710 223 m -21 Y s 1769 244 m -42 Y s 1828 223 m -21 Y s 1887 223 m -21 Y s 1945 223 m -21 Y s 2004 244 m -42 Y s 359 244 m -42 Y s 300 223 m -21 Y s 241 223 m -21 Y s 2004 244 m -42 Y s 2063 223 m -21 Y s
 2122 223 m -21 Y s
 gsave  2268 1682 0 0 C 300.587 129.366 t 0 r /Helvetica-Bold findfont 64.6832 sf 0 0 m (\2550.2) show NC gr 
 gsave  2268 1682 0 0 C 574.539 129.366 t 0 r /Helvetica-Bold findfont 64.6832 sf 0 0 m (0) show NC gr 
 gsave  2268 1682 0 0 C 780.003 129.366 t 0 r /Helvetica-Bold findfont 64.6832 sf 0 0 m (0.2) show NC gr 
 gsave  2268 1682 0 0 C 1015.91 129.366 t 0 r /Helvetica-Bold findfont 64.6832 sf 0 0 m (0.4) show NC gr 
 gsave  2268 1682 0 0 C 1251.81 129.366 t 0 r /Helvetica-Bold findfont 64.6832 sf 0 0 m (0.6) show NC gr 
 gsave  2268 1682 0 0 C 1487.71 129.366 t 0 r /Helvetica-Bold findfont 64.6832 sf 0 0 m (0.8) show NC gr 
 gsave  2268 1682 0 0 C 1750.25 129.366 t 0 r /Helvetica-Bold findfont 64.6832 sf 0 0 m (1) show NC gr 
 gsave  2268 1682 0 0 C 1955.72 129.366 t 0 r /Helvetica-Bold findfont 64.6832 sf 0 0 m (1.2) show NC gr  238 1514 m 1916 X s 359 1471 m 43 Y s 418 1492 m 22 Y s 476 1492 m 22 Y s 535 1492 m 22 Y s 594 1471 m 43 Y s 653 1492 m 22 Y s 711 1492 m 22 Y
 s 770 1492 m 22 Y s 829 1471 m 43 Y s 888 1492 m 22 Y s 946 1492 m 22 Y s 1005 1492 m 22 Y s 1064 1471 m 43 Y s 1123 1492 m 22 Y s 1181 1492 m 22 Y s 1240 1492 m 22 Y s 1299 1471 m 43 Y s 1358 1492 m 22 Y s 1416 1492 m 22 Y s 1475 1492 m 22 Y s 1534
 1471 m 43 Y s 1593 1492 m 22 Y s 1652 1492 m 22 Y s 1710 1492 m 22 Y s 1769 1471 m 43 Y s 1828 1492 m 22 Y s 1887 1492 m 22 Y s 1945 1492 m 22 Y s 2004 1471 m 43 Y s 359 1471 m 43 Y s 300 1492 m 22 Y s 241 1492 m 22 Y s 2004 1471 m 43 Y s 2063 1492
 m 22 Y s 2122 1492 m 22 Y s 238 202 m 1312 Y s
 gsave  2268 1682 0 0 C 64.6832 1430.64 t 90 r /Helvetica-Bold findfont 72.293 sf 0 0 m (dx) show NC gr 
 gsave  2268 1682 0 0 C 30.4391 1411.62 t 90 r /Helvetica-Bold findfont 45.6587 sf 0 0 m ( ) show NC gr 
 gsave  2268 1682 0 0 C 64.6832 1388.79 t 90 r /Helvetica-Bold findfont 72.293 sf 0 0 m (/) show NC gr 
 gsave  2268 1682 0 0 C 30.4391 1369.76 t 90 r /Helvetica-Bold findfont 45.6587 sf 0 0 m ( ) show NC gr 
 gsave  2268 1682 0 0 C 60.8783 1095.81 t 90 r /Helvetica-Bold findfont 72.293 sf 0 0 m (\(1/N\) dN) show NC gr  291 202 m -53 X s 265 251 m -27 X s 265 299 m -27 X s 265 348 m -27 X s 265 397 m -27 X s 291 446 m -53 X s 265 494 m -27 X s 265 543 m
 -27 X s 265 592 m -27 X s 265 640 m -27 X s 291 689 m -53 X s 265 738 m -27 X s 265 787 m -27 X s 265 835 m -27 X s 265 884 m -27 X s 291 933 m -53 X s 265 982 m -27 X s 265 1030 m -27 X s 265 1079 m -27 X s 265 1128 m -27 X s 291 1177 m -53 X s 265
 1225 m -27 X s 265 1274 m -27 X s 265 1323 m -27 X s 265 1372 m -27 X s 291 1420 m -53 X s 291 1420 m -53 X s 265 1469 m -27 X s
 gsave  2268 1682 0 0 C 175.025 178.83 t 0 r /Helvetica-Bold findfont 64.6832 sf 0 0 m (0) show NC gr 
 gsave  2268 1682 0 0 C 182.635 422.343 t 0 r /Helvetica-Bold findfont 64.6832 sf 0 0 m (1) show NC gr 
 gsave  2268 1682 0 0 C 175.025 665.856 t 0 r /Helvetica-Bold findfont 64.6832 sf 0 0 m (2) show NC gr 
 gsave  2268 1682 0 0 C 175.025 909.37 t 0 r /Helvetica-Bold findfont 64.6832 sf 0 0 m (3) show NC gr 
 gsave  2268 1682 0 0 C 175.025 1152.88 t 0 r /Helvetica-Bold findfont 64.6832 sf 0 0 m (4) show NC gr 
 gsave  2268 1682 0 0 C 175.025 1396.4 t 0 r /Helvetica-Bold findfont 64.6832 sf 0 0 m (5) show NC gr  2154 202 m 1312 Y s 2101 202 m 53 X s 2128 251 m 26 X s 2128 299 m 26 X s 2128 348 m 26 X s 2128 397 m 26 X s 2101 446 m 53 X s 2128 494 m 26 X s
 2128 543 m 26 X s 2128 592 m 26 X s 2128 640 m 26 X s 2101 689 m 53 X s 2128 738 m 26 X s 2128 787 m 26 X s 2128 835 m 26 X s 2128 884 m 26 X s 2101 933 m 53 X s 2128 982 m 26 X s 2128 1030 m 26 X s 2128 1079 m 26 X s 2128 1128 m 26 X s 2101 1177 m
 53 X s 2128 1225 m 26 X s 2128 1274 m 26 X s 2128 1323 m 26 X s 2128 1372 m 26 X s 2101 1420 m 53 X s 2101 1420 m 53 X s 2128 1469 m 26 X s 0.490196 0.545098 0.615686 c 0.95 0.95 0.95 c 0.490196 0.545098 0.615686 c 680 202 238 1312 bl 238 1312 m 680
 X s 918 1312 m 202 Y s 918 1514 m -680 X s 238 1514 m -202 Y s black
 gsave  2268 1682 0 0 C 441.368 1442.05 t 0 r /Times-Italic findfont 76.0979 sf 0 0 m (Signal) show NC gr  0.49 0.6 0.82 c 269 1428 m 143 X 70 Y -143 X f 0 0 0.933333 c 6 lw 269 1498 m 143 X s 269 1428 m 143 X s 412 1428 m 70 Y s 269 1428 m 70 Y s
 black
 gsave  2268 1682 0 0 C 441.368 1343.13 t 0 r /Times-Italic findfont 76.0979 sf 0 0 m (Background) show NC gr  1 0 0 c 3 lw 412 1374 m -47 -47 d s 387 1398 m -70 -71 d s 339 1398 m -70 -71 d s 291 1398 m -22 -23 d s 6 lw 0 0 0.933333 c 1 0 0 c 269
 1398 m 143 X s 269 1327 m 143 X s 412 1327 m 71 Y s 269 1327 m 71 Y s 0 0 0.933333 c 0.49 0.6 0.82 c black 3 lw 0.49 0.6 0.82 c 238 202 m 431 X 6 Y 48 X -4 Y 48 X 3 Y 48 X 7 Y 48 X 3 Y 48 X 17 Y 48 X 27 Y 48 X 40 Y 48 X 60 Y 47 X 142 Y 48 X 170 Y 48
 X 315 Y 48 X 233 Y 48 X -105 Y 48 X -239 Y 48 X -236 Y 48 X -160 Y 48 X -52 Y 48 X -74 Y 47 X -36 Y 48 X -54 Y 48 X -16 Y 48 X -22 Y 48 X -9 Y 48 X -7 Y 48 X 1 Y 96 X -3 Y 48 X -4 Y 48 X 2 Y 95 X -5 Y f 6 lw 0 0 0.933333 c 0.49 0.6 0.82 c 0 0
 0.933333 c 238 202 m 431 X 6 Y 48 X -4 Y 48 X 3 Y 48 X 7 Y 48 X 3 Y 48 X 17 Y 48 X 27 Y 48 X 40 Y 48 X 60 Y 47 X 142 Y 48 X 170 Y 48 X 315 Y 48 X 233 Y 48 X -105 Y 48 X -239 Y 48 X -236 Y 48 X -160 Y 48 X -52 Y 48 X -74 Y 47 X -36 Y 48 X -54 Y 48 X
 -16 Y 48 X -22 Y 48 X -9 Y 48 X -7 Y 48 X 1 Y 96 X -3 Y 48 X -4 Y 48 X 2 Y 95 X -5 Y s 1 0 0 c black 3 lw 1 0 0 c 2126 202 m s 2078 202 m s 2030 202 m s 1982 202 m s 1934 202 m s 1886 202 m s 1837 202 m s 1791 204 m -2 -2 d s 1748 208 m -7 -6 d s
 1700 208 m -7 -6 d s 1650 207 m -5 -5 d s 1614 218 m -17 -16 d s 1579 233 m -30 -31 d s 1539 241 m -38 -39 d s 1532 281 m -79 -79 d s 1501 298 m -97 -96 d s 1484 329 m -128 -127 d s 1457 351 m -149 -149 d s 1436 377 m -176 -175 d s 1436 426 m -224
 -224 d s 1419 456 m -255 -254 d s 1388 474 m -272 -272 d s 1388 522 m -320 -320 d s 1388 570 m -368 -368 d s 1388 618 m -416 -416 d s 1388 666 m -465 -464 d s 1367 694 m -492 -492 d s 1340 715 m -287 -288 d s 1050 424 m -45 -45 d s 987 362 m -30 -31
 d s 938 312 m -111 -110 d s 1340 763 m -240 -240 d s 1096 519 m -43 -44 d s 863 286 m -2 -2 d s 831 253 m -52 -51 d s 1340 811 m -240 -240 d s 766 237 m -1 -1 d s 745 215 m -14 -13 d s 1340 859 m -192 -192 d s 1104 623 m -4 -4 d s 698 217 m -15 -15
 d s 1340 907 m -192 -192 d s 643 210 m -8 -8 d s 1340 955 m -144 -144 d s 1181 796 m -33 -33 d s 592 207 m -5 -5 d s 1340 1003 m -144 -144 d s 543 206 m -4 -4 d s 1340 1051 m -144 -143 d s 496 207 m -6 -5 d s 1329 1088 m -133 -132 d s 446 205 m -4
 -3 d s 1292 1100 m -96 -96 d s 395 202 m -1 X s 1292 1148 m -48 -48 d s 1220 1076 m -24 -24 d s 348 203 m -2 -1 d s 1292 1196 m -48 -48 d s 298 202 m cl s 1292 1244 m -48 -48 d s 253 205 m -3 -3 d s 1292 1292 m -48 -48 d s 1247 1295 m -3 -3 d s 6 lw
 238 205 m 48 X -3 Y 48 X 1 Y 48 X -1 Y 48 X 3 Y 48 X 2 Y 48 X -1 Y 47 X 1 Y 48 X 3 Y 48 X 7 Y 48 X -2 Y 48 X 22 Y 48 X 16 Y 48 X 33 Y 48 X 26 Y 48 X 50 Y 48 X 62 Y 48 X 95 Y 47 X 104 Y 48 X 173 Y 48 X 280 Y 48 X 219 Y 48 X -207 Y 48 X -394 Y 48 X
 -238 Y 48 X -105 Y 48 X -53 Y 48 X -57 Y 47 X -23 Y 48 X -11 Y 48 X 1 Y 96 X -4 Y 48 X -2 Y 335 X s black 3 lw 238 202 m 1916 X s 359 244 m -42 Y s 418 223 m -21 Y s 476 223 m -21 Y s 535 223 m -21 Y s 594 244 m -42 Y s 653 223 m -21 Y s 711 223 m
 -21 Y s 770 223 m -21 Y s 829 244 m -42 Y s 888 223 m -21 Y s 946 223 m -21 Y s 1005 223 m -21 Y s 1064 244 m -42 Y s 1123 223 m -21 Y s 1181 223 m -21 Y s 1240 223 m -21 Y s 1299 244 m -42 Y s 1358 223 m -21 Y s 1416 223 m -21 Y s 1475 223 m -21 Y
 s 1534 244 m -42 Y s 1593 223 m -21 Y s 1652 223 m -21 Y s 1710 223 m -21 Y s 1769 244 m -42 Y s 1828 223 m -21 Y s 1887 223 m -21 Y s 1945 223 m -21 Y s 2004 244 m -42 Y s 359 244 m -42 Y s 300 223 m -21 Y s 241 223 m -21 Y s 2004 244 m -42 Y s
 2063 223 m -21 Y s 2122 223 m -21 Y s 238 1514 m 1916 X s 359 1471 m 43 Y s 418 1492 m 22 Y s 476 1492 m 22 Y s 535 1492 m 22 Y s 594 1471 m 43 Y s 653 1492 m 22 Y s 711 1492 m 22 Y s 770 1492 m 22 Y s 829 1471 m 43 Y s 888 1492 m 22 Y s 946 1492 m
 22 Y s 1005 1492 m 22 Y s 1064 1471 m 43 Y s 1123 1492 m 22 Y s 1181 1492 m 22 Y s 1240 1492 m 22 Y s 1299 1471 m 43 Y s 1358 1492 m 22 Y s 1416 1492 m 22 Y s 1475 1492 m 22 Y s 1534 1471 m 43 Y s 1593 1492 m 22 Y s 1652 1492 m 22 Y s 1710 1492 m 22
 Y s 1769 1471 m 43 Y s 1828 1492 m 22 Y s 1887 1492 m 22 Y s 1945 1492 m 22 Y s 2004 1471 m 43 Y s 359 1471 m 43 Y s 300 1492 m 22 Y s 241 1492 m 22 Y s 2004 1471 m 43 Y s 2063 1492 m 22 Y s 2122 1492 m 22 Y s 238 202 m 1312 Y s 291 202 m -53 X s
 265 251 m -27 X s 265 299 m -27 X s 265 348 m -27 X s 265 397 m -27 X s 291 446 m -53 X s 265 494 m -27 X s 265 543 m -27 X s 265 592 m -27 X s 265 640 m -27 X s 291 689 m -53 X s 265 738 m -27 X s 265 787 m -27 X s 265 835 m -27 X s 265 884 m -27 X
 s 291 933 m -53 X s 265 982 m -27 X s 265 1030 m -27 X s 265 1079 m -27 X s 265 1128 m -27 X s 291 1177 m -53 X s 265 1225 m -27 X s 265 1274 m -27 X s 265 1323 m -27 X s 265 1372 m -27 X s 291 1420 m -53 X s 291 1420 m -53 X s 265 1469 m -27 X s
 2154 202 m 1312 Y s 2101 202 m 53 X s 2128 251 m 26 X s 2128 299 m 26 X s 2128 348 m 26 X s 2128 397 m 26 X s 2101 446 m 53 X s 2128 494 m 26 X s 2128 543 m 26 X s 2128 592 m 26 X s 2128 640 m 26 X s 2101 689 m 53 X s 2128 738 m 26 X s 2128 787 m 26
 X s 2128 835 m 26 X s 2128 884 m 26 X s 2101 933 m 53 X s 2128 982 m 26 X s 2128 1030 m 26 X s 2128 1079 m 26 X s 2128 1128 m 26 X s 2101 1177 m 53 X s 2128 1225 m 26 X s 2128 1274 m 26 X s 2128 1323 m 26 X s 2128 1372 m 26 X s 2101 1420 m 53 X s
 2101 1420 m 53 X s 2128 1469 m 26 X s
 gsave  2268 1682 0 0 C 2211.02 193.403 t 90 r /Helvetica-Bold findfont 45.6587 sf 0 0 m (U/O\255flow \(S,B\): \(0.0, 0.0\)% / \(0.0, 0.0\)%) show NC gr  0.490196 0.545098 0.615686 c 0.364706 0.419608 0.490196 c 1362 96 23 1577 bf 0.490196 0.545098
 0.615686 c 23 1577 m 1362 X s 1385 1577 m 96 Y s 1385 1673 m -1362 X s 23 1673 m -96 Y s 1 1 1 c black 1 1 1 c
 gsave  2268 1682 0 0 C 72.293 1605.67 t 0 r /Helvetica-Bold findfont 76.0979 sf 0 0 m (TMVA response for classifier: MLP) show NC gr 
 gr  gr showpage
end
%%EOF
