%!PS-Adobe-2.0 EPSF-2.0
%%BoundingBox:  0 0 567 420
%%Title: plots/mva_BDTB.eps: TMVA response BDTB
%%Creator: ROOT Version 5.34/09
%%CreationDate: Wed Dec 18 11:45:32 2013
%%EndComments
%%BeginProlog
80 dict begin
/s {stroke} def /l {lineto} def /m {moveto} def /t {translate} def
/r {rotate} def /rl {roll}  def /R {repeat} def
/d {rlineto} def /rm {rmoveto} def /gr {grestore} def /f {eofill} def
/c {setrgbcolor} def /black {0 setgray} def /sd {setdash} def
/cl {closepath} def /sf {scalefont setfont} def /lw {setlinewidth} def
/box {m dup 0 exch d exch 0 d 0 exch neg d cl} def
/NC{systemdict begin initclip end}def/C{NC box clip newpath}def
/bl {box s} def /bf {box f} def /Y { 0 exch d} def /X { 0 d} def 
/K {{pop pop 0 moveto} exch kshow} bind def
/ita {/ang 15 def gsave [1 0 ang dup sin exch cos div 1 0 0] concat} def 
/mp {newpath /y exch def /x exch def} def
/side {[w .77 mul w .23 mul] .385 w mul sd w 0 l currentpoint t -144 r} def
/mr {mp x y w2 0 360 arc} def /m24 {mr s} def /m20 {mr f} def
/mb {mp x y w2 add m w2 neg 0 d 0 w neg d w 0 d 0 w d cl} def
/mt {mp x y w2 add m w2 neg w neg d w 0 d cl} def
/m21 {mb f} def /m25 {mb s} def /m22 {mt f} def /m26{mt s} def
/m23 {mp x y w2 sub m w2 w d w neg 0 d cl f} def
/m27 {mp x y w2 add m w3 neg w2 neg d w3 w2 neg d w3 w2 d cl s} def
/m28 {mp x w2 sub y w2 sub w3 add m w3 0 d  0 w3 neg d w3 0 d 0 w3 d w3 0 d  0 w3 d w3 neg 0 d 0 w3 d w3 neg 0 d 0 w3 neg d w3 neg 0 d cl s } def
/m29 {mp gsave x w2 sub y w2 add w3 sub m currentpoint t 4 {side} repeat cl fill gr} def
/m30 {mp gsave x w2 sub y w2 add w3 sub m currentpoint t 4 {side} repeat cl s gr} def
/m31 {mp x y w2 sub m 0 w d x w2 sub y m w 0 d x w2 sub y w2 add m w w neg d x w2 sub y w2 sub m w w d s} def
/m32 {mp x y w2 sub m w2 w d w neg 0 d cl s} def
/m33 {mp x y w2 add m w3 neg w2 neg d w3 w2 neg d w3 w2 d cl f} def
/m34 {mp x w2 sub y w2 sub w3 add m w3 0 d  0 w3 neg d w3 0 d 0 w3 d w3 0 d  0 w3 d w3 neg 0 d 0 w3 d w3 neg 0 d 0 w3 neg d w3 neg 0 d cl f } def
/m2 {mp x y w2 sub m 0 w d x w2 sub y m w 0 d s} def
/m5 {mp x w2 sub y w2 sub m w w d x w2 sub y w2 add m w w neg d s} def
/reEncode {exch findfont dup length dict begin {1 index /FID eq  {pop pop} {def} ifelse } forall /Encoding exch def currentdict end dup /FontName get exch definefont pop } def [/Times-Bold /Times-Italic /Times-BoldItalic /Helvetica /Helvetica-Oblique
 /Helvetica-Bold /Helvetica-BoldOblique /Courier /Courier-Oblique /Courier-Bold /Courier-BoldOblique /Times-Roman /AvantGarde-Book /AvantGarde-BookOblique /AvantGarde-Demi /AvantGarde-DemiOblique /Bookman-Demi /Bookman-DemiItalic /Bookman-Light
 /Bookman-LightItalic /Helvetica-Narrow /Helvetica-Narrow-Bold /Helvetica-Narrow-BoldOblique /Helvetica-Narrow-Oblique /NewCenturySchlbk-Roman /NewCenturySchlbk-Bold /NewCenturySchlbk-BoldItalic /NewCenturySchlbk-Italic /Palatino-Bold
 /Palatino-BoldItalic /Palatino-Italic /Palatino-Roman ] {ISOLatin1Encoding reEncode } forall
%%EndProlog
%%BeginSetup
%%EndSetup
newpath  gsave  .25 .25 scale  gsave  0 0 t 0.490196 0.545098 0.615686 c[  ] 0 sd 3 lw 0.941176 0.941176 0.941176 c 2268 1682 0 0 bf black 1 1 0.992157 c 1916 1312 238 202 bf black 1916 1312 238 202 bl 1 1 0.992157 c 1916 1312 238 202 bf black 1916
 1312 238 202 bl 238 202 m 1916 X s
 gsave  2268 1682 0 0 C 1609.47 34.244 t 0 r /Helvetica-Bold findfont 72.293 sf 0 0 m (BDTB response) show NC gr  285 244 m -42 Y s 352 223 m -21 Y s 418 223 m -21 Y s 485 223 m -21 Y s 552 244 m -42 Y s 619 223 m -21 Y s 685 223 m -21 Y s 752 223 m
 -21 Y s 819 244 m -42 Y s 886 223 m -21 Y s 953 223 m -21 Y s 1019 223 m -21 Y s 1086 244 m -42 Y s 1153 223 m -21 Y s 1220 223 m -21 Y s 1286 223 m -21 Y s 1353 244 m -42 Y s 1420 223 m -21 Y s 1487 223 m -21 Y s 1553 223 m -21 Y s 1620 244 m -42 Y
 s 1687 223 m -21 Y s 1754 223 m -21 Y s 1820 223 m -21 Y s 1887 244 m -42 Y s 1954 223 m -21 Y s 2021 223 m -21 Y s 2088 223 m -21 Y s 2154 244 m -42 Y s 285 244 m -42 Y s 2154 244 m -42 Y s
 gsave  2268 1682 0 0 C 224.489 129.366 t 0 r /Helvetica-Bold findfont 64.6832 sf 0 0 m (\2550.4) show NC gr 
 gsave  2268 1682 0 0 C 494.636 129.366 t 0 r /Helvetica-Bold findfont 64.6832 sf 0 0 m (\2550.2) show NC gr 
 gsave  2268 1682 0 0 C 799.028 129.366 t 0 r /Helvetica-Bold findfont 64.6832 sf 0 0 m (0) show NC gr 
 gsave  2268 1682 0 0 C 1038.74 129.366 t 0 r /Helvetica-Bold findfont 64.6832 sf 0 0 m (0.2) show NC gr 
 gsave  2268 1682 0 0 C 1305.08 129.366 t 0 r /Helvetica-Bold findfont 64.6832 sf 0 0 m (0.4) show NC gr 
 gsave  2268 1682 0 0 C 1571.42 129.366 t 0 r /Helvetica-Bold findfont 64.6832 sf 0 0 m (0.6) show NC gr 
 gsave  2268 1682 0 0 C 1841.57 129.366 t 0 r /Helvetica-Bold findfont 64.6832 sf 0 0 m (0.8) show NC gr 
 gsave  2268 1682 0 0 C 2138.35 129.366 t 0 r /Helvetica-Bold findfont 64.6832 sf 0 0 m (1) show NC gr  238 1514 m 1916 X s 285 1471 m 43 Y s 352 1492 m 22 Y s 418 1492 m 22 Y s 485 1492 m 22 Y s 552 1471 m 43 Y s 619 1492 m 22 Y s 685 1492 m 22 Y s
 752 1492 m 22 Y s 819 1471 m 43 Y s 886 1492 m 22 Y s 953 1492 m 22 Y s 1019 1492 m 22 Y s 1086 1471 m 43 Y s 1153 1492 m 22 Y s 1220 1492 m 22 Y s 1286 1492 m 22 Y s 1353 1471 m 43 Y s 1420 1492 m 22 Y s 1487 1492 m 22 Y s 1553 1492 m 22 Y s 1620
 1471 m 43 Y s 1687 1492 m 22 Y s 1754 1492 m 22 Y s 1820 1492 m 22 Y s 1887 1471 m 43 Y s 1954 1492 m 22 Y s 2021 1492 m 22 Y s 2088 1492 m 22 Y s 2154 1471 m 43 Y s 285 1471 m 43 Y s 2154 1471 m 43 Y s 238 202 m 1312 Y s
 gsave  2268 1682 0 0 C 64.6832 1430.64 t 90 r /Helvetica-Bold findfont 72.293 sf 0 0 m (dx) show NC gr 
 gsave  2268 1682 0 0 C 30.4391 1411.62 t 90 r /Helvetica-Bold findfont 45.6587 sf 0 0 m ( ) show NC gr 
 gsave  2268 1682 0 0 C 64.6832 1388.79 t 90 r /Helvetica-Bold findfont 72.293 sf 0 0 m (/) show NC gr 
 gsave  2268 1682 0 0 C 30.4391 1369.76 t 90 r /Helvetica-Bold findfont 45.6587 sf 0 0 m ( ) show NC gr 
 gsave  2268 1682 0 0 C 60.8783 1095.81 t 90 r /Helvetica-Bold findfont 72.293 sf 0 0 m (\(1/N\) dN) show NC gr  291 202 m -53 X s 265 228 m -27 X s 265 254 m -27 X s 265 281 m -27 X s 291 307 m -53 X s 265 333 m -27 X s 265 359 m -27 X s 265 386 m
 -27 X s 291 412 m -53 X s 265 438 m -27 X s 265 464 m -27 X s 265 491 m -27 X s 291 517 m -53 X s 265 543 m -27 X s 265 569 m -27 X s 265 595 m -27 X s 291 622 m -53 X s 265 648 m -27 X s 265 674 m -27 X s 265 700 m -27 X s 291 727 m -53 X s 265 753
 m -27 X s 265 779 m -27 X s 265 805 m -27 X s 291 832 m -53 X s 265 858 m -27 X s 265 884 m -27 X s 265 910 m -27 X s 291 937 m -53 X s 265 963 m -27 X s 265 989 m -27 X s 265 1015 m -27 X s 291 1042 m -53 X s 265 1068 m -27 X s 265 1094 m -27 X s
 265 1120 m -27 X s 291 1147 m -53 X s 265 1173 m -27 X s 265 1199 m -27 X s 265 1225 m -27 X s 291 1252 m -53 X s 265 1278 m -27 X s 265 1304 m -27 X s 265 1330 m -27 X s 291 1357 m -53 X s 265 1383 m -27 X s 265 1409 m -27 X s 265 1435 m -27 X s
 291 1462 m -53 X s 291 1462 m -53 X s 265 1488 m -27 X s
 gsave  2268 1682 0 0 C 175.025 178.83 t 0 r /Helvetica-Bold findfont 64.6832 sf 0 0 m (0) show NC gr 
 gsave  2268 1682 0 0 C 175.025 281.562 t 0 r /Helvetica-Bold findfont 64.6832 sf 0 0 m (2) show NC gr 
 gsave  2268 1682 0 0 C 175.025 388.099 t 0 r /Helvetica-Bold findfont 64.6832 sf 0 0 m (4) show NC gr 
 gsave  2268 1682 0 0 C 175.025 490.831 t 0 r /Helvetica-Bold findfont 64.6832 sf 0 0 m (6) show NC gr 
 gsave  2268 1682 0 0 C 175.025 597.368 t 0 r /Helvetica-Bold findfont 64.6832 sf 0 0 m (8) show NC gr 
 gsave  2268 1682 0 0 C 136.976 700.1 t 0 r /Helvetica-Bold findfont 64.6832 sf 0 0 m (10) show NC gr 
 gsave  2268 1682 0 0 C 136.976 806.637 t 0 r /Helvetica-Bold findfont 64.6832 sf 0 0 m (12) show NC gr 
 gsave  2268 1682 0 0 C 136.976 913.174 t 0 r /Helvetica-Bold findfont 64.6832 sf 0 0 m (14) show NC gr 
 gsave  2268 1682 0 0 C 136.976 1015.91 t 0 r /Helvetica-Bold findfont 64.6832 sf 0 0 m (16) show NC gr 
 gsave  2268 1682 0 0 C 136.976 1122.44 t 0 r /Helvetica-Bold findfont 64.6832 sf 0 0 m (18) show NC gr 
 gsave  2268 1682 0 0 C 136.976 1225.18 t 0 r /Helvetica-Bold findfont 64.6832 sf 0 0 m (20) show NC gr 
 gsave  2268 1682 0 0 C 136.976 1331.71 t 0 r /Helvetica-Bold findfont 64.6832 sf 0 0 m (22) show NC gr 
 gsave  2268 1682 0 0 C 136.976 1438.25 t 0 r /Helvetica-Bold findfont 64.6832 sf 0 0 m (24) show NC gr  2154 202 m 1312 Y s 2101 202 m 53 X s 2128 228 m 26 X s 2128 254 m 26 X s 2128 281 m 26 X s 2101 307 m 53 X s 2128 333 m 26 X s 2128 359 m 26 X s
 2128 386 m 26 X s 2101 412 m 53 X s 2128 438 m 26 X s 2128 464 m 26 X s 2128 491 m 26 X s 2101 517 m 53 X s 2128 543 m 26 X s 2128 569 m 26 X s 2128 595 m 26 X s 2101 622 m 53 X s 2128 648 m 26 X s 2128 674 m 26 X s 2128 700 m 26 X s 2101 727 m 53 X
 s 2128 753 m 26 X s 2128 779 m 26 X s 2128 805 m 26 X s 2101 832 m 53 X s 2128 858 m 26 X s 2128 884 m 26 X s 2128 910 m 26 X s 2101 937 m 53 X s 2128 963 m 26 X s 2128 989 m 26 X s 2128 1015 m 26 X s 2101 1042 m 53 X s 2128 1068 m 26 X s 2128 1094
 m 26 X s 2128 1120 m 26 X s 2101 1147 m 53 X s 2128 1173 m 26 X s 2128 1199 m 26 X s 2128 1225 m 26 X s 2101 1252 m 53 X s 2128 1278 m 26 X s 2128 1304 m 26 X s 2128 1330 m 26 X s 2101 1357 m 53 X s 2128 1383 m 26 X s 2128 1409 m 26 X s 2128 1435 m
 26 X s 2101 1462 m 53 X s 2101 1462 m 53 X s 2128 1488 m 26 X s 0.490196 0.545098 0.615686 c 0.95 0.95 0.95 c 0.490196 0.545098 0.615686 c 680 202 238 1312 bl 238 1312 m 680 X s 918 1312 m 202 Y s 918 1514 m -680 X s 238 1514 m -202 Y s black
 gsave  2268 1682 0 0 C 441.368 1442.05 t 0 r /Times-Italic findfont 76.0979 sf 0 0 m (Signal) show NC gr  0.49 0.6 0.82 c 269 1428 m 143 X 70 Y -143 X f 0 0 0.933333 c 6 lw 269 1498 m 143 X s 269 1428 m 143 X s 412 1428 m 70 Y s 269 1428 m 70 Y s
 black
 gsave  2268 1682 0 0 C 441.368 1343.13 t 0 r /Times-Italic findfont 76.0979 sf 0 0 m (Background) show NC gr  1 0 0 c 3 lw 412 1374 m -47 -47 d s 387 1398 m -70 -71 d s 339 1398 m -70 -71 d s 291 1398 m -22 -23 d s 6 lw 0 0 0.933333 c 1 0 0 c 269
 1398 m 143 X s 269 1327 m 143 X s 412 1327 m 71 Y s 269 1327 m 71 Y s 0 0 0.933333 c 0.49 0.6 0.82 c black 3 lw 0.49 0.6 0.82 c 238 202 m 1 Y 48 X -1 Y 192 X 1 Y 48 X -1 Y 47 X 1 Y 48 X 1 Y 96 X 2 Y 48 X -1 Y 48 X 7 Y 48 X -9 Y 48 X -1 Y 48 X 2 Y
 143 X 2 Y 48 X -3 Y 48 X 1 Y 48 X -1 Y 48 X 7 Y 48 X -6 Y 48 X 22 Y 48 X -11 Y 48 X -8 Y 48 X 1 Y 47 X 3 Y 48 X -3 Y 48 X 53 Y 48 X -56 Y 48 X 14 Y 48 X 4 Y 48 X -9 Y 48 X 30 Y 48 X -7 Y 48 X -16 Y 48 X 25 Y 47 X 1049 Y 48 X -1093 Y f 6 lw 0 0
 0.933333 c 0.49 0.6 0.82 c 0 0 0.933333 c 238 203 m 48 X -1 Y 192 X 1 Y 48 X -1 Y 47 X 1 Y 48 X 1 Y 96 X 2 Y 48 X -1 Y 48 X 7 Y 48 X -9 Y 48 X -1 Y 48 X 2 Y 143 X 2 Y 48 X -3 Y 48 X 1 Y 48 X -1 Y 48 X 7 Y 48 X -6 Y 48 X 22 Y 48 X -11 Y 48 X -8 Y 48
 X 1 Y 47 X 3 Y 48 X -3 Y 48 X 53 Y 48 X -56 Y 48 X 14 Y 48 X 4 Y 48 X -9 Y 48 X 30 Y 48 X -7 Y 48 X -16 Y 48 X 25 Y 47 X 1049 Y 48 X -1093 Y s 1 0 0 c black 3 lw 1 0 0 c 2154 230 m -28 -28 d s 2154 278 m -76 -76 d s 2154 326 m -48 -48 d s 2076 248 m
 -17 -17 d s 2053 225 m -23 -23 d s 2154 374 m -48 -47 d s 2011 231 m -29 -29 d s 2154 423 m -48 -48 d s 1970 238 m -36 -36 d s 2154 471 m -48 -48 d s 1921 238 m -6 -7 d s 1905 221 m -19 -19 d s 2154 519 m -48 -48 d s 1867 231 m -30 -29 d s 2154 567
 m -48 -48 d s 1822 234 m -3 -2 d s 1809 222 m -20 -20 d s 2154 615 m -48 -48 d s 1748 209 m -7 -7 d s 2154 663 m -48 -48 d s 1723 232 m -30 -30 d s 2154 711 m -48 -48 d s 1721 278 m -46 -46 d s 1655 212 m -10 -10 d s 2154 759 m -48 -48 d s 1616 220
 m -19 -18 d s 2154 807 m -48 -48 d s 1559 212 m -10 -10 d s 2154 855 m -48 -47 d s 1509 210 m -8 -8 d s 2154 904 m -48 -48 d s 1461 210 m -8 -8 d s 2154 952 m -48 -48 d s 1436 233 m -32 -31 d s 2154 1000 m -48 -48 d s 1403 249 m -15 -16 d s 1362 208
 m -6 -6 d s 2154 1048 m -48 -48 d s 1322 215 m -14 -13 d s 2154 1096 m -48 -48 d s 1270 212 m -10 -10 d s 2154 1144 m -48 -48 d s 1214 204 m -2 -2 d s 2110 1148 m -4 -4 d s 1166 204 m -2 -2 d s 1125 211 m -9 -9 d s 1072 206 m -4 -4 d s 1023 205 m -3
 -3 d s 975 206 m -3 -4 d s 925 203 m -2 -1 d s 877 204 m -2 -2 d s 838 213 m -11 -11 d s 790 212 m -11 -10 d s 737 208 m -6 -6 d s 685 204 m -2 -2 d s 637 204 m -2 -2 d s 588 203 m -1 -1 d s 542 205 m -3 -3 d s 503 214 m -13 -12 d s 442 202 m s 398
 205 m -4 -3 d s 352 207 m -6 -5 d s 302 206 m -4 -4 d s 250 202 m s 6 lw 238 202 m 48 X 4 Y 48 X 1 Y 48 X -2 Y 48 X -3 Y 48 X 12 Y 48 X -9 Y 47 X -2 Y 48 X 1 Y 96 X 4 Y 48 X 4 Y 48 X 1 Y 48 X -9 Y 48 X -1 Y 48 X 3 Y 48 X -1 Y 48 X 1 Y 47 X 5 Y 48 X
 -7 Y 96 X 8 Y 48 X 3 Y 48 X -7 Y 48 X 41 Y 48 X -39 Y 96 X 2 Y 47 X 8 Y 48 X -8 Y 48 X 66 Y 48 X -69 Y 48 X 13 Y 48 X 12 Y 48 X -13 Y 48 X 17 Y 96 X -13 Y 48 X 23 Y 47 X 900 Y 48 X -946 Y s black 3 lw 238 202 m 1916 X s 285 244 m -42 Y s 352 223 m
 -21 Y s 418 223 m -21 Y s 485 223 m -21 Y s 552 244 m -42 Y s 619 223 m -21 Y s 685 223 m -21 Y s 752 223 m -21 Y s 819 244 m -42 Y s 886 223 m -21 Y s 953 223 m -21 Y s 1019 223 m -21 Y s 1086 244 m -42 Y s 1153 223 m -21 Y s 1220 223 m -21 Y s
 1286 223 m -21 Y s 1353 244 m -42 Y s 1420 223 m -21 Y s 1487 223 m -21 Y s 1553 223 m -21 Y s 1620 244 m -42 Y s 1687 223 m -21 Y s 1754 223 m -21 Y s 1820 223 m -21 Y s 1887 244 m -42 Y s 1954 223 m -21 Y s 2021 223 m -21 Y s 2088 223 m -21 Y s
 2154 244 m -42 Y s 285 244 m -42 Y s 2154 244 m -42 Y s 238 1514 m 1916 X s 285 1471 m 43 Y s 352 1492 m 22 Y s 418 1492 m 22 Y s 485 1492 m 22 Y s 552 1471 m 43 Y s 619 1492 m 22 Y s 685 1492 m 22 Y s 752 1492 m 22 Y s 819 1471 m 43 Y s 886 1492 m
 22 Y s 953 1492 m 22 Y s 1019 1492 m 22 Y s 1086 1471 m 43 Y s 1153 1492 m 22 Y s 1220 1492 m 22 Y s 1286 1492 m 22 Y s 1353 1471 m 43 Y s 1420 1492 m 22 Y s 1487 1492 m 22 Y s 1553 1492 m 22 Y s 1620 1471 m 43 Y s 1687 1492 m 22 Y s 1754 1492 m 22
 Y s 1820 1492 m 22 Y s 1887 1471 m 43 Y s 1954 1492 m 22 Y s 2021 1492 m 22 Y s 2088 1492 m 22 Y s 2154 1471 m 43 Y s 285 1471 m 43 Y s 2154 1471 m 43 Y s 238 202 m 1312 Y s 291 202 m -53 X s 265 228 m -27 X s 265 254 m -27 X s 265 281 m -27 X s 291
 307 m -53 X s 265 333 m -27 X s 265 359 m -27 X s 265 386 m -27 X s 291 412 m -53 X s 265 438 m -27 X s 265 464 m -27 X s 265 491 m -27 X s 291 517 m -53 X s 265 543 m -27 X s 265 569 m -27 X s 265 595 m -27 X s 291 622 m -53 X s 265 648 m -27 X s
 265 674 m -27 X s 265 700 m -27 X s 291 727 m -53 X s 265 753 m -27 X s 265 779 m -27 X s 265 805 m -27 X s 291 832 m -53 X s 265 858 m -27 X s 265 884 m -27 X s 265 910 m -27 X s 291 937 m -53 X s 265 963 m -27 X s 265 989 m -27 X s 265 1015 m -27
 X s 291 1042 m -53 X s 265 1068 m -27 X s 265 1094 m -27 X s 265 1120 m -27 X s 291 1147 m -53 X s 265 1173 m -27 X s 265 1199 m -27 X s 265 1225 m -27 X s 291 1252 m -53 X s 265 1278 m -27 X s 265 1304 m -27 X s 265 1330 m -27 X s 291 1357 m -53 X
 s 265 1383 m -27 X s 265 1409 m -27 X s 265 1435 m -27 X s 291 1462 m -53 X s 291 1462 m -53 X s 265 1488 m -27 X s 2154 202 m 1312 Y s 2101 202 m 53 X s 2128 228 m 26 X s 2128 254 m 26 X s 2128 281 m 26 X s 2101 307 m 53 X s 2128 333 m 26 X s 2128
 359 m 26 X s 2128 386 m 26 X s 2101 412 m 53 X s 2128 438 m 26 X s 2128 464 m 26 X s 2128 491 m 26 X s 2101 517 m 53 X s 2128 543 m 26 X s 2128 569 m 26 X s 2128 595 m 26 X s 2101 622 m 53 X s 2128 648 m 26 X s 2128 674 m 26 X s 2128 700 m 26 X s
 2101 727 m 53 X s 2128 753 m 26 X s 2128 779 m 26 X s 2128 805 m 26 X s 2101 832 m 53 X s 2128 858 m 26 X s 2128 884 m 26 X s 2128 910 m 26 X s 2101 937 m 53 X s 2128 963 m 26 X s 2128 989 m 26 X s 2128 1015 m 26 X s 2101 1042 m 53 X s 2128 1068 m
 26 X s 2128 1094 m 26 X s 2128 1120 m 26 X s 2101 1147 m 53 X s 2128 1173 m 26 X s 2128 1199 m 26 X s 2128 1225 m 26 X s 2101 1252 m 53 X s 2128 1278 m 26 X s 2128 1304 m 26 X s 2128 1330 m 26 X s 2101 1357 m 53 X s 2128 1383 m 26 X s 2128 1409 m 26
 X s 2128 1435 m 26 X s 2101 1462 m 53 X s 2101 1462 m 53 X s 2128 1488 m 26 X s
 gsave  2268 1682 0 0 C 2211.02 193.403 t 90 r /Helvetica-Bold findfont 45.6587 sf 0 0 m (U/O\255flow \(S,B\): \(0.0, 0.0\)% / \(0.0, 0.0\)%) show NC gr  0.490196 0.545098 0.615686 c 0.364706 0.419608 0.490196 c 1415 96 23 1577 bf 0.490196 0.545098
 0.615686 c 23 1577 m 1415 X s 1438 1577 m 96 Y s 1438 1673 m -1415 X s 23 1673 m -96 Y s 1 1 1 c black 1 1 1 c
 gsave  2268 1682 0 0 C 72.293 1605.67 t 0 r /Helvetica-Bold findfont 76.0979 sf 0 0 m (TMVA response for classifier: BDTB) show NC gr 
 gr  gr showpage
end
%%EOF
