%!PS-Adobe-2.0 EPSF-2.0
%%BoundingBox:  0 0 567 420
%%Title: plots/mvaeffs_PDERSPCA.eps: Cut efficiencies for PDERSPCA classifier
%%Creator: ROOT Version 5.34/09
%%CreationDate: Thu Jan  2 18:35:59 2014
%%EndComments
%%BeginProlog
80 dict begin
/s {stroke} def /l {lineto} def /m {moveto} def /t {translate} def
/r {rotate} def /rl {roll}  def /R {repeat} def
/d {rlineto} def /rm {rmoveto} def /gr {grestore} def /f {eofill} def
/c {setrgbcolor} def /black {0 setgray} def /sd {setdash} def
/cl {closepath} def /sf {scalefont setfont} def /lw {setlinewidth} def
/box {m dup 0 exch d exch 0 d 0 exch neg d cl} def
/NC{systemdict begin initclip end}def/C{NC box clip newpath}def
/bl {box s} def /bf {box f} def /Y { 0 exch d} def /X { 0 d} def 
/K {{pop pop 0 moveto} exch kshow} bind def
/ita {/ang 15 def gsave [1 0 ang dup sin exch cos div 1 0 0] concat} def 
/mp {newpath /y exch def /x exch def} def
/side {[w .77 mul w .23 mul] .385 w mul sd w 0 l currentpoint t -144 r} def
/mr {mp x y w2 0 360 arc} def /m24 {mr s} def /m20 {mr f} def
/mb {mp x y w2 add m w2 neg 0 d 0 w neg d w 0 d 0 w d cl} def
/mt {mp x y w2 add m w2 neg w neg d w 0 d cl} def
/m21 {mb f} def /m25 {mb s} def /m22 {mt f} def /m26{mt s} def
/m23 {mp x y w2 sub m w2 w d w neg 0 d cl f} def
/m27 {mp x y w2 add m w3 neg w2 neg d w3 w2 neg d w3 w2 d cl s} def
/m28 {mp x w2 sub y w2 sub w3 add m w3 0 d  0 w3 neg d w3 0 d 0 w3 d w3 0 d  0 w3 d w3 neg 0 d 0 w3 d w3 neg 0 d 0 w3 neg d w3 neg 0 d cl s } def
/m29 {mp gsave x w2 sub y w2 add w3 sub m currentpoint t 4 {side} repeat cl fill gr} def
/m30 {mp gsave x w2 sub y w2 add w3 sub m currentpoint t 4 {side} repeat cl s gr} def
/m31 {mp x y w2 sub m 0 w d x w2 sub y m w 0 d x w2 sub y w2 add m w w neg d x w2 sub y w2 sub m w w d s} def
/m32 {mp x y w2 sub m w2 w d w neg 0 d cl s} def
/m33 {mp x y w2 add m w3 neg w2 neg d w3 w2 neg d w3 w2 d cl f} def
/m34 {mp x w2 sub y w2 sub w3 add m w3 0 d  0 w3 neg d w3 0 d 0 w3 d w3 0 d  0 w3 d w3 neg 0 d 0 w3 d w3 neg 0 d 0 w3 neg d w3 neg 0 d cl f } def
/m2 {mp x y w2 sub m 0 w d x w2 sub y m w 0 d s} def
/m5 {mp x w2 sub y w2 sub m w w d x w2 sub y w2 add m w w neg d s} def
/reEncode {exch findfont dup length dict begin {1 index /FID eq  {pop pop} {def} ifelse } forall /Encoding exch def currentdict end dup /FontName get exch definefont pop } def [/Times-Bold /Times-Italic /Times-BoldItalic /Helvetica /Helvetica-Oblique
 /Helvetica-Bold /Helvetica-BoldOblique /Courier /Courier-Oblique /Courier-Bold /Courier-BoldOblique /Times-Roman /AvantGarde-Book /AvantGarde-BookOblique /AvantGarde-Demi /AvantGarde-DemiOblique /Bookman-Demi /Bookman-DemiItalic /Bookman-Light
 /Bookman-LightItalic /Helvetica-Narrow /Helvetica-Narrow-Bold /Helvetica-Narrow-BoldOblique /Helvetica-Narrow-Oblique /NewCenturySchlbk-Roman /NewCenturySchlbk-Bold /NewCenturySchlbk-BoldItalic /NewCenturySchlbk-Italic /Palatino-Bold
 /Palatino-BoldItalic /Palatino-Italic /Palatino-Roman ] {ISOLatin1Encoding reEncode } forall
%%EndProlog
%%BeginSetup
%%EndSetup
newpath  gsave  .25 .25 scale  gsave  0 0 t 0.490196 0.545098 0.615686 c[  ] 0 sd 3 lw 0.941176 0.941176 0.941176 c 2268 1682 0 0 bf black 1 1 0.992157 c 1796 1143 245 202 bf black 1796 1143 245 202 bl 1 1 0.992157 c 1796 1143 245 202 bf black 1796
 1143 245 202 bl 245 202 m 1796 X s[ 4 8] 0 sd 271 1345 m -1143 Y s 541 1345 m -1143 Y s 810 1345 m -1143 Y s 1079 1345 m -1143 Y s 1348 1345 m -1143 Y s 1617 1345 m -1143 Y s 1886 1345 m -1143 Y s 271 1345 m -1143 Y s 1886 1345 m -1143 Y s[  ] 0 sd
 245 202 m 1143 Y s[ 4 8] 0 sd 2041 202 m -1796 X s 2041 410 m -1796 X s 2041 618 m -1796 X s 2041 826 m -1796 X s 2041 1034 m -1796 X s 2041 1241 m -1796 X s 2041 1241 m -1796 X s 0 0 0.933333 c[  22 12 ] 0 sd 6 lw 0.49 0.6 0.82 c black 0 0 0.933333
 c 245 723 m cl s 248 723 m cl s 252 723 m cl s 256 723 m cl s 260 723 m cl s 264 723 m cl s 267 723 m cl s 271 723 m cl s 275 723 m cl s 279 723 m cl s 283 723 m cl s 287 723 m cl s 290 723 m cl s 294 723 m cl s 298 723 m cl s 302 723 m cl s 306 723
 m cl s 309 723 m cl s 313 723 m cl s 317 723 m cl s 321 723 m cl s 325 723 m cl s 328 723 m cl s 332 723 m cl s 336 723 m cl s 340 723 m cl s 344 723 m cl s 347 723 m cl s 351 723 m cl s 355 723 m cl s 359 723 m cl s 363 723 m cl s 366 723 m cl s
 370 723 m cl s 374 723 m cl s 378 723 m cl s 382 723 m cl s 385 723 m cl s 389 723 m cl s 393 723 m cl s 397 723 m cl s 401 723 m cl s 404 723 m cl s 408 723 m cl s 412 723 m cl s 416 723 m cl s 420 723 m cl s 423 723 m cl s 427 723 m cl s 431 723 m
 cl s 435 727 m -4 Y s 439 727 m cl s 443 727 m cl s 446 727 m cl s 450 727 m cl s 454 727 m cl s 458 727 m cl s 462 727 m cl s 465 727 m cl s 469 727 m cl s 473 727 m cl s 477 727 m cl s 481 727 m cl s 484 727 m cl s 488 727 m cl s 492 727 m cl s
 496 727 m cl s 500 727 m cl s 503 727 m cl s 507 727 m cl s 511 727 m cl s 515 727 m cl s 519 727 m cl s 522 727 m cl s 526 727 m cl s 530 727 m cl s 534 727 m cl s 538 727 m cl s 541 727 m cl s 545 727 m cl s 549 727 m cl s 553 727 m cl s 557 727 m
 cl s 560 727 m cl s 564 727 m cl s 568 727 m cl s 572 727 m cl s 576 727 m cl s 579 727 m cl s 583 727 m cl s 587 727 m cl s 591 727 m cl s 595 727 m cl s 599 727 m cl s 602 727 m cl s 606 727 m cl s 610 727 m cl s 614 727 m cl s 618 727 m cl s 621
 727 m cl s 625 727 m cl s 629 727 m cl s 633 727 m cl s 637 727 m cl s 640 727 m cl s 644 727 m cl s 648 727 m cl s 652 727 m -4 Y s 656 727 m -4 Y s 659 727 m -4 Y s 663 727 m -4 Y s 667 727 m -4 Y s 671 723 m cl s 675 723 m cl s 678 723 m cl s 682
 723 m cl s 686 723 m -4 Y s 690 719 m cl s 694 719 m cl s 697 719 m cl s 701 719 m -4 Y s 705 715 m cl s 709 715 m cl s 713 715 m cl s 716 715 m cl s 720 715 m cl s 724 715 m cl s 728 715 m cl s 732 715 m cl s 735 715 m cl s 739 715 m cl s 743 715 m
 cl s 747 715 m -3 Y s 751 712 m cl s 755 712 m cl s 758 712 m cl s 762 712 m cl s 766 712 m cl s 770 712 m cl s 774 712 m cl s 777 712 m cl s 781 712 m cl s 785 712 m -4 Y s 789 712 m -4 Y s 793 708 m cl s 796 708 m cl s 800 708 m cl s 804 708 m cl
 s 808 708 m cl s 812 708 m -4 Y s 815 704 m cl s 819 704 m cl s 823 704 m cl s 827 704 m cl s 831 704 m -4 Y s 834 700 m cl s 838 700 m -4 Y s 842 696 m cl s 846 696 m cl s 850 696 m cl s 853 696 m cl s 857 696 m -4 Y s 861 692 m cl s 865 692 m cl s
 869 692 m cl s 872 692 m -3 Y s 876 689 m cl s 880 689 m -4 Y s 884 689 m -4 Y s 888 689 m -4 Y s 891 689 m -4 Y s 895 689 m -4 Y s 899 685 m cl s 903 685 m -4 Y s 907 681 m -4 Y s 911 677 m cl s 914 677 m -4 Y s 918 673 m -3 Y s 922 670 m cl s 926
 670 m -4 Y s 930 670 m cl s 933 670 m cl s 937 670 m -4 Y s 941 670 m -4 Y s 945 670 m -4 Y s 949 666 m -4 Y s 952 662 m -4 Y s 956 662 m -4 Y s 960 662 m -4 Y s 964 658 m cl s 968 658 m cl s 971 658 m -4 Y s 975 654 m -3 Y s 979 651 m cl s 983 651
 m -4 Y s 987 647 m -4 Y s 990 643 m -4 Y s 994 639 m -4 Y s 998 635 m -7 Y s 1002 632 m -4 Y s 1006 628 m cl s 1009 624 m -4 Y s 1013 620 m cl s 1017 620 m -4 Y s 1021 616 m cl s 1025 616 m -7 Y s 1028 609 m -4 Y s 1032 605 m -8 Y s 1036 597 m -3 Y
 s 1040 594 m cl s 1044 594 m -4 Y s 1047 590 m -4 Y s 1051 586 m -8 Y s 1055 578 m -3 Y s 1059 575 m -4 Y s 1063 571 m cl s 1067 571 m -4 Y s 1070 567 m cl s 1074 567 m -4 Y s 1078 563 m -4 Y s 1082 559 m -3 Y s 1086 556 m cl s 1089 556 m -8 Y s
 1093 548 m cl s 1097 548 m -8 Y s 1101 540 m -4 Y s 1105 536 m -7 Y s 1108 529 m -4 Y s 1112 521 m cl s 1116 521 m -4 Y s 1120 517 m -3 Y s 1124 510 m -4 Y s 1127 506 m -4 Y s 1131 502 m -4 Y s 1135 498 m -3 Y s 1139 498 m -3 Y s 1143 495 m -4 Y s
 1146 495 m -4 Y s 1150 491 m -8 Y s 1154 483 m -4 Y s 1158 479 m -3 Y s 1162 476 m -8 Y s 1165 468 m -4 Y s 1169 464 m -4 Y s 1173 460 m cl s 1177 460 m -3 Y s 1181 457 m -8 Y s 1184 449 m cl s 1188 449 m -8 Y s 1192 441 m cl s 1196 441 m -3 Y s
 1200 438 m -8 Y s 1203 430 m -4 Y s 1207 426 m cl s 1211 426 m -4 Y s 1215 422 m -3 Y s 1219 419 m -4 Y s 1223 415 m cl s 1226 415 m -4 Y s 1230 415 m -4 Y s 1234 411 m cl s 1238 411 m -4 Y s 1242 407 m cl s 1245 407 m cl s 1249 407 m -4 Y s 1253
 403 m cl s 1257 403 m -3 Y s 1261 400 m -4 Y s 1264 396 m -4 Y s 1268 396 m -4 Y s 1272 392 m cl s 1276 392 m -4 Y s 1280 388 m -4 Y s 1283 388 m -4 Y s 1287 384 m cl s 1291 384 m -4 Y s 1295 380 m cl s 1299 380 m -3 Y s 1302 377 m -4 Y s 1306 373 m
 -4 Y s 1310 369 m cl s 1314 369 m -4 Y s 1318 369 m -4 Y s 1321 365 m cl s 1325 365 m cl s 1329 365 m -4 Y s 1333 361 m cl s 1337 361 m cl s 1340 361 m -3 Y s 1344 361 m -3 Y s 1348 358 m -4 Y s 1352 354 m cl s 1356 354 m -4 Y s 1359 354 m -4 Y s
 1363 350 m -4 Y s 1367 346 m -4 Y s 1371 342 m cl s 1375 342 m cl s 1379 342 m cl s 1382 342 m -3 Y s 1386 342 m -3 Y s 1390 339 m cl s 1394 339 m cl s 1398 339 m cl s 1401 339 m -4 Y s 1405 335 m cl s 1409 335 m cl s 1413 335 m -4 Y s 1417 335 m -4
 Y s 1420 331 m cl s 1424 331 m -4 Y s 1428 327 m cl s 1432 327 m cl s 1436 327 m cl s 1439 327 m cl s 1443 327 m -4 Y s 1447 323 m cl s 1451 323 m cl s 1455 323 m cl s 1458 323 m -3 Y s 1462 323 m -3 Y s 1466 323 m -3 Y s 1470 320 m cl s 1474 320 m
 cl s 1477 320 m cl s 1481 320 m -4 Y s 1485 316 m cl s 1489 316 m cl s 1493 316 m -4 Y s 1496 312 m cl s 1500 312 m cl s 1504 312 m cl s 1508 312 m -4 Y s 1512 308 m -4 Y s 1515 304 m cl s 1519 304 m cl s 1523 304 m -3 Y s 1527 301 m cl s 1531 301 m
 cl s 1535 301 m -4 Y s 1538 301 m -4 Y s 1542 297 m -4 Y s 1546 293 m cl s 1550 293 m -4 Y s 1554 289 m cl s 1557 289 m -4 Y s 1561 285 m cl s 1565 285 m -3 Y s 1569 282 m cl s 1573 282 m cl s 1576 282 m cl s 1580 282 m cl s 1584 282 m cl s 1588 282
 m -4 Y s 1592 278 m cl s 1595 278 m cl s 1599 278 m cl s 1603 278 m cl s 1607 278 m cl s 1611 278 m cl s 1614 278 m -4 Y s 1618 274 m cl s 1622 274 m cl s 1626 274 m -4 Y s 1630 274 m -4 Y s 1633 270 m cl s 1637 270 m cl s 1641 270 m -4 Y s 1645 266
 m -3 Y s 1649 263 m -4 Y s 1652 263 m -4 Y s 1656 259 m -4 Y s 1660 255 m cl s 1664 255 m cl s 1668 255 m -4 Y s 1671 251 m cl s 1675 251 m cl s 1679 251 m cl s 1683 251 m -4 Y s 1687 247 m cl s 1691 247 m cl s 1694 247 m cl s 1698 247 m -3 Y s 1702
 244 m -4 Y s 1706 240 m cl s 1710 240 m cl s 1713 240 m cl s 1717 240 m cl s 1721 240 m cl s 1725 240 m cl s 1729 240 m cl s 1732 240 m cl s 1736 240 m cl s 1740 240 m cl s 1744 240 m cl s 1748 240 m cl s 1751 240 m cl s 1755 240 m -4 Y s 1759 236 m
 cl s 1763 236 m cl s 1767 236 m cl s 1770 236 m cl s 1774 236 m cl s 1778 236 m cl s 1782 236 m cl s 1786 236 m cl s 1789 236 m cl s 1793 236 m cl s 1797 236 m cl s 1801 236 m cl s 1805 236 m cl s 1808 236 m cl s 1812 236 m cl s 1816 236 m cl s 1820
 236 m -4 Y s 1824 232 m cl s 1827 232 m -4 Y s 1831 228 m cl s 1835 228 m cl s 1839 228 m cl s 1843 228 m cl s 1847 228 m -4 Y s 1850 224 m cl s 1854 224 m cl s 1858 224 m cl s 1862 224 m cl s 1866 224 m -3 Y s 1869 221 m cl s 1873 221 m cl s 1877
 221 m cl s 1881 221 m cl s 1885 221 m cl s 1888 221 m -4 Y s 1892 217 m cl s 1896 217 m cl s 1900 217 m cl s 1904 217 m -4 Y s 1907 213 m cl s 1911 213 m cl s 1915 209 m cl s 1919 209 m cl s 1923 209 m cl s 1926 209 m cl s 1930 209 m cl s 1934 209 m
 cl s 245 723 m 186 X 4 4 d 232 X 4 -4 d 15 X 4 -4 d 11 X 4 -4 d 42 X 4 -3 d 38 X 4 -4 d 19 X 3 -4 d 16 X 3 -4 d 4 X 4 -4 d 15 X 4 -4 d 11 X 4 -3 d 19 X 4 -4 d 4 X 4 -4 d 4 -4 d 3 X 4 -4 d 4 -3 d 23 X 4 -4 d 3 -4 d 8 X 4 -4 d 7 X 4 -4 d 4 -3 d 4 X 4
 -4 d 3 -4 d 4 -4 d 4 -7 d 4 X 4 -4 d 3 -4 d 4 -4 d 4 X 4 -4 d 4 -3 d 3 -4 d 4 -8 d 4 -4 d 4 -3 d 4 X 3 -4 d 4 -8 d 4 -4 d 4 -3 d 4 -4 d 4 X 3 -4 d 4 X 4 -4 d 4 -4 d 4 -3 d 3 -4 d 4 -4 d 4 -4 d 4 -4 d 4 -7 d 3 -4 d 4 -8 d 4 X 4 -4 d 4 -7 d 3 -4 d 4
 -4 d 4 -4 d 4 X 4 -3 d 3 X 4 -8 d 4 -4 d 4 -4 d 4 -7 d 3 -4 d 4 -4 d 4 -4 d 4 X 4 -7 d 3 -4 d 4 -4 d 4 -4 d 4 X 4 -7 d 3 -4 d 4 -4 d 4 X 4 -4 d 4 -3 d 4 -4 d 7 X 4 -4 d 4 X 4 -4 d 7 X 4 -4 d 4 X 4 -3 d 3 -4 d 4 X 4 -4 d 4 X 4 -4 d 3 X 4 -4 d 4 X 4
 -4 d 4 X 3 -3 d 4 -4 d 4 -4 d 8 X 3 -4 d 8 X 4 -4 d 11 X 4 -3 d 4 -4 d 7 X 4 -4 d 4 -4 d 4 -4 d 15 X 4 -3 d 11 X 4 -4 d 12 X 3 -4 d 4 X 4 -4 d 15 X 4 -4 d 19 X 4 -3 d 11 X 4 -4 d 8 X 3 -4 d 12 X 4 -4 d 3 -4 d 8 X 4 -3 d 11 X 4 -4 d 4 -4 d 4 X 4 -4 d
 3 X 4 -4 d 4 X 4 -3 d 19 X 4 -4 d 22 X 4 -4 d 12 X 3 -4 d 8 X 4 -4 d 4 -3 d 3 X 4 -4 d 4 -4 d 8 X 3 -4 d 12 X 4 -4 d 11 X 4 -3 d 4 -4 d 49 X 4 -4 d 61 X 4 -4 d 3 X 4 -4 d 16 X 3 -4 d 16 X 3 -3 d 19 X 4 -4 d 12 X 3 -4 d 4 X 4 -4 d 19 X s black[  ] 0
 sd 3 lw 245 202 m 1796 X s
 gsave  2268 1682 0 0 C 665.856 30.4391 t 0 r /Helvetica-Bold findfont 72.293 sf 0 0 m (Cut value applied on PDERSPCA output) show NC gr  271 242 m -40 Y s 325 222 m -20 Y s 379 222 m -20 Y s 433 222 m -20 Y s 487 222 m -20 Y s 541 242 m -40 Y s 594
 222 m -20 Y s 648 222 m -20 Y s 702 222 m -20 Y s 756 222 m -20 Y s 810 242 m -40 Y s 863 222 m -20 Y s 917 222 m -20 Y s 971 222 m -20 Y s 1025 222 m -20 Y s 1079 242 m -40 Y s 1132 222 m -20 Y s 1186 222 m -20 Y s 1240 222 m -20 Y s 1294 222 m -20
 Y s 1348 242 m -40 Y s 1401 222 m -20 Y s 1455 222 m -20 Y s 1509 222 m -20 Y s 1563 222 m -20 Y s 1617 242 m -40 Y s 1671 222 m -20 Y s 1724 222 m -20 Y s 1778 222 m -20 Y s 1832 222 m -20 Y s 1886 242 m -40 Y s 271 242 m -40 Y s 1886 242 m -40 Y s
 1940 222 m -20 Y s 1993 222 m -20 Y s
 gsave  2268 1682 0 0 C 224.489 129.366 t 0 r /Helvetica-Bold findfont 64.6832 sf 0 0 m (0.2) show NC gr 
 gsave  2268 1682 0 0 C 494.636 129.366 t 0 r /Helvetica-Bold findfont 64.6832 sf 0 0 m (0.3) show NC gr 
 gsave  2268 1682 0 0 C 760.979 129.366 t 0 r /Helvetica-Bold findfont 64.6832 sf 0 0 m (0.4) show NC gr 
 gsave  2268 1682 0 0 C 1031.13 129.366 t 0 r /Helvetica-Bold findfont 64.6832 sf 0 0 m (0.5) show NC gr 
 gsave  2268 1682 0 0 C 1301.27 129.366 t 0 r /Helvetica-Bold findfont 64.6832 sf 0 0 m (0.6) show NC gr 
 gsave  2268 1682 0 0 C 1567.62 129.366 t 0 r /Helvetica-Bold findfont 64.6832 sf 0 0 m (0.7) show NC gr 
 gsave  2268 1682 0 0 C 1837.76 129.366 t 0 r /Helvetica-Bold findfont 64.6832 sf 0 0 m (0.8) show NC gr  245 202 m 1143 Y s
 gsave  2268 1682 0 0 C 64.6832 734.344 t 90 r /Helvetica-Bold findfont 72.293 sf 0 0 m (Efficiency \(Purity\)) show NC gr  291 202 m -46 X s 268 254 m -23 X s 268 306 m -23 X s 268 358 m -23 X s 291 410 m -46 X s 268 462 m -23 X s 268 514 m -23 X s
 268 566 m -23 X s 291 618 m -46 X s 268 670 m -23 X s 268 722 m -23 X s 268 774 m -23 X s 291 826 m -46 X s 268 878 m -23 X s 268 930 m -23 X s 268 982 m -23 X s 291 1034 m -46 X s 268 1086 m -23 X s 268 1137 m -23 X s 268 1189 m -23 X s 291 1241 m
 -46 X s 291 1241 m -46 X s 268 1293 m -23 X s 268 1345 m -23 X s
 gsave  2268 1682 0 0 C 182.635 178.83 t 0 r /Helvetica-Bold findfont 64.6832 sf 0 0 m (0) show NC gr 
 gsave  2268 1682 0 0 C 129.366 384.294 t 0 r /Helvetica-Bold findfont 64.6832 sf 0 0 m (0.2) show NC gr 
 gsave  2268 1682 0 0 C 125.561 593.563 t 0 r /Helvetica-Bold findfont 64.6832 sf 0 0 m (0.4) show NC gr 
 gsave  2268 1682 0 0 C 129.366 799.028 t 0 r /Helvetica-Bold findfont 64.6832 sf 0 0 m (0.6) show NC gr 
 gsave  2268 1682 0 0 C 125.561 1008.3 t 0 r /Helvetica-Bold findfont 64.6832 sf 0 0 m (0.8) show NC gr 
 gsave  2268 1682 0 0 C 190.245 1217.57 t 0 r /Helvetica-Bold findfont 64.6832 sf 0 0 m (1) show NC gr  0 0 0.933333 c[  52 12 ] 0 sd 6 lw 0.49 0.6 0.82 c black 0 0 0.933333 c 248 723 m cl s 252 723 m cl s 256 723 m cl s 260 723 m cl s 264 723 m cl s
 267 723 m cl s 271 723 m cl s 275 723 m cl s 279 723 m cl s 283 723 m cl s 287 723 m cl s 290 723 m cl s 294 723 m cl s 298 723 m cl s 302 723 m cl s 306 723 m cl s 309 723 m cl s 313 723 m cl s 317 723 m cl s 321 723 m cl s 325 723 m cl s 328 723 m
 cl s 332 723 m cl s 336 723 m cl s 340 723 m cl s 344 723 m cl s 347 723 m cl s 351 723 m cl s 355 723 m cl s 359 723 m cl s 363 723 m cl s 366 723 m cl s 370 723 m cl s 374 723 m cl s 378 723 m cl s 382 723 m cl s 385 723 m cl s 389 723 m cl s 393
 723 m cl s 397 723 m cl s 401 723 m cl s 404 723 m cl s 408 723 m cl s 412 727 m -4 Y s 416 727 m cl s 420 727 m cl s 423 727 m cl s 427 727 m cl s 431 727 m cl s 435 727 m cl s 439 727 m cl s 443 727 m cl s 446 727 m cl s 450 727 m cl s 454 727 m
 cl s 458 727 m cl s 462 727 m cl s 465 727 m cl s 469 727 m cl s 473 727 m cl s 477 727 m cl s 481 727 m cl s 484 727 m cl s 488 727 m cl s 492 727 m cl s 496 727 m cl s 500 731 m -4 Y s 503 731 m cl s 507 731 m cl s 511 731 m cl s 515 731 m cl s
 519 731 m cl s 522 731 m cl s 526 731 m cl s 530 731 m cl s 534 731 m cl s 538 731 m cl s 541 731 m cl s 545 731 m cl s 549 734 m -3 Y s 553 734 m cl s 557 734 m cl s 560 734 m cl s 564 734 m cl s 568 734 m cl s 572 734 m cl s 576 734 m cl s 579 734
 m cl s 583 734 m cl s 587 734 m cl s 591 734 m cl s 595 738 m -4 Y s 599 738 m cl s 602 738 m cl s 606 738 m cl s 610 738 m cl s 614 738 m cl s 618 738 m cl s 621 738 m cl s 625 738 m cl s 629 738 m cl s 633 738 m cl s 637 738 m cl s 640 742 m -4 Y
 s 644 742 m -4 Y s 648 742 m cl s 652 742 m cl s 656 742 m cl s 659 742 m cl s 663 742 m cl s 667 742 m cl s 671 742 m cl s 675 742 m cl s 678 742 m cl s 682 746 m -4 Y s 686 746 m cl s 690 746 m cl s 694 746 m cl s 697 746 m cl s 701 746 m cl s 705
 746 m cl s 709 746 m cl s 713 746 m cl s 716 750 m -4 Y s 720 750 m cl s 724 750 m cl s 728 750 m cl s 732 753 m -3 Y s 735 753 m cl s 739 753 m cl s 743 753 m cl s 747 753 m cl s 751 753 m cl s 755 753 m cl s 758 753 m cl s 762 757 m -4 Y s 766 757
 m cl s 770 757 m cl s 774 757 m cl s 777 757 m cl s 781 757 m cl s 785 761 m -4 Y s 789 761 m cl s 793 761 m cl s 796 761 m cl s 800 761 m cl s 804 765 m -4 Y s 808 765 m -4 Y s 812 765 m cl s 815 769 m -4 Y s 819 769 m cl s 823 769 m cl s 827 772 m
 -3 Y s 831 769 m cl s 834 772 m -3 Y s 838 772 m cl s 842 772 m cl s 846 776 m -4 Y s 850 776 m cl s 853 776 m cl s 857 780 m -4 Y s 861 780 m cl s 865 780 m cl s 869 780 m cl s 872 784 m -4 Y s 876 784 m cl s 880 784 m cl s 884 784 m cl s 888 788 m
 -4 Y s 891 788 m cl s 895 791 m -3 Y s 899 795 m -4 Y s 903 795 m cl s 907 795 m cl s 911 795 m cl s 914 795 m cl s 918 795 m cl s 922 795 m cl s 926 799 m -4 Y s 930 799 m cl s 933 803 m -4 Y s 937 803 m -4 Y s 941 807 m -4 Y s 945 807 m cl s 949
 807 m cl s 952 810 m -3 Y s 956 810 m cl s 960 814 m -4 Y s 964 814 m cl s 968 818 m -4 Y s 971 818 m cl s 975 822 m -4 Y s 979 822 m -4 Y s 983 822 m cl s 987 826 m -4 Y s 990 826 m cl s 994 826 m cl s 998 826 m cl s 1002 826 m cl s 1006 829 m -3 Y
 s 1009 829 m cl s 1013 833 m -4 Y s 1017 833 m cl s 1021 837 m -4 Y s 1025 837 m cl s 1028 837 m cl s 1032 841 m -4 Y s 1036 841 m cl s 1040 845 m -4 Y s 1044 848 m -3 Y s 1047 848 m cl s 1051 852 m -4 Y s 1055 852 m cl s 1059 856 m -4 Y s 1063 860
 m -4 Y s 1067 864 m -4 Y s 1070 868 m -4 Y s 1074 871 m -3 Y s 1078 875 m -4 Y s 1082 875 m -4 Y s 1086 875 m cl s 1089 879 m -4 Y s 1093 879 m cl s 1097 879 m cl s 1101 879 m cl s 1105 879 m cl s 1108 879 m cl s 1112 879 m cl s 1116 883 m -4 Y s
 1120 883 m cl s 1124 883 m cl s 1127 890 m -7 Y s 1131 890 m cl s 1135 894 m -4 Y s 1139 902 m -8 Y s 1143 906 m -8 Y s 1146 906 m -4 Y s 1150 906 m cl s 1154 909 m -3 Y s 1158 909 m cl s 1162 909 m cl s 1165 909 m -3 Y s 1169 913 m -4 Y s 1173 917
 m -4 Y s 1177 917 m cl s 1181 917 m cl s 1184 921 m -4 Y s 1188 921 m -4 Y s 1192 921 m -4 Y s 1196 921 m -4 Y s 1200 921 m -4 Y s 1203 921 m -4 Y s 1207 921 m cl s 1211 925 m -4 Y s 1215 925 m -4 Y s 1219 925 m -4 Y s 1223 928 m -3 Y s 1226 932 m
 -7 Y s 1230 940 m -8 Y s 1234 940 m cl s 1238 944 m -4 Y s 1242 947 m -3 Y s 1245 951 m -4 Y s 1249 951 m -4 Y s 1253 951 m cl s 1257 955 m -4 Y s 1261 955 m cl s 1264 955 m -4 Y s 1268 955 m cl s 1272 959 m -4 Y s 1276 959 m cl s 1280 959 m cl s
 1283 963 m -4 Y s 1287 966 m -7 Y s 1291 966 m -3 Y s 1295 970 m -4 Y s 1299 970 m -4 Y s 1302 970 m -4 Y s 1306 970 m -4 Y s 1310 966 m cl s 1314 966 m cl s 1318 974 m -8 Y s 1321 974 m -4 Y s 1325 974 m cl s 1329 978 m -4 Y s 1333 982 m -4 Y s
 1337 982 m cl s 1340 985 m -3 Y s 1344 985 m -3 Y s 1348 985 m cl s 1352 985 m cl s 1356 989 m -4 Y s 1359 989 m -4 Y s 1363 985 m -3 Y s 1367 985 m -7 Y s 1371 985 m -3 Y s 1375 985 m cl s 1379 985 m cl s 1382 985 m cl s 1386 989 m -4 Y s 1390 997
 m -8 Y s 1394 997 m cl s 1398 1001 m -4 Y s 1401 1001 m -4 Y s 1405 1004 m -3 Y s 1409 1008 m -4 Y s 1413 1008 m cl s 1417 1008 m cl s 1420 1008 m cl s 1424 1012 m -4 Y s 1428 1012 m -4 Y s 1432 1012 m -4 Y s 1436 1012 m -4 Y s 1439 1012 m -4 Y s
 1443 1008 m cl s 1447 1008 m cl s 1451 1012 m cl s 1455 1016 m -4 Y s 1458 1016 m -4 Y s 1462 1020 m -4 Y s 1466 1020 m cl s 1470 1024 m -4 Y s 1474 1024 m cl s 1477 1027 m -3 Y s 1481 1027 m -3 Y s 1485 1027 m -3 Y s 1489 1027 m cl s 1493 1027 m cl
 s 1496 1031 m -7 Y s 1500 1039 m -8 Y s 1504 1039 m -4 Y s 1508 1035 m -4 Y s 1512 1031 m -4 Y s 1515 1027 m cl s 1519 1027 m cl s 1523 1027 m cl s 1527 1027 m -3 Y s 1531 1024 m cl s 1535 1027 m -3 Y s 1538 1027 m -3 Y s 1542 1024 m -4 Y s 1546
 1024 m -4 Y s 1550 1024 m -4 Y s 1554 1020 m -4 Y s 1557 1020 m -4 Y s 1561 1020 m -4 Y s 1565 1020 m -4 Y s 1569 1016 m cl s 1573 1016 m cl s 1576 1020 m -4 Y s 1580 1020 m cl s 1584 1020 m cl s 1588 1020 m cl s 1592 1020 m -4 Y s 1595 1016 m -4 Y
 s 1599 1031 m -19 Y s 1603 1031 m cl s 1607 1031 m -4 Y s 1611 1031 m cl s 1614 1031 m cl s 1618 1031 m -4 Y s 1622 1031 m cl s 1626 1039 m -12 Y s 1630 1046 m -7 Y s 1633 1043 m cl s 1637 1043 m -4 Y s 1641 1039 m -4 Y s 1645 1035 m -4 Y s 1649
 1039 m -8 Y s 1652 1043 m -8 Y s 1656 1039 m -4 Y s 1660 1039 m cl s 1664 1050 m -11 Y s 1668 1046 m -3 Y s 1671 1043 m -8 Y s 1675 1054 m -19 Y s 1679 1054 m -4 Y s 1683 1050 m -4 Y s 1687 1054 m -4 Y s 1691 1062 m -16 Y s 1694 1058 m cl s 1698
 1054 m -4 Y s 1702 1054 m -11 Y s 1706 1046 m cl s 1710 1050 m -11 Y s 1713 1054 m -4 Y s 1717 1054 m cl s 1721 1058 m -4 Y s 1725 1062 m -8 Y s 1729 1062 m -4 Y s 1732 1073 m -15 Y s 1736 1077 m -4 Y s 1740 1081 m -4 Y s 1744 1092 m -15 Y s 1748
 1103 m -11 Y s 1751 1103 m cl s 1755 1103 m -7 Y s 1759 1107 m -11 Y s 1763 1107 m cl s 1767 1107 m -4 Y s 1770 1119 m -16 Y s 1774 1119 m -4 Y s 1778 1115 m cl s 1782 1119 m -4 Y s 1786 1134 m -15 Y s 1789 1134 m cl s 1793 1153 m -19 Y s 1797 1164
 m -15 Y s 1801 1164 m -4 Y s 1805 1168 m -8 Y s 1808 1168 m cl s 1812 1168 m cl s 1816 1168 m cl s 1820 1168 m cl s 1824 1168 m -4 Y s 1827 1164 m -7 Y s 1831 1157 m cl s 1835 1157 m cl s 1839 1157 m cl s 1843 1160 m -7 Y s 1847 1160 m -7 Y s 1850
 1153 m cl s 1854 1153 m -4 Y s 1858 1149 m cl s 1862 1149 m -4 Y s 1866 1218 m -77 Y s 1869 1218 m cl s 1873 1218 m -4 Y s 1877 1214 m cl s 1881 1214 m cl s 1885 1214 m -4 Y s 1888 1210 m cl s 1892 1210 m -4 Y s 1896 1206 m -4 Y s 1900 1202 m cl s
 1904 1202 m -7 Y s 1907 1214 m -31 Y s 1911 1214 m -4 Y s 1915 1202 m -3 Y s 1919 1199 m -4 Y s 1923 1244 m cl s 1926 1244 m cl s 1930 1244 m cl s 1934 1244 m cl s 1938 1244 m cl s 1942 1244 m cl s 1945 1244 m cl s 1949 1244 m cl s 1953 1244 m cl s
 1957 1244 m cl s 1961 1244 m cl s 1964 1244 m cl s 1968 1244 m cl s 1972 1244 m cl s 1976 1244 m cl s 1980 1244 m cl s 1983 1244 m cl s 1987 1244 m cl s 1991 1244 m cl s 1995 1244 m cl s 1999 1244 m cl s 2003 1244 m cl s 2006 1244 m cl s 2010 1244 m
 cl s 2014 1244 m cl s 2018 1244 m cl s 2022 1244 m cl s 2025 1244 m cl s 2029 1244 m cl s 2033 1244 m cl s 2037 1244 m cl s 2041 1244 m cl s 245 723 m 3 X s 248 723 m 160 X 4 4 d 84 X 4 4 d 45 X 4 3 d 42 X 4 4 d 42 X 3 4 d 38 X 4 4 d 31 X 3 4 d 12 X
 4 3 d 26 X 4 4 d 19 X 4 4 d 15 X 4 4 d 8 X 3 4 d 8 X 4 3 d 4 -3 d 3 3 d 8 X 4 4 d 7 X 4 4 d 12 X 3 4 d 12 X 4 4 d 3 X 4 3 d 4 4 d 23 X 4 4 d 4 X 3 4 d 4 X 4 4 d 8 X 3 3 d 4 X 4 4 d 4 X 4 4 d 3 X 4 4 d 8 X 4 4 d 15 X 4 3 d 3 X 4 4 d 4 X 4 4 d 7 X 4 4
 d 4 X 4 4 d 4 3 d 3 X 4 4 d 4 X 4 4 d 4 4 d 4 4 d 3 4 d 4 3 d 4 4 d 8 X 3 4 d 23 X 4 4 d 8 X 3 4 d 4 3 d 4 4 d 4 4 d 4 4 d 3 4 d 4 X 4 3 d 11 X 4 4 d 4 4 d 8 X 3 4 d 23 X 4 4 d 8 X 4 3 d 3 X 4 8 d 4 4 d 4 4 d 4 3 d 3 4 d 8 X 4 4 d 11 X 4 4 d 8 X 3 4
 d 4 X 4 3 d 4 4 d 11 X 4 -4 d 4 X 4 4 d 3 4 d 4 X 4 4 d 4 4 d 4 X 3 3 d 12 X 4 4 d 3 X 4 -4 d 4 -3 d 4 3 d 11 X 4 4 d 4 4 d 4 4 d 4 4 d 3 X 4 3 d 4 4 d 11 X 4 4 d 15 X 4 -4 d 4 X 4 4 d 4 4 d 3 X 4 4 d 4 X 4 4 d 4 X 3 3 d 19 X 4 8 d 4 4 d 4 -4 d 4 -4
 d 3 -4 d 12 X 4 -3 d 4 3 d 3 X 4 -3 d 8 X 4 -4 d 11 X 4 -4 d 4 X 3 4 d 16 X 3 -4 d 4 8 d 4 7 d 19 X 4 4 d 4 8 d 7 X 4 -4 d 4 -4 d 4 X 3 4 d 8 X 4 7 d 4 X 3 -7 d 4 7 d 4 8 d 4 -4 d 4 4 d 4 X 3 4 d 4 -4 d 4 -4 d 4 -4 d 4 X 3 8 d 4 X 4 4 d 4 X 4 4 d 3
 3 d 4 12 d 4 4 d 4 3 d 4 16 d 3 3 d 4 -3 d 4 3 d 4 4 d 4 X 3 4 d 4 8 d 4 -4 d 4 4 d 4 7 d 3 8 d 4 11 d 4 12 d 4 7 d 4 X 3 4 d 16 X 3 -8 d 4 -3 d 16 X 3 -4 d 4 X 4 -4 d 4 X 4 31 d 3 38 d 4 X 4 -4 d 8 X 3 -4 d 4 X 4 -4 d 4 -4 d 4 -3 d 3 X 4 15 d 4 -12
 d 4 -3 d 4 45 d 118 X s[  ] 0 sd 9 lw 0.49 0.6 0.82 c black 0 0 0.933333 c 248 1244 m cl s 252 1244 m cl s 256 1244 m cl s 260 1244 m cl s 264 1244 m cl s 267 1244 m cl s 271 1244 m cl s 275 1244 m cl s 279 1244 m cl s 283 1244 m cl s 287 1244 m cl
 s 290 1244 m cl s 294 1244 m cl s 298 1244 m -4 Y s 302 1240 m cl s 306 1240 m cl s 309 1240 m cl s 313 1240 m cl s 317 1240 m cl s 321 1240 m cl s 325 1240 m cl s 328 1240 m cl s 332 1240 m cl s 336 1240 m cl s 340 1240 m cl s 344 1240 m cl s 347
 1240 m cl s 351 1240 m cl s 355 1240 m cl s 359 1240 m cl s 363 1240 m cl s 366 1240 m cl s 370 1240 m cl s 374 1240 m cl s 378 1240 m cl s 382 1240 m cl s 385 1240 m cl s 389 1240 m cl s 393 1240 m cl s 397 1240 m cl s 401 1240 m cl s 404 1240 m cl
 s 408 1240 m cl s 412 1240 m cl s 416 1240 m cl s 420 1240 m cl s 423 1240 m cl s 427 1240 m cl s 431 1240 m cl s 435 1240 m cl s 439 1240 m cl s 443 1240 m cl s 446 1240 m cl s 450 1240 m cl s 454 1240 m cl s 458 1240 m cl s 462 1240 m cl s 465
 1240 m cl s 469 1240 m cl s 473 1240 m cl s 477 1240 m cl s 481 1240 m cl s 484 1240 m cl s 488 1240 m cl s 492 1240 m -3 Y s 496 1237 m cl s 500 1237 m cl s 503 1237 m cl s 507 1237 m cl s 511 1237 m cl s 515 1237 m cl s 519 1237 m cl s 522 1237 m
 cl s 526 1237 m cl s 530 1237 m cl s 534 1237 m cl s 538 1237 m cl s 541 1237 m cl s 545 1237 m cl s 549 1237 m cl s 553 1237 m -4 Y s 557 1233 m cl s 560 1233 m cl s 564 1233 m cl s 568 1233 m cl s 572 1233 m cl s 576 1233 m -4 Y s 579 1229 m cl s
 583 1229 m cl s 587 1229 m cl s 591 1229 m cl s 595 1229 m cl s 599 1229 m -4 Y s 602 1225 m cl s 606 1225 m cl s 610 1225 m cl s 614 1225 m cl s 618 1225 m -4 Y s 621 1221 m cl s 625 1221 m cl s 629 1221 m -3 Y s 633 1218 m cl s 637 1218 m cl s 640
 1218 m cl s 644 1218 m -4 Y s 648 1214 m cl s 652 1214 m cl s 656 1214 m -4 Y s 659 1210 m cl s 663 1210 m cl s 667 1210 m -4 Y s 671 1206 m cl s 675 1206 m -4 Y s 678 1202 m cl s 682 1202 m -3 Y s 686 1199 m cl s 690 1199 m -4 Y s 694 1195 m cl s
 697 1195 m -4 Y s 701 1191 m -4 Y s 705 1187 m cl s 709 1187 m -4 Y s 713 1183 m cl s 716 1183 m -3 Y s 720 1180 m cl s 724 1180 m -4 Y s 728 1176 m cl s 732 1176 m cl s 735 1176 m -4 Y s 739 1172 m cl s 743 1172 m -4 Y s 747 1168 m -4 Y s 751 1164
 m cl s 755 1164 m cl s 758 1164 m -4 Y s 762 1160 m cl s 766 1160 m cl s 770 1160 m -3 Y s 774 1157 m cl s 777 1157 m -4 Y s 781 1153 m cl s 785 1153 m -4 Y s 789 1149 m -4 Y s 793 1145 m cl s 796 1145 m -4 Y s 800 1141 m cl s 804 1141 m -3 Y s 808
 1138 m cl s 812 1138 m -8 Y s 815 1130 m -4 Y s 819 1126 m -4 Y s 823 1122 m cl s 827 1122 m -3 Y s 831 1119 m -4 Y s 834 1115 m -4 Y s 838 1111 m -4 Y s 842 1107 m -4 Y s 846 1103 m -3 Y s 850 1100 m -4 Y s 853 1096 m cl s 857 1096 m -4 Y s 861
 1088 m cl s 865 1088 m -4 Y s 869 1084 m -3 Y s 872 1081 m -4 Y s 876 1077 m -4 Y s 880 1073 m -4 Y s 884 1069 m -4 Y s 888 1065 m cl s 891 1065 m -3 Y s 895 1062 m -4 Y s 899 1058 m -4 Y s 903 1054 m -8 Y s 907 1046 m -7 Y s 911 1039 m -4 Y s 914
 1035 m -8 Y s 918 1027 m -3 Y s 922 1024 m -4 Y s 926 1020 m -4 Y s 930 1016 m cl s 933 1016 m -4 Y s 937 1012 m -4 Y s 941 1008 m -4 Y s 945 1004 m -3 Y s 949 1001 m -4 Y s 952 997 m -8 Y s 956 989 m -4 Y s 960 985 m -3 Y s 964 982 m -8 Y s 968 974
 m cl s 971 970 m -4 Y s 975 966 m -7 Y s 979 959 m -4 Y s 983 955 m -8 Y s 987 947 m -3 Y s 990 940 m -8 Y s 994 932 m -4 Y s 998 928 m -11 Y s 1002 917 m -8 Y s 1006 909 m cl s 1009 906 m -8 Y s 1013 898 m -8 Y s 1017 890 m -3 Y s 1021 887 m -8 Y s
 1025 879 m -11 Y s 1028 868 m -8 Y s 1032 860 m -12 Y s 1036 848 m -7 Y s 1040 841 m -8 Y s 1044 833 m -7 Y s 1047 826 m -8 Y s 1051 818 m -11 Y s 1055 807 m -8 Y s 1059 799 m -8 Y s 1063 791 m -7 Y s 1067 784 m -4 Y s 1070 776 m -4 Y s 1074 772 m
 -7 Y s 1078 765 m -8 Y s 1082 757 m -7 Y s 1086 750 m -4 Y s 1089 746 m -8 Y s 1093 738 m -7 Y s 1097 731 m -12 Y s 1101 719 m cl s 1105 719 m -11 Y s 1108 708 m -12 Y s 1112 696 m -4 Y s 1116 689 m -4 Y s 1120 685 m -12 Y s 1124 673 m -11 Y s 1127
 662 m -4 Y s 1131 658 m -7 Y s 1135 651 m -8 Y s 1139 643 m -4 Y s 1143 639 m -4 Y s 1146 635 m -7 Y s 1150 628 m -8 Y s 1154 620 m -7 Y s 1158 613 m -8 Y s 1162 605 m -11 Y s 1165 594 m -8 Y s 1169 586 m -4 Y s 1173 582 m -4 Y s 1177 578 m -7 Y s
 1181 571 m -8 Y s 1184 563 m -4 Y s 1188 559 m -7 Y s 1192 552 m -4 Y s 1196 548 m -8 Y s 1200 540 m -7 Y s 1203 533 m -4 Y s 1207 529 m -4 Y s 1211 525 m -4 Y s 1215 521 m -7 Y s 1219 514 m -4 Y s 1223 506 m cl s 1226 506 m -8 Y s 1230 498 m cl s
 1234 498 m -3 Y s 1238 495 m -4 Y s 1242 491 m -4 Y s 1245 487 m cl s 1249 487 m -4 Y s 1253 483 m -4 Y s 1257 479 m -3 Y s 1261 476 m -4 Y s 1264 472 m -4 Y s 1268 468 m -4 Y s 1272 464 m -4 Y s 1276 460 m cl s 1280 460 m -3 Y s 1283 457 m -4 Y s
 1287 449 m cl s 1291 449 m -4 Y s 1295 445 m -4 Y s 1299 441 m -3 Y s 1302 438 m -4 Y s 1306 434 m -4 Y s 1310 430 m -4 Y s 1314 426 m cl s 1318 426 m -4 Y s 1321 422 m cl s 1325 422 m -3 Y s 1329 419 m cl s 1333 419 m -4 Y s 1337 415 m -4 Y s 1340
 411 m cl s 1344 411 m -4 Y s 1348 407 m -4 Y s 1352 403 m -3 Y s 1356 400 m cl s 1359 400 m -4 Y s 1363 396 m -4 Y s 1367 392 m -4 Y s 1371 388 m cl s 1375 388 m cl s 1379 388 m -4 Y s 1382 384 m cl s 1386 384 m cl s 1390 384 m -4 Y s 1394 380 m cl
 s 1398 380 m cl s 1401 380 m -3 Y s 1405 377 m -4 Y s 1409 373 m cl s 1413 373 m -4 Y s 1417 369 m cl s 1420 369 m -4 Y s 1424 365 m cl s 1428 365 m -4 Y s 1432 361 m cl s 1436 361 m cl s 1439 361 m cl s 1443 361 m cl s 1447 361 m -3 Y s 1451 358 m
 cl s 1455 358 m cl s 1458 358 m -4 Y s 1462 354 m cl s 1466 354 m cl s 1470 354 m -4 Y s 1474 350 m cl s 1477 350 m cl s 1481 350 m -4 Y s 1485 346 m cl s 1489 346 m -4 Y s 1493 342 m cl s 1496 342 m cl s 1500 342 m -3 Y s 1504 339 m cl s 1508 339 m
 -4 Y s 1512 335 m -4 Y s 1515 331 m cl s 1519 331 m cl s 1523 331 m -4 Y s 1527 327 m cl s 1531 327 m -4 Y s 1535 323 m cl s 1538 323 m -3 Y s 1542 320 m cl s 1546 320 m -4 Y s 1550 316 m cl s 1554 316 m -4 Y s 1557 312 m -4 Y s 1561 308 m cl s 1565
 308 m -4 Y s 1569 304 m cl s 1573 304 m cl s 1576 304 m cl s 1580 304 m -3 Y s 1584 301 m cl s 1588 301 m cl s 1592 301 m cl s 1595 301 m -4 Y s 1599 297 m cl s 1603 297 m cl s 1607 297 m cl s 1611 297 m -4 Y s 1614 293 m cl s 1618 293 m -4 Y s 1622
 289 m cl s 1626 289 m cl s 1630 289 m -4 Y s 1633 285 m cl s 1637 285 m cl s 1641 285 m -3 Y s 1645 282 m -4 Y s 1649 278 m -4 Y s 1652 274 m -4 Y s 1656 270 m cl s 1660 270 m -4 Y s 1664 266 m cl s 1668 266 m cl s 1671 266 m -3 Y s 1675 263 m cl s
 1679 263 m -4 Y s 1683 259 m cl s 1687 259 m cl s 1691 259 m -4 Y s 1694 255 m cl s 1698 255 m cl s 1702 251 m cl s 1706 251 m cl s 1710 247 m cl s 1713 247 m cl s 1717 247 m cl s 1721 247 m cl s 1725 247 m cl s 1729 247 m -3 Y s 1732 244 m cl s
 1736 244 m cl s 1740 244 m cl s 1744 244 m cl s 1748 244 m cl s 1751 244 m cl s 1755 244 m cl s 1759 244 m cl s 1763 244 m cl s 1767 244 m cl s 1770 244 m -4 Y s 1774 240 m cl s 1778 240 m cl s 1782 240 m cl s 1786 240 m cl s 1789 240 m cl s 1793
 240 m -4 Y s 1797 236 m cl s 1801 236 m cl s 1805 236 m cl s 1808 236 m cl s 1812 236 m cl s 1816 236 m cl s 1820 236 m cl s 1824 236 m cl s 1827 236 m -4 Y s 1831 232 m cl s 1835 232 m cl s 1839 232 m cl s 1843 232 m -4 Y s 1847 228 m cl s 1850 228
 m cl s 1854 228 m cl s 1858 228 m cl s 1862 228 m -4 Y s 1866 224 m cl s 1869 224 m cl s 1873 224 m -3 Y s 1877 221 m cl s 1881 221 m cl s 1885 221 m cl s 1888 221 m cl s 1892 221 m -4 Y s 1896 217 m cl s 1900 217 m cl s 1904 217 m -4 Y s 1907 213 m
 cl s 1911 213 m cl s 1915 209 m cl s 1919 209 m cl s 1923 209 m cl s 1926 209 m cl s 1930 209 m cl s 1934 209 m cl s 245 1244 m 3 X s 248 1244 m 50 X 4 -4 d 190 X 4 -3 d 57 X 4 -4 d 19 X 3 -4 d 20 X 3 -4 d 16 X 3 -4 d 8 X 4 -3 d 11 X 4 -4 d 8 X 3 -4
 d 8 X 4 -4 d 4 X 3 -4 d 4 X 4 -3 d 4 X 4 -4 d 3 X 4 -4 d 4 -4 d 4 X 4 -4 d 3 X 4 -3 d 4 X 4 -4 d 7 X 4 -4 d 4 X 4 -4 d 4 -4 d 7 X 4 -4 d 8 X 4 -3 d 3 X 4 -4 d 4 X 4 -4 d 4 -4 d 3 X 4 -4 d 4 X 4 -3 d 4 -4 d 3 -4 d 4 -4 d 4 -4 d 4 X 4 -3 d 3 -4 d 4 -4
 d 4 -4 d 4 -4 d 4 -3 d 3 -4 d 4 X 4 -8 d 4 X 4 -4 d 3 -3 d 4 -4 d 4 -4 d 4 -4 d 4 -4 d 3 X 4 -3 d 4 -4 d 4 -8 d 4 -7 d 4 -4 d 3 -8 d 4 -4 d 4 -3 d 4 -4 d 4 -4 d 3 X 4 -4 d 4 -4 d 4 -4 d 4 -3 d 3 -8 d 4 -4 d 4 -4 d 4 -7 d 4 -4 d 3 -4 d 4 -7 d 4 -4 d
 4 -8 d 4 -4 d 3 -11 d 4 -4 d 4 -7 d 4 -12 d 4 -4 d 3 -7 d 4 -8 d 4 -4 d 4 -7 d 4 -8 d 3 -11 d 4 -8 d 4 -11 d 4 -8 d 4 -8 d 3 -7 d 4 -8 d 4 -11 d 4 -8 d 4 -7 d 4 -4 d 3 -8 d 4 -7 d 4 -8 d 4 -8 d 4 -3 d 3 -8 d 4 -8 d 4 -7 d 4 -8 d 4 -4 d 3 -11 d 4 -8
 d 4 -7 d 4 -8 d 4 -11 d 3 -8 d 4 -8 d 4 -7 d 4 -4 d 4 -4 d 3 -7 d 4 -8 d 4 -8 d 4 -7 d 4 -8 d 3 -11 d 4 -4 d 4 -4 d 4 -7 d 4 -8 d 3 -4 d 4 -7 d 4 -4 d 4 -8 d 4 -8 d 3 -3 d 4 -4 d 4 -4 d 4 -8 d 4 -3 d 4 -8 d 3 -4 d 4 -4 d 4 X 4 -3 d 4 -4 d 3 -4 d 4 X
 4 -4 d 4 -4 d 4 -3 d 3 -4 d 4 -4 d 4 -4 d 4 -4 d 4 X 3 -3 d 4 -8 d 4 X 4 -4 d 4 -4 d 3 -3 d 4 -4 d 4 -4 d 4 -4 d 4 X 3 -4 d 4 X 4 -3 d 4 X 4 -4 d 3 -4 d 4 X 4 -4 d 4 -4 d 4 -3 d 3 X 4 -4 d 4 -4 d 4 -4 d 8 X 3 -4 d 8 X 4 -4 d 7 X 4 -3 d 4 -4 d 4 X 4
 -4 d 3 X 4 -4 d 4 X 4 -4 d 15 X 4 -3 d 7 X 4 -4 d 8 X 4 -4 d 7 X 4 -4 d 4 X 4 -4 d 7 X 4 -3 d 4 X 4 -4 d 3 -4 d 8 X 4 -4 d 4 X 4 -4 d 3 X 4 -3 d 4 X 4 -4 d 4 X 3 -4 d 4 -4 d 4 X 4 -4 d 11 X 4 -3 d 11 X 4 -4 d 12 X 3 -4 d 4 X 4 -4 d 8 X 3 -4 d 8 X 4
 -3 d 4 -4 d 3 -4 d 4 -4 d 4 X 4 -4 d 7 X 4 -3 d 4 X 4 -4 d 8 X 3 -4 d 4 X 4 -4 d 4 X 4 -4 d 19 X 3 -3 d 38 X 4 -4 d 19 X 4 -4 d 30 X 4 -4 d 12 X 4 -4 d 15 X 4 -4 d 7 X 4 -3 d 15 X 4 -4 d 8 X 3 -4 d 4 X 4 -4 d 19 X s 1 0 0 c black 1 0 0 c 248 1244 m
 cl s 252 1244 m cl s 256 1244 m cl s 260 1244 m cl s 264 1244 m -4 Y s 267 1240 m cl s 271 1240 m cl s 275 1240 m cl s 279 1240 m cl s 283 1240 m cl s 287 1240 m cl s 290 1240 m cl s 294 1240 m cl s 298 1240 m cl s 302 1240 m cl s 306 1240 m cl s
 309 1240 m cl s 313 1240 m cl s 317 1240 m cl s 321 1240 m cl s 325 1240 m cl s 328 1240 m cl s 332 1240 m cl s 336 1240 m cl s 340 1240 m cl s 344 1240 m cl s 347 1240 m cl s 351 1240 m cl s 355 1240 m cl s 359 1240 m cl s 363 1240 m cl s 366 1240
 m cl s 370 1240 m cl s 374 1240 m cl s 378 1240 m cl s 382 1240 m cl s 385 1240 m cl s 389 1240 m cl s 393 1240 m cl s 397 1240 m cl s 401 1240 m cl s 404 1240 m -3 Y s 408 1237 m cl s 412 1237 m cl s 416 1237 m cl s 420 1237 m -4 Y s 423 1233 m cl
 s 427 1233 m cl s 431 1233 m cl s 435 1233 m cl s 439 1233 m -4 Y s 443 1229 m cl s 446 1229 m cl s 450 1229 m cl s 454 1229 m cl s 458 1229 m cl s 462 1229 m cl s 465 1229 m -4 Y s 469 1225 m cl s 473 1225 m cl s 477 1225 m cl s 481 1225 m cl s 484
 1225 m -4 Y s 488 1221 m cl s 492 1221 m cl s 496 1221 m cl s 500 1221 m -3 Y s 503 1218 m cl s 507 1218 m cl s 511 1218 m -4 Y s 515 1214 m cl s 519 1214 m cl s 522 1210 m cl s 526 1210 m cl s 530 1210 m cl s 534 1210 m cl s 538 1210 m -4 Y s 541
 1206 m cl s 545 1206 m -4 Y s 549 1202 m -3 Y s 553 1199 m cl s 557 1199 m cl s 560 1199 m -4 Y s 564 1195 m cl s 568 1195 m cl s 572 1195 m -4 Y s 576 1191 m cl s 579 1191 m -4 Y s 583 1187 m cl s 587 1187 m -4 Y s 591 1183 m -3 Y s 595 1180 m cl s
 599 1176 m cl s 602 1176 m cl s 606 1176 m -4 Y s 610 1172 m cl s 614 1172 m -4 Y s 618 1168 m cl s 621 1168 m cl s 625 1168 m -4 Y s 629 1164 m -4 Y s 633 1160 m -3 Y s 637 1157 m cl s 640 1157 m -4 Y s 644 1153 m cl s 648 1153 m -4 Y s 652 1149 m
 cl s 656 1149 m -4 Y s 659 1145 m -4 Y s 663 1141 m -3 Y s 667 1138 m cl s 671 1138 m -4 Y s 675 1134 m cl s 678 1134 m -4 Y s 682 1130 m -8 Y s 686 1122 m cl s 690 1122 m -3 Y s 694 1119 m -4 Y s 697 1115 m -4 Y s 701 1111 m -4 Y s 705 1107 m cl s
 709 1107 m -7 Y s 713 1100 m cl s 716 1100 m -8 Y s 720 1092 m -4 Y s 724 1088 m -4 Y s 728 1084 m cl s 732 1084 m -7 Y s 735 1073 m cl s 739 1073 m -4 Y s 743 1069 m -4 Y s 747 1065 m -3 Y s 751 1062 m -4 Y s 755 1058 m -4 Y s 758 1054 m -4 Y s 762
 1050 m -4 Y s 766 1046 m cl s 770 1046 m -7 Y s 774 1039 m -4 Y s 777 1035 m cl s 781 1035 m -4 Y s 785 1031 m -4 Y s 789 1027 m -3 Y s 793 1024 m -4 Y s 796 1020 m -8 Y s 800 1012 m cl s 804 1012 m -4 Y s 808 1008 m -7 Y s 812 1001 m -8 Y s 815 993
 m -8 Y s 819 985 m -3 Y s 823 982 m -8 Y s 827 970 m cl s 831 970 m -7 Y s 834 963 m -4 Y s 838 959 m -8 Y s 842 951 m -4 Y s 846 944 m -4 Y s 850 940 m -8 Y s 853 932 m -4 Y s 857 928 m -7 Y s 861 921 m -8 Y s 865 913 m cl s 869 913 m -7 Y s 872
 906 m -4 Y s 876 898 m -4 Y s 880 894 m -4 Y s 884 890 m -7 Y s 888 883 m -8 Y s 891 875 m -7 Y s 895 868 m -12 Y s 899 856 m -8 Y s 903 848 m -3 Y s 907 845 m -8 Y s 911 837 m -8 Y s 914 829 m cl s 918 829 m -3 Y s 922 822 m cl s 926 822 m -8 Y s
 930 810 m -3 Y s 933 807 m -4 Y s 937 803 m -8 Y s 941 795 m -11 Y s 945 784 m -8 Y s 949 776 m cl s 952 776 m -7 Y s 956 769 m -12 Y s 960 757 m -7 Y s 964 750 m -4 Y s 968 746 m -8 Y s 971 738 m -7 Y s 975 731 m -8 Y s 979 723 m -8 Y s 983 715 m
 -7 Y s 987 708 m -8 Y s 990 700 m -8 Y s 994 692 m -3 Y s 998 689 m -4 Y s 1002 685 m -8 Y s 1006 677 m -7 Y s 1009 666 m -4 Y s 1013 662 m -11 Y s 1017 651 m -4 Y s 1021 643 m -4 Y s 1025 639 m -7 Y s 1028 628 m -8 Y s 1032 620 m -7 Y s 1036 613 m
 -8 Y s 1040 605 m -8 Y s 1044 597 m -11 Y s 1047 586 m -8 Y s 1051 578 m -11 Y s 1055 567 m -4 Y s 1059 559 m -7 Y s 1063 552 m -12 Y s 1067 540 m -7 Y s 1070 533 m -8 Y s 1074 525 m -8 Y s 1078 517 m -7 Y s 1082 510 m -4 Y s 1086 506 m -4 Y s 1089
 502 m -7 Y s 1093 495 m -8 Y s 1097 487 m -4 Y s 1101 483 m cl s 1105 483 m -7 Y s 1108 476 m -4 Y s 1112 472 m -8 Y s 1116 464 m -4 Y s 1120 457 m -4 Y s 1124 453 m -4 Y s 1127 445 m -7 Y s 1131 438 m -4 Y s 1135 430 m -4 Y s 1139 426 m -7 Y s 1143
 419 m -8 Y s 1146 411 m -4 Y s 1150 407 m -4 Y s 1154 403 m -3 Y s 1158 400 m -8 Y s 1162 392 m -4 Y s 1165 388 m cl s 1169 388 m -8 Y s 1173 380 m -7 Y s 1177 373 m cl s 1181 373 m -4 Y s 1184 369 m -4 Y s 1188 365 m -4 Y s 1192 361 m cl s 1196 361
 m -7 Y s 1200 354 m cl s 1203 354 m -4 Y s 1207 350 m -4 Y s 1211 346 m cl s 1215 346 m -4 Y s 1219 342 m -3 Y s 1223 339 m -4 Y s 1226 335 m -4 Y s 1230 331 m -4 Y s 1234 323 m cl s 1238 323 m -3 Y s 1242 320 m -4 Y s 1245 316 m cl s 1249 316 m -4
 Y s 1253 312 m cl s 1257 312 m -4 Y s 1261 308 m cl s 1264 308 m -4 Y s 1268 304 m cl s 1272 304 m -3 Y s 1276 301 m cl s 1280 301 m -4 Y s 1283 297 m cl s 1287 297 m -4 Y s 1291 293 m cl s 1295 293 m -4 Y s 1299 289 m cl s 1302 289 m -4 Y s 1306
 285 m cl s 1310 285 m cl s 1314 285 m cl s 1318 285 m -3 Y s 1321 282 m cl s 1325 282 m -4 Y s 1329 278 m cl s 1333 278 m -4 Y s 1337 274 m cl s 1340 274 m cl s 1344 270 m cl s 1348 270 m cl s 1352 270 m cl s 1356 270 m -4 Y s 1359 266 m cl s 1363
 266 m cl s 1367 266 m cl s 1371 266 m cl s 1375 266 m -3 Y s 1379 263 m cl s 1382 263 m cl s 1386 263 m cl s 1390 263 m -4 Y s 1394 259 m cl s 1398 259 m cl s 1401 259 m -4 Y s 1405 255 m cl s 1409 255 m cl s 1413 255 m -4 Y s 1417 251 m cl s 1420
 251 m cl s 1424 251 m cl s 1428 251 m cl s 1432 251 m cl s 1436 251 m cl s 1439 251 m cl s 1443 251 m cl s 1447 251 m -4 Y s 1451 247 m cl s 1455 247 m cl s 1458 247 m cl s 1462 247 m -3 Y s 1466 244 m cl s 1470 244 m cl s 1474 244 m cl s 1477 244 m
 cl s 1481 244 m -4 Y s 1485 240 m cl s 1489 240 m cl s 1493 240 m cl s 1496 240 m cl s 1500 240 m -4 Y s 1504 236 m cl s 1508 236 m cl s 1512 236 m cl s 1515 236 m cl s 1519 236 m cl s 1523 236 m cl s 1527 236 m cl s 1531 236 m cl s 1535 236 m cl s
 1538 236 m cl s 1542 236 m cl s 1546 236 m cl s 1550 236 m cl s 1554 236 m -4 Y s 1557 232 m cl s 1561 232 m cl s 1565 232 m cl s 1569 232 m cl s 1573 232 m cl s 1576 232 m cl s 1580 232 m cl s 1584 232 m cl s 1588 232 m cl s 1592 232 m cl s 1595
 232 m cl s 1599 232 m -4 Y s 1603 228 m cl s 1607 228 m cl s 1611 228 m cl s 1614 228 m cl s 1618 228 m -4 Y s 1622 224 m cl s 1626 224 m cl s 1630 224 m cl s 1633 224 m cl s 1637 224 m cl s 1641 224 m cl s 1645 224 m cl s 1649 224 m -3 Y s 1652 221
 m cl s 1656 221 m cl s 1660 221 m cl s 1664 221 m -4 Y s 1668 217 m cl s 1671 217 m cl s 1675 217 m cl s 1679 217 m cl s 1683 217 m cl s 1687 217 m cl s 1691 217 m -4 Y s 1694 213 m cl s 1698 213 m cl s 1702 213 m cl s 1706 213 m cl s 1710 213 m cl
 s 1713 213 m cl s 1717 213 m cl s 1721 213 m cl s 1725 213 m cl s 1729 213 m cl s 1732 213 m cl s 1736 213 m cl s 1740 213 m cl s 1744 213 m -4 Y s 1748 209 m cl s 1751 209 m cl s 1755 209 m cl s 1759 209 m cl s 1763 209 m cl s 1767 209 m cl s 1770
 209 m cl s 1774 209 m cl s 1778 209 m cl s 1782 209 m cl s 1786 209 m cl s 1789 209 m cl s 1793 209 m cl s 245 1244 m 3 X s 248 1244 m 16 X 3 -4 d 137 X 4 -3 d 12 X 3 -4 d 16 X 4 -4 d 22 X 4 -4 d 15 X 4 -4 d 12 X 3 -3 d 8 X 4 -4 d 4 X 3 -4 d 16 X 3
 -4 d 4 X 4 -4 d 4 -3 d 7 X 4 -4 d 8 X 4 -4 d 3 X 4 -4 d 4 X 4 -4 d 4 -3 d 4 -4 d 7 X 4 -4 d 4 X 4 -4 d 7 X 4 -4 d 4 -4 d 4 -3 d 3 X 4 -4 d 4 X 4 -4 d 4 X 3 -4 d 4 -4 d 4 -3 d 4 X 4 -4 d 3 X 4 -8 d 4 -4 d 4 X 4 -3 d 3 -4 d 4 -4 d 4 -4 d 4 -4 d 4 -3 d
 3 -4 d 4 -4 d 4 -4 d 4 -4 d 4 -3 d 3 -8 d 4 X 4 -4 d 4 -4 d 4 -3 d 4 -4 d 3 -4 d 4 -4 d 4 -4 d 4 -3 d 4 -4 d 3 -4 d 4 X 4 -4 d 4 -4 d 4 -3 d 3 -8 d 4 -4 d 4 X 4 -8 d 4 -7 d 3 -8 d 4 -4 d 4 -7 d 4 -8 d 4 -4 d 3 -3 d 4 -8 d 4 -4 d 4 -7 d 4 -8 d 3 -4 d
 4 -7 d 4 -8 d 4 -4 d 4 -4 d 3 -3 d 4 -8 d 4 -4 d 4 -7 d 4 -8 d 3 -8 d 4 -7 d 4 -12 d 4 -4 d 4 -7 d 4 -8 d 3 -4 d 4 X 4 -7 d 4 -4 d 4 -8 d 3 -3 d 4 -8 d 4 -8 d 4 -11 d 4 -4 d 3 -4 d 4 -7 d 4 -12 d 4 -3 d 4 -8 d 3 -8 d 4 -7 d 4 -8 d 4 -7 d 4 -8 d 3 -8
 d 4 -4 d 4 -3 d 4 -8 d 4 -8 d 3 -7 d 4 -8 d 4 -7 d 4 -8 d 4 -8 d 3 -11 d 4 -8 d 4 -7 d 4 -8 d 4 -7 d 3 -12 d 4 -7 d 4 -8 d 4 -11 d 4 -8 d 4 -12 d 3 -7 d 4 -8 d 4 -7 d 4 -4 d 4 -4 d 3 -8 d 4 -7 d 4 -4 d 4 -4 d 4 -4 d 3 -3 d 4 -8 d 4 -4 d 4 -7 d 4 -4
 d 3 -12 d 4 -3 d 4 -8 d 4 -8 d 4 -7 d 3 -4 d 4 -4 d 4 -4 d 4 -7 d 4 -4 d 3 -4 d 4 -4 d 4 -7 d 4 -4 d 4 X 3 -4 d 4 -4 d 4 -4 d 4 -3 d 4 -4 d 3 X 4 -4 d 4 -4 d 4 X 4 -4 d 4 -3 d 3 -4 d 4 -4 d 4 -8 d 4 X 4 -3 d 3 -4 d 4 X 4 -4 d 4 X 4 -4 d 3 X 4 -4 d 4
 X 4 -3 d 4 X 3 -4 d 4 X 4 -4 d 4 X 4 -4 d 3 X 4 -4 d 12 X 3 -3 d 4 X 4 -4 d 4 X 4 -4 d 3 X 4 -4 d 12 X 3 -4 d 16 X 4 -3 d 11 X 4 -4 d 7 X 4 -4 d 8 X 4 -4 d 30 X 4 -4 d 11 X 4 -3 d 15 X 4 -4 d 15 X 4 -4 d 50 X 3 -4 d 42 X 4 -4 d 15 X 4 -4 d 27 X 3 -3
 d 12 X 4 -4 d 23 X 3 -4 d 50 X 4 -4 d 45 X s 0 0.666667 0 c 1 1 1 c black 0 0.666667 0 c 248 1237 m cl s 252 1237 m cl s 256 1237 m cl s 260 1237 m cl s 264 1240 m -3 Y s 267 1240 m cl s 271 1240 m cl s 275 1240 m cl s 279 1240 m cl s 283 1240 m cl
 s 287 1240 m cl s 290 1240 m cl s 294 1240 m cl s 298 1240 m -3 Y s 302 1237 m cl s 306 1237 m cl s 309 1237 m cl s 313 1237 m cl s 317 1237 m cl s 321 1237 m cl s 325 1237 m cl s 328 1237 m cl s 332 1237 m cl s 336 1237 m cl s 340 1237 m cl s 344
 1237 m cl s 347 1237 m cl s 351 1237 m cl s 355 1237 m cl s 359 1237 m cl s 363 1237 m cl s 366 1237 m cl s 370 1237 m cl s 374 1237 m cl s 378 1237 m cl s 382 1237 m cl s 385 1237 m cl s 389 1237 m cl s 393 1237 m cl s 397 1237 m cl s 401 1237 m cl
 s 404 1237 m cl s 408 1240 m -3 Y s 412 1240 m cl s 416 1240 m cl s 420 1240 m cl s 423 1240 m cl s 427 1240 m cl s 431 1240 m cl s 435 1240 m cl s 439 1240 m cl s 443 1240 m cl s 446 1240 m cl s 450 1240 m cl s 454 1240 m cl s 458 1240 m cl s 462
 1240 m cl s 465 1240 m cl s 469 1240 m cl s 473 1240 m cl s 477 1240 m cl s 481 1240 m cl s 484 1240 m cl s 488 1240 m cl s 492 1240 m cl s 496 1240 m cl s 500 1240 m cl s 503 1240 m cl s 507 1240 m cl s 511 1240 m cl s 515 1240 m cl s 519 1240 m cl
 s 522 1240 m cl s 526 1240 m cl s 530 1240 m cl s 534 1240 m cl s 538 1240 m cl s 541 1240 m cl s 545 1244 m -4 Y s 549 1244 m cl s 553 1244 m cl s 557 1244 m cl s 560 1244 m -4 Y s 564 1244 m -4 Y s 568 1244 m -4 Y s 572 1240 m cl s 576 1240 m cl s
 579 1240 m cl s 583 1244 m -4 Y s 587 1244 m -4 Y s 591 1244 m -4 Y s 595 1244 m cl s 599 1244 m cl s 602 1244 m -4 Y s 606 1240 m cl s 610 1244 m -4 Y s 614 1244 m -4 Y s 618 1240 m cl s 621 1240 m cl s 625 1240 m cl s 629 1240 m cl s 633 1240 m cl
 s 637 1240 m cl s 640 1240 m cl s 644 1240 m cl s 648 1240 m cl s 652 1240 m cl s 656 1240 m cl s 659 1240 m cl s 663 1240 m cl s 667 1240 m cl s 671 1240 m cl s 675 1240 m -3 Y s 678 1237 m cl s 682 1237 m cl s 686 1237 m cl s 690 1237 m -4 Y s 694
 1233 m cl s 697 1233 m cl s 701 1233 m cl s 705 1233 m cl s 709 1233 m -4 Y s 713 1229 m cl s 716 1233 m -4 Y s 720 1229 m cl s 724 1229 m cl s 728 1229 m cl s 732 1229 m cl s 735 1229 m cl s 739 1229 m cl s 743 1229 m cl s 747 1229 m cl s 751 1229
 m -4 Y s 755 1229 m -4 Y s 758 1229 m -4 Y s 762 1229 m -4 Y s 766 1229 m -4 Y s 770 1225 m cl s 774 1229 m -4 Y s 777 1225 m cl s 781 1225 m cl s 785 1225 m cl s 789 1225 m cl s 793 1225 m -4 Y s 796 1225 m -4 Y s 800 1221 m cl s 804 1221 m cl s
 808 1221 m cl s 812 1221 m -3 Y s 815 1218 m cl s 819 1218 m cl s 823 1218 m cl s 827 1218 m cl s 831 1218 m -4 Y s 834 1214 m cl s 838 1214 m cl s 842 1214 m -4 Y s 846 1210 m cl s 850 1210 m cl s 853 1210 m cl s 857 1210 m cl s 861 1210 m -4 Y s
 865 1206 m cl s 869 1206 m cl s 872 1206 m -4 Y s 876 1202 m cl s 880 1202 m cl s 884 1202 m -3 Y s 888 1202 m cl s 891 1202 m -3 Y s 895 1202 m -3 Y s 899 1202 m -3 Y s 903 1199 m -4 Y s 907 1195 m -4 Y s 911 1191 m cl s 914 1191 m -4 Y s 918 1187
 m -4 Y s 922 1183 m cl s 926 1183 m -3 Y s 930 1183 m -3 Y s 933 1183 m cl s 937 1183 m -3 Y s 941 1183 m -3 Y s 945 1183 m -3 Y s 949 1180 m -4 Y s 952 1176 m -4 Y s 956 1176 m -4 Y s 960 1176 m -4 Y s 964 1172 m cl s 968 1172 m -4 Y s 971 1172 m
 -4 Y s 975 1168 m -4 Y s 979 1164 m -4 Y s 983 1160 m -3 Y s 987 1157 m cl s 990 1157 m -4 Y s 994 1153 m -4 Y s 998 1149 m -8 Y s 1002 1141 m -3 Y s 1006 1138 m cl s 1009 1138 m -8 Y s 1013 1130 m cl s 1017 1130 m -4 Y s 1021 1126 m -4 Y s 1025
 1122 m -7 Y s 1028 1115 m -4 Y s 1032 1111 m -8 Y s 1036 1103 m -3 Y s 1040 1100 m -4 Y s 1044 1096 m cl s 1047 1096 m -4 Y s 1051 1088 m -4 Y s 1055 1084 m -3 Y s 1059 1081 m -8 Y s 1063 1073 m cl s 1067 1073 m -4 Y s 1070 1069 m cl s 1074 1069 m
 -4 Y s 1078 1065 m -3 Y s 1082 1062 m -4 Y s 1086 1058 m -4 Y s 1089 1054 m -8 Y s 1093 1046 m -3 Y s 1097 1043 m -8 Y s 1101 1035 m cl s 1105 1031 m -7 Y s 1108 1024 m -8 Y s 1112 1012 m cl s 1116 1012 m -4 Y s 1120 1008 m -7 Y s 1124 1001 m -12 Y
 s 1127 993 m -4 Y s 1131 989 m -4 Y s 1135 985 m -7 Y s 1139 982 m -4 Y s 1143 978 m -4 Y s 1146 978 m -8 Y s 1150 970 m -7 Y s 1154 963 m -4 Y s 1158 959 m -8 Y s 1162 951 m -7 Y s 1165 940 m -4 Y s 1169 936 m -4 Y s 1173 932 m -4 Y s 1177 932 m -7
 Y s 1181 925 m -8 Y s 1184 917 m -4 Y s 1188 913 m -7 Y s 1192 906 m -4 Y s 1196 902 m -8 Y s 1200 894 m -7 Y s 1203 887 m -4 Y s 1207 883 m -4 Y s 1211 879 m -4 Y s 1215 875 m -7 Y s 1219 868 m -4 Y s 1223 864 m -4 Y s 1226 860 m -4 Y s 1230 860 m
 -4 Y s 1234 860 m -4 Y s 1238 856 m -4 Y s 1242 852 m -4 Y s 1245 852 m -4 Y s 1249 848 m -3 Y s 1253 845 m cl s 1257 845 m -4 Y s 1261 841 m -8 Y s 1264 833 m -4 Y s 1268 829 m -3 Y s 1272 826 m cl s 1276 826 m -4 Y s 1280 822 m -4 Y s 1283 818 m
 -4 Y s 1287 814 m -4 Y s 1291 810 m -3 Y s 1295 807 m -4 Y s 1299 807 m -8 Y s 1302 799 m -8 Y s 1306 791 m -3 Y s 1310 788 m -4 Y s 1314 784 m cl s 1318 784 m -4 Y s 1321 780 m cl s 1325 780 m -4 Y s 1329 780 m -4 Y s 1333 776 m cl s 1337 776 m -4
 Y s 1340 772 m -3 Y s 1344 769 m -4 Y s 1348 765 m -4 Y s 1352 757 m cl s 1356 757 m cl s 1359 757 m -7 Y s 1363 750 m -4 Y s 1367 746 m -8 Y s 1371 742 m -4 Y s 1375 738 m cl s 1379 738 m -4 Y s 1382 734 m cl s 1386 734 m -3 Y s 1390 734 m -3 Y s
 1394 734 m -3 Y s 1398 734 m -7 Y s 1401 727 m -4 Y s 1405 723 m cl s 1409 723 m -4 Y s 1413 719 m cl s 1417 719 m -4 Y s 1420 715 m cl s 1424 715 m -3 Y s 1428 708 m cl s 1432 708 m cl s 1436 708 m -4 Y s 1439 704 m cl s 1443 704 m cl s 1447 704 m
 -4 Y s 1451 700 m cl s 1455 700 m cl s 1458 700 m -4 Y s 1462 696 m cl s 1466 696 m cl s 1470 696 m -4 Y s 1474 692 m -3 Y s 1477 689 m cl s 1481 689 m -4 Y s 1485 685 m cl s 1489 685 m -4 Y s 1493 681 m -4 Y s 1496 677 m cl s 1500 677 m cl s 1504
 677 m -4 Y s 1508 673 m -7 Y s 1512 666 m -4 Y s 1515 662 m -4 Y s 1519 658 m cl s 1523 658 m -4 Y s 1527 654 m -7 Y s 1531 647 m cl s 1535 647 m cl s 1538 647 m -8 Y s 1542 639 m -4 Y s 1546 635 m -3 Y s 1550 632 m -4 Y s 1554 628 m -8 Y s 1557 620
 m -7 Y s 1561 613 m cl s 1565 613 m -8 Y s 1569 605 m cl s 1573 605 m cl s 1576 605 m cl s 1580 605 m -4 Y s 1584 601 m cl s 1588 601 m -4 Y s 1592 597 m cl s 1595 597 m -3 Y s 1599 594 m -4 Y s 1603 594 m cl s 1607 594 m -4 Y s 1611 594 m -4 Y s
 1614 590 m -4 Y s 1618 586 m -8 Y s 1622 582 m -4 Y s 1626 578 m cl s 1630 582 m -7 Y s 1633 575 m cl s 1637 575 m -4 Y s 1641 571 m -12 Y s 1645 559 m -3 Y s 1649 556 m -12 Y s 1652 548 m -12 Y s 1656 536 m -3 Y s 1660 533 m -4 Y s 1664 533 m -8 Y
 s 1668 525 m -4 Y s 1671 521 m -7 Y s 1675 517 m -3 Y s 1679 517 m -3 Y s 1683 514 m -4 Y s 1687 510 m -4 Y s 1691 506 m -8 Y s 1694 498 m cl s 1698 498 m -7 Y s 1702 491 m -12 Y s 1706 483 m -4 Y s 1710 476 m cl s 1713 476 m cl s 1717 476 m cl s
 1721 476 m cl s 1725 476 m -8 Y s 1729 472 m -4 Y s 1732 472 m -4 Y s 1736 472 m -4 Y s 1740 472 m cl s 1744 472 m -4 Y s 1748 472 m cl s 1751 472 m cl s 1755 472 m -8 Y s 1759 468 m -4 Y s 1763 468 m -4 Y s 1767 464 m cl s 1770 468 m -4 Y s 1774
 464 m -4 Y s 1778 460 m -3 Y s 1782 457 m cl s 1786 460 m -3 Y s 1789 460 m -3 Y s 1793 460 m -3 Y s 1797 457 m cl s 1801 457 m -4 Y s 1805 453 m cl s 1808 453 m cl s 1812 453 m cl s 1816 453 m cl s 1820 453 m -4 Y s 1824 449 m -4 Y s 1827 445 m -7
 Y s 1831 438 m cl s 1835 438 m -4 Y s 1839 434 m cl s 1843 434 m -8 Y s 1847 426 m -7 Y s 1850 419 m cl s 1854 419 m -8 Y s 1858 411 m cl s 1862 411 m -4 Y s 1866 407 m -7 Y s 1869 400 m cl s 1873 400 m -4 Y s 1877 396 m -8 Y s 1881 388 m -4 Y s
 1885 384 m -4 Y s 1888 380 m -3 Y s 1892 377 m -4 Y s 1896 373 m -8 Y s 1900 361 m -3 Y s 1904 358 m -12 Y s 1907 346 m -15 Y s 1911 331 m -4 Y s 1915 316 m -4 Y s 1919 312 m -8 Y s 1923 304 m cl s 1926 304 m -7 Y s 1930 297 m cl s 1934 297 m -15 Y
 s 1938 282 m cl s 1942 282 m -4 Y s 1945 278 m cl s 1949 278 m -8 Y s 1953 270 m -30 Y s 1957 240 m cl s 1961 240 m cl s 1964 240 m -4 Y s 1968 236 m cl s 1972 236 m cl s 1976 236 m cl s 1980 236 m cl s 1983 236 m -12 Y s 1987 224 m cl s 1991 224 m
 cl s 1995 224 m cl s 1999 224 m cl s 2003 224 m cl s 2006 224 m cl s 2010 224 m cl s 2014 224 m cl s 2018 224 m cl s 2022 224 m cl s 2025 224 m cl s 2029 224 m cl s 2033 224 m cl s 2037 224 m cl s 2041 224 m cl s 245 1237 m 3 X s 248 1237 m 12 X 4 3
 d 34 X 4 -3 d 102 X 4 3 d 133 X 4 4 d 23 X 4 -4 d 7 X 4 4 d 19 X 4 -4 d 4 4 d 4 X 4 -4 d 57 X 3 -3 d 12 X 4 -4 d 15 X 4 -4 d 3 4 d 4 -4 d 46 X 4 -4 d 4 4 d 3 -4 d 19 X 4 -4 d 12 X 3 -3 d 16 X 3 -4 d 8 X 4 -4 d 15 X 4 -4 d 7 X 4 -4 d 23 X 4 -3 d 4 -4
 d 4 -4 d 3 X 4 -4 d 4 -4 d 23 X 4 -3 d 3 -4 d 8 X 4 -4 d 7 X 4 -4 d 4 -4 d 4 -4 d 4 -3 d 3 X 4 -4 d 4 -8 d 4 -4 d 4 -3 d 3 -4 d 4 -4 d 4 X 4 -4 d 4 -7 d 3 -4 d 4 -8 d 4 -4 d 4 -3 d 4 -4 d 3 X 4 -8 d 4 -4 d 4 -7 d 4 -4 d 4 X 3 -4 d 4 X 4 -4 d 4 -3 d
 4 -4 d 3 -8 d 4 -4 d 4 -7 d 4 -4 d 4 -8 d 3 -7 d 4 -8 d 4 X 4 -8 d 4 -7 d 3 -4 d 4 -4 d 4 -7 d 4 X 4 -4 d 3 -4 d 4 -8 d 4 -3 d 4 -8 d 4 -8 d 3 -7 d 4 -4 d 4 -4 d 4 -4 d 4 -7 d 3 -4 d 4 -8 d 4 -3 d 4 -8 d 4 -8 d 3 -3 d 4 -4 d 4 -4 d 4 -8 d 4 -3 d 4
 -4 d 3 -4 d 8 X 4 -4 d 4 -4 d 3 X 4 -4 d 4 -3 d 4 X 4 -8 d 3 -4 d 4 -4 d 4 -3 d 4 X 4 -4 d 3 -4 d 4 -4 d 4 -4 d 4 -3 d 4 -4 d 3 -8 d 4 -4 d 4 -3 d 4 -4 d 4 X 3 -4 d 8 X 4 -4 d 4 X 3 -4 d 4 -3 d 4 -4 d 4 -8 d 4 X 3 -4 d 4 -3 d 4 -8 d 4 X 4 -4 d 4 X 3
 -4 d 12 X 4 -3 d 3 -4 d 4 -4 d 4 X 4 -4 d 4 X 3 -4 d 4 X 4 -7 d 8 X 3 -4 d 8 X 4 -4 d 7 X 4 -4 d 8 X 4 -4 d 3 -3 d 4 X 4 -4 d 4 X 4 -4 d 3 -4 d 8 X 4 -7 d 4 -4 d 3 -4 d 4 -4 d 4 X 4 -7 d 4 -4 d 4 X 3 -4 d 4 -4 d 4 -4 d 4 -3 d 4 -8 d 3 -8 d 4 -3 d 4
 -4 d 4 -4 d 11 X 4 -4 d 4 X 4 -4 d 3 X 4 -3 d 12 X 3 -4 d 4 -8 d 4 X 4 -4 d 4 X 3 -3 d 4 X 4 -8 d 4 -8 d 4 -7 d 3 -8 d 4 -8 d 4 -3 d 4 -4 d 4 -4 d 3 -8 d 8 X 4 -3 d 4 -4 d 4 -8 d 3 -4 d 4 -3 d 4 -8 d 4 -4 d 4 -7 d 11 X 4 -4 d 26 X 4 -4 d 8 X 4 -4 d
 3 4 d 4 -4 d 4 -4 d 4 -3 d 4 3 d 7 X 4 -3 d 4 X 4 -4 d 15 X 4 -4 d 3 -8 d 4 -3 d 4 X 4 -4 d 4 -4 d 4 -8 d 3 -3 d 4 -4 d 4 -4 d 4 X 4 -8 d 3 -3 d 4 X 4 -8 d 4 -4 d 4 -4 d 3 -4 d 4 -3 d 4 -8 d 4 -8 d 4 -7 d 3 -15 d 4 -8 d 4 -15 d 4 -8 d 4 -4 d 3 -3 d
 4 -4 d 4 -8 d 4 -7 d 4 X 3 -4 d 4 -4 d 4 -19 d 4 -15 d 7 X 4 -4 d 12 X 3 -4 d 4 -8 d 54 X s black 3 lw 245 202 m 1796 X s 271 242 m -40 Y s 325 222 m -20 Y s 379 222 m -20 Y s 433 222 m -20 Y s 487 222 m -20 Y s 541 242 m -40 Y s 594 222 m -20 Y s
 648 222 m -20 Y s 702 222 m -20 Y s 756 222 m -20 Y s 810 242 m -40 Y s 863 222 m -20 Y s 917 222 m -20 Y s 971 222 m -20 Y s 1025 222 m -20 Y s 1079 242 m -40 Y s 1132 222 m -20 Y s 1186 222 m -20 Y s 1240 222 m -20 Y s 1294 222 m -20 Y s 1348 242
 m -40 Y s 1401 222 m -20 Y s 1455 222 m -20 Y s 1509 222 m -20 Y s 1563 222 m -20 Y s 1617 242 m -40 Y s 1671 222 m -20 Y s 1724 222 m -20 Y s 1778 222 m -20 Y s 1832 222 m -20 Y s 1886 242 m -40 Y s 271 242 m -40 Y s 1886 242 m -40 Y s 1940 222 m
 -20 Y s 1993 222 m -20 Y s 245 202 m 1143 Y s 291 202 m -46 X s 268 254 m -23 X s 268 306 m -23 X s 268 358 m -23 X s 291 410 m -46 X s 268 462 m -23 X s 268 514 m -23 X s 268 566 m -23 X s 291 618 m -46 X s 268 670 m -23 X s 268 722 m -23 X s 268
 774 m -23 X s 291 826 m -46 X s 268 878 m -23 X s 268 930 m -23 X s 268 982 m -23 X s 291 1034 m -46 X s 268 1086 m -23 X s 268 1137 m -23 X s 268 1189 m -23 X s 291 1241 m -46 X s 291 1241 m -46 X s 268 1293 m -23 X s 268 1345 m -23 X s 0.490196
 0.545098 0.615686 c 0.95 0.95 0.95 c 0.490196 0.545098 0.615686 c 907 202 245 1345 bl 245 1345 m 907 X s 1152 1345 m 202 Y s 1152 1547 m -907 X s 245 1547 m -202 Y s black
 gsave  2268 1682 0 0 C 517.039 1473.94 t 0 r /Times-Italic findfont 57.0734 sf 0 0 m (Signal efficiency) show NC gr  0 0 0.933333 c 9 lw 286 1497 m 190 X s black
 gsave  2268 1682 0 0 C 517.039 1373.03 t 0 r /Times-Italic findfont 57.0734 sf 0 0 m (Background efficiency) show NC gr  1 0 0 c 286 1396 m 190 X s 0.490196 0.545098 0.615686 c 3 lw 0.95 0.95 0.95 c 0.490196 0.545098 0.615686 c 889 202 1152 1345 bl
 1152 1345 m 889 X s 2041 1345 m 202 Y s 2041 1547 m -889 X s 1152 1547 m -202 Y s black
 gsave  2268 1682 0 0 C 1418.68 1490.76 t 0 r /Times-Italic findfont 57.0734 sf 0 0 m (Signal purity) show NC gr  0 0 0.933333 c[  52 12 ] 0 sd 6 lw 1192 1514 m 187 X s black
 gsave  2268 1682 0 0 C 1418.68 1423.49 t 0 r /Times-Italic findfont 57.0734 sf 0 0 m (Signal efficiency*purity) show NC gr  0 0 0.933333 c[  22 12 ] 0 sd 1192 1446 m 187 X s black
 gsave  2268 1682 0 0 C 1418.68 1356.22 t 0 r /Times-Italic findfont 57.0734 sf 0 0 m (S/#sqrt{S+B}) show NC gr  0 0.666667 0 c[  ] 0 sd 9 lw 1192 1379 m 187 X s black 3 lw 245 1241 m 1796 X s
 gsave  2268 1682 0 0 C 338.636 388.099 t 0 r /Helvetica-Bold findfont 53.2685 sf 0 0 m (For 1000 signal and 1000 background) show NC gr 
 gsave  2268 1682 0 0 C 1061.57 319.611 t 0 r /Helvetica-Bold findfont 53.2685 sf 0 0 m ( is) show NC gr 
 gsave  2268 1682 0 0 C 958.833 319.611 t 0 r /Helvetica-Bold findfont 53.2685 sf 0 0 m (S+B) show NC gr  6 lw 936 361 m 8 -45 d s 0 lw 944 316 m 7 61 d s 951 377 m 111 X s
 gsave  2268 1682 0 0 C 338.636 319.611 t 0 r /Helvetica-Bold findfont 53.2685 sf 0 0 m (events the maximum S/) show NC gr 
 gsave  2268 1682 0 0 C 338.636 254.928 t 0 r /Helvetica-Bold findfont 53.2685 sf 0 0 m (22.47 when cutting at  0.32) show NC gr  0.490196 0.545098 0.615686 c 3 lw 0.364706 0.419608 0.490196 c 1476 96 23 1577 bf 0.490196 0.545098 0.615686 c 23 1577 m
 1476 X s 1499 1577 m 96 Y s 1499 1673 m -1476 X s 23 1673 m -96 Y s 1 1 1 c black 1 1 1 c
 gsave  2268 1682 0 0 C 76.0979 1605.67 t 0 r /Helvetica-Bold findfont 76.0979 sf 0 0 m (Cut efficiencies and optimal cut value) show NC gr  0 0.666667 0 c 2041 202 m 1143 Y s black 0 0.666667 0 c
 gsave  2268 1682 0 0 C 2203.03 966.443 t 90 r /Helvetica-Bold findfont 64.6832 sf 0 0 m (Significance) show NC gr  1995 202 m 46 X s 2018 225 m 23 X s 2018 248 m 23 X s 2018 271 m 23 X s 1995 294 m 46 X s 2018 317 m 23 X s 2018 341 m 23 X s 2018 364
 m 23 X s 1995 387 m 46 X s 2018 410 m 23 X s 2018 433 m 23 X s 2018 456 m 23 X s 1995 479 m 46 X s 2018 503 m 23 X s 2018 526 m 23 X s 2018 549 m 23 X s 1995 572 m 46 X s 2018 595 m 23 X s 2018 618 m 23 X s 2018 641 m 23 X s 1995 665 m 46 X s 2018
 688 m 23 X s 2018 711 m 23 X s 2018 734 m 23 X s 1995 757 m 46 X s 2018 780 m 23 X s 2018 803 m 23 X s 2018 826 m 23 X s 1995 850 m 46 X s 2018 873 m 23 X s 2018 896 m 23 X s 2018 919 m 23 X s 1995 942 m 46 X s 2018 965 m 23 X s 2018 988 m 23 X s
 2018 1012 m 23 X s 1995 1035 m 46 X s 2018 1058 m 23 X s 2018 1081 m 23 X s 2018 1104 m 23 X s 1995 1127 m 46 X s 2018 1150 m 23 X s 2018 1173 m 23 X s 2018 1197 m 23 X s 1995 1220 m 46 X s 2018 1243 m 23 X s 2018 1266 m 23 X s 2018 1289 m 23 X s
 1995 1312 m 46 X s 1995 1312 m 46 X s 2018 1335 m 23 X s black 0 0.666667 0 c
 gsave  2268 1682 0 0 C 2050.84 178.83 t 0 r /Helvetica-Bold findfont 64.6832 sf 0 0 m (0) show NC gr  black 0 0.666667 0 c
 gsave  2268 1682 0 0 C 2050.84 270.147 t 0 r /Helvetica-Bold findfont 64.6832 sf 0 0 m (2) show NC gr  black 0 0.666667 0 c
 gsave  2268 1682 0 0 C 2050.84 361.465 t 0 r /Helvetica-Bold findfont 64.6832 sf 0 0 m (4) show NC gr  black 0 0.666667 0 c
 gsave  2268 1682 0 0 C 2050.84 456.587 t 0 r /Helvetica-Bold findfont 64.6832 sf 0 0 m (6) show NC gr  black 0 0.666667 0 c
 gsave  2268 1682 0 0 C 2050.84 547.905 t 0 r /Helvetica-Bold findfont 64.6832 sf 0 0 m (8) show NC gr  black 0 0.666667 0 c
 gsave  2268 1682 0 0 C 2050.84 639.222 t 0 r /Helvetica-Bold findfont 64.6832 sf 0 0 m (10) show NC gr  black 0 0.666667 0 c
 gsave  2268 1682 0 0 C 2050.84 730.54 t 0 r /Helvetica-Bold findfont 64.6832 sf 0 0 m (12) show NC gr  black 0 0.666667 0 c
 gsave  2268 1682 0 0 C 2050.84 825.662 t 0 r /Helvetica-Bold findfont 64.6832 sf 0 0 m (14) show NC gr  black 0 0.666667 0 c
 gsave  2268 1682 0 0 C 2050.84 916.979 t 0 r /Helvetica-Bold findfont 64.6832 sf 0 0 m (16) show NC gr  black 0 0.666667 0 c
 gsave  2268 1682 0 0 C 2050.84 1008.3 t 0 r /Helvetica-Bold findfont 64.6832 sf 0 0 m (18) show NC gr  black 0 0.666667 0 c
 gsave  2268 1682 0 0 C 2050.84 1103.42 t 0 r /Helvetica-Bold findfont 64.6832 sf 0 0 m (20) show NC gr  black 0 0.666667 0 c
 gsave  2268 1682 0 0 C 2050.84 1194.74 t 0 r /Helvetica-Bold findfont 64.6832 sf 0 0 m (22) show NC gr  black 0 0.666667 0 c
 gsave  2268 1682 0 0 C 2050.84 1286.05 t 0 r /Helvetica-Bold findfont 64.6832 sf 0 0 m (24) show NC gr 
 gr  gr showpage
end
%%EOF
