%!PS-Adobe-2.0 EPSF-2.0
%%BoundingBox:  0 0 567 420
%%Title: plots/mvaeffs_MLP.eps: Cut efficiencies for MLP classifier
%%Creator: ROOT Version 5.34/09
%%CreationDate: Thu Jan  2 18:35:58 2014
%%EndComments
%%BeginProlog
80 dict begin
/s {stroke} def /l {lineto} def /m {moveto} def /t {translate} def
/r {rotate} def /rl {roll}  def /R {repeat} def
/d {rlineto} def /rm {rmoveto} def /gr {grestore} def /f {eofill} def
/c {setrgbcolor} def /black {0 setgray} def /sd {setdash} def
/cl {closepath} def /sf {scalefont setfont} def /lw {setlinewidth} def
/box {m dup 0 exch d exch 0 d 0 exch neg d cl} def
/NC{systemdict begin initclip end}def/C{NC box clip newpath}def
/bl {box s} def /bf {box f} def /Y { 0 exch d} def /X { 0 d} def 
/K {{pop pop 0 moveto} exch kshow} bind def
/ita {/ang 15 def gsave [1 0 ang dup sin exch cos div 1 0 0] concat} def 
/mp {newpath /y exch def /x exch def} def
/side {[w .77 mul w .23 mul] .385 w mul sd w 0 l currentpoint t -144 r} def
/mr {mp x y w2 0 360 arc} def /m24 {mr s} def /m20 {mr f} def
/mb {mp x y w2 add m w2 neg 0 d 0 w neg d w 0 d 0 w d cl} def
/mt {mp x y w2 add m w2 neg w neg d w 0 d cl} def
/m21 {mb f} def /m25 {mb s} def /m22 {mt f} def /m26{mt s} def
/m23 {mp x y w2 sub m w2 w d w neg 0 d cl f} def
/m27 {mp x y w2 add m w3 neg w2 neg d w3 w2 neg d w3 w2 d cl s} def
/m28 {mp x w2 sub y w2 sub w3 add m w3 0 d  0 w3 neg d w3 0 d 0 w3 d w3 0 d  0 w3 d w3 neg 0 d 0 w3 d w3 neg 0 d 0 w3 neg d w3 neg 0 d cl s } def
/m29 {mp gsave x w2 sub y w2 add w3 sub m currentpoint t 4 {side} repeat cl fill gr} def
/m30 {mp gsave x w2 sub y w2 add w3 sub m currentpoint t 4 {side} repeat cl s gr} def
/m31 {mp x y w2 sub m 0 w d x w2 sub y m w 0 d x w2 sub y w2 add m w w neg d x w2 sub y w2 sub m w w d s} def
/m32 {mp x y w2 sub m w2 w d w neg 0 d cl s} def
/m33 {mp x y w2 add m w3 neg w2 neg d w3 w2 neg d w3 w2 d cl f} def
/m34 {mp x w2 sub y w2 sub w3 add m w3 0 d  0 w3 neg d w3 0 d 0 w3 d w3 0 d  0 w3 d w3 neg 0 d 0 w3 d w3 neg 0 d 0 w3 neg d w3 neg 0 d cl f } def
/m2 {mp x y w2 sub m 0 w d x w2 sub y m w 0 d s} def
/m5 {mp x w2 sub y w2 sub m w w d x w2 sub y w2 add m w w neg d s} def
/reEncode {exch findfont dup length dict begin {1 index /FID eq  {pop pop} {def} ifelse } forall /Encoding exch def currentdict end dup /FontName get exch definefont pop } def [/Times-Bold /Times-Italic /Times-BoldItalic /Helvetica /Helvetica-Oblique
 /Helvetica-Bold /Helvetica-BoldOblique /Courier /Courier-Oblique /Courier-Bold /Courier-BoldOblique /Times-Roman /AvantGarde-Book /AvantGarde-BookOblique /AvantGarde-Demi /AvantGarde-DemiOblique /Bookman-Demi /Bookman-DemiItalic /Bookman-Light
 /Bookman-LightItalic /Helvetica-Narrow /Helvetica-Narrow-Bold /Helvetica-Narrow-BoldOblique /Helvetica-Narrow-Oblique /NewCenturySchlbk-Roman /NewCenturySchlbk-Bold /NewCenturySchlbk-BoldItalic /NewCenturySchlbk-Italic /Palatino-Bold
 /Palatino-BoldItalic /Palatino-Italic /Palatino-Roman ] {ISOLatin1Encoding reEncode } forall
%%EndProlog
%%BeginSetup
%%EndSetup
newpath  gsave  .25 .25 scale  gsave  0 0 t 0.490196 0.545098 0.615686 c[  ] 0 sd 3 lw 0.941176 0.941176 0.941176 c 2268 1682 0 0 bf black 1 1 0.992157 c 1796 1143 245 202 bf black 1796 1143 245 202 bl 1 1 0.992157 c 1796 1143 245 202 bf black 1796
 1143 245 202 bl 245 202 m 1796 X s[ 4 8] 0 sd 289 1345 m -1143 Y s 445 1345 m -1143 Y s 602 1345 m -1143 Y s 758 1345 m -1143 Y s 914 1345 m -1143 Y s 1070 1345 m -1143 Y s 1226 1345 m -1143 Y s 1382 1345 m -1143 Y s 1538 1345 m -1143 Y s 1695 1345
 m -1143 Y s 1851 1345 m -1143 Y s 2007 1345 m -1143 Y s 289 1345 m -1143 Y s 2007 1345 m -1143 Y s[  ] 0 sd 245 202 m 1143 Y s[ 4 8] 0 sd 2041 202 m -1796 X s 2041 410 m -1796 X s 2041 618 m -1796 X s 2041 826 m -1796 X s 2041 1034 m -1796 X s 2041
 1241 m -1796 X s 2041 1241 m -1796 X s 0 0 0.933333 c[  22 12 ] 0 sd 6 lw 0.49 0.6 0.82 c black 0 0 0.933333 c 245 723 m cl s 248 723 m cl s 252 723 m cl s 256 723 m cl s 260 723 m cl s 264 723 m cl s 267 723 m cl s 271 723 m cl s 275 723 m cl s 279
 723 m cl s 283 723 m cl s 287 723 m cl s 290 723 m cl s 294 723 m cl s 298 723 m cl s 302 723 m cl s 306 723 m cl s 309 723 m cl s 313 723 m cl s 317 723 m cl s 321 723 m cl s 325 723 m cl s 328 723 m cl s 332 723 m cl s 336 723 m cl s 340 723 m cl
 s 344 723 m cl s 347 723 m cl s 351 723 m cl s 355 723 m cl s 359 723 m cl s 363 723 m cl s 366 723 m cl s 370 723 m cl s 374 723 m cl s 378 723 m cl s 382 723 m cl s 385 723 m cl s 389 723 m cl s 393 723 m cl s 397 723 m cl s 401 723 m cl s 404 723
 m cl s 408 723 m cl s 412 723 m cl s 416 723 m cl s 420 723 m cl s 423 723 m cl s 427 723 m cl s 431 723 m cl s 435 723 m cl s 439 723 m cl s 443 723 m cl s 446 723 m cl s 450 723 m cl s 454 723 m cl s 458 723 m cl s 462 723 m cl s 465 723 m cl s
 469 723 m cl s 473 723 m cl s 477 723 m cl s 481 723 m cl s 484 723 m cl s 488 723 m cl s 492 723 m cl s 496 723 m cl s 500 723 m cl s 503 723 m cl s 507 723 m cl s 511 723 m cl s 515 723 m cl s 519 723 m cl s 522 723 m cl s 526 723 m cl s 530 723 m
 cl s 534 723 m cl s 538 727 m -4 Y s 541 727 m cl s 545 727 m cl s 549 727 m cl s 553 727 m cl s 557 727 m cl s 560 727 m cl s 564 727 m cl s 568 727 m cl s 572 727 m cl s 576 727 m cl s 579 727 m cl s 583 727 m cl s 587 727 m cl s 591 727 m cl s
 595 731 m -4 Y s 599 731 m cl s 602 731 m cl s 606 731 m cl s 610 731 m cl s 614 731 m cl s 618 731 m cl s 621 731 m cl s 625 731 m cl s 629 734 m -3 Y s 633 734 m cl s 637 734 m cl s 640 734 m cl s 644 734 m cl s 648 738 m -4 Y s 652 738 m cl s 656
 738 m cl s 659 738 m cl s 663 738 m cl s 667 738 m cl s 671 742 m -4 Y s 675 742 m cl s 678 742 m -4 Y s 682 742 m cl s 686 742 m cl s 690 742 m cl s 694 742 m cl s 697 746 m -4 Y s 701 746 m cl s 705 746 m cl s 709 746 m cl s 713 746 m cl s 716 750
 m -4 Y s 720 750 m cl s 724 750 m cl s 728 753 m -3 Y s 732 750 m cl s 735 753 m cl s 739 753 m cl s 743 753 m cl s 747 757 m -4 Y s 751 757 m -4 Y s 755 757 m cl s 758 757 m cl s 762 757 m cl s 766 757 m cl s 770 761 m -4 Y s 774 761 m cl s 777 765
 m -4 Y s 781 765 m -4 Y s 785 765 m cl s 789 765 m cl s 793 769 m -4 Y s 796 769 m cl s 800 772 m -3 Y s 804 772 m -3 Y s 808 776 m -4 Y s 812 776 m cl s 815 776 m cl s 819 780 m -4 Y s 823 780 m -4 Y s 827 780 m cl s 831 784 m -4 Y s 834 784 m -4 Y
 s 838 784 m cl s 842 784 m cl s 846 788 m -4 Y s 850 788 m -4 Y s 853 788 m -4 Y s 857 788 m -4 Y s 861 788 m cl s 865 788 m -4 Y s 869 788 m -4 Y s 872 788 m cl s 876 788 m cl s 880 788 m -4 Y s 884 788 m -4 Y s 888 784 m cl s 891 788 m -4 Y s 895
 788 m -4 Y s 899 788 m -4 Y s 903 788 m -4 Y s 907 784 m -4 Y s 911 780 m cl s 914 780 m cl s 918 780 m -4 Y s 922 780 m -4 Y s 926 776 m -4 Y s 930 772 m -3 Y s 933 776 m -7 Y s 937 776 m -7 Y s 941 772 m -3 Y s 945 769 m cl s 949 769 m -4 Y s 952
 769 m -4 Y s 956 769 m -4 Y s 960 765 m -4 Y s 964 765 m -4 Y s 968 761 m -8 Y s 971 753 m -3 Y s 975 750 m -4 Y s 979 746 m -4 Y s 983 742 m cl s 987 742 m -4 Y s 990 738 m -7 Y s 994 731 m -4 Y s 998 731 m -4 Y s 1002 727 m cl s 1006 727 m cl s
 1009 727 m -8 Y s 1013 719 m -4 Y s 1017 719 m -7 Y s 1021 712 m -4 Y s 1025 704 m -4 Y s 1028 700 m -4 Y s 1032 696 m -4 Y s 1036 696 m -7 Y s 1040 689 m -4 Y s 1044 681 m -4 Y s 1047 677 m -4 Y s 1051 673 m -7 Y s 1055 666 m -4 Y s 1059 662 m -4 Y
 s 1063 658 m -4 Y s 1067 654 m -3 Y s 1070 651 m -4 Y s 1074 647 m -4 Y s 1078 643 m -8 Y s 1082 635 m -7 Y s 1086 628 m -8 Y s 1089 620 m -7 Y s 1093 613 m -8 Y s 1097 605 m -4 Y s 1101 601 m -7 Y s 1105 594 m -4 Y s 1108 590 m -8 Y s 1112 582 m -7
 Y s 1116 575 m -8 Y s 1120 567 m -4 Y s 1124 563 m -4 Y s 1127 559 m -7 Y s 1131 556 m -8 Y s 1135 548 m -4 Y s 1139 544 m -8 Y s 1143 536 m -7 Y s 1146 529 m -4 Y s 1150 525 m -4 Y s 1154 521 m -4 Y s 1158 514 m -4 Y s 1162 514 m -8 Y s 1165 506 m
 -8 Y s 1169 498 m -3 Y s 1173 495 m -8 Y s 1177 487 m -4 Y s 1181 483 m -4 Y s 1184 479 m -3 Y s 1188 476 m -8 Y s 1192 472 m -4 Y s 1196 468 m -8 Y s 1200 460 m -7 Y s 1203 453 m -4 Y s 1207 449 m -8 Y s 1211 441 m cl s 1215 441 m -11 Y s 1219 430
 m cl s 1223 430 m -4 Y s 1226 430 m -8 Y s 1230 422 m -7 Y s 1234 415 m -4 Y s 1238 407 m -4 Y s 1242 403 m -3 Y s 1245 400 m -4 Y s 1249 396 m -4 Y s 1253 392 m -4 Y s 1257 388 m -4 Y s 1261 384 m -4 Y s 1264 380 m -3 Y s 1268 377 m -4 Y s 1272 373
 m -4 Y s 1276 369 m -4 Y s 1280 365 m -4 Y s 1283 361 m cl s 1287 358 m cl s 1291 358 m -4 Y s 1295 354 m -4 Y s 1299 350 m -4 Y s 1302 346 m -4 Y s 1306 342 m cl s 1310 342 m -3 Y s 1314 339 m -4 Y s 1318 335 m cl s 1321 335 m -4 Y s 1325 331 m cl
 s 1329 331 m -4 Y s 1333 327 m cl s 1337 327 m -4 Y s 1340 323 m -7 Y s 1344 316 m -4 Y s 1348 308 m cl s 1352 308 m -4 Y s 1356 304 m cl s 1359 304 m -3 Y s 1363 301 m cl s 1367 301 m -4 Y s 1371 297 m cl s 1375 297 m -4 Y s 1379 293 m -4 Y s 1382
 289 m -4 Y s 1386 285 m -3 Y s 1390 282 m cl s 1394 282 m -4 Y s 1398 278 m cl s 1401 278 m -4 Y s 1405 274 m cl s 1409 274 m -4 Y s 1413 270 m cl s 1417 270 m cl s 1420 266 m cl s 1424 266 m -3 Y s 1428 263 m -4 Y s 1432 259 m cl s 1436 259 m -4 Y
 s 1439 255 m -4 Y s 1443 251 m -4 Y s 1447 247 m cl s 1451 247 m cl s 1455 247 m cl s 1458 247 m cl s 1462 247 m cl s 1466 247 m cl s 1470 247 m cl s 1474 247 m -3 Y s 1477 244 m cl s 1481 244 m cl s 1485 244 m cl s 1489 244 m cl s 1493 244 m cl s
 1496 244 m -4 Y s 1500 240 m cl s 1504 240 m -4 Y s 1508 236 m cl s 1512 236 m cl s 1515 236 m cl s 1519 236 m -4 Y s 1523 232 m cl s 1527 232 m -4 Y s 1531 228 m cl s 1535 228 m cl s 1538 228 m cl s 1542 228 m -4 Y s 1546 224 m cl s 1550 224 m cl s
 1554 224 m cl s 1557 224 m cl s 1561 221 m cl s 1565 221 m cl s 1569 221 m -4 Y s 1573 217 m cl s 1576 217 m cl s 1580 217 m -4 Y s 1584 213 m cl s 1588 213 m cl s 1592 213 m cl s 1595 213 m cl s 1599 213 m -4 Y s 1603 209 m cl s 1607 209 m cl s
 1611 209 m cl s 1614 209 m cl s 1618 209 m cl s 1622 209 m cl s 1626 209 m cl s 1630 209 m cl s 1633 209 m cl s 1637 209 m cl s 1641 209 m cl s 1645 209 m cl s 1649 209 m cl s 1652 209 m cl s 1656 209 m cl s 1660 209 m cl s 1664 209 m cl s 1668 209
 m cl s 1671 209 m cl s 1675 209 m cl s 1679 209 m cl s 1683 209 m cl s 1687 209 m cl s 1691 209 m cl s 1694 209 m cl s 1698 209 m cl s 1702 209 m cl s 1706 209 m cl s 1710 209 m cl s 1713 209 m cl s 1717 209 m cl s 245 723 m 289 X 4 4 d 53 X 4 4 d
 30 X 4 3 d 15 X 4 4 d 19 X 4 4 d 23 X 3 4 d 16 X 3 4 d 8 X 4 3 d 4 -3 d 3 3 d 8 X 4 4 d 19 X 4 4 d 4 X 3 4 d 12 X 4 4 d 3 X 4 3 d 4 X 4 4 d 7 X 4 4 d 8 X 4 4 d 11 X 4 4 d 38 X 4 -4 d 3 4 d 12 X 4 -4 d 4 -4 d 11 X 4 -4 d 4 -4 d 11 X 4 -3 d 11 X 4 -4
 d 4 X 4 -8 d 3 -4 d 4 -3 d 4 -4 d 4 -4 d 4 X 3 -8 d 4 -3 d 4 X 4 -4 d 4 X 3 -4 d 4 -4 d 4 -4 d 4 -3 d 4 -8 d 3 -4 d 4 -4 d 4 -4 d 4 -3 d 4 -8 d 3 -4 d 4 -7 d 4 -4 d 4 -4 d 4 -4 d 4 -4 d 3 -3 d 4 -4 d 4 -8 d 4 -7 d 4 -8 d 3 -8 d 4 -7 d 4 -4 d 4 -8 d
 4 -3 d 3 -8 d 4 -8 d 4 -7 d 4 -4 d 4 -4 d 3 -7 d 4 -4 d 4 -4 d 4 -8 d 4 -7 d 3 -4 d 4 -4 d 4 -4 d 4 -7 d 4 -4 d 3 -8 d 4 -4 d 4 -7 d 4 -4 d 4 -4 d 3 -4 d 4 -7 d 4 X 4 -8 d 4 -7 d 3 -4 d 4 -8 d 4 -4 d 4 -3 d 4 -8 d 4 X 3 -4 d 4 -7 d 4 -4 d 4 -8 d 4
 -4 d 3 -3 d 4 -4 d 4 -4 d 4 -4 d 4 -4 d 3 -4 d 4 -3 d 4 -4 d 4 -4 d 4 -4 d 3 -4 d 4 -3 d 4 X 4 -4 d 4 -4 d 3 -4 d 4 -4 d 4 X 4 -3 d 4 -4 d 3 X 4 -4 d 4 X 4 -4 d 4 X 3 -7 d 4 -4 d 4 -8 d 4 X 4 -4 d 3 X 4 -3 d 4 X 4 -4 d 4 X 4 -4 d 3 -4 d 4 -4 d 4 -3
 d 4 X 4 -4 d 3 X 4 -4 d 4 X 4 -4 d 4 X 3 -4 d 4 X 4 -3 d 4 -4 d 4 X 3 -4 d 4 -4 d 4 -4 d 27 X 3 -3 d 19 X 4 -4 d 4 X 4 -4 d 11 X 4 -4 d 4 X 4 -4 d 11 X 4 -4 d 11 X 4 -3 d 8 X 4 -4 d 7 X 4 -4 d 15 X 4 -4 d 114 X s black[  ] 0 sd 3 lw 245 202 m 1796 X
 s
 gsave  2268 1682 0 0 C 913.174 30.4391 t 0 r /Helvetica-Bold findfont 72.293 sf 0 0 m (Cut value applied on MLP output) show NC gr  289 242 m -40 Y s 328 222 m -20 Y s 367 222 m -20 Y s 406 222 m -20 Y s 445 242 m -40 Y s 485 222 m -20 Y s 524 222 m
 -20 Y s 563 222 m -20 Y s 602 242 m -40 Y s 641 222 m -20 Y s 680 222 m -20 Y s 719 222 m -20 Y s 758 242 m -40 Y s 797 222 m -20 Y s 836 222 m -20 Y s 875 222 m -20 Y s 914 242 m -40 Y s 953 222 m -20 Y s 992 222 m -20 Y s 1031 222 m -20 Y s 1070
 242 m -40 Y s 1109 222 m -20 Y s 1148 222 m -20 Y s 1187 222 m -20 Y s 1226 242 m -40 Y s 1265 222 m -20 Y s 1304 222 m -20 Y s 1343 222 m -20 Y s 1382 242 m -40 Y s 1421 222 m -20 Y s 1460 222 m -20 Y s 1499 222 m -20 Y s 1538 242 m -40 Y s 1577
 222 m -20 Y s 1616 222 m -20 Y s 1656 222 m -20 Y s 1695 242 m -40 Y s 1734 222 m -20 Y s 1773 222 m -20 Y s 1812 222 m -20 Y s 1851 242 m -40 Y s 1890 222 m -20 Y s 1929 222 m -20 Y s 1968 222 m -20 Y s 2007 242 m -40 Y s 289 242 m -40 Y s 250 222
 m -20 Y s 2007 242 m -40 Y s
 gsave  2268 1682 0 0 C 232.099 129.366 t 0 r /Helvetica-Bold findfont 64.6832 sf 0 0 m (\2550.4) show NC gr 
 gsave  2268 1682 0 0 C 388.099 129.366 t 0 r /Helvetica-Bold findfont 64.6832 sf 0 0 m (\2550.2) show NC gr 
 gsave  2268 1682 0 0 C 582.149 129.366 t 0 r /Helvetica-Bold findfont 64.6832 sf 0 0 m (0) show NC gr 
 gsave  2268 1682 0 0 C 711.515 129.366 t 0 r /Helvetica-Bold findfont 64.6832 sf 0 0 m (0.2) show NC gr 
 gsave  2268 1682 0 0 C 867.516 129.366 t 0 r /Helvetica-Bold findfont 64.6832 sf 0 0 m (0.4) show NC gr 
 gsave  2268 1682 0 0 C 1023.52 129.366 t 0 r /Helvetica-Bold findfont 64.6832 sf 0 0 m (0.6) show NC gr 
 gsave  2268 1682 0 0 C 1179.52 129.366 t 0 r /Helvetica-Bold findfont 64.6832 sf 0 0 m (0.8) show NC gr 
 gsave  2268 1682 0 0 C 1365.96 129.366 t 0 r /Helvetica-Bold findfont 64.6832 sf 0 0 m (1) show NC gr 
 gsave  2268 1682 0 0 C 1491.52 129.366 t 0 r /Helvetica-Bold findfont 64.6832 sf 0 0 m (1.2) show NC gr 
 gsave  2268 1682 0 0 C 1647.52 129.366 t 0 r /Helvetica-Bold findfont 64.6832 sf 0 0 m (1.4) show NC gr 
 gsave  2268 1682 0 0 C 1803.52 129.366 t 0 r /Helvetica-Bold findfont 64.6832 sf 0 0 m (1.6) show NC gr 
 gsave  2268 1682 0 0 C 1959.52 129.366 t 0 r /Helvetica-Bold findfont 64.6832 sf 0 0 m (1.8) show NC gr  245 202 m 1143 Y s
 gsave  2268 1682 0 0 C 64.6832 734.344 t 90 r /Helvetica-Bold findfont 72.293 sf 0 0 m (Efficiency \(Purity\)) show NC gr  291 202 m -46 X s 268 254 m -23 X s 268 306 m -23 X s 268 358 m -23 X s 291 410 m -46 X s 268 462 m -23 X s 268 514 m -23 X s
 268 566 m -23 X s 291 618 m -46 X s 268 670 m -23 X s 268 722 m -23 X s 268 774 m -23 X s 291 826 m -46 X s 268 878 m -23 X s 268 930 m -23 X s 268 982 m -23 X s 291 1034 m -46 X s 268 1086 m -23 X s 268 1137 m -23 X s 268 1189 m -23 X s 291 1241 m
 -46 X s 291 1241 m -46 X s 268 1293 m -23 X s 268 1345 m -23 X s
 gsave  2268 1682 0 0 C 182.635 178.83 t 0 r /Helvetica-Bold findfont 64.6832 sf 0 0 m (0) show NC gr 
 gsave  2268 1682 0 0 C 129.366 384.294 t 0 r /Helvetica-Bold findfont 64.6832 sf 0 0 m (0.2) show NC gr 
 gsave  2268 1682 0 0 C 125.561 593.563 t 0 r /Helvetica-Bold findfont 64.6832 sf 0 0 m (0.4) show NC gr 
 gsave  2268 1682 0 0 C 129.366 799.028 t 0 r /Helvetica-Bold findfont 64.6832 sf 0 0 m (0.6) show NC gr 
 gsave  2268 1682 0 0 C 125.561 1008.3 t 0 r /Helvetica-Bold findfont 64.6832 sf 0 0 m (0.8) show NC gr 
 gsave  2268 1682 0 0 C 190.245 1217.57 t 0 r /Helvetica-Bold findfont 64.6832 sf 0 0 m (1) show NC gr  0 0 0.933333 c[  52 12 ] 0 sd 6 lw 0.49 0.6 0.82 c black 0 0 0.933333 c 248 723 m cl s 252 723 m cl s 256 723 m cl s 260 723 m cl s 264 723 m cl s
 267 723 m cl s 271 723 m cl s 275 723 m cl s 279 723 m cl s 283 723 m cl s 287 723 m cl s 290 723 m cl s 294 723 m cl s 298 723 m cl s 302 723 m cl s 306 723 m cl s 309 723 m cl s 313 723 m cl s 317 723 m cl s 321 723 m cl s 325 723 m cl s 328 723 m
 cl s 332 723 m cl s 336 723 m cl s 340 723 m cl s 344 723 m cl s 347 723 m cl s 351 723 m cl s 355 723 m cl s 359 723 m cl s 363 723 m cl s 366 723 m cl s 370 723 m cl s 374 723 m cl s 378 723 m cl s 382 723 m cl s 385 723 m cl s 389 723 m cl s 393
 723 m cl s 397 723 m cl s 401 723 m cl s 404 723 m cl s 408 723 m cl s 412 723 m cl s 416 723 m cl s 420 723 m cl s 423 723 m cl s 427 723 m cl s 431 723 m cl s 435 723 m cl s 439 723 m cl s 443 723 m cl s 446 723 m cl s 450 723 m cl s 454 723 m cl
 s 458 723 m cl s 462 723 m cl s 465 723 m cl s 469 723 m cl s 473 723 m cl s 477 723 m cl s 481 723 m cl s 484 723 m cl s 488 723 m cl s 492 723 m cl s 496 723 m cl s 500 723 m cl s 503 723 m cl s 507 723 m cl s 511 723 m cl s 515 723 m cl s 519 723
 m cl s 522 723 m cl s 526 723 m cl s 530 723 m cl s 534 723 m cl s 538 727 m -4 Y s 541 727 m cl s 545 727 m cl s 549 727 m cl s 553 727 m cl s 557 727 m cl s 560 727 m cl s 564 727 m cl s 568 727 m cl s 572 727 m cl s 576 727 m cl s 579 727 m cl s
 583 731 m -4 Y s 587 731 m -4 Y s 591 731 m cl s 595 731 m cl s 599 731 m cl s 602 731 m cl s 606 731 m cl s 610 731 m cl s 614 731 m cl s 618 731 m cl s 621 734 m -3 Y s 625 734 m cl s 629 734 m cl s 633 734 m cl s 637 734 m cl s 640 738 m -4 Y s
 644 738 m cl s 648 738 m cl s 652 742 m -4 Y s 656 742 m cl s 659 742 m cl s 663 742 m cl s 667 742 m cl s 671 742 m cl s 675 742 m cl s 678 746 m -4 Y s 682 746 m cl s 686 746 m cl s 690 746 m cl s 694 750 m -4 Y s 697 750 m cl s 701 750 m cl s 705
 750 m cl s 709 753 m -3 Y s 713 753 m cl s 716 753 m cl s 720 757 m -4 Y s 724 757 m cl s 728 757 m cl s 732 757 m cl s 735 761 m -4 Y s 739 761 m cl s 743 761 m cl s 747 765 m -4 Y s 751 765 m cl s 755 765 m cl s 758 769 m -4 Y s 762 769 m cl s 766
 769 m cl s 770 772 m -3 Y s 774 772 m cl s 777 776 m -4 Y s 781 776 m cl s 785 780 m -4 Y s 789 780 m cl s 793 784 m -4 Y s 796 788 m -4 Y s 800 788 m cl s 804 791 m -3 Y s 808 795 m -4 Y s 812 795 m cl s 815 799 m -4 Y s 819 799 m cl s 823 803 m -4
 Y s 827 807 m -4 Y s 831 807 m cl s 834 810 m -3 Y s 838 814 m -4 Y s 842 814 m cl s 846 818 m -4 Y s 850 822 m -4 Y s 853 826 m -4 Y s 857 826 m cl s 861 829 m -3 Y s 865 829 m cl s 869 833 m -4 Y s 872 837 m -4 Y s 876 837 m cl s 880 841 m -4 Y s
 884 845 m -4 Y s 888 848 m -3 Y s 891 852 m -4 Y s 895 852 m cl s 899 856 m -4 Y s 903 860 m -4 Y s 907 860 m cl s 911 864 m -4 Y s 914 871 m -7 Y s 918 871 m cl s 922 875 m -4 Y s 926 875 m cl s 930 879 m -4 Y s 933 887 m -8 Y s 937 890 m -3 Y s
 941 894 m -4 Y s 945 898 m -4 Y s 949 902 m -4 Y s 952 906 m -4 Y s 956 909 m -3 Y s 960 913 m -4 Y s 964 917 m -4 Y s 968 917 m -4 Y s 971 921 m cl s 975 925 m -4 Y s 979 928 m -3 Y s 983 932 m -7 Y s 987 932 m -4 Y s 990 940 m -4 Y s 994 940 m cl
 s 998 947 m -7 Y s 1002 955 m -8 Y s 1006 959 m -4 Y s 1009 966 m -7 Y s 1013 970 m -4 Y s 1017 974 m -4 Y s 1021 978 m -4 Y s 1025 978 m cl s 1028 982 m -4 Y s 1032 985 m -3 Y s 1036 989 m cl s 1040 993 m -4 Y s 1044 993 m -4 Y s 1047 997 m -4 Y s
 1051 997 m cl s 1055 1001 m -4 Y s 1059 1004 m -3 Y s 1063 1008 m -4 Y s 1067 1012 m -4 Y s 1070 1016 m -4 Y s 1074 1024 m -8 Y s 1078 1024 m -4 Y s 1082 1027 m -3 Y s 1086 1031 m -4 Y s 1089 1035 m -4 Y s 1093 1043 m -8 Y s 1097 1043 m cl s 1101
 1050 m -4 Y s 1105 1058 m -8 Y s 1108 1062 m -4 Y s 1112 1065 m -7 Y s 1116 1069 m -4 Y s 1120 1077 m -8 Y s 1124 1081 m -4 Y s 1127 1081 m -4 Y s 1131 1084 m -3 Y s 1135 1088 m -4 Y s 1139 1088 m -4 Y s 1143 1092 m -4 Y s 1146 1096 m -8 Y s 1150
 1100 m -4 Y s 1154 1111 m -11 Y s 1158 1115 m -8 Y s 1162 1126 m -4 Y s 1165 1134 m -8 Y s 1169 1134 m cl s 1173 1134 m cl s 1177 1141 m -7 Y s 1181 1141 m -3 Y s 1184 1141 m cl s 1188 1157 m -16 Y s 1192 1164 m -7 Y s 1196 1164 m -4 Y s 1200 1164 m
 -4 Y s 1203 1164 m -4 Y s 1207 1168 m cl s 1211 1172 m -4 Y s 1215 1176 m -4 Y s 1219 1180 m -4 Y s 1223 1187 m -7 Y s 1226 1195 m -8 Y s 1230 1195 m -4 Y s 1234 1195 m -4 Y s 1238 1195 m cl s 1242 1199 m -4 Y s 1245 1199 m cl s 1249 1202 m -3 Y s
 1253 1202 m -3 Y s 1257 1202 m -3 Y s 1261 1199 m cl s 1264 1199 m cl s 1268 1199 m cl s 1272 1199 m cl s 1276 1199 m cl s 1280 1199 m cl s 1283 1199 m cl s 1287 1199 m cl s 1291 1199 m -4 Y s 1295 1199 m -4 Y s 1299 1195 m cl s 1302 1195 m cl s
 1306 1199 m -4 Y s 1310 1206 m -7 Y s 1314 1210 m -4 Y s 1318 1218 m -8 Y s 1321 1218 m cl s 1325 1218 m cl s 1329 1218 m cl s 1333 1218 m cl s 1337 1218 m cl s 1340 1218 m -4 Y s 1344 1218 m -4 Y s 1348 1214 m cl s 1352 1218 m -4 Y s 1356 1218 m -4
 Y s 1359 1214 m cl s 1363 1214 m cl s 1367 1214 m cl s 1371 1214 m cl s 1375 1214 m cl s 1379 1214 m -4 Y s 1382 1210 m cl s 1386 1210 m cl s 1390 1210 m -4 Y s 1394 1206 m cl s 1398 1206 m cl s 1401 1206 m cl s 1405 1206 m cl s 1409 1206 m -4 Y s
 1413 1202 m cl s 1417 1202 m cl s 1420 1202 m -3 Y s 1424 1199 m cl s 1428 1202 m -3 Y s 1432 1199 m cl s 1436 1199 m -4 Y s 1439 1195 m -4 Y s 1443 1191 m cl s 1447 1199 m -4 Y s 1451 1206 m -7 Y s 1455 1206 m -4 Y s 1458 1202 m cl s 1462 1202 m cl
 s 1466 1202 m cl s 1470 1210 m -8 Y s 1474 1206 m cl s 1477 1206 m cl s 1481 1229 m -23 Y s 1485 1229 m cl s 1489 1229 m cl s 1493 1244 m -15 Y s 1496 1244 m cl s 1500 1244 m cl s 1504 1244 m cl s 1508 1244 m cl s 1512 1244 m cl s 1515 1244 m cl s
 1519 1244 m cl s 1523 1244 m cl s 1527 1244 m cl s 1531 1244 m cl s 1535 1244 m cl s 1538 1244 m cl s 1542 1244 m cl s 1546 1244 m cl s 1550 1244 m cl s 1554 1244 m cl s 1557 1244 m cl s 1561 1244 m cl s 1565 1244 m cl s 1569 1244 m cl s 1573 1244 m
 cl s 1576 1244 m cl s 1580 1244 m cl s 1584 1244 m cl s 1588 1244 m cl s 1592 1244 m cl s 1595 1244 m cl s 1599 1244 m cl s 1603 1244 m cl s 1607 1244 m cl s 1611 1244 m cl s 1614 1244 m cl s 1618 1244 m cl s 1622 1244 m cl s 1626 1244 m cl s 1630
 1244 m cl s 1633 1244 m cl s 1637 1244 m cl s 1641 1244 m cl s 1645 1244 m cl s 1649 1244 m cl s 1652 1244 m cl s 1656 1244 m cl s 1660 1244 m cl s 1664 1244 m cl s 1668 1244 m cl s 1671 1244 m cl s 1675 1244 m cl s 1679 1244 m cl s 1683 1244 m cl s
 1687 1244 m cl s 1691 1244 m cl s 1694 1244 m cl s 1698 1244 m cl s 1702 1244 m cl s 1706 1244 m cl s 1710 1244 m cl s 1713 1244 m cl s 1717 1244 m cl s 1721 1244 m cl s 1725 1244 m cl s 1729 1244 m cl s 1732 1244 m cl s 1736 1244 m cl s 1740 1244 m
 cl s 1744 1244 m cl s 1748 1244 m cl s 1751 1244 m cl s 1755 1244 m cl s 1759 1244 m cl s 1763 1244 m cl s 1767 1244 m cl s 1770 1244 m cl s 1774 1244 m cl s 1778 1244 m cl s 1782 1244 m cl s 1786 1244 m cl s 1789 1244 m cl s 1793 1244 m cl s 1797
 1244 m cl s 1801 1244 m cl s 1805 1244 m cl s 1808 1244 m cl s 1812 1244 m cl s 1816 1244 m cl s 1820 1244 m cl s 1824 1244 m cl s 1827 1244 m cl s 1831 1244 m cl s 1835 1244 m cl s 1839 1244 m cl s 1843 1244 m cl s 1847 1244 m cl s 1850 1244 m cl s
 1854 1244 m cl s 1858 1244 m cl s 1862 1244 m cl s 1866 1244 m cl s 1869 1244 m cl s 1873 1244 m cl s 1877 1244 m cl s 1881 1244 m cl s 1885 1244 m cl s 1888 1244 m cl s 1892 1244 m cl s 1896 1244 m cl s 1900 1244 m cl s 1904 1244 m cl s 1907 1244 m
 cl s 1911 1244 m cl s 1915 1244 m cl s 1919 1244 m cl s 1923 1244 m cl s 1926 1244 m cl s 1930 1244 m cl s 1934 1244 m cl s 1938 1244 m cl s 1942 1244 m cl s 1945 1244 m cl s 1949 1244 m cl s 1953 1244 m cl s 1957 1244 m cl s 1961 1244 m cl s 1964
 1244 m cl s 1968 1244 m cl s 1972 1244 m cl s 1976 1244 m cl s 1980 1244 m cl s 1983 1244 m cl s 1987 1244 m cl s 1991 1244 m cl s 1995 1244 m cl s 1999 1244 m cl s 2003 1244 m cl s 2006 1244 m cl s 2010 1244 m cl s 2014 1244 m cl s 2018 1244 m cl s
 2022 1244 m cl s 2025 1244 m cl s 2029 1244 m cl s 2033 1244 m cl s 2037 1244 m cl s 2041 1244 m cl s 245 723 m 3 X s 248 723 m 286 X 4 4 d 41 X 4 4 d 35 X 3 3 d 16 X 3 4 d 8 X 4 4 d 23 X 3 4 d 12 X 4 4 d 11 X 4 3 d 7 X 4 4 d 12 X 3 4 d 8 X 4 4 d 8
 X 3 4 d 8 X 4 3 d 4 X 3 4 d 4 X 4 4 d 4 X 4 4 d 3 4 d 4 X 4 3 d 4 4 d 4 X 3 4 d 4 X 4 4 d 4 4 d 4 X 3 3 d 4 4 d 4 X 4 4 d 4 4 d 3 4 d 4 X 4 3 d 4 X 4 4 d 3 4 d 4 X 4 4 d 4 4 d 4 3 d 3 4 d 4 X 4 4 d 4 4 d 4 X 4 4 d 3 4 d 4 3 d 4 4 d 4 X 4 4 d 3 4 d 4
 7 d 4 4 d 4 4 d 4 4 d 3 4 d 4 3 d 4 4 d 4 4 d 4 X 3 4 d 4 4 d 4 3 d 4 X 4 4 d 3 8 d 4 X 4 4 d 4 7 d 4 8 d 3 4 d 4 7 d 4 4 d 4 4 d 4 X 3 4 d 4 3 d 4 4 d 4 4 d 4 X 3 4 d 4 X 4 4 d 4 3 d 4 4 d 4 4 d 3 4 d 4 4 d 4 4 d 4 3 d 4 4 d 3 4 d 4 4 d 4 4 d 4 7 d
 4 4 d 3 8 d 4 X 4 7 d 4 4 d 4 8 d 3 X 4 3 d 4 4 d 4 X 4 4 d 3 X 4 8 d 4 7 d 4 4 d 4 15 d 3 4 d 4 4 d 4 X 4 4 d 4 3 d 3 X 4 8 d 4 11 d 4 4 d 7 X 4 4 d 4 4 d 4 4 d 4 4 d 4 3 d 3 8 d 4 4 d 8 X 4 4 d 3 X 4 3 d 8 X 4 -3 d 34 X 4 -4 d 3 X 4 4 d 4 3 d 4 8
 d 4 4 d 3 4 d 23 X 4 -4 d 4 4 d 4 X 3 -4 d 20 X 3 -4 d 8 X 4 -4 d 15 X 4 -4 d 7 X 4 -3 d 4 3 d 4 -3 d 4 X 3 -4 d 4 -4 d 4 8 d 4 3 d 4 4 d 3 -4 d 8 X 4 4 d 7 X 4 12 d 4 11 d 4 X 4 8 d 3 7 d 545 X s[  ] 0 sd 9 lw 0.49 0.6 0.82 c black 0 0 0.933333 c
 248 1244 m cl s 252 1244 m cl s 256 1244 m cl s 260 1244 m cl s 264 1244 m cl s 267 1244 m cl s 271 1244 m cl s 275 1244 m cl s 279 1244 m cl s 283 1244 m cl s 287 1244 m cl s 290 1244 m cl s 294 1244 m cl s 298 1244 m cl s 302 1244 m cl s 306 1244
 m cl s 309 1244 m cl s 313 1244 m cl s 317 1244 m cl s 321 1244 m cl s 325 1244 m cl s 328 1244 m cl s 332 1244 m cl s 336 1244 m cl s 340 1244 m cl s 344 1244 m cl s 347 1244 m cl s 351 1244 m cl s 355 1244 m cl s 359 1244 m cl s 363 1244 m cl s
 366 1244 m cl s 370 1244 m cl s 374 1244 m cl s 378 1244 m cl s 382 1244 m cl s 385 1244 m cl s 389 1244 m cl s 393 1244 m cl s 397 1244 m cl s 401 1244 m cl s 404 1244 m cl s 408 1244 m cl s 412 1244 m cl s 416 1244 m cl s 420 1244 m cl s 423 1244
 m cl s 427 1244 m cl s 431 1244 m cl s 435 1244 m cl s 439 1244 m cl s 443 1244 m cl s 446 1244 m cl s 450 1244 m cl s 454 1244 m cl s 458 1244 m cl s 462 1244 m cl s 465 1244 m cl s 469 1244 m cl s 473 1244 m cl s 477 1244 m cl s 481 1244 m cl s
 484 1244 m cl s 488 1244 m cl s 492 1244 m cl s 496 1244 m cl s 500 1244 m cl s 503 1244 m cl s 507 1244 m cl s 511 1244 m cl s 515 1244 m cl s 519 1244 m cl s 522 1244 m cl s 526 1244 m cl s 530 1244 m cl s 534 1244 m cl s 538 1244 m cl s 541 1244
 m cl s 545 1244 m cl s 549 1244 m cl s 553 1244 m cl s 557 1244 m cl s 560 1244 m cl s 564 1244 m cl s 568 1244 m cl s 572 1244 m cl s 576 1244 m cl s 579 1244 m cl s 583 1244 m cl s 587 1244 m -4 Y s 591 1240 m cl s 595 1240 m cl s 599 1240 m cl s
 602 1240 m cl s 606 1240 m cl s 610 1240 m cl s 614 1240 m cl s 618 1240 m cl s 621 1240 m cl s 625 1240 m cl s 629 1240 m cl s 633 1240 m cl s 637 1240 m cl s 640 1240 m cl s 644 1240 m cl s 648 1240 m cl s 652 1240 m cl s 656 1240 m cl s 659 1240
 m -3 Y s 663 1237 m cl s 667 1237 m cl s 671 1237 m cl s 675 1237 m cl s 678 1237 m cl s 682 1237 m cl s 686 1237 m cl s 690 1237 m cl s 694 1237 m cl s 697 1237 m cl s 701 1237 m -4 Y s 705 1233 m cl s 709 1233 m cl s 713 1233 m cl s 716 1233 m cl
 s 720 1233 m cl s 724 1233 m cl s 728 1233 m cl s 732 1229 m cl s 735 1229 m cl s 739 1229 m cl s 743 1229 m cl s 747 1229 m cl s 751 1229 m cl s 755 1229 m cl s 758 1229 m -4 Y s 762 1225 m cl s 766 1225 m -4 Y s 770 1221 m cl s 774 1221 m cl s 777
 1221 m cl s 781 1221 m -3 Y s 785 1218 m cl s 789 1218 m cl s 793 1218 m cl s 796 1218 m -4 Y s 800 1214 m -4 Y s 804 1210 m cl s 808 1210 m cl s 812 1210 m cl s 815 1210 m -4 Y s 819 1206 m -4 Y s 823 1202 m cl s 827 1202 m -3 Y s 831 1199 m cl s
 834 1199 m -4 Y s 838 1195 m -4 Y s 842 1191 m cl s 846 1187 m cl s 850 1187 m -4 Y s 853 1183 m -3 Y s 857 1180 m -4 Y s 861 1176 m cl s 865 1176 m -4 Y s 869 1172 m -4 Y s 872 1168 m -4 Y s 876 1164 m -4 Y s 880 1157 m -4 Y s 884 1153 m -4 Y s 888
 1149 m -8 Y s 891 1141 m -3 Y s 895 1138 m -4 Y s 899 1134 m -4 Y s 903 1130 m -8 Y s 907 1122 m -7 Y s 911 1115 m -4 Y s 914 1111 m -8 Y s 918 1103 m -7 Y s 922 1096 m -4 Y s 926 1092 m -8 Y s 930 1084 m -7 Y s 933 1077 m -4 Y s 937 1073 m -11 Y s
 941 1062 m -4 Y s 945 1058 m -8 Y s 949 1050 m -7 Y s 952 1043 m -4 Y s 956 1039 m -12 Y s 960 1027 m -3 Y s 964 1024 m -8 Y s 968 1016 m -12 Y s 971 1004 m -7 Y s 975 997 m -12 Y s 979 985 m -7 Y s 983 978 m -4 Y s 987 970 m -4 Y s 990 966 m -15 Y
 s 994 951 m -7 Y s 998 944 m -8 Y s 1002 936 m -4 Y s 1006 932 m -11 Y s 1009 921 m -12 Y s 1013 909 m -11 Y s 1017 898 m -8 Y s 1021 890 m -11 Y s 1025 879 m -11 Y s 1028 868 m -8 Y s 1032 860 m -8 Y s 1036 852 m -7 Y s 1040 845 m -8 Y s 1044 837 m
 -11 Y s 1047 826 m -8 Y s 1051 818 m -8 Y s 1055 810 m -7 Y s 1059 803 m -8 Y s 1063 795 m -7 Y s 1067 788 m -12 Y s 1070 776 m -7 Y s 1074 769 m -8 Y s 1078 761 m -11 Y s 1082 750 m -12 Y s 1086 738 m -11 Y s 1089 727 m -12 Y s 1093 715 m -11 Y s
 1097 704 m -8 Y s 1101 696 m -11 Y s 1105 685 m -12 Y s 1108 673 m -11 Y s 1112 662 m -11 Y s 1116 651 m -12 Y s 1120 639 m -7 Y s 1124 632 m -4 Y s 1127 628 m -8 Y s 1131 620 m -7 Y s 1135 613 m -8 Y s 1139 605 m -11 Y s 1143 594 m -8 Y s 1146 586
 m -8 Y s 1150 578 m -7 Y s 1154 571 m -8 Y s 1158 559 m -7 Y s 1162 552 m -8 Y s 1165 544 m -8 Y s 1169 536 m -7 Y s 1173 529 m -8 Y s 1177 521 m -4 Y s 1181 517 m -7 Y s 1184 510 m -4 Y s 1188 502 m -7 Y s 1192 495 m -4 Y s 1196 491 m -8 Y s 1200
 479 m -3 Y s 1203 472 m -4 Y s 1207 468 m -8 Y s 1211 460 m -3 Y s 1215 457 m -8 Y s 1219 449 m -4 Y s 1223 445 m -4 Y s 1226 441 m -7 Y s 1230 434 m -8 Y s 1234 426 m -7 Y s 1238 419 m -8 Y s 1242 411 m -4 Y s 1245 407 m -4 Y s 1249 403 m -3 Y s
 1253 400 m -4 Y s 1257 396 m -4 Y s 1261 392 m -4 Y s 1264 388 m -4 Y s 1268 384 m -4 Y s 1272 380 m -3 Y s 1276 377 m -4 Y s 1280 373 m -4 Y s 1283 369 m -4 Y s 1287 365 m cl s 1291 365 m -4 Y s 1295 358 m cl s 1299 354 m cl s 1302 354 m -4 Y s
 1306 350 m -4 Y s 1310 346 m -4 Y s 1314 342 m -3 Y s 1318 339 m -4 Y s 1321 335 m cl s 1325 335 m cl s 1329 335 m -4 Y s 1333 331 m cl s 1337 331 m -4 Y s 1340 327 m -11 Y s 1344 316 m -4 Y s 1348 312 m -4 Y s 1352 308 m cl s 1356 308 m -4 Y s 1359
 304 m cl s 1363 304 m cl s 1367 304 m -3 Y s 1371 301 m cl s 1375 301 m -4 Y s 1379 297 m -4 Y s 1382 293 m -4 Y s 1386 289 m -4 Y s 1390 285 m -3 Y s 1394 282 m cl s 1398 282 m -4 Y s 1401 278 m cl s 1405 278 m -4 Y s 1409 274 m cl s 1413 274 m cl
 s 1417 274 m -4 Y s 1420 270 m cl s 1424 270 m -7 Y s 1428 263 m cl s 1432 263 m -4 Y s 1436 259 m -4 Y s 1439 255 m -4 Y s 1443 251 m cl s 1447 251 m cl s 1451 251 m cl s 1455 251 m -4 Y s 1458 247 m cl s 1462 247 m cl s 1466 247 m cl s 1470 247 m
 cl s 1474 247 m -3 Y s 1477 244 m cl s 1481 244 m cl s 1485 244 m cl s 1489 244 m cl s 1493 244 m cl s 1496 244 m -4 Y s 1500 240 m cl s 1504 240 m -4 Y s 1508 236 m cl s 1512 236 m cl s 1515 236 m cl s 1519 236 m -4 Y s 1523 232 m cl s 1527 232 m
 -4 Y s 1531 228 m cl s 1535 228 m cl s 1538 228 m cl s 1542 228 m -4 Y s 1546 224 m cl s 1550 224 m cl s 1554 224 m cl s 1557 224 m cl s 1561 221 m cl s 1565 221 m cl s 1569 221 m -4 Y s 1573 217 m cl s 1576 217 m cl s 1580 217 m -4 Y s 1584 213 m
 cl s 1588 213 m cl s 1592 213 m cl s 1595 213 m cl s 1599 213 m -4 Y s 1603 209 m cl s 1607 209 m cl s 1611 209 m cl s 1614 209 m cl s 1618 209 m cl s 1622 209 m cl s 1626 209 m cl s 1630 209 m cl s 1633 209 m cl s 1637 209 m cl s 1641 209 m cl s
 1645 209 m cl s 1649 209 m cl s 1652 209 m cl s 1656 209 m cl s 1660 209 m cl s 1664 209 m cl s 1668 209 m cl s 1671 209 m cl s 1675 209 m cl s 1679 209 m cl s 1683 209 m cl s 1687 209 m cl s 1691 209 m cl s 1694 209 m cl s 1698 209 m cl s 1702 209
 m cl s 1706 209 m cl s 1710 209 m cl s 1713 209 m cl s 1717 209 m cl s 245 1244 m 3 X s 248 1244 m 339 X 4 -4 d 68 X 4 -3 d 38 X 4 -4 d 23 X 4 -4 d 26 X 4 -4 d 4 X 4 -4 d 11 X 4 -3 d 11 X 4 -4 d 4 -4 d 11 X 4 -4 d 4 -4 d 4 X 4 -3 d 3 X 4 -4 d 4 -4 d
 4 -4 d 4 X 3 -4 d 4 -3 d 4 -4 d 4 X 4 -4 d 3 -4 d 4 -4 d 4 -7 d 4 -4 d 4 -8 d 3 -4 d 4 -3 d 4 -4 d 4 -8 d 4 -7 d 4 -4 d 3 -8 d 4 -7 d 4 -4 d 4 -8 d 4 -7 d 3 -4 d 4 -8 d 4 -7 d 4 -8 d 4 -8 d 3 -3 d 4 -8 d 4 -8 d 4 -7 d 4 -8 d 3 -11 d 4 -8 d 4 -11 d 4
 -4 d 4 -8 d 3 -11 d 4 -12 d 4 -7 d 4 -4 d 4 -8 d 3 -11 d 4 -11 d 4 -12 d 4 -7 d 4 -12 d 3 -11 d 4 -8 d 4 -8 d 4 -7 d 4 -8 d 3 -11 d 4 -8 d 4 -7 d 4 -8 d 4 -8 d 4 -7 d 3 -12 d 4 -7 d 4 -8 d 4 -11 d 4 -12 d 3 -11 d 4 -11 d 4 -12 d 4 -8 d 4 -11 d 3 -11
 d 4 -12 d 4 -11 d 4 -12 d 4 -3 d 3 -8 d 4 -8 d 4 -7 d 4 -8 d 4 -11 d 3 -8 d 4 -7 d 4 -8 d 4 -11 d 4 -8 d 3 -8 d 4 -7 d 4 -8 d 4 -4 d 4 -7 d 3 -4 d 4 -12 d 4 -3 d 4 -8 d 4 -8 d 3 -7 d 4 -8 d 4 -4 d 4 -7 d 4 -4 d 4 -4 d 3 -7 d 4 -8 d 4 -8 d 4 -7 d 4
 -4 d 3 -4 d 4 -4 d 4 -3 d 4 -4 d 4 -4 d 3 -4 d 4 -4 d 4 -4 d 4 -3 d 4 -4 d 3 -4 d 4 -4 d 4 X 4 -7 d 4 -4 d 3 X 4 -4 d 4 -4 d 4 -4 d 4 -3 d 3 -4 d 8 X 4 -4 d 4 X 3 -8 d 4 -7 d 4 -4 d 4 -4 d 4 X 3 -4 d 8 X 4 -3 d 4 X 4 -4 d 3 -4 d 4 -4 d 4 -4 d 4 -3 d
 4 X 3 -4 d 4 X 4 -4 d 8 X 3 -4 d 4 -4 d 4 -3 d 4 X 4 -4 d 3 -4 d 4 -4 d 12 X 3 -4 d 16 X 3 -3 d 19 X 4 -4 d 4 X 4 -4 d 11 X 4 -4 d 4 X 4 -4 d 11 X 4 -4 d 11 X 4 -3 d 8 X 4 -4 d 7 X 4 -4 d 15 X 4 -4 d 114 X s 1 0 0 c black 1 0 0 c 248 1244 m cl s 252
 1244 m cl s 256 1244 m cl s 260 1244 m cl s 264 1244 m cl s 267 1244 m cl s 271 1244 m cl s 275 1244 m cl s 279 1244 m cl s 283 1244 m cl s 287 1244 m cl s 290 1244 m cl s 294 1244 m cl s 298 1244 m cl s 302 1244 m cl s 306 1244 m cl s 309 1244 m cl
 s 313 1244 m cl s 317 1244 m cl s 321 1244 m cl s 325 1244 m cl s 328 1244 m cl s 332 1244 m cl s 336 1244 m cl s 340 1244 m cl s 344 1244 m cl s 347 1244 m cl s 351 1244 m cl s 355 1244 m cl s 359 1244 m cl s 363 1244 m cl s 366 1244 m cl s 370
 1244 m cl s 374 1244 m cl s 378 1244 m cl s 382 1244 m cl s 385 1244 m cl s 389 1244 m cl s 393 1244 m cl s 397 1244 m cl s 401 1244 m cl s 404 1244 m cl s 408 1244 m cl s 412 1244 m cl s 416 1244 m cl s 420 1244 m cl s 423 1244 m cl s 427 1244 m cl
 s 431 1244 m cl s 435 1244 m cl s 439 1244 m cl s 443 1244 m cl s 446 1244 m cl s 450 1244 m cl s 454 1244 m cl s 458 1244 m cl s 462 1244 m -4 Y s 465 1240 m cl s 469 1240 m cl s 473 1240 m cl s 477 1240 m cl s 481 1240 m cl s 484 1240 m cl s 488
 1240 m cl s 492 1240 m cl s 496 1240 m cl s 500 1240 m cl s 503 1240 m cl s 507 1240 m cl s 511 1240 m cl s 515 1240 m cl s 519 1240 m cl s 522 1240 m cl s 526 1240 m -3 Y s 530 1237 m cl s 534 1237 m cl s 538 1237 m cl s 541 1237 m -4 Y s 545 1233
 m cl s 549 1233 m cl s 553 1233 m -4 Y s 557 1229 m -4 Y s 560 1225 m cl s 564 1225 m cl s 568 1225 m cl s 572 1225 m cl s 576 1225 m cl s 579 1225 m cl s 583 1225 m -4 Y s 587 1221 m cl s 591 1221 m -3 Y s 595 1218 m cl s 599 1218 m cl s 602 1218 m
 cl s 606 1218 m -4 Y s 610 1214 m cl s 614 1214 m -4 Y s 618 1210 m -4 Y s 621 1206 m -4 Y s 625 1202 m -3 Y s 629 1199 m -4 Y s 633 1195 m -4 Y s 637 1191 m cl s 640 1191 m -4 Y s 644 1187 m -4 Y s 648 1183 m -3 Y s 652 1176 m -4 Y s 656 1172 m cl
 s 659 1172 m -4 Y s 663 1168 m cl s 667 1168 m -4 Y s 671 1164 m -4 Y s 675 1160 m cl s 678 1160 m -3 Y s 682 1157 m -4 Y s 686 1153 m cl s 690 1149 m cl s 694 1149 m -8 Y s 697 1141 m -3 Y s 701 1138 m -4 Y s 705 1134 m -4 Y s 709 1130 m -4 Y s 713
 1126 m -4 Y s 716 1122 m -3 Y s 720 1119 m -8 Y s 724 1111 m cl s 728 1111 m -4 Y s 732 1103 m cl s 735 1100 m -4 Y s 739 1096 m -4 Y s 743 1092 m -4 Y s 747 1088 m -4 Y s 751 1084 m -3 Y s 755 1081 m -4 Y s 758 1077 m -8 Y s 762 1069 m -7 Y s 766
 1062 m -4 Y s 770 1058 m -8 Y s 774 1050 m -4 Y s 777 1046 m -11 Y s 781 1035 m -4 Y s 785 1031 m -7 Y s 789 1020 m -4 Y s 793 1012 m -4 Y s 796 1008 m -11 Y s 800 997 m -8 Y s 804 989 m -7 Y s 808 982 m -12 Y s 812 970 m -7 Y s 815 963 m -8 Y s 819
 955 m -8 Y s 823 947 m -15 Y s 827 932 m -4 Y s 831 928 m -7 Y s 834 917 m -8 Y s 838 909 m -11 Y s 842 898 m -8 Y s 846 890 m -7 Y s 850 883 m -4 Y s 853 875 m -11 Y s 857 864 m -8 Y s 861 856 m -8 Y s 865 848 m -7 Y s 869 837 m -4 Y s 872 833 m -7
 Y s 876 822 m -12 Y s 880 810 m -7 Y s 884 803 m -8 Y s 888 795 m -15 Y s 891 780 m -11 Y s 895 769 m -8 Y s 899 761 m -11 Y s 903 750 m -8 Y s 907 742 m -8 Y s 911 734 m -11 Y s 914 723 m -15 Y s 918 708 m -8 Y s 922 700 m -8 Y s 926 692 m -7 Y s
 930 685 m -8 Y s 933 673 m -15 Y s 937 658 m -15 Y s 941 643 m -8 Y s 945 635 m -11 Y s 949 624 m -8 Y s 952 616 m -11 Y s 956 605 m -8 Y s 960 597 m -11 Y s 964 586 m -8 Y s 968 578 m -11 Y s 971 567 m -8 Y s 975 559 m -7 Y s 979 552 m -8 Y s 983
 544 m -11 Y s 987 533 m -8 Y s 990 525 m -11 Y s 994 514 m -8 Y s 998 506 m -8 Y s 1002 498 m -15 Y s 1006 483 m -11 Y s 1009 472 m -12 Y s 1013 460 m -7 Y s 1017 449 m -4 Y s 1021 445 m -7 Y s 1025 438 m -8 Y s 1028 430 m -8 Y s 1032 422 m -7 Y s
 1036 415 m -4 Y s 1040 411 m -4 Y s 1044 407 m -4 Y s 1047 403 m -7 Y s 1051 396 m -4 Y s 1055 392 m -4 Y s 1059 388 m -8 Y s 1063 380 m -7 Y s 1067 373 m -4 Y s 1070 369 m -8 Y s 1074 361 m -7 Y s 1078 354 m -4 Y s 1082 350 m -8 Y s 1086 342 m -3 Y
 s 1089 339 m -8 Y s 1093 331 m -8 Y s 1097 323 m -3 Y s 1101 320 m -8 Y s 1105 312 m -4 Y s 1108 308 m -7 Y s 1112 301 m -4 Y s 1116 297 m -8 Y s 1120 289 m -4 Y s 1124 285 m cl s 1127 282 m cl s 1131 282 m -4 Y s 1135 278 m -4 Y s 1139 274 m -4 Y s
 1143 270 m cl s 1146 270 m -4 Y s 1150 266 m -3 Y s 1154 263 m -8 Y s 1158 255 m -4 Y s 1162 251 m -4 Y s 1165 247 m -3 Y s 1169 244 m -4 Y s 1173 240 m cl s 1177 240 m cl s 1181 240 m -4 Y s 1184 236 m cl s 1188 236 m -4 Y s 1192 228 m cl s 1196
 228 m cl s 1200 228 m cl s 1203 228 m -4 Y s 1207 224 m cl s 1211 224 m -3 Y s 1215 221 m cl s 1219 221 m cl s 1223 221 m -4 Y s 1226 217 m cl s 1230 217 m cl s 1234 217 m -4 Y s 1238 213 m cl s 1242 213 m cl s 1245 213 m cl s 1249 213 m cl s 1253
 213 m cl s 1257 213 m cl s 1261 213 m cl s 1264 213 m cl s 1268 213 m cl s 1272 213 m cl s 1276 213 m cl s 1280 213 m -4 Y s 1283 209 m cl s 1287 209 m cl s 1291 209 m cl s 1295 209 m cl s 1299 209 m cl s 1302 209 m cl s 1306 209 m cl s 1310 209 m
 cl s 1314 209 m cl s 1318 209 m cl s 245 1244 m 3 X s 248 1244 m 214 X 3 -4 d 61 X 4 -3 d 11 X 4 -4 d 8 X 4 -4 d 3 -4 d 23 X 4 -4 d 4 X 4 -3 d 11 X 4 -4 d 4 X 4 -4 d 3 -4 d 4 -4 d 4 -3 d 4 -4 d 4 -4 d 3 X 4 -4 d 4 -4 d 4 -7 d 4 -4 d 3 X 4 -4 d 4 X 4
 -4 d 4 -4 d 3 X 4 -3 d 4 -4 d 4 -4 d 4 -4 d 3 -4 d 4 -3 d 4 -4 d 4 -4 d 4 -4 d 3 -4 d 4 -7 d 4 -4 d 4 X 4 -8 d 3 -3 d 4 -4 d 4 -4 d 4 -4 d 4 -4 d 4 -3 d 3 -8 d 4 -8 d 4 -3 d 4 -8 d 4 -4 d 3 -7 d 4 -8 d 4 -8 d 4 -7 d 4 -8 d 3 -8 d 4 -11 d 4 -8 d 4 -7
 d 4 -12 d 3 -7 d 4 -8 d 4 -11 d 4 -8 d 4 -7 d 3 -12 d 4 -7 d 4 -12 d 4 -7 d 4 -4 d 3 -12 d 4 -11 d 4 -8 d 4 -7 d 4 -8 d 3 -8 d 4 -11 d 4 -11 d 4 -8 d 4 -11 d 3 -12 d 4 -11 d 4 -8 d 4 -11 d 4 -8 d 4 -7 d 3 -16 d 4 -11 d 4 -8 d 4 -7 d 4 -8 d 3 -15 d 4
 -15 d 4 -12 d 4 -7 d 4 -12 d 3 -7 d 4 -12 d 4 -7 d 4 -12 d 4 -7 d 3 -12 d 4 -7 d 4 -8 d 4 -8 d 4 -11 d 3 -8 d 4 -11 d 4 -8 d 4 -11 d 4 -12 d 3 -11 d 4 -11 d 4 -8 d 4 -8 d 4 -7 d 3 -8 d 4 -7 d 4 -4 d 4 -4 d 4 -4 d 3 -7 d 4 -4 d 4 -4 d 4 -8 d 4 -7 d 4
 -4 d 3 -8 d 4 -7 d 4 -4 d 4 -8 d 4 -4 d 3 -7 d 4 -8 d 4 -4 d 4 -7 d 4 -4 d 3 -8 d 4 -3 d 4 -8 d 4 -4 d 4 -4 d 3 -3 d 4 X 4 -4 d 4 -4 d 4 -4 d 3 X 4 -4 d 4 -7 d 4 -4 d 4 -4 d 3 -4 d 4 -3 d 4 -4 d 8 X 3 -4 d 4 X 4 -8 d 11 X 4 -4 d 4 X 4 -3 d 8 X 3 -4
 d 8 X 4 -4 d 42 X 3 -4 d 35 X s 0 0.666667 0 c 1 1 1 c black 0 0.666667 0 c 248 1183 m cl s 252 1183 m cl s 256 1183 m cl s 260 1183 m cl s 264 1183 m cl s 267 1183 m cl s 271 1183 m cl s 275 1183 m cl s 279 1183 m cl s 283 1183 m cl s 287 1183 m cl
 s 290 1183 m cl s 294 1183 m cl s 298 1183 m cl s 302 1183 m cl s 306 1183 m cl s 309 1183 m cl s 313 1183 m cl s 317 1183 m cl s 321 1183 m cl s 325 1183 m cl s 328 1183 m cl s 332 1183 m cl s 336 1183 m cl s 340 1183 m cl s 344 1183 m cl s 347
 1183 m cl s 351 1183 m cl s 355 1183 m cl s 359 1183 m cl s 363 1183 m cl s 366 1183 m cl s 370 1183 m cl s 374 1183 m cl s 378 1183 m cl s 382 1183 m cl s 385 1183 m cl s 389 1183 m cl s 393 1183 m cl s 397 1183 m cl s 401 1183 m cl s 404 1183 m cl
 s 408 1183 m cl s 412 1183 m cl s 416 1183 m cl s 420 1183 m cl s 423 1183 m cl s 427 1183 m cl s 431 1183 m cl s 435 1183 m cl s 439 1183 m cl s 443 1183 m cl s 446 1183 m cl s 450 1183 m cl s 454 1183 m cl s 458 1183 m cl s 462 1183 m cl s 465
 1183 m cl s 469 1183 m cl s 473 1183 m cl s 477 1183 m cl s 481 1183 m cl s 484 1183 m cl s 488 1183 m cl s 492 1183 m cl s 496 1183 m cl s 500 1183 m cl s 503 1183 m cl s 507 1183 m cl s 511 1183 m cl s 515 1183 m cl s 519 1183 m cl s 522 1183 m cl
 s 526 1183 m cl s 530 1183 m cl s 534 1183 m cl s 538 1187 m -4 Y s 541 1187 m cl s 545 1187 m cl s 549 1187 m cl s 553 1187 m cl s 557 1187 m cl s 560 1187 m cl s 564 1187 m cl s 568 1187 m cl s 572 1187 m cl s 576 1187 m cl s 579 1187 m cl s 583
 1187 m cl s 587 1187 m cl s 591 1187 m cl s 595 1187 m cl s 599 1191 m -4 Y s 602 1191 m cl s 606 1191 m cl s 610 1191 m cl s 614 1191 m cl s 618 1191 m cl s 621 1191 m cl s 625 1191 m cl s 629 1195 m -4 Y s 633 1195 m cl s 637 1195 m cl s 640 1195
 m cl s 644 1195 m cl s 648 1199 m -4 Y s 652 1199 m cl s 656 1199 m cl s 659 1199 m cl s 663 1199 m cl s 667 1199 m cl s 671 1199 m cl s 675 1199 m cl s 678 1199 m cl s 682 1199 m cl s 686 1202 m -3 Y s 690 1202 m cl s 694 1202 m cl s 697 1206 m -4
 Y s 701 1206 m -4 Y s 705 1206 m -4 Y s 709 1206 m cl s 713 1206 m cl s 716 1206 m cl s 720 1210 m -4 Y s 724 1210 m cl s 728 1210 m cl s 732 1210 m cl s 735 1210 m cl s 739 1214 m -4 Y s 743 1214 m cl s 747 1214 m cl s 751 1214 m cl s 755 1214 m cl
 s 758 1218 m -4 Y s 762 1218 m -4 Y s 766 1218 m -4 Y s 770 1218 m cl s 774 1221 m -3 Y s 777 1221 m cl s 781 1221 m cl s 785 1221 m cl s 789 1225 m -4 Y s 793 1225 m cl s 796 1229 m -4 Y s 800 1229 m -4 Y s 804 1229 m -4 Y s 808 1233 m -4 Y s 812
 1233 m cl s 815 1233 m cl s 819 1237 m -4 Y s 823 1237 m -4 Y s 827 1237 m cl s 831 1237 m cl s 834 1237 m cl s 838 1240 m -3 Y s 842 1240 m cl s 846 1240 m cl s 850 1240 m cl s 853 1244 m -4 Y s 857 1240 m cl s 861 1244 m -4 Y s 865 1240 m cl s 869
 1244 m -4 Y s 872 1244 m -4 Y s 876 1244 m -4 Y s 880 1240 m cl s 884 1240 m cl s 888 1240 m cl s 891 1240 m cl s 895 1240 m cl s 899 1240 m cl s 903 1240 m cl s 907 1240 m -3 Y s 911 1237 m cl s 914 1237 m cl s 918 1237 m -4 Y s 922 1237 m -4 Y s
 926 1233 m -4 Y s 930 1229 m cl s 933 1233 m -8 Y s 937 1233 m -4 Y s 941 1229 m -4 Y s 945 1229 m -4 Y s 949 1225 m -4 Y s 952 1225 m -4 Y s 956 1225 m -4 Y s 960 1221 m cl s 964 1221 m -3 Y s 968 1218 m -4 Y s 971 1214 m -4 Y s 975 1210 m -4 Y s
 979 1202 m cl s 983 1202 m -3 Y s 987 1202 m -3 Y s 990 1199 m -8 Y s 994 1191 m -4 Y s 998 1191 m -4 Y s 1002 1187 m cl s 1006 1187 m cl s 1009 1187 m -7 Y s 1013 1180 m -4 Y s 1017 1180 m -4 Y s 1021 1176 m -8 Y s 1025 1168 m -8 Y s 1028 1160 m -3
 Y s 1032 1157 m -4 Y s 1036 1157 m -8 Y s 1040 1153 m -8 Y s 1044 1145 m -7 Y s 1047 1138 m -4 Y s 1051 1134 m -4 Y s 1055 1130 m -4 Y s 1059 1122 m cl s 1063 1122 m -3 Y s 1067 1115 m -4 Y s 1070 1111 m -4 Y s 1074 1107 m -4 Y s 1078 1103 m -7 Y s
 1082 1096 m -8 Y s 1086 1088 m -7 Y s 1089 1081 m -8 Y s 1093 1073 m -8 Y s 1097 1065 m -3 Y s 1101 1062 m -8 Y s 1105 1054 m -4 Y s 1108 1050 m -11 Y s 1112 1039 m -8 Y s 1116 1031 m -7 Y s 1120 1024 m -4 Y s 1124 1020 m -4 Y s 1127 1016 m -8 Y s
 1131 1008 m -4 Y s 1135 1004 m -7 Y s 1139 997 m -12 Y s 1143 989 m -11 Y s 1146 978 m -4 Y s 1150 974 m -8 Y s 1154 966 m -3 Y s 1158 963 m -4 Y s 1162 959 m -8 Y s 1165 951 m -7 Y s 1169 944 m -8 Y s 1173 936 m -8 Y s 1177 928 m -3 Y s 1181 925 m
 -8 Y s 1184 917 m -4 Y s 1188 913 m -7 Y s 1192 906 m -4 Y s 1196 902 m -12 Y s 1200 890 m -7 Y s 1203 883 m -8 Y s 1207 875 m -7 Y s 1211 868 m -4 Y s 1215 864 m -12 Y s 1219 852 m -4 Y s 1223 852 m -4 Y s 1226 848 m -11 Y s 1230 837 m -8 Y s 1234
 829 m -7 Y s 1238 818 m -8 Y s 1242 810 m -3 Y s 1245 807 m -4 Y s 1249 803 m -12 Y s 1253 791 m -7 Y s 1257 784 m -4 Y s 1261 780 m -4 Y s 1264 776 m -4 Y s 1268 772 m -7 Y s 1272 765 m -8 Y s 1276 757 m -7 Y s 1280 750 m -8 Y s 1283 742 m cl s
 1287 738 m cl s 1291 734 m -3 Y s 1295 727 m -4 Y s 1299 723 m -8 Y s 1302 715 m -3 Y s 1306 712 m -4 Y s 1310 708 m -4 Y s 1314 704 m -8 Y s 1318 700 m -8 Y s 1321 692 m cl s 1325 692 m -3 Y s 1329 689 m -8 Y s 1333 681 m -4 Y s 1337 677 m -4 Y s
 1340 673 m -19 Y s 1344 654 m -7 Y s 1348 643 m -4 Y s 1352 639 m -4 Y s 1356 635 m -3 Y s 1359 632 m -4 Y s 1363 628 m cl s 1367 628 m -8 Y s 1371 620 m -4 Y s 1375 616 m -7 Y s 1379 609 m -4 Y s 1382 601 m -7 Y s 1386 594 m -8 Y s 1390 586 m -8 Y
 s 1394 578 m cl s 1398 578 m -7 Y s 1401 571 m -4 Y s 1405 567 m -4 Y s 1409 563 m -4 Y s 1413 556 m cl s 1417 556 m -8 Y s 1420 548 m -4 Y s 1424 544 m -11 Y s 1428 533 m -8 Y s 1432 525 m -4 Y s 1436 521 m -11 Y s 1439 510 m -15 Y s 1443 495 m -4
 Y s 1447 491 m cl s 1451 491 m cl s 1455 491 m -4 Y s 1458 487 m cl s 1462 487 m -4 Y s 1466 483 m cl s 1470 483 m cl s 1474 483 m -7 Y s 1477 476 m -4 Y s 1481 472 m cl s 1485 472 m cl s 1489 472 m -4 Y s 1493 472 m -4 Y s 1496 468 m cl s 1500 464
 m -4 Y s 1504 460 m -7 Y s 1508 453 m -8 Y s 1512 445 m cl s 1515 445 m -4 Y s 1519 441 m -3 Y s 1523 438 m -8 Y s 1527 430 m -8 Y s 1531 422 m -3 Y s 1535 419 m -4 Y s 1538 415 m -4 Y s 1542 407 m -4 Y s 1546 403 m cl s 1550 403 m -3 Y s 1554 400 m
 -8 Y s 1557 392 m cl s 1561 388 m -8 Y s 1565 380 m -7 Y s 1569 373 m -8 Y s 1573 358 m -4 Y s 1576 354 m cl s 1580 354 m -8 Y s 1584 346 m -7 Y s 1588 339 m cl s 1592 339 m cl s 1595 339 m -4 Y s 1599 335 m -15 Y s 1603 320 m cl s 1607 320 m -4 Y s
 1611 316 m cl s 1614 316 m -8 Y s 1618 308 m cl s 1622 308 m cl s 1626 308 m -4 Y s 1630 304 m cl s 1633 304 m cl s 1637 304 m cl s 1641 304 m cl s 1645 304 m cl s 1649 304 m cl s 1652 304 m -3 Y s 1656 301 m cl s 1660 301 m cl s 1664 301 m -4 Y s
 1668 297 m cl s 1671 297 m -4 Y s 1675 293 m cl s 1679 293 m cl s 1683 293 m cl s 1687 293 m cl s 1691 293 m -4 Y s 1694 289 m cl s 1698 289 m cl s 1702 289 m cl s 1706 289 m cl s 1710 289 m -4 Y s 1713 285 m cl s 1717 285 m cl s 1721 285 m cl s
 1725 285 m cl s 1729 285 m cl s 1732 285 m cl s 1736 285 m cl s 1740 285 m cl s 1744 285 m cl s 1748 285 m -3 Y s 1751 282 m -8 Y s 1755 274 m -11 Y s 1759 263 m cl s 1763 263 m cl s 1767 263 m cl s 1770 263 m cl s 1774 263 m cl s 1778 263 m cl s
 1782 263 m cl s 1786 263 m cl s 1789 263 m cl s 1793 263 m cl s 1797 263 m cl s 1801 263 m cl s 1805 263 m cl s 1808 263 m cl s 1812 263 m cl s 1816 263 m cl s 1820 263 m cl s 1824 263 m cl s 1827 263 m cl s 1831 263 m cl s 1835 263 m cl s 1839 263
 m cl s 1843 263 m cl s 1847 263 m cl s 1850 263 m cl s 1854 263 m cl s 1858 263 m cl s 1862 263 m cl s 1866 263 m cl s 1869 263 m cl s 1873 263 m cl s 1877 263 m cl s 1881 263 m cl s 1885 263 m cl s 1888 263 m cl s 1892 263 m cl s 1896 263 m cl s
 1900 263 m cl s 1904 263 m cl s 1907 263 m cl s 1911 263 m cl s 1915 263 m -4 Y s 1919 259 m cl s 1923 259 m cl s 1926 259 m cl s 1930 259 m cl s 1934 259 m cl s 1938 259 m cl s 1942 259 m cl s 1945 259 m cl s 1949 259 m cl s 1953 259 m cl s 1957
 259 m -4 Y s 1961 255 m -11 Y s 1964 244 m cl s 1968 244 m cl s 1972 244 m cl s 1976 244 m cl s 1980 244 m cl s 1983 244 m cl s 1987 244 m cl s 1991 244 m cl s 1995 244 m cl s 1999 244 m cl s 2003 244 m -4 Y s 2006 240 m cl s 2010 240 m cl s 2014
 240 m cl s 2018 240 m cl s 2022 240 m cl s 2025 240 m cl s 2029 240 m cl s 2033 240 m cl s 2037 240 m cl s 2041 240 m cl s 245 1183 m 3 X s 248 1183 m 286 X 4 4 d 57 X 4 4 d 26 X 4 4 d 15 X 4 4 d 34 X 4 3 d 8 X 3 4 d 19 X 4 4 d 15 X 4 4 d 16 X 3 4 d
 12 X 4 3 d 11 X 4 4 d 4 X 3 4 d 8 X 4 4 d 7 X 4 4 d 15 X 4 3 d 12 X 3 4 d 4 -4 d 4 4 d 4 -4 d 4 4 d 7 X 4 -4 d 27 X 4 -3 d 11 X 4 -4 d 4 -4 d 3 X 4 4 d 4 -4 d 4 X 4 -4 d 7 X 4 -4 d 4 X 4 -3 d 3 -4 d 4 -4 d 4 -8 d 8 X 3 -7 d 4 -4 d 4 X 4 -4 d 4 X 3
 -4 d 4 -3 d 4 X 4 -8 d 4 -8 d 3 -4 d 4 -3 d 4 -4 d 4 -4 d 4 -8 d 3 -3 d 4 -4 d 4 -4 d 4 -8 d 4 X 4 -7 d 3 -4 d 4 -4 d 4 -7 d 4 -8 d 4 -8 d 3 -7 d 4 -8 d 4 -4 d 4 -7 d 4 -4 d 3 -8 d 4 -11 d 4 -8 d 4 -3 d 4 -4 d 3 -8 d 4 -4 d 4 -7 d 4 -8 d 4 -8 d 3 -7
 d 4 -8 d 4 -4 d 4 -3 d 4 -8 d 3 -8 d 4 -7 d 4 -8 d 4 -4 d 4 -7 d 3 -4 d 4 -8 d 4 -3 d 4 -8 d 4 -11 d 3 -8 d 4 -8 d 4 -3 d 4 -8 d 4 -8 d 4 X 3 -7 d 4 -12 d 4 -7 d 4 -12 d 4 -4 d 3 -3 d 4 -8 d 4 -11 d 4 -4 d 4 -4 d 3 -4 d 4 -7 d 4 -8 d 4 -8 d 4 -7 d 3
 -4 d 4 -4 d 4 -4 d 4 -7 d 4 -8 d 3 -4 d 4 -3 d 4 -4 d 4 -8 d 4 -4 d 3 -4 d 4 X 4 -7 d 4 -4 d 4 -4 d 3 -11 d 4 -15 d 4 -8 d 4 -4 d 4 -4 d 3 -3 d 4 -4 d 4 -4 d 4 -4 d 4 -7 d 4 -4 d 3 -12 d 4 -7 d 4 -8 d 4 -4 d 4 -3 d 3 -4 d 4 -4 d 4 -4 d 4 -7 d 4 -4 d
 3 -4 d 4 -8 d 4 -11 d 4 -4 d 4 -8 d 3 -15 d 4 -7 d 4 -4 d 8 X 3 -4 d 4 X 4 -4 d 4 X 4 -4 d 3 -3 d 4 -4 d 12 X 3 -4 d 4 -4 d 4 -7 d 4 -8 d 4 -4 d 3 X 4 -4 d 4 -7 d 4 -8 d 4 -4 d 4 -3 d 3 -4 d 4 -8 d 4 -4 d 4 X 4 -7 d 3 -4 d 4 -8 d 4 -7 d 4 -8 d 4 -11
 d 3 -4 d 4 -4 d 4 -8 d 4 -3 d 7 X 4 -12 d 4 -7 d 4 X 4 -4 d 3 -4 d 4 -4 d 8 X 4 -4 d 22 X 4 -3 d 8 X 4 -4 d 3 X 4 -4 d 16 X 3 -4 d 16 X 3 -4 d 35 X 3 -7 d 4 -8 d 4 -7 d 156 X 4 -4 d 38 X 4 -8 d 3 -7 d 39 X 3 -4 d 35 X s black 3 lw 245 202 m 1796 X s
 289 242 m -40 Y s 328 222 m -20 Y s 367 222 m -20 Y s 406 222 m -20 Y s 445 242 m -40 Y s 485 222 m -20 Y s 524 222 m -20 Y s 563 222 m -20 Y s 602 242 m -40 Y s 641 222 m -20 Y s 680 222 m -20 Y s 719 222 m -20 Y s 758 242 m -40 Y s 797 222 m -20 Y
 s 836 222 m -20 Y s 875 222 m -20 Y s 914 242 m -40 Y s 953 222 m -20 Y s 992 222 m -20 Y s 1031 222 m -20 Y s 1070 242 m -40 Y s 1109 222 m -20 Y s 1148 222 m -20 Y s 1187 222 m -20 Y s 1226 242 m -40 Y s 1265 222 m -20 Y s 1304 222 m -20 Y s 1343
 222 m -20 Y s 1382 242 m -40 Y s 1421 222 m -20 Y s 1460 222 m -20 Y s 1499 222 m -20 Y s 1538 242 m -40 Y s 1577 222 m -20 Y s 1616 222 m -20 Y s 1656 222 m -20 Y s 1695 242 m -40 Y s 1734 222 m -20 Y s 1773 222 m -20 Y s 1812 222 m -20 Y s 1851
 242 m -40 Y s 1890 222 m -20 Y s 1929 222 m -20 Y s 1968 222 m -20 Y s 2007 242 m -40 Y s 289 242 m -40 Y s 250 222 m -20 Y s 2007 242 m -40 Y s 245 202 m 1143 Y s 291 202 m -46 X s 268 254 m -23 X s 268 306 m -23 X s 268 358 m -23 X s 291 410 m -46
 X s 268 462 m -23 X s 268 514 m -23 X s 268 566 m -23 X s 291 618 m -46 X s 268 670 m -23 X s 268 722 m -23 X s 268 774 m -23 X s 291 826 m -46 X s 268 878 m -23 X s 268 930 m -23 X s 268 982 m -23 X s 291 1034 m -46 X s 268 1086 m -23 X s 268 1137
 m -23 X s 268 1189 m -23 X s 291 1241 m -46 X s 291 1241 m -46 X s 268 1293 m -23 X s 268 1345 m -23 X s 0.490196 0.545098 0.615686 c 0.95 0.95 0.95 c 0.490196 0.545098 0.615686 c 907 202 245 1345 bl 245 1345 m 907 X s 1152 1345 m 202 Y s 1152 1547
 m -907 X s 245 1547 m -202 Y s black
 gsave  2268 1682 0 0 C 517.039 1473.94 t 0 r /Times-Italic findfont 57.0734 sf 0 0 m (Signal efficiency) show NC gr  0 0 0.933333 c 9 lw 286 1497 m 190 X s black
 gsave  2268 1682 0 0 C 517.039 1373.03 t 0 r /Times-Italic findfont 57.0734 sf 0 0 m (Background efficiency) show NC gr  1 0 0 c 286 1396 m 190 X s 0.490196 0.545098 0.615686 c 3 lw 0.95 0.95 0.95 c 0.490196 0.545098 0.615686 c 889 202 1152 1345 bl
 1152 1345 m 889 X s 2041 1345 m 202 Y s 2041 1547 m -889 X s 1152 1547 m -202 Y s black
 gsave  2268 1682 0 0 C 1418.68 1490.76 t 0 r /Times-Italic findfont 57.0734 sf 0 0 m (Signal purity) show NC gr  0 0 0.933333 c[  52 12 ] 0 sd 6 lw 1192 1514 m 187 X s black
 gsave  2268 1682 0 0 C 1418.68 1423.49 t 0 r /Times-Italic findfont 57.0734 sf 0 0 m (Signal efficiency*purity) show NC gr  0 0 0.933333 c[  22 12 ] 0 sd 1192 1446 m 187 X s black
 gsave  2268 1682 0 0 C 1418.68 1356.22 t 0 r /Times-Italic findfont 57.0734 sf 0 0 m (S/#sqrt{S+B}) show NC gr  0 0.666667 0 c[  ] 0 sd 9 lw 1192 1379 m 187 X s black 3 lw 245 1241 m 1796 X s
 gsave  2268 1682 0 0 C 338.636 388.099 t 0 r /Helvetica-Bold findfont 53.2685 sf 0 0 m (For 1000 signal and 1000 background) show NC gr 
 gsave  2268 1682 0 0 C 1061.57 319.611 t 0 r /Helvetica-Bold findfont 53.2685 sf 0 0 m ( is) show NC gr 
 gsave  2268 1682 0 0 C 958.833 319.611 t 0 r /Helvetica-Bold findfont 53.2685 sf 0 0 m (S+B) show NC gr  6 lw 936 361 m 8 -45 d s 0 lw 944 316 m 7 61 d s 951 377 m 111 X s
 gsave  2268 1682 0 0 C 338.636 319.611 t 0 r /Helvetica-Bold findfont 53.2685 sf 0 0 m (events the maximum S/) show NC gr 
 gsave  2268 1682 0 0 C 338.636 254.928 t 0 r /Helvetica-Bold findfont 53.2685 sf 0 0 m (23.71 when cutting at  0.35) show NC gr  0.490196 0.545098 0.615686 c 3 lw 0.364706 0.419608 0.490196 c 1476 96 23 1577 bf 0.490196 0.545098 0.615686 c 23 1577 m
 1476 X s 1499 1577 m 96 Y s 1499 1673 m -1476 X s 23 1673 m -96 Y s 1 1 1 c black 1 1 1 c
 gsave  2268 1682 0 0 C 76.0979 1605.67 t 0 r /Helvetica-Bold findfont 76.0979 sf 0 0 m (Cut efficiencies and optimal cut value) show NC gr  0 0.666667 0 c 2041 202 m 1143 Y s black 0 0.666667 0 c
 gsave  2268 1682 0 0 C 2203.03 966.443 t 90 r /Helvetica-Bold findfont 64.6832 sf 0 0 m (Significance) show NC gr  1995 202 m 46 X s 2018 246 m 23 X s 2018 289 m 23 X s 2018 333 m 23 X s 2018 377 m 23 X s 1995 421 m 46 X s 2018 465 m 23 X s 2018 509
 m 23 X s 2018 553 m 23 X s 2018 596 m 23 X s 1995 640 m 46 X s 2018 684 m 23 X s 2018 728 m 23 X s 2018 772 m 23 X s 2018 816 m 23 X s 1995 859 m 46 X s 2018 903 m 23 X s 2018 947 m 23 X s 2018 991 m 23 X s 2018 1035 m 23 X s 1995 1079 m 46 X s 2018
 1123 m 23 X s 2018 1166 m 23 X s 2018 1210 m 23 X s 2018 1254 m 23 X s 1995 1298 m 46 X s 1995 1298 m 46 X s 2018 1342 m 23 X s black 0 0.666667 0 c
 gsave  2268 1682 0 0 C 2050.84 178.83 t 0 r /Helvetica-Bold findfont 64.6832 sf 0 0 m (0) show NC gr  black 0 0.666667 0 c
 gsave  2268 1682 0 0 C 2050.84 395.709 t 0 r /Helvetica-Bold findfont 64.6832 sf 0 0 m (5) show NC gr  black 0 0.666667 0 c
 gsave  2268 1682 0 0 C 2050.84 616.393 t 0 r /Helvetica-Bold findfont 64.6832 sf 0 0 m (10) show NC gr  black 0 0.666667 0 c
 gsave  2268 1682 0 0 C 2050.84 833.272 t 0 r /Helvetica-Bold findfont 64.6832 sf 0 0 m (15) show NC gr  black 0 0.666667 0 c
 gsave  2268 1682 0 0 C 2050.84 1053.96 t 0 r /Helvetica-Bold findfont 64.6832 sf 0 0 m (20) show NC gr  black 0 0.666667 0 c
 gsave  2268 1682 0 0 C 2050.84 1274.64 t 0 r /Helvetica-Bold findfont 64.6832 sf 0 0 m (25) show NC gr 
 gr  gr showpage
end
%%EOF
