%!PS-Adobe-2.0 EPSF-2.0
%%BoundingBox:  0 0 567 420
%%Title: plots/mvaeffs_MLPBNN.eps: Cut efficiencies for MLPBNN classifier
%%Creator: ROOT Version 5.34/09
%%CreationDate: Thu Jan  2 18:35:58 2014
%%EndComments
%%BeginProlog
80 dict begin
/s {stroke} def /l {lineto} def /m {moveto} def /t {translate} def
/r {rotate} def /rl {roll}  def /R {repeat} def
/d {rlineto} def /rm {rmoveto} def /gr {grestore} def /f {eofill} def
/c {setrgbcolor} def /black {0 setgray} def /sd {setdash} def
/cl {closepath} def /sf {scalefont setfont} def /lw {setlinewidth} def
/box {m dup 0 exch d exch 0 d 0 exch neg d cl} def
/NC{systemdict begin initclip end}def/C{NC box clip newpath}def
/bl {box s} def /bf {box f} def /Y { 0 exch d} def /X { 0 d} def 
/K {{pop pop 0 moveto} exch kshow} bind def
/ita {/ang 15 def gsave [1 0 ang dup sin exch cos div 1 0 0] concat} def 
/mp {newpath /y exch def /x exch def} def
/side {[w .77 mul w .23 mul] .385 w mul sd w 0 l currentpoint t -144 r} def
/mr {mp x y w2 0 360 arc} def /m24 {mr s} def /m20 {mr f} def
/mb {mp x y w2 add m w2 neg 0 d 0 w neg d w 0 d 0 w d cl} def
/mt {mp x y w2 add m w2 neg w neg d w 0 d cl} def
/m21 {mb f} def /m25 {mb s} def /m22 {mt f} def /m26{mt s} def
/m23 {mp x y w2 sub m w2 w d w neg 0 d cl f} def
/m27 {mp x y w2 add m w3 neg w2 neg d w3 w2 neg d w3 w2 d cl s} def
/m28 {mp x w2 sub y w2 sub w3 add m w3 0 d  0 w3 neg d w3 0 d 0 w3 d w3 0 d  0 w3 d w3 neg 0 d 0 w3 d w3 neg 0 d 0 w3 neg d w3 neg 0 d cl s } def
/m29 {mp gsave x w2 sub y w2 add w3 sub m currentpoint t 4 {side} repeat cl fill gr} def
/m30 {mp gsave x w2 sub y w2 add w3 sub m currentpoint t 4 {side} repeat cl s gr} def
/m31 {mp x y w2 sub m 0 w d x w2 sub y m w 0 d x w2 sub y w2 add m w w neg d x w2 sub y w2 sub m w w d s} def
/m32 {mp x y w2 sub m w2 w d w neg 0 d cl s} def
/m33 {mp x y w2 add m w3 neg w2 neg d w3 w2 neg d w3 w2 d cl f} def
/m34 {mp x w2 sub y w2 sub w3 add m w3 0 d  0 w3 neg d w3 0 d 0 w3 d w3 0 d  0 w3 d w3 neg 0 d 0 w3 d w3 neg 0 d 0 w3 neg d w3 neg 0 d cl f } def
/m2 {mp x y w2 sub m 0 w d x w2 sub y m w 0 d s} def
/m5 {mp x w2 sub y w2 sub m w w d x w2 sub y w2 add m w w neg d s} def
/reEncode {exch findfont dup length dict begin {1 index /FID eq  {pop pop} {def} ifelse } forall /Encoding exch def currentdict end dup /FontName get exch definefont pop } def [/Times-Bold /Times-Italic /Times-BoldItalic /Helvetica /Helvetica-Oblique
 /Helvetica-Bold /Helvetica-BoldOblique /Courier /Courier-Oblique /Courier-Bold /Courier-BoldOblique /Times-Roman /AvantGarde-Book /AvantGarde-BookOblique /AvantGarde-Demi /AvantGarde-DemiOblique /Bookman-Demi /Bookman-DemiItalic /Bookman-Light
 /Bookman-LightItalic /Helvetica-Narrow /Helvetica-Narrow-Bold /Helvetica-Narrow-BoldOblique /Helvetica-Narrow-Oblique /NewCenturySchlbk-Roman /NewCenturySchlbk-Bold /NewCenturySchlbk-BoldItalic /NewCenturySchlbk-Italic /Palatino-Bold
 /Palatino-BoldItalic /Palatino-Italic /Palatino-Roman ] {ISOLatin1Encoding reEncode } forall
%%EndProlog
%%BeginSetup
%%EndSetup
newpath  gsave  .25 .25 scale  gsave  0 0 t 0.490196 0.545098 0.615686 c[  ] 0 sd 3 lw 0.941176 0.941176 0.941176 c 2268 1682 0 0 bf black 1 1 0.992157 c 1796 1143 245 202 bf black 1796 1143 245 202 bl 1 1 0.992157 c 1796 1143 245 202 bf black 1796
 1143 245 202 bl 245 202 m 1796 X s[ 4 8] 0 sd 280 1345 m -1143 Y s 492 1345 m -1143 Y s 704 1345 m -1143 Y s 916 1345 m -1143 Y s 1128 1345 m -1143 Y s 1340 1345 m -1143 Y s 1552 1345 m -1143 Y s 1764 1345 m -1143 Y s 1976 1345 m -1143 Y s 280 1345
 m -1143 Y s 1976 1345 m -1143 Y s[  ] 0 sd 245 202 m 1143 Y s[ 4 8] 0 sd 2041 202 m -1796 X s 2041 410 m -1796 X s 2041 618 m -1796 X s 2041 826 m -1796 X s 2041 1034 m -1796 X s 2041 1241 m -1796 X s 2041 1241 m -1796 X s 0 0 0.933333 c[  22 12 ] 0
 sd 6 lw 0.49 0.6 0.82 c black 0 0 0.933333 c 245 723 m cl s 248 723 m cl s 252 723 m cl s 256 723 m cl s 260 723 m cl s 264 723 m cl s 267 723 m cl s 271 723 m cl s 275 723 m cl s 279 723 m cl s 283 723 m cl s 287 723 m cl s 290 723 m cl s 294 723 m
 cl s 298 723 m cl s 302 723 m cl s 306 723 m cl s 309 723 m cl s 313 723 m cl s 317 723 m cl s 321 723 m cl s 325 723 m cl s 328 723 m cl s 332 723 m cl s 336 723 m cl s 340 723 m cl s 344 723 m cl s 347 723 m cl s 351 723 m cl s 355 723 m cl s 359
 723 m cl s 363 723 m cl s 366 723 m cl s 370 723 m cl s 374 723 m cl s 378 723 m cl s 382 723 m cl s 385 723 m cl s 389 723 m cl s 393 723 m cl s 397 723 m cl s 401 723 m cl s 404 723 m cl s 408 723 m cl s 412 723 m cl s 416 723 m cl s 420 723 m cl
 s 423 723 m cl s 427 723 m cl s 431 723 m cl s 435 723 m cl s 439 723 m cl s 443 723 m cl s 446 723 m cl s 450 723 m cl s 454 723 m cl s 458 723 m cl s 462 723 m cl s 465 723 m cl s 469 723 m cl s 473 723 m cl s 477 723 m cl s 481 723 m cl s 484 723
 m cl s 488 723 m cl s 492 723 m cl s 496 727 m -4 Y s 500 727 m cl s 503 727 m cl s 507 727 m cl s 511 727 m cl s 515 727 m cl s 519 727 m cl s 522 727 m cl s 526 727 m cl s 530 727 m cl s 534 727 m cl s 538 727 m cl s 541 727 m cl s 545 727 m cl s
 549 731 m -4 Y s 553 731 m cl s 557 731 m cl s 560 731 m cl s 564 731 m cl s 568 731 m cl s 572 731 m cl s 576 731 m cl s 579 731 m cl s 583 731 m cl s 587 734 m -3 Y s 591 734 m cl s 595 734 m cl s 599 734 m cl s 602 734 m cl s 606 734 m cl s 610
 734 m cl s 614 734 m cl s 618 734 m cl s 621 734 m cl s 625 734 m cl s 629 734 m cl s 633 738 m -4 Y s 637 738 m cl s 640 738 m cl s 644 738 m cl s 648 738 m cl s 652 738 m cl s 656 738 m cl s 659 738 m cl s 663 738 m cl s 667 738 m cl s 671 738 m
 cl s 675 738 m cl s 678 738 m cl s 682 742 m -4 Y s 686 742 m -4 Y s 690 742 m cl s 694 742 m cl s 697 742 m cl s 701 742 m cl s 705 742 m cl s 709 742 m cl s 713 742 m cl s 716 742 m cl s 720 742 m cl s 724 742 m cl s 728 742 m cl s 732 742 m cl s
 735 746 m -4 Y s 739 746 m cl s 743 746 m cl s 747 750 m -4 Y s 751 750 m -4 Y s 755 750 m -4 Y s 758 750 m cl s 762 753 m -3 Y s 766 750 m cl s 770 753 m -3 Y s 774 753 m cl s 777 753 m cl s 781 753 m cl s 785 757 m -4 Y s 789 757 m cl s 793 757 m
 cl s 796 757 m cl s 800 761 m -4 Y s 804 761 m -4 Y s 808 761 m cl s 812 765 m -4 Y s 815 765 m -4 Y s 819 765 m -4 Y s 823 761 m cl s 827 761 m cl s 831 761 m cl s 834 761 m cl s 838 761 m cl s 842 761 m cl s 846 761 m -4 Y s 850 757 m cl s 853 757
 m cl s 857 757 m cl s 861 757 m cl s 865 757 m cl s 869 757 m cl s 872 757 m cl s 876 761 m -4 Y s 880 761 m cl s 884 757 m cl s 888 757 m cl s 891 761 m -4 Y s 895 761 m -4 Y s 899 761 m cl s 903 761 m -4 Y s 907 761 m cl s 911 761 m cl s 914 761 m
 cl s 918 761 m -4 Y s 922 761 m -4 Y s 926 757 m -4 Y s 930 753 m -3 Y s 933 750 m -4 Y s 937 750 m -4 Y s 941 746 m cl s 945 746 m -4 Y s 949 742 m -4 Y s 952 742 m -4 Y s 956 742 m -4 Y s 960 738 m -4 Y s 964 738 m -4 Y s 968 738 m -4 Y s 971 734
 m -3 Y s 975 734 m -3 Y s 979 731 m -4 Y s 983 727 m -4 Y s 987 723 m cl s 990 727 m -4 Y s 994 727 m -4 Y s 998 723 m -4 Y s 1002 723 m -4 Y s 1006 723 m -4 Y s 1009 719 m cl s 1013 719 m cl s 1017 719 m cl s 1021 719 m -4 Y s 1025 715 m -7 Y s
 1028 708 m -4 Y s 1032 704 m cl s 1036 704 m -4 Y s 1040 700 m -8 Y s 1044 692 m -3 Y s 1047 689 m -4 Y s 1051 685 m -4 Y s 1055 681 m -8 Y s 1059 673 m -3 Y s 1063 670 m -4 Y s 1067 666 m -4 Y s 1070 662 m -4 Y s 1074 658 m -4 Y s 1078 654 m -7 Y s
 1082 647 m cl s 1086 651 m -4 Y s 1089 647 m -4 Y s 1093 643 m -4 Y s 1097 639 m cl s 1101 639 m -7 Y s 1105 632 m -4 Y s 1108 628 m cl s 1112 628 m -4 Y s 1116 624 m -8 Y s 1120 616 m -3 Y s 1124 613 m cl s 1127 616 m -7 Y s 1131 613 m -4 Y s 1135
 609 m -8 Y s 1139 601 m cl s 1143 601 m -4 Y s 1146 597 m -3 Y s 1150 594 m cl s 1154 594 m -4 Y s 1158 590 m -4 Y s 1162 586 m -4 Y s 1165 582 m -4 Y s 1169 578 m -7 Y s 1173 567 m -8 Y s 1177 559 m -3 Y s 1181 556 m -8 Y s 1184 548 m -4 Y s 1188
 544 m -8 Y s 1192 536 m -3 Y s 1196 533 m -4 Y s 1200 529 m cl s 1203 529 m -8 Y s 1207 521 m -4 Y s 1211 517 m cl s 1215 517 m -7 Y s 1219 510 m -4 Y s 1223 506 m -4 Y s 1226 506 m -8 Y s 1230 498 m cl s 1234 498 m -3 Y s 1238 495 m -4 Y s 1242 491
 m cl s 1245 491 m -4 Y s 1249 487 m -4 Y s 1253 483 m -4 Y s 1257 479 m -3 Y s 1261 476 m -4 Y s 1264 472 m -4 Y s 1268 468 m -4 Y s 1272 464 m -4 Y s 1276 460 m cl s 1280 460 m -3 Y s 1283 457 m -4 Y s 1287 453 m -4 Y s 1291 449 m -4 Y s 1295 445 m
 -4 Y s 1299 441 m cl s 1302 441 m -3 Y s 1306 438 m -4 Y s 1310 438 m -4 Y s 1314 434 m -4 Y s 1318 430 m -4 Y s 1321 426 m -4 Y s 1325 422 m cl s 1329 422 m cl s 1333 422 m -3 Y s 1337 419 m cl s 1340 419 m cl s 1344 419 m -4 Y s 1348 415 m -4 Y s
 1352 411 m -4 Y s 1356 407 m -4 Y s 1359 403 m -3 Y s 1363 400 m cl s 1367 400 m -4 Y s 1371 396 m -4 Y s 1375 392 m -4 Y s 1379 388 m -8 Y s 1382 384 m -4 Y s 1386 380 m cl s 1390 380 m -3 Y s 1394 377 m -4 Y s 1398 373 m cl s 1401 373 m -4 Y s
 1405 369 m cl s 1409 369 m cl s 1413 369 m -4 Y s 1417 365 m -4 Y s 1420 361 m cl s 1424 361 m -3 Y s 1428 358 m cl s 1432 358 m -4 Y s 1436 354 m cl s 1439 354 m -4 Y s 1443 350 m cl s 1447 350 m -4 Y s 1451 346 m cl s 1455 346 m -4 Y s 1458 342 m
 -3 Y s 1462 339 m -4 Y s 1466 335 m cl s 1470 335 m -4 Y s 1474 331 m -4 Y s 1477 327 m -4 Y s 1481 323 m -3 Y s 1485 320 m cl s 1489 320 m -4 Y s 1493 316 m -4 Y s 1496 312 m cl s 1500 312 m -8 Y s 1504 304 m cl s 1508 304 m -3 Y s 1512 301 m -4 Y
 s 1515 297 m cl s 1519 297 m cl s 1523 297 m -4 Y s 1527 293 m -4 Y s 1531 289 m cl s 1535 289 m -4 Y s 1538 285 m -3 Y s 1542 282 m cl s 1546 282 m -4 Y s 1550 278 m cl s 1554 278 m -4 Y s 1557 274 m cl s 1561 274 m -4 Y s 1565 270 m cl s 1569 270
 m -4 Y s 1573 266 m -3 Y s 1576 263 m cl s 1580 259 m cl s 1584 255 m cl s 1588 255 m -4 Y s 1592 251 m cl s 1595 251 m cl s 1599 251 m -4 Y s 1603 247 m cl s 1607 247 m cl s 1611 247 m -3 Y s 1614 244 m cl s 1618 244 m cl s 1622 244 m cl s 1626 244
 m -4 Y s 1630 240 m cl s 1633 240 m cl s 1637 240 m -4 Y s 1641 236 m cl s 1645 236 m cl s 1649 236 m cl s 1652 236 m cl s 1656 232 m cl s 1660 232 m cl s 1664 232 m cl s 1668 232 m cl s 1671 232 m -4 Y s 1675 228 m cl s 1679 228 m cl s 1683 228 m
 cl s 1687 228 m cl s 1691 228 m -4 Y s 1694 224 m cl s 1698 224 m cl s 1702 224 m -3 Y s 1706 221 m cl s 1710 221 m cl s 1713 221 m cl s 1717 221 m cl s 1721 221 m cl s 1725 221 m cl s 1729 221 m cl s 1732 221 m -4 Y s 1736 217 m cl s 1740 217 m cl
 s 1744 217 m cl s 1748 217 m cl s 1751 217 m cl s 1755 217 m cl s 1759 217 m cl s 1763 217 m cl s 1767 217 m cl s 1770 217 m cl s 1774 217 m cl s 1778 217 m cl s 1782 217 m cl s 1786 217 m cl s 1789 217 m cl s 1793 217 m cl s 1797 217 m -4 Y s 1801
 213 m cl s 1805 213 m cl s 1808 213 m cl s 1812 217 m -4 Y s 1816 213 m cl s 1820 213 m cl s 1824 213 m cl s 1827 213 m cl s 1831 213 m cl s 1835 213 m cl s 1839 213 m cl s 1843 213 m cl s 1847 213 m cl s 1850 213 m cl s 1854 213 m cl s 1858 213 m
 cl s 1862 213 m -4 Y s 1866 209 m cl s 1869 209 m cl s 1873 209 m cl s 1877 209 m cl s 1881 209 m cl s 1885 209 m cl s 1888 209 m cl s 1892 209 m cl s 1896 209 m cl s 1900 209 m cl s 1904 209 m cl s 1907 209 m cl s 1911 209 m cl s 1915 209 m cl s
 1919 209 m cl s 245 723 m 247 X 4 4 d 49 X 4 4 d 34 X 4 3 d 42 X 4 4 d 45 X 4 4 d 50 X 3 4 d 8 X 4 4 d 11 X 4 3 d 4 -3 d 4 3 d 11 X 4 4 d 11 X 4 4 d 8 X 4 4 d 7 X 4 -4 d 23 X 4 -4 d 22 X 4 4 d 4 X 4 -4 d 4 X 3 4 d 31 X 4 -4 d 4 -4 d 3 -3 d 4 X 4 -4
 d 4 X 4 -4 d 7 X 4 -4 d 8 X 3 -4 d 4 X 4 -3 d 4 -4 d 4 -4 d 3 4 d 4 X 4 -4 d 8 X 3 -4 d 12 X 4 -7 d 3 -4 d 4 -4 d 4 X 4 -8 d 4 -4 d 3 -3 d 4 -4 d 4 -8 d 4 -4 d 4 -3 d 4 -4 d 3 -4 d 4 -4 d 4 -7 d 4 -4 d 4 4 d 3 -4 d 4 -4 d 4 -4 d 4 -4 d 4 -3 d 3 -4 d
 4 X 4 -8 d 4 -4 d 4 -3 d 7 X 4 -8 d 4 -4 d 4 X 3 -4 d 4 -3 d 4 X 4 -4 d 4 -4 d 3 -4 d 4 -7 d 4 -12 d 4 -4 d 4 -7 d 3 -4 d 4 -8 d 4 -4 d 4 -3 d 4 -4 d 3 -4 d 4 -4 d 4 -4 d 4 -3 d 4 -4 d 4 -4 d 3 -4 d 4 -4 d 4 X 4 -3 d 4 -4 d 3 X 4 -4 d 4 -4 d 4 -4 d
 4 -3 d 3 -4 d 4 -4 d 4 -4 d 4 -4 d 4 X 3 -3 d 4 -4 d 4 -4 d 4 -4 d 4 -4 d 3 X 4 -3 d 4 X 4 -4 d 4 -4 d 3 -4 d 4 -4 d 8 X 4 -3 d 7 X 4 -4 d 4 -4 d 4 -4 d 3 -4 d 4 -3 d 4 X 4 -4 d 4 -4 d 4 -8 d 3 X 4 -4 d 4 X 4 -3 d 4 -4 d 3 X 4 -4 d 8 X 4 -4 d 3 -4 d
 4 X 4 -3 d 4 X 4 -4 d 3 X 4 -4 d 4 X 4 -4 d 4 X 3 -4 d 4 -3 d 4 -4 d 4 X 4 -4 d 3 -4 d 4 -4 d 4 -3 d 4 X 4 -4 d 3 -4 d 4 -4 d 4 -4 d 4 X 4 -3 d 3 -4 d 8 X 4 -4 d 4 -4 d 4 X 3 -4 d 4 -3 d 4 X 4 -4 d 4 X 3 -4 d 4 X 4 -4 d 4 X 4 -4 d 3 -3 d 4 -4 d 4 -4
 d 4 X 4 -4 d 7 X 4 -4 d 8 X 3 -3 d 12 X 4 -4 d 7 X 4 -4 d 11 X 4 -4 d 15 X 4 -4 d 16 X 3 -4 d 8 X 4 -3 d 26 X 4 -4 d 61 X 4 -4 d 7 X 4 4 d 4 -4 d 46 X 4 -4 d 53 X s black[  ] 0 sd 3 lw 245 202 m 1796 X s
 gsave  2268 1682 0 0 C 757.174 30.4391 t 0 r /Helvetica-Bold findfont 72.293 sf 0 0 m (Cut value applied on MLPBNN output) show NC gr  280 242 m -40 Y s 333 222 m -20 Y s 386 222 m -20 Y s 439 222 m -20 Y s 492 242 m -40 Y s 545 222 m -20 Y s 598
 222 m -20 Y s 651 222 m -20 Y s 704 242 m -40 Y s 757 222 m -20 Y s 810 222 m -20 Y s 863 222 m -20 Y s 916 242 m -40 Y s 969 222 m -20 Y s 1022 222 m -20 Y s 1075 222 m -20 Y s 1128 242 m -40 Y s 1181 222 m -20 Y s 1234 222 m -20 Y s 1287 222 m -20
 Y s 1340 242 m -40 Y s 1393 222 m -20 Y s 1446 222 m -20 Y s 1499 222 m -20 Y s 1552 242 m -40 Y s 1605 222 m -20 Y s 1658 222 m -20 Y s 1711 222 m -20 Y s 1764 242 m -40 Y s 1817 222 m -20 Y s 1870 222 m -20 Y s 1923 222 m -20 Y s 1976 242 m -40 Y
 s 280 242 m -40 Y s 1976 242 m -40 Y s 2029 222 m -20 Y s
 gsave  2268 1682 0 0 C 220.684 129.366 t 0 r /Helvetica-Bold findfont 64.6832 sf 0 0 m (\2550.2) show NC gr 
 gsave  2268 1682 0 0 C 471.807 129.366 t 0 r /Helvetica-Bold findfont 64.6832 sf 0 0 m (0) show NC gr 
 gsave  2268 1682 0 0 C 654.442 129.366 t 0 r /Helvetica-Bold findfont 64.6832 sf 0 0 m (0.2) show NC gr 
 gsave  2268 1682 0 0 C 867.516 129.366 t 0 r /Helvetica-Bold findfont 64.6832 sf 0 0 m (0.4) show NC gr 
 gsave  2268 1682 0 0 C 1080.59 129.366 t 0 r /Helvetica-Bold findfont 64.6832 sf 0 0 m (0.6) show NC gr 
 gsave  2268 1682 0 0 C 1293.66 129.366 t 0 r /Helvetica-Bold findfont 64.6832 sf 0 0 m (0.8) show NC gr 
 gsave  2268 1682 0 0 C 1533.37 129.366 t 0 r /Helvetica-Bold findfont 64.6832 sf 0 0 m (1) show NC gr 
 gsave  2268 1682 0 0 C 1716.01 129.366 t 0 r /Helvetica-Bold findfont 64.6832 sf 0 0 m (1.2) show NC gr 
 gsave  2268 1682 0 0 C 1929.08 129.366 t 0 r /Helvetica-Bold findfont 64.6832 sf 0 0 m (1.4) show NC gr  245 202 m 1143 Y s
 gsave  2268 1682 0 0 C 64.6832 734.344 t 90 r /Helvetica-Bold findfont 72.293 sf 0 0 m (Efficiency \(Purity\)) show NC gr  291 202 m -46 X s 268 254 m -23 X s 268 306 m -23 X s 268 358 m -23 X s 291 410 m -46 X s 268 462 m -23 X s 268 514 m -23 X s
 268 566 m -23 X s 291 618 m -46 X s 268 670 m -23 X s 268 722 m -23 X s 268 774 m -23 X s 291 826 m -46 X s 268 878 m -23 X s 268 930 m -23 X s 268 982 m -23 X s 291 1034 m -46 X s 268 1086 m -23 X s 268 1137 m -23 X s 268 1189 m -23 X s 291 1241 m
 -46 X s 291 1241 m -46 X s 268 1293 m -23 X s 268 1345 m -23 X s
 gsave  2268 1682 0 0 C 182.635 178.83 t 0 r /Helvetica-Bold findfont 64.6832 sf 0 0 m (0) show NC gr 
 gsave  2268 1682 0 0 C 129.366 384.294 t 0 r /Helvetica-Bold findfont 64.6832 sf 0 0 m (0.2) show NC gr 
 gsave  2268 1682 0 0 C 125.561 593.563 t 0 r /Helvetica-Bold findfont 64.6832 sf 0 0 m (0.4) show NC gr 
 gsave  2268 1682 0 0 C 129.366 799.028 t 0 r /Helvetica-Bold findfont 64.6832 sf 0 0 m (0.6) show NC gr 
 gsave  2268 1682 0 0 C 125.561 1008.3 t 0 r /Helvetica-Bold findfont 64.6832 sf 0 0 m (0.8) show NC gr 
 gsave  2268 1682 0 0 C 190.245 1217.57 t 0 r /Helvetica-Bold findfont 64.6832 sf 0 0 m (1) show NC gr  0 0 0.933333 c[  52 12 ] 0 sd 6 lw 0.49 0.6 0.82 c black 0 0 0.933333 c 248 723 m cl s 252 723 m cl s 256 723 m cl s 260 723 m cl s 264 723 m cl s
 267 723 m cl s 271 723 m cl s 275 723 m cl s 279 723 m cl s 283 723 m cl s 287 723 m cl s 290 723 m cl s 294 723 m cl s 298 723 m cl s 302 723 m cl s 306 723 m cl s 309 723 m cl s 313 723 m cl s 317 723 m cl s 321 723 m cl s 325 723 m cl s 328 723 m
 cl s 332 723 m cl s 336 723 m cl s 340 723 m cl s 344 723 m cl s 347 723 m cl s 351 723 m cl s 355 723 m cl s 359 723 m cl s 363 723 m cl s 366 723 m cl s 370 723 m cl s 374 723 m cl s 378 723 m cl s 382 723 m cl s 385 723 m cl s 389 723 m cl s 393
 723 m cl s 397 723 m cl s 401 723 m cl s 404 723 m cl s 408 723 m cl s 412 723 m cl s 416 723 m cl s 420 723 m cl s 423 723 m cl s 427 723 m cl s 431 723 m cl s 435 727 m -4 Y s 439 727 m cl s 443 727 m cl s 446 727 m cl s 450 727 m cl s 454 727 m
 cl s 458 727 m cl s 462 727 m cl s 465 727 m cl s 469 727 m cl s 473 727 m cl s 477 727 m cl s 481 727 m cl s 484 727 m cl s 488 727 m cl s 492 727 m cl s 496 727 m cl s 500 727 m cl s 503 727 m cl s 507 727 m cl s 511 727 m cl s 515 727 m cl s 519
 727 m cl s 522 727 m cl s 526 731 m cl s 530 731 m cl s 534 731 m cl s 538 731 m cl s 541 731 m cl s 545 731 m cl s 549 731 m cl s 553 731 m cl s 557 731 m cl s 560 731 m cl s 564 731 m cl s 568 731 m cl s 572 734 m -3 Y s 576 734 m cl s 579 734 m
 cl s 583 734 m cl s 587 734 m cl s 591 738 m -4 Y s 595 738 m cl s 599 738 m cl s 602 738 m cl s 606 738 m cl s 610 738 m cl s 614 738 m cl s 618 738 m cl s 621 738 m cl s 625 738 m cl s 629 738 m cl s 633 742 m -4 Y s 637 742 m cl s 640 742 m cl s
 644 742 m cl s 648 742 m cl s 652 742 m cl s 656 746 m -4 Y s 659 746 m -4 Y s 663 746 m cl s 667 746 m cl s 671 746 m cl s 675 746 m cl s 678 746 m cl s 682 750 m -4 Y s 686 750 m cl s 690 750 m cl s 694 750 m cl s 697 750 m cl s 701 753 m -3 Y s
 705 753 m cl s 709 753 m cl s 713 753 m cl s 716 757 m -4 Y s 720 757 m cl s 724 757 m cl s 728 757 m cl s 732 761 m -4 Y s 735 761 m cl s 739 765 m -4 Y s 743 765 m cl s 747 769 m -4 Y s 751 769 m cl s 755 769 m cl s 758 772 m -3 Y s 762 776 m -4 Y
 s 766 776 m -4 Y s 770 776 m cl s 774 776 m cl s 777 780 m -4 Y s 781 780 m cl s 785 784 m -4 Y s 789 784 m cl s 793 788 m -4 Y s 796 788 m cl s 800 791 m -3 Y s 804 791 m cl s 808 795 m cl s 812 799 m -4 Y s 815 799 m cl s 819 803 m -4 Y s 823 803
 m cl s 827 803 m cl s 831 807 m -4 Y s 834 807 m cl s 838 810 m -3 Y s 842 810 m cl s 846 810 m cl s 850 810 m cl s 853 814 m -4 Y s 857 814 m cl s 861 818 m -4 Y s 865 822 m -4 Y s 869 822 m cl s 872 826 m -4 Y s 876 826 m cl s 880 829 m -3 Y s 884
 829 m cl s 888 833 m -4 Y s 891 837 m -4 Y s 895 837 m -4 Y s 899 841 m -4 Y s 903 845 m -4 Y s 907 845 m cl s 911 848 m -3 Y s 914 848 m cl s 918 852 m -4 Y s 922 856 m -4 Y s 926 856 m cl s 930 856 m cl s 933 860 m -4 Y s 937 860 m cl s 941 864 m
 -4 Y s 945 868 m -4 Y s 949 868 m -4 Y s 952 875 m -7 Y s 956 875 m -4 Y s 960 879 m -4 Y s 964 883 m -4 Y s 968 883 m cl s 971 887 m -4 Y s 975 890 m -3 Y s 979 890 m cl s 983 894 m -4 Y s 987 898 m -4 Y s 990 906 m -4 Y s 994 909 m -3 Y s 998 913
 m -4 Y s 1002 921 m -8 Y s 1006 921 m cl s 1009 925 m -4 Y s 1013 932 m -7 Y s 1017 932 m cl s 1021 936 m -4 Y s 1025 936 m cl s 1028 940 m -4 Y s 1032 944 m -4 Y s 1036 947 m -3 Y s 1040 951 m -4 Y s 1044 951 m -4 Y s 1047 951 m cl s 1051 955 m -4
 Y s 1055 955 m cl s 1059 959 m -4 Y s 1063 963 m -4 Y s 1067 966 m -3 Y s 1070 966 m -3 Y s 1074 966 m -3 Y s 1078 966 m cl s 1082 974 m -8 Y s 1086 982 m -8 Y s 1089 985 m -3 Y s 1093 989 m -4 Y s 1097 993 m -4 Y s 1101 993 m cl s 1105 993 m cl s
 1108 997 m cl s 1112 1001 m -4 Y s 1116 1001 m cl s 1120 1004 m -3 Y s 1124 1012 m -4 Y s 1127 1016 m -4 Y s 1131 1020 m -4 Y s 1135 1024 m -4 Y s 1139 1027 m -3 Y s 1143 1031 m -4 Y s 1146 1031 m -4 Y s 1150 1035 m -8 Y s 1154 1039 m -4 Y s 1158
 1039 m -4 Y s 1162 1043 m -4 Y s 1165 1046 m -3 Y s 1169 1046 m cl s 1173 1046 m cl s 1177 1046 m cl s 1181 1046 m cl s 1184 1046 m cl s 1188 1050 m -4 Y s 1192 1050 m -4 Y s 1196 1054 m -4 Y s 1200 1062 m -8 Y s 1203 1062 m cl s 1207 1069 m -7 Y s
 1211 1077 m -12 Y s 1215 1081 m -8 Y s 1219 1084 m -3 Y s 1223 1088 m -4 Y s 1226 1092 m -4 Y s 1230 1092 m cl s 1234 1096 m -4 Y s 1238 1100 m -4 Y s 1242 1103 m -3 Y s 1245 1107 m -4 Y s 1249 1111 m -4 Y s 1253 1111 m -4 Y s 1257 1115 m -8 Y s
 1261 1115 m -4 Y s 1264 1122 m -7 Y s 1268 1122 m cl s 1272 1122 m cl s 1276 1126 m -4 Y s 1280 1126 m cl s 1283 1130 m -4 Y s 1287 1134 m -8 Y s 1291 1134 m -4 Y s 1295 1141 m -7 Y s 1299 1145 m -4 Y s 1302 1149 m -4 Y s 1306 1153 m -4 Y s 1310
 1157 m -4 Y s 1314 1160 m -3 Y s 1318 1164 m -4 Y s 1321 1164 m -4 Y s 1325 1168 m -4 Y s 1329 1172 m -4 Y s 1333 1172 m cl s 1337 1176 m -4 Y s 1340 1176 m cl s 1344 1176 m cl s 1348 1176 m cl s 1352 1176 m cl s 1356 1176 m cl s 1359 1180 m -4 Y s
 1363 1183 m -7 Y s 1367 1183 m cl s 1371 1187 m -4 Y s 1375 1187 m -4 Y s 1379 1183 m cl s 1382 1187 m -4 Y s 1386 1191 m cl s 1390 1191 m cl s 1394 1191 m cl s 1398 1191 m cl s 1401 1191 m cl s 1405 1195 m -4 Y s 1409 1199 m -4 Y s 1413 1195 m cl s
 1417 1199 m -4 Y s 1420 1199 m cl s 1424 1206 m -7 Y s 1428 1206 m cl s 1432 1210 m -4 Y s 1436 1210 m cl s 1439 1214 m -4 Y s 1443 1214 m cl s 1447 1214 m cl s 1451 1214 m cl s 1455 1214 m cl s 1458 1214 m cl s 1462 1214 m cl s 1466 1214 m cl s
 1470 1214 m cl s 1474 1210 m cl s 1477 1210 m cl s 1481 1210 m cl s 1485 1210 m cl s 1489 1210 m -4 Y s 1493 1210 m -4 Y s 1496 1210 m cl s 1500 1210 m -4 Y s 1504 1206 m cl s 1508 1206 m cl s 1512 1210 m -4 Y s 1515 1210 m cl s 1519 1210 m cl s
 1523 1210 m -4 Y s 1527 1206 m cl s 1531 1210 m -4 Y s 1535 1210 m -4 Y s 1538 1206 m cl s 1542 1206 m cl s 1546 1206 m -4 Y s 1550 1202 m cl s 1554 1202 m cl s 1557 1202 m cl s 1561 1202 m -3 Y s 1565 1199 m cl s 1569 1199 m -4 Y s 1573 1195 m cl s
 1576 1195 m -4 Y s 1580 1191 m cl s 1584 1191 m -4 Y s 1588 1187 m cl s 1592 1187 m -4 Y s 1595 1183 m cl s 1599 1183 m -3 Y s 1603 1180 m cl s 1607 1180 m -4 Y s 1611 1176 m cl s 1614 1176 m cl s 1618 1176 m -4 Y s 1622 1172 m cl s 1626 1172 m -4 Y
 s 1630 1168 m cl s 1633 1168 m cl s 1637 1168 m -4 Y s 1641 1168 m -8 Y s 1645 1172 m -8 Y s 1649 1172 m -4 Y s 1652 1168 m cl s 1656 1168 m -4 Y s 1660 1164 m cl s 1664 1164 m -4 Y s 1668 1160 m cl s 1671 1160 m -3 Y s 1675 1157 m cl s 1679 1157 m
 cl s 1683 1157 m -4 Y s 1687 1153 m -4 Y s 1691 1149 m -8 Y s 1694 1141 m -3 Y s 1698 1138 m cl s 1702 1138 m -8 Y s 1706 1130 m cl s 1710 1130 m -4 Y s 1713 1126 m cl s 1717 1126 m -4 Y s 1721 1134 m -12 Y s 1725 1130 m -4 Y s 1729 1126 m -4 Y s
 1732 1122 m -3 Y s 1736 1119 m -4 Y s 1740 1115 m cl s 1744 1115 m cl s 1748 1115 m cl s 1751 1126 m -11 Y s 1755 1119 m -4 Y s 1759 1115 m cl s 1763 1115 m cl s 1767 1122 m -11 Y s 1770 1122 m -3 Y s 1774 1119 m cl s 1778 1119 m cl s 1782 1119 m -4
 Y s 1786 1115 m cl s 1789 1115 m cl s 1793 1115 m cl s 1797 1115 m -4 Y s 1801 1122 m -15 Y s 1805 1180 m -58 Y s 1808 1180 m cl s 1812 1221 m -41 Y s 1816 1221 m cl s 1820 1221 m -3 Y s 1824 1218 m cl s 1827 1218 m cl s 1831 1218 m -4 Y s 1835 1244
 m -30 Y s 1839 1244 m cl s 1843 1244 m cl s 1847 1244 m cl s 1850 1244 m cl s 1854 1244 m cl s 1858 1244 m cl s 1862 1244 m cl s 1866 1244 m cl s 1869 1244 m cl s 1873 1244 m cl s 1877 1244 m cl s 1881 1244 m cl s 1885 1244 m cl s 1888 1244 m cl s
 1892 1244 m cl s 1896 1244 m cl s 1900 1244 m cl s 1904 1244 m cl s 1907 1244 m cl s 1911 1244 m cl s 1915 1244 m cl s 1919 1244 m cl s 1923 1244 m cl s 1926 1244 m cl s 1930 1244 m cl s 1934 1244 m cl s 1938 1244 m cl s 1942 1244 m cl s 1945 1244 m
 cl s 1949 1244 m cl s 1953 1244 m cl s 1957 1244 m cl s 1961 1244 m cl s 1964 1244 m cl s 1968 1244 m cl s 1972 1244 m cl s 1976 1244 m cl s 1980 1244 m cl s 1983 1244 m cl s 1987 1244 m cl s 1991 1244 m cl s 1995 1244 m cl s 1999 1244 m cl s 2003
 1244 m cl s 2006 1244 m cl s 2010 1244 m cl s 2014 1244 m cl s 2018 1244 m cl s 2022 1244 m cl s 2025 1244 m cl s 2029 1244 m cl s 2033 1244 m cl s 2037 1244 m cl s 2041 1244 m cl s 245 723 m 3 X s 248 723 m 183 X 4 4 d 87 X 4 4 d 42 X 4 3 d 15 X 4
 4 d 38 X 4 4 d 19 X 4 4 d 22 X 4 4 d 15 X 4 3 d 12 X 3 4 d 12 X 4 4 d 3 X 4 4 d 4 X 4 4 d 8 X 3 3 d 4 4 d 12 X 3 4 d 4 X 4 4 d 4 X 4 4 d 3 X 4 3 d 4 X 4 4 d 4 4 d 3 X 4 4 d 8 X 4 4 d 3 X 4 3 d 12 X 3 4 d 4 X 4 4 d 4 4 d 4 X 3 4 d 4 X 4 3 d 4 X 4 4 d
 3 4 d 4 X 4 4 d 4 4 d 4 X 4 3 d 3 X 4 4 d 4 4 d 8 X 3 4 d 4 X 4 4 d 4 4 d 4 X 3 3 d 4 4 d 4 4 d 4 4 d 4 X 3 4 d 4 3 d 4 X 4 4 d 4 4 d 3 8 d 4 3 d 4 4 d 4 4 d 4 4 d 3 4 d 4 3 d 4 4 d 4 4 d 4 X 3 4 d 4 4 d 4 3 d 4 4 d 7 X 4 4 d 4 X 4 4 d 4 4 d 4 3 d
 11 X 4 4 d 4 8 d 3 7 d 4 4 d 4 4 d 8 X 3 4 d 4 4 d 4 X 4 3 d 4 8 d 3 4 d 4 4 d 4 4 d 4 3 d 4 4 d 7 X 4 8 d 4 X 4 4 d 3 3 d 19 X 4 4 d 4 X 4 4 d 4 4 d 3 4 d 4 3 d 4 8 d 4 4 d 4 7 d 4 4 d 3 4 d 4 X 4 4 d 4 4 d 4 3 d 3 4 d 4 4 d 8 X 4 4 d 3 4 d 4 3 d 4
 X 4 4 d 4 X 3 4 d 4 X 4 4 d 4 4 d 4 7 d 3 4 d 4 4 d 4 4 d 4 3 d 4 4 d 3 X 4 4 d 4 4 d 4 X 4 4 d 19 X 3 4 d 4 X 4 3 d 4 4 d 4 X 4 -4 d 3 4 d 4 4 d 15 X 4 4 d 4 4 d 4 -4 d 4 4 d 3 X 4 3 d 4 4 d 4 4 d 4 X 3 4 d 31 X 4 -4 d 26 X 4 -4 d 4 X 4 4 d 11 X 4
 -4 d 4 4 d 4 X 3 -4 d 8 X 4 -4 d 11 X 4 -3 d 4 X 4 -4 d 3 X 4 -4 d 4 X 4 -4 d 4 X 3 -4 d 4 X 4 -3 d 4 X 4 -4 d 7 X 4 -4 d 4 X 4 -4 d 7 X 4 -4 d 4 4 d 4 4 d 3 -4 d 4 X 4 -4 d 4 X 4 -4 d 3 X 4 -3 d 8 X 4 -4 d 4 -8 d 3 -4 d 4 -3 d 4 -4 d 4 -4 d 4 X 3
 -4 d 4 X 4 4 d 4 X 4 -4 d 3 -4 d 4 -3 d 4 -4 d 8 X 3 7 d 4 -3 d 4 -4 d 4 X 4 4 d 3 3 d 4 -3 d 8 X 4 -4 d 15 X 4 38 d 3 27 d 4 22 d 4 19 d 4 X 4 -3 d 7 X 4 11 d 4 15 d 202 X s[  ] 0 sd 9 lw 0.49 0.6 0.82 c black 0 0 0.933333 c 248 1244 m cl s 252
 1244 m cl s 256 1244 m cl s 260 1244 m cl s 264 1244 m cl s 267 1244 m cl s 271 1244 m cl s 275 1244 m cl s 279 1244 m cl s 283 1244 m cl s 287 1244 m cl s 290 1244 m cl s 294 1244 m cl s 298 1244 m cl s 302 1244 m cl s 306 1244 m cl s 309 1244 m cl
 s 313 1244 m cl s 317 1244 m cl s 321 1244 m cl s 325 1244 m cl s 328 1244 m cl s 332 1244 m -4 Y s 336 1240 m cl s 340 1240 m cl s 344 1240 m cl s 347 1240 m cl s 351 1240 m cl s 355 1240 m cl s 359 1240 m cl s 363 1240 m cl s 366 1240 m cl s 370
 1240 m cl s 374 1240 m cl s 378 1240 m cl s 382 1240 m cl s 385 1240 m cl s 389 1240 m cl s 393 1240 m cl s 397 1240 m cl s 401 1240 m cl s 404 1240 m cl s 408 1240 m cl s 412 1240 m cl s 416 1240 m cl s 420 1240 m cl s 423 1240 m cl s 427 1240 m cl
 s 431 1240 m cl s 435 1240 m cl s 439 1240 m cl s 443 1240 m cl s 446 1240 m cl s 450 1240 m cl s 454 1240 m cl s 458 1240 m cl s 462 1240 m cl s 465 1240 m cl s 469 1240 m cl s 473 1240 m cl s 477 1240 m cl s 481 1240 m cl s 484 1240 m cl s 488
 1240 m cl s 492 1240 m cl s 496 1240 m cl s 500 1240 m cl s 503 1240 m cl s 507 1240 m cl s 511 1240 m cl s 515 1240 m cl s 519 1240 m cl s 522 1240 m cl s 526 1240 m cl s 530 1240 m cl s 534 1240 m cl s 538 1240 m cl s 541 1240 m cl s 545 1240 m cl
 s 549 1240 m cl s 553 1240 m cl s 557 1240 m cl s 560 1240 m cl s 564 1240 m cl s 568 1240 m cl s 572 1240 m cl s 576 1240 m cl s 579 1240 m cl s 583 1240 m cl s 587 1240 m cl s 591 1237 m cl s 595 1237 m cl s 599 1237 m cl s 602 1237 m cl s 606
 1237 m cl s 610 1237 m cl s 614 1237 m cl s 618 1237 m cl s 621 1237 m cl s 625 1237 m cl s 629 1237 m cl s 633 1237 m cl s 637 1237 m cl s 640 1237 m cl s 644 1237 m cl s 648 1237 m cl s 652 1237 m cl s 656 1237 m -4 Y s 659 1233 m cl s 663 1233 m
 cl s 667 1233 m cl s 671 1233 m -4 Y s 675 1229 m cl s 678 1229 m cl s 682 1229 m cl s 686 1229 m cl s 690 1229 m -4 Y s 694 1225 m cl s 697 1225 m cl s 701 1225 m cl s 705 1225 m -4 Y s 709 1221 m cl s 713 1221 m -3 Y s 716 1218 m cl s 720 1218 m
 cl s 724 1218 m cl s 728 1218 m -4 Y s 732 1214 m cl s 735 1214 m cl s 739 1214 m -4 Y s 743 1210 m cl s 747 1210 m -4 Y s 751 1206 m cl s 755 1206 m -4 Y s 758 1202 m cl s 762 1202 m cl s 766 1202 m -3 Y s 770 1199 m cl s 774 1199 m cl s 777 1199 m
 -4 Y s 781 1195 m cl s 785 1195 m cl s 789 1195 m cl s 793 1195 m -4 Y s 796 1191 m cl s 800 1191 m -4 Y s 804 1187 m -4 Y s 808 1183 m cl s 812 1183 m cl s 815 1183 m -3 Y s 819 1180 m -4 Y s 823 1176 m -4 Y s 827 1172 m cl s 831 1172 m -4 Y s 834
 1168 m -4 Y s 838 1164 m -4 Y s 842 1160 m -3 Y s 846 1157 m -4 Y s 850 1153 m -4 Y s 853 1149 m -4 Y s 857 1145 m cl s 861 1145 m -4 Y s 865 1141 m -3 Y s 869 1138 m -4 Y s 872 1134 m cl s 876 1134 m -4 Y s 880 1130 m -4 Y s 884 1126 m -4 Y s 888
 1122 m cl s 891 1119 m cl s 895 1119 m -4 Y s 899 1115 m -4 Y s 903 1111 m -4 Y s 907 1107 m cl s 911 1107 m -4 Y s 914 1103 m -3 Y s 918 1100 m -4 Y s 922 1096 m -8 Y s 926 1088 m -7 Y s 930 1081 m -8 Y s 933 1073 m -8 Y s 937 1065 m -3 Y s 941
 1062 m -4 Y s 945 1058 m -12 Y s 949 1046 m -3 Y s 952 1043 m -4 Y s 956 1039 m -12 Y s 960 1027 m -3 Y s 964 1024 m -4 Y s 968 1020 m -4 Y s 971 1016 m -8 Y s 975 1008 m -7 Y s 979 1001 m -8 Y s 983 993 m -8 Y s 987 985 m -3 Y s 990 982 m -8 Y s
 994 974 m -4 Y s 998 970 m -7 Y s 1002 959 m -4 Y s 1006 955 m -4 Y s 1009 951 m -4 Y s 1013 947 m -3 Y s 1017 944 m -8 Y s 1021 936 m -4 Y s 1025 932 m -11 Y s 1028 921 m -8 Y s 1032 913 m -7 Y s 1036 902 m -4 Y s 1040 898 m -11 Y s 1044 887 m -8 Y
 s 1047 879 m -8 Y s 1051 871 m -7 Y s 1055 864 m -8 Y s 1059 852 m -4 Y s 1063 848 m -7 Y s 1067 841 m -8 Y s 1070 833 m -7 Y s 1074 822 m -4 Y s 1078 818 m -8 Y s 1082 810 m -7 Y s 1086 803 m -8 Y s 1089 795 m -7 Y s 1093 788 m -4 Y s 1097 780 m -4
 Y s 1101 776 m -7 Y s 1105 769 m -8 Y s 1108 761 m -4 Y s 1112 757 m -7 Y s 1116 750 m -8 Y s 1120 742 m -8 Y s 1124 734 m cl s 1127 731 m -8 Y s 1131 723 m -4 Y s 1135 719 m -7 Y s 1139 712 m -8 Y s 1143 704 m -4 Y s 1146 700 m -4 Y s 1150 692 m cl
 s 1154 692 m -7 Y s 1158 685 m -4 Y s 1162 681 m -8 Y s 1165 673 m -7 Y s 1169 666 m -12 Y s 1173 654 m -11 Y s 1177 643 m -8 Y s 1181 635 m -3 Y s 1184 628 m -4 Y s 1188 624 m -8 Y s 1192 613 m -8 Y s 1196 605 m -4 Y s 1200 601 m -4 Y s 1203 597 m
 -7 Y s 1207 590 m -8 Y s 1211 582 m -7 Y s 1215 575 m -4 Y s 1219 567 m -4 Y s 1223 563 m -7 Y s 1226 556 m -4 Y s 1230 552 m -4 Y s 1234 548 m -4 Y s 1238 544 m -8 Y s 1242 536 m -3 Y s 1245 533 m cl s 1249 533 m -8 Y s 1253 525 m -8 Y s 1257 517 m
 -3 Y s 1261 514 m -4 Y s 1264 510 m -4 Y s 1268 506 m -8 Y s 1272 498 m -3 Y s 1276 495 m -4 Y s 1280 491 m -4 Y s 1283 487 m -4 Y s 1287 483 m -7 Y s 1291 476 m -4 Y s 1295 472 m -4 Y s 1299 468 m -4 Y s 1302 464 m -4 Y s 1306 460 m -3 Y s 1310 457
 m -4 Y s 1314 453 m -4 Y s 1318 449 m -4 Y s 1321 445 m -4 Y s 1325 441 m cl s 1329 441 m -3 Y s 1333 438 m cl s 1337 438 m -4 Y s 1340 434 m -4 Y s 1344 430 m cl s 1348 430 m -4 Y s 1352 426 m -4 Y s 1356 422 m -3 Y s 1359 419 m -4 Y s 1363 415 m
 -4 Y s 1367 411 m -4 Y s 1371 407 m -4 Y s 1375 403 m -7 Y s 1379 396 m -4 Y s 1382 392 m cl s 1386 392 m -4 Y s 1390 388 m cl s 1394 388 m -4 Y s 1398 380 m cl s 1401 380 m -3 Y s 1405 377 m cl s 1409 377 m cl s 1413 377 m -4 Y s 1417 373 m -4 Y s
 1420 369 m -4 Y s 1424 365 m cl s 1428 365 m -4 Y s 1432 361 m cl s 1436 361 m -3 Y s 1439 358 m cl s 1443 354 m cl s 1447 354 m -4 Y s 1451 350 m cl s 1455 350 m -4 Y s 1458 346 m -4 Y s 1462 342 m -3 Y s 1466 339 m cl s 1470 339 m -4 Y s 1474 335
 m -4 Y s 1477 331 m -4 Y s 1481 327 m -4 Y s 1485 323 m cl s 1489 323 m -3 Y s 1493 320 m -4 Y s 1496 316 m cl s 1500 316 m -8 Y s 1504 308 m cl s 1508 308 m -4 Y s 1512 304 m -3 Y s 1515 301 m cl s 1519 301 m cl s 1523 297 m cl s 1527 297 m -4 Y s
 1531 293 m cl s 1535 293 m -4 Y s 1538 289 m -4 Y s 1542 285 m -3 Y s 1546 282 m cl s 1550 282 m cl s 1554 278 m cl s 1557 278 m cl s 1561 278 m -4 Y s 1565 274 m cl s 1569 274 m -4 Y s 1573 270 m -4 Y s 1576 266 m -3 Y s 1580 263 m -4 Y s 1584 259
 m cl s 1588 259 m -4 Y s 1592 255 m cl s 1595 255 m -4 Y s 1599 251 m cl s 1603 251 m cl s 1607 251 m -4 Y s 1611 247 m cl s 1614 247 m cl s 1618 247 m -3 Y s 1622 244 m cl s 1626 244 m cl s 1630 244 m cl s 1633 244 m cl s 1637 244 m -4 Y s 1641 240
 m cl s 1645 240 m cl s 1649 240 m -4 Y s 1652 236 m cl s 1656 236 m cl s 1660 236 m cl s 1664 236 m -4 Y s 1668 232 m cl s 1671 232 m cl s 1675 232 m cl s 1679 232 m cl s 1683 232 m -4 Y s 1687 228 m cl s 1691 228 m cl s 1694 228 m cl s 1698 228 m
 -4 Y s 1702 224 m cl s 1706 224 m cl s 1710 224 m cl s 1713 224 m cl s 1717 224 m cl s 1721 224 m cl s 1725 224 m -3 Y s 1729 221 m cl s 1732 221 m cl s 1736 221 m cl s 1740 221 m cl s 1744 221 m cl s 1748 221 m cl s 1751 221 m cl s 1755 221 m -4 Y
 s 1759 217 m cl s 1763 217 m cl s 1767 217 m cl s 1770 217 m cl s 1774 217 m cl s 1778 217 m cl s 1782 217 m cl s 1786 217 m cl s 1789 217 m cl s 1793 217 m cl s 1797 217 m cl s 1801 217 m cl s 1805 217 m cl s 1808 217 m cl s 1812 217 m cl s 1816
 217 m -4 Y s 1820 213 m cl s 1824 213 m cl s 1827 213 m cl s 1831 213 m cl s 1835 213 m cl s 1839 213 m cl s 1843 213 m cl s 1847 213 m cl s 1850 213 m cl s 1854 213 m cl s 1858 213 m cl s 1862 213 m -4 Y s 1866 209 m cl s 1869 209 m cl s 1873 209 m
 cl s 1877 209 m cl s 1881 209 m cl s 1885 209 m cl s 1888 209 m cl s 1892 209 m cl s 1896 209 m cl s 1900 209 m cl s 1904 209 m cl s 1907 209 m cl s 1911 209 m cl s 1915 209 m cl s 1919 209 m cl s 245 1244 m 3 X s 248 1244 m 84 X 4 -4 d 251 X 4 -3 d
 65 X 3 -4 d 12 X 4 -4 d 15 X 4 -4 d 11 X 4 -4 d 4 X 3 -3 d 12 X 4 -4 d 7 X 4 -4 d 4 X 4 -4 d 4 X 3 -4 d 8 X 4 -3 d 7 X 4 -4 d 12 X 3 -4 d 4 X 4 -4 d 4 -4 d 7 X 4 -3 d 4 -4 d 4 -4 d 4 X 3 -4 d 4 -4 d 4 -4 d 4 -3 d 4 -4 d 3 -4 d 4 -4 d 4 X 4 -4 d 4 -3
 d 3 -4 d 4 X 4 -4 d 4 -4 d 4 -4 d 3 -3 d 4 X 4 -4 d 4 -4 d 4 -4 d 4 X 3 -4 d 4 -3 d 4 -8 d 4 -8 d 4 -7 d 3 -8 d 4 -4 d 4 -3 d 4 -8 d 4 -8 d 3 -3 d 4 -8 d 4 -8 d 4 -3 d 4 -4 d 3 -8 d 4 -8 d 4 -7 d 4 -8 d 4 -4 d 3 -7 d 4 -4 d 4 -8 d 4 -7 d 4 -4 d 3 -4
 d 4 -4 d 4 -7 d 4 -4 d 4 -8 d 3 -11 d 4 -8 d 4 -7 d 4 -8 d 4 -11 d 3 -8 d 4 -7 d 4 -8 d 4 -8 d 4 -7 d 4 -8 d 3 -8 d 4 -7 d 4 -8 d 4 -7 d 4 -8 d 3 -8 d 4 -3 d 4 -8 d 4 -8 d 4 -7 d 3 -4 d 4 -8 d 4 -7 d 4 -8 d 4 -4 d 3 -7 d 4 -4 d 4 -8 d 4 -7 d 4 -4 d
 3 -4 d 4 -8 d 4 -3 d 4 -4 d 4 -8 d 3 -7 d 4 -8 d 4 -11 d 4 -12 d 4 -4 d 3 -7 d 4 -8 d 4 -11 d 4 -4 d 4 -4 d 3 -7 d 4 -8 d 4 -8 d 4 -3 d 4 -8 d 4 -8 d 3 -3 d 4 -4 d 4 -4 d 4 -8 d 4 -4 d 3 -3 d 4 -4 d 4 -8 d 4 -4 d 4 -3 d 3 -4 d 4 -8 d 4 -4 d 4 -3 d 4
 -4 d 3 -4 d 4 -8 d 4 -3 d 4 -4 d 4 -4 d 3 -4 d 4 -4 d 4 -3 d 4 -4 d 4 -4 d 3 -4 d 4 -4 d 4 X 4 -3 d 4 X 3 -4 d 4 -4 d 4 X 4 -4 d 4 -4 d 3 -3 d 4 -4 d 4 -4 d 4 -4 d 4 -7 d 4 -4 d 3 -4 d 4 X 4 -4 d 4 X 4 -8 d 3 X 4 -3 d 8 X 4 -4 d 3 -4 d 4 -4 d 4 X 4
 -4 d 4 X 3 -3 d 4 -4 d 4 X 4 -4 d 4 X 3 -4 d 4 -4 d 4 -3 d 4 X 4 -4 d 3 -4 d 4 -4 d 4 -4 d 4 X 4 -3 d 3 -4 d 4 -4 d 4 -4 d 4 X 4 -4 d 3 -3 d 4 X 4 -4 d 4 X 4 -4 d 4 X 3 -4 d 4 -4 d 4 -3 d 4 X 4 -4 d 7 X 4 -4 d 4 X 4 -4 d 3 -4 d 4 -3 d 4 -4 d 4 X 4
 -4 d 3 X 4 -4 d 8 X 4 -4 d 7 X 4 -3 d 15 X 4 -4 d 8 X 3 -4 d 12 X 4 -4 d 15 X 4 -4 d 11 X 4 -4 d 23 X 4 -3 d 26 X 4 -4 d 57 X 4 -4 d 42 X 4 -4 d 53 X s 1 0 0 c black 1 0 0 c 248 1244 m cl s 252 1244 m cl s 256 1244 m cl s 260 1244 m cl s 264 1244 m
 cl s 267 1244 m cl s 271 1244 m cl s 275 1244 m cl s 279 1244 m cl s 283 1244 m cl s 287 1244 m cl s 290 1244 m cl s 294 1244 m cl s 298 1244 m cl s 302 1244 m cl s 306 1244 m cl s 309 1244 m cl s 313 1244 m cl s 317 1244 m cl s 321 1244 m cl s 325
 1244 m cl s 328 1244 m -4 Y s 332 1240 m cl s 336 1240 m cl s 340 1240 m cl s 344 1240 m cl s 347 1240 m cl s 351 1240 m cl s 355 1240 m cl s 359 1240 m cl s 363 1240 m cl s 366 1240 m cl s 370 1240 m cl s 374 1240 m cl s 378 1240 m cl s 382 1240 m
 cl s 385 1240 m cl s 389 1240 m cl s 393 1240 m -3 Y s 397 1237 m cl s 401 1237 m cl s 404 1237 m cl s 408 1237 m cl s 412 1237 m cl s 416 1237 m cl s 420 1237 m cl s 423 1237 m cl s 427 1237 m cl s 431 1237 m cl s 435 1237 m cl s 439 1237 m -4 Y s
 443 1233 m cl s 446 1233 m cl s 450 1233 m cl s 454 1233 m cl s 458 1233 m cl s 462 1233 m cl s 465 1233 m cl s 469 1233 m cl s 473 1233 m -4 Y s 477 1229 m cl s 481 1229 m cl s 484 1229 m cl s 488 1229 m cl s 492 1229 m cl s 496 1229 m -4 Y s 500
 1225 m cl s 503 1225 m cl s 507 1221 m cl s 511 1221 m cl s 515 1221 m cl s 519 1221 m cl s 522 1221 m -3 Y s 526 1218 m cl s 530 1218 m -4 Y s 534 1214 m cl s 538 1214 m cl s 541 1214 m -4 Y s 545 1210 m cl s 549 1210 m cl s 553 1210 m -4 Y s 557
 1206 m cl s 560 1206 m cl s 564 1206 m cl s 568 1206 m -4 Y s 572 1202 m cl s 576 1202 m cl s 579 1202 m -3 Y s 583 1199 m -4 Y s 587 1195 m -4 Y s 591 1191 m -4 Y s 595 1187 m cl s 599 1187 m cl s 602 1187 m -4 Y s 606 1183 m cl s 610 1183 m cl s
 614 1183 m -3 Y s 618 1180 m cl s 621 1180 m cl s 625 1180 m -4 Y s 629 1176 m -4 Y s 633 1172 m cl s 637 1172 m cl s 640 1172 m -4 Y s 644 1168 m -4 Y s 648 1164 m cl s 652 1164 m -4 Y s 656 1160 m -3 Y s 659 1157 m -4 Y s 663 1153 m -4 Y s 667
 1149 m cl s 671 1149 m -4 Y s 675 1145 m cl s 678 1145 m -4 Y s 682 1141 m -3 Y s 686 1138 m -4 Y s 690 1134 m -4 Y s 694 1130 m -4 Y s 697 1126 m -4 Y s 701 1122 m -3 Y s 705 1119 m -4 Y s 709 1115 m -8 Y s 713 1107 m -4 Y s 716 1103 m -3 Y s 720
 1100 m -4 Y s 724 1096 m -4 Y s 728 1092 m -4 Y s 732 1088 m -7 Y s 735 1081 m -4 Y s 739 1073 m -8 Y s 743 1065 m -3 Y s 747 1062 m -12 Y s 751 1050 m -4 Y s 755 1046 m -3 Y s 758 1043 m -12 Y s 762 1031 m -7 Y s 766 1024 m -4 Y s 770 1020 m -4 Y s
 774 1016 m -8 Y s 777 1008 m -4 Y s 781 1004 m -7 Y s 785 997 m -4 Y s 789 993 m -8 Y s 793 985 m -7 Y s 796 978 m -4 Y s 800 974 m -11 Y s 804 963 m -8 Y s 808 951 m -4 Y s 812 944 m -4 Y s 815 940 m -8 Y s 819 932 m -7 Y s 823 925 m -8 Y s 827 917
 m -8 Y s 831 909 m -3 Y s 834 906 m -8 Y s 838 898 m -11 Y s 842 887 m -8 Y s 846 879 m cl s 850 879 m -4 Y s 853 875 m -11 Y s 857 864 m -4 Y s 861 860 m -8 Y s 865 852 m -7 Y s 869 845 m -8 Y s 872 837 m -8 Y s 876 829 m -7 Y s 880 822 m -4 Y s
 884 818 m -8 Y s 888 810 m -7 Y s 891 803 m -8 Y s 895 795 m -7 Y s 899 788 m -8 Y s 903 780 m -11 Y s 907 769 m -4 Y s 911 765 m -8 Y s 914 757 m -7 Y s 918 750 m -8 Y s 922 742 m -11 Y s 926 731 m -4 Y s 930 723 m -4 Y s 933 719 m -7 Y s 937 712 m
 -8 Y s 941 704 m -12 Y s 945 692 m -3 Y s 949 685 m -8 Y s 952 677 m -11 Y s 956 666 m -8 Y s 960 658 m -11 Y s 964 647 m -8 Y s 968 639 m -7 Y s 971 632 m -8 Y s 975 624 m -11 Y s 979 613 m -4 Y s 983 605 m -8 Y s 987 597 m -11 Y s 990 586 m -11 Y
 s 994 575 m -8 Y s 998 563 m -7 Y s 1002 556 m -12 Y s 1006 544 m -8 Y s 1009 536 m -3 Y s 1013 533 m -12 Y s 1017 521 m -4 Y s 1021 514 m -4 Y s 1025 510 m -8 Y s 1028 502 m -7 Y s 1032 495 m -8 Y s 1036 487 m -8 Y s 1040 479 m -3 Y s 1044 476 m -8
 Y s 1047 468 m -4 Y s 1051 464 m -7 Y s 1055 457 m -4 Y s 1059 453 m -8 Y s 1063 445 m -4 Y s 1067 441 m -7 Y s 1070 434 m cl s 1074 430 m cl s 1078 430 m -4 Y s 1082 422 m -7 Y s 1086 415 m -12 Y s 1089 403 m -7 Y s 1093 396 m -4 Y s 1097 392 m -4
 Y s 1101 384 m cl s 1105 384 m -4 Y s 1108 377 m cl s 1112 377 m -8 Y s 1116 369 m -4 Y s 1120 365 m -4 Y s 1124 361 m -3 Y s 1127 354 m -4 Y s 1131 350 m -4 Y s 1135 346 m -7 Y s 1139 339 m -4 Y s 1143 335 m -4 Y s 1146 331 m cl s 1150 331 m -4 Y s
 1154 327 m -4 Y s 1158 323 m -3 Y s 1162 320 m -4 Y s 1165 316 m -4 Y s 1169 312 m -4 Y s 1173 308 m cl s 1177 308 m -4 Y s 1181 304 m cl s 1184 304 m -3 Y s 1188 301 m cl s 1192 297 m cl s 1196 297 m -4 Y s 1200 293 m -4 Y s 1203 289 m -4 Y s 1207
 285 m -3 Y s 1211 282 m -8 Y s 1215 274 m cl s 1219 274 m -4 Y s 1223 270 m -4 Y s 1226 266 m -3 Y s 1230 263 m cl s 1234 263 m -4 Y s 1238 259 m cl s 1242 255 m cl s 1245 255 m cl s 1249 255 m -4 Y s 1253 251 m cl s 1257 251 m -4 Y s 1261 247 m cl
 s 1264 247 m -3 Y s 1268 244 m cl s 1272 244 m cl s 1276 244 m -4 Y s 1280 240 m cl s 1283 240 m cl s 1287 240 m -4 Y s 1291 236 m cl s 1295 236 m -4 Y s 1299 232 m cl s 1302 232 m -4 Y s 1306 228 m cl s 1310 228 m cl s 1314 228 m -4 Y s 1318 224 m
 cl s 1321 224 m cl s 1325 224 m cl s 1329 224 m -3 Y s 1333 221 m cl s 1337 221 m cl s 1340 221 m cl s 1344 221 m cl s 1348 221 m cl s 1352 221 m cl s 1356 221 m -4 Y s 1359 217 m cl s 1363 217 m cl s 1367 217 m cl s 1371 217 m cl s 1375 217 m cl s
 1379 217 m cl s 1382 217 m -4 Y s 1386 213 m cl s 1390 213 m cl s 1394 213 m cl s 1398 213 m cl s 1401 213 m cl s 1405 213 m cl s 1409 213 m cl s 1413 213 m cl s 1417 213 m cl s 1420 213 m -4 Y s 1424 209 m cl s 1428 209 m cl s 1432 209 m cl s 1436
 209 m cl s 1439 209 m cl s 1443 209 m cl s 1447 209 m cl s 1451 209 m cl s 1455 209 m cl s 1458 209 m cl s 1462 209 m cl s 1466 209 m cl s 1470 209 m cl s 1474 209 m cl s 1477 209 m cl s 1481 209 m cl s 1485 209 m cl s 1489 209 m cl s 1493 209 m cl
 s 1496 209 m cl s 1500 209 m cl s 1504 209 m cl s 1508 209 m cl s 1512 209 m cl s 245 1244 m 3 X s 248 1244 m 80 X 4 -4 d 61 X 4 -3 d 42 X 4 -4 d 30 X 4 -4 d 19 X 4 -4 d 3 X 4 -4 d 15 X 4 -3 d 4 X 4 -4 d 7 X 4 -4 d 8 X 4 -4 d 11 X 4 -4 d 7 X 4 -3 d
 4 -4 d 4 -4 d 4 -4 d 7 X 4 -4 d 8 X 4 -3 d 7 X 4 -4 d 4 -4 d 7 X 4 -4 d 4 -4 d 4 X 4 -4 d 3 -3 d 4 -4 d 4 -4 d 4 X 4 -4 d 3 X 4 -4 d 4 -3 d 4 -4 d 4 -4 d 3 -4 d 4 -4 d 4 -3 d 4 -8 d 4 -4 d 3 -4 d 4 -3 d 4 -4 d 4 -4 d 4 -8 d 3 -3 d 4 -12 d 4 -4 d 4
 -7 d 4 -8 d 4 -4 d 3 -7 d 4 -12 d 4 -3 d 4 -4 d 4 -8 d 3 -4 d 4 -7 d 4 -4 d 4 -8 d 4 -7 d 3 -4 d 4 -8 d 4 -11 d 4 -8 d 4 -7 d 3 -8 d 4 -8 d 4 -7 d 4 -8 d 4 -4 d 3 -7 d 4 -8 d 4 -11 d 4 -4 d 4 X 3 -8 d 4 -7 d 4 -8 d 4 -8 d 4 -7 d 3 -8 d 4 -7 d 4 -4 d
 4 -8 d 4 -7 d 3 -8 d 4 -8 d 4 -7 d 4 -8 d 4 -7 d 4 -8 d 3 -8 d 4 -7 d 4 -8 d 4 -7 d 4 -8 d 3 -8 d 4 -7 d 4 -8 d 4 -8 d 4 -11 d 3 -8 d 4 -11 d 4 -8 d 4 -11 d 4 -8 d 3 -7 d 4 -8 d 4 -7 d 4 -12 d 4 -7 d 3 -12 d 4 -11 d 4 -12 d 4 -7 d 4 -12 d 3 -4 d 4
 -7 d 4 -8 d 4 -7 d 4 -8 d 3 -8 d 4 -7 d 4 -8 d 4 -4 d 4 -7 d 3 -4 d 4 -8 d 4 -3 d 4 -8 d 4 -4 d 4 -7 d 3 -4 d 4 -4 d 4 X 4 -11 d 4 -8 d 3 -11 d 4 -4 d 4 -4 d 4 -8 d 4 X 3 -7 d 4 -4 d 4 -4 d 4 -4 d 4 -4 d 3 -7 d 4 -4 d 4 -8 d 4 -3 d 4 -4 d 3 -4 d 4 X
 4 -4 d 4 -4 d 4 -3 d 3 -4 d 4 -4 d 4 -4 d 4 X 4 -4 d 3 X 4 -3 d 4 -4 d 4 X 4 -4 d 3 -4 d 4 -4 d 4 -7 d 4 -4 d 4 X 4 -4 d 3 -4 d 4 -3 d 4 X 4 -4 d 4 -4 d 7 X 4 -4 d 4 X 4 -4 d 3 X 4 -3 d 8 X 4 -4 d 7 X 4 -4 d 4 X 4 -4 d 3 X 4 -4 d 8 X 4 -4 d 11 X 4
 -3 d 23 X 3 -4 d 23 X 4 -4 d 34 X 4 -4 d 88 X s 0 0.666667 0 c 1 1 1 c black 0 0.666667 0 c 248 1206 m cl s 252 1206 m cl s 256 1206 m cl s 260 1206 m cl s 264 1206 m cl s 267 1206 m cl s 271 1206 m cl s 275 1206 m cl s 279 1206 m cl s 283 1206 m cl
 s 287 1206 m cl s 290 1206 m cl s 294 1206 m cl s 298 1206 m cl s 302 1206 m cl s 306 1206 m cl s 309 1206 m cl s 313 1206 m cl s 317 1206 m cl s 321 1206 m cl s 325 1206 m cl s 328 1206 m cl s 332 1206 m -4 Y s 336 1202 m cl s 340 1202 m cl s 344
 1202 m cl s 347 1202 m cl s 351 1202 m cl s 355 1202 m cl s 359 1202 m cl s 363 1202 m cl s 366 1202 m cl s 370 1202 m cl s 374 1202 m cl s 378 1202 m cl s 382 1202 m cl s 385 1202 m cl s 389 1202 m cl s 393 1202 m cl s 397 1202 m cl s 401 1206 m -4
 Y s 404 1206 m cl s 408 1206 m cl s 412 1206 m cl s 416 1206 m cl s 420 1206 m cl s 423 1206 m cl s 427 1206 m cl s 431 1206 m cl s 435 1206 m cl s 439 1206 m cl s 443 1206 m cl s 446 1206 m cl s 450 1206 m cl s 454 1206 m cl s 458 1206 m cl s 462
 1206 m cl s 465 1206 m cl s 469 1206 m cl s 473 1206 m cl s 477 1206 m cl s 481 1206 m cl s 484 1206 m cl s 488 1206 m cl s 492 1206 m cl s 496 1206 m cl s 500 1206 m cl s 503 1206 m cl s 507 1206 m cl s 511 1206 m cl s 515 1206 m cl s 519 1206 m cl
 s 522 1206 m cl s 526 1210 m cl s 530 1210 m cl s 534 1210 m cl s 538 1210 m cl s 541 1210 m cl s 545 1210 m cl s 549 1210 m cl s 553 1210 m cl s 557 1210 m cl s 560 1210 m cl s 564 1210 m cl s 568 1210 m cl s 572 1210 m cl s 576 1210 m cl s 579
 1214 m -4 Y s 583 1214 m cl s 587 1214 m cl s 591 1214 m cl s 595 1214 m cl s 599 1214 m cl s 602 1214 m cl s 606 1214 m cl s 610 1214 m cl s 614 1218 m -4 Y s 618 1218 m -4 Y s 621 1218 m -4 Y s 625 1218 m cl s 629 1218 m cl s 633 1218 m cl s 637
 1218 m cl s 640 1218 m cl s 644 1218 m cl s 648 1218 m cl s 652 1218 m cl s 656 1221 m -3 Y s 659 1221 m -3 Y s 663 1221 m -3 Y s 667 1221 m cl s 671 1221 m cl s 675 1221 m cl s 678 1221 m cl s 682 1221 m cl s 686 1221 m cl s 690 1221 m cl s 694
 1221 m cl s 697 1221 m cl s 701 1221 m cl s 705 1221 m cl s 709 1221 m cl s 713 1221 m cl s 716 1221 m cl s 720 1221 m cl s 724 1225 m -4 Y s 728 1225 m cl s 732 1225 m cl s 735 1225 m cl s 739 1225 m cl s 743 1225 m cl s 747 1229 m -4 Y s 751 1229
 m -4 Y s 755 1229 m cl s 758 1229 m cl s 762 1233 m -4 Y s 766 1233 m -4 Y s 770 1233 m -4 Y s 774 1233 m cl s 777 1233 m cl s 781 1233 m cl s 785 1237 m cl s 789 1237 m cl s 793 1237 m cl s 796 1237 m cl s 800 1240 m -3 Y s 804 1240 m -3 Y s 808
 1240 m cl s 812 1244 m -4 Y s 815 1244 m -4 Y s 819 1244 m -4 Y s 823 1240 m cl s 827 1240 m cl s 831 1240 m cl s 834 1240 m cl s 838 1240 m cl s 842 1240 m cl s 846 1240 m -3 Y s 850 1237 m cl s 853 1237 m cl s 857 1237 m cl s 861 1237 m cl s 865
 1237 m cl s 869 1237 m cl s 872 1240 m -3 Y s 876 1240 m -3 Y s 880 1240 m cl s 884 1240 m -3 Y s 888 1237 m cl s 891 1240 m -3 Y s 895 1240 m -3 Y s 899 1240 m cl s 903 1240 m -3 Y s 907 1240 m cl s 911 1240 m cl s 914 1240 m cl s 918 1240 m -3 Y s
 922 1240 m -3 Y s 926 1237 m -4 Y s 930 1233 m -4 Y s 933 1229 m -4 Y s 937 1229 m -4 Y s 941 1229 m -4 Y s 945 1225 m -4 Y s 949 1221 m cl s 952 1221 m cl s 956 1221 m -3 Y s 960 1218 m cl s 964 1218 m cl s 968 1218 m cl s 971 1218 m -4 Y s 975
 1214 m -4 Y s 979 1210 m -4 Y s 983 1206 m cl s 987 1206 m cl s 990 1206 m cl s 994 1206 m cl s 998 1206 m -4 Y s 1002 1202 m -3 Y s 1006 1202 m cl s 1009 1202 m -3 Y s 1013 1202 m -3 Y s 1017 1202 m -3 Y s 1021 1202 m -3 Y s 1025 1199 m -8 Y s 1028
 1191 m -4 Y s 1032 1187 m -4 Y s 1036 1183 m cl s 1040 1183 m -7 Y s 1044 1176 m -4 Y s 1047 1172 m -8 Y s 1051 1168 m -8 Y s 1055 1160 m -3 Y s 1059 1157 m -4 Y s 1063 1153 m -4 Y s 1067 1149 m -4 Y s 1070 1145 m -7 Y s 1074 1138 m -4 Y s 1078 1138
 m -8 Y s 1082 1130 m -4 Y s 1086 1130 m -4 Y s 1089 1126 m -4 Y s 1093 1122 m cl s 1097 1122 m -3 Y s 1101 1119 m -4 Y s 1105 1115 m -8 Y s 1108 1111 m -4 Y s 1112 1107 m -4 Y s 1116 1103 m -7 Y s 1120 1096 m -4 Y s 1124 1092 m cl s 1127 1096 m -8 Y
 s 1131 1092 m -4 Y s 1135 1088 m -7 Y s 1139 1081 m -4 Y s 1143 1077 m cl s 1146 1077 m -4 Y s 1150 1073 m -4 Y s 1154 1069 m -4 Y s 1158 1065 m -3 Y s 1162 1062 m -4 Y s 1165 1058 m -4 Y s 1169 1050 m -7 Y s 1173 1043 m -8 Y s 1177 1031 m -4 Y s
 1181 1027 m -7 Y s 1184 1020 m -8 Y s 1188 1012 m -8 Y s 1192 1004 m -3 Y s 1196 1001 m -4 Y s 1200 997 m -4 Y s 1203 993 m -8 Y s 1207 989 m -7 Y s 1211 985 m -7 Y s 1215 978 m -4 Y s 1219 974 m -4 Y s 1223 970 m -7 Y s 1226 966 m -7 Y s 1230 959 m
 -4 Y s 1234 955 m -4 Y s 1238 955 m -4 Y s 1242 951 m -4 Y s 1245 947 m -3 Y s 1249 944 m -4 Y s 1253 940 m -8 Y s 1257 932 m -4 Y s 1261 928 m -3 Y s 1264 925 m -4 Y s 1268 921 m -8 Y s 1272 913 m -4 Y s 1276 909 m -3 Y s 1280 906 m -4 Y s 1283 898
 m -4 Y s 1287 894 m -4 Y s 1291 890 m -3 Y s 1295 887 m -4 Y s 1299 883 m -4 Y s 1302 879 m -4 Y s 1306 875 m -4 Y s 1310 871 m -3 Y s 1314 868 m -4 Y s 1318 864 m -8 Y s 1321 856 m cl s 1325 856 m -4 Y s 1329 856 m -4 Y s 1333 852 m -4 Y s 1337 848
 m cl s 1340 848 m -3 Y s 1344 845 m -4 Y s 1348 841 m -8 Y s 1352 833 m -4 Y s 1356 829 m -3 Y s 1359 826 m -8 Y s 1363 818 m cl s 1367 818 m -8 Y s 1371 810 m -3 Y s 1375 807 m -8 Y s 1379 799 m -8 Y s 1382 791 m -3 Y s 1386 788 m cl s 1390 788 m
 -4 Y s 1394 784 m -8 Y s 1398 776 m -4 Y s 1401 772 m -3 Y s 1405 769 m cl s 1409 769 m cl s 1413 769 m -12 Y s 1417 757 m -4 Y s 1420 753 m cl s 1424 753 m -3 Y s 1428 750 m -4 Y s 1432 746 m -4 Y s 1436 742 m -4 Y s 1439 738 m cl s 1443 738 m -4 Y
 s 1447 734 m -3 Y s 1451 731 m -4 Y s 1455 727 m -8 Y s 1458 719 m -7 Y s 1462 712 m -4 Y s 1466 708 m -4 Y s 1470 704 m -4 Y s 1474 700 m -8 Y s 1477 692 m -7 Y s 1481 685 m -4 Y s 1485 681 m -8 Y s 1489 673 m -3 Y s 1493 666 m -4 Y s 1496 662 m -4
 Y s 1500 658 m -11 Y s 1504 647 m -4 Y s 1508 643 m -4 Y s 1512 639 m -7 Y s 1515 632 m cl s 1519 632 m -8 Y s 1523 624 m -4 Y s 1527 620 m -7 Y s 1531 613 m -4 Y s 1535 609 m -8 Y s 1538 601 m -11 Y s 1542 590 m cl s 1546 590 m -8 Y s 1550 582 m -4
 Y s 1554 578 m -3 Y s 1557 575 m -4 Y s 1561 571 m -8 Y s 1565 563 m cl s 1569 563 m -11 Y s 1573 552 m -12 Y s 1576 540 m -4 Y s 1580 533 m -8 Y s 1584 525 m -8 Y s 1588 517 m -7 Y s 1592 510 m -8 Y s 1595 502 m cl s 1599 502 m -7 Y s 1603 495 m cl
 s 1607 495 m -4 Y s 1611 491 m -4 Y s 1614 487 m -4 Y s 1618 483 m -7 Y s 1622 476 m cl s 1626 476 m -4 Y s 1630 472 m -4 Y s 1633 468 m cl s 1637 468 m -8 Y s 1641 460 m -3 Y s 1645 457 m -4 Y s 1649 453 m -4 Y s 1652 449 m -4 Y s 1656 445 m -7 Y s
 1660 438 m cl s 1664 438 m -4 Y s 1668 434 m cl s 1671 434 m -4 Y s 1675 430 m -4 Y s 1679 426 m cl s 1683 426 m -7 Y s 1687 419 m -4 Y s 1691 415 m -8 Y s 1694 407 m -4 Y s 1698 403 m -3 Y s 1702 400 m -8 Y s 1706 392 m cl s 1710 392 m cl s 1713
 392 m cl s 1717 392 m -8 Y s 1721 388 m -4 Y s 1725 384 m -4 Y s 1729 380 m -3 Y s 1732 377 m -4 Y s 1736 373 m -4 Y s 1740 369 m cl s 1744 369 m cl s 1748 369 m cl s 1751 369 m -4 Y s 1755 365 m -4 Y s 1759 361 m -3 Y s 1763 358 m cl s 1767 358 m
 cl s 1770 358 m -4 Y s 1774 354 m cl s 1778 354 m cl s 1782 354 m -4 Y s 1786 350 m cl s 1789 350 m cl s 1793 350 m cl s 1797 350 m -4 Y s 1801 346 m -4 Y s 1805 350 m -4 Y s 1808 350 m cl s 1812 354 m -4 Y s 1816 350 m -4 Y s 1820 346 m cl s 1824
 346 m -4 Y s 1827 342 m -3 Y s 1831 339 m -4 Y s 1835 335 m -4 Y s 1839 331 m cl s 1843 331 m cl s 1847 331 m cl s 1850 331 m cl s 1854 331 m -4 Y s 1858 327 m cl s 1862 327 m -7 Y s 1866 320 m -8 Y s 1869 312 m cl s 1873 312 m cl s 1877 312 m cl s
 1881 312 m cl s 1885 312 m cl s 1888 312 m cl s 1892 312 m -4 Y s 1896 308 m cl s 1900 308 m -4 Y s 1904 304 m cl s 1907 304 m -3 Y s 1911 301 m -4 Y s 1915 297 m -4 Y s 1919 293 m -15 Y s 1923 278 m -12 Y s 1926 266 m -15 Y s 1930 251 m cl s 1934
 251 m cl s 1938 251 m cl s 1942 251 m cl s 1945 251 m cl s 1949 251 m -4 Y s 1953 247 m -23 Y s 1957 224 m cl s 1961 224 m cl s 1964 224 m cl s 1968 224 m cl s 1972 224 m cl s 1976 224 m cl s 1980 224 m cl s 1983 224 m cl s 1987 224 m cl s 1991 224
 m cl s 1995 224 m cl s 1999 224 m cl s 2003 224 m cl s 2006 224 m cl s 2010 224 m cl s 2014 224 m cl s 2018 224 m cl s 2022 224 m cl s 2025 224 m cl s 2029 224 m cl s 2033 224 m cl s 2037 224 m cl s 2041 224 m cl s 245 1206 m 3 X s 248 1206 m 84 X 4
 -4 d 61 X 4 4 d 121 X 4 4 d 50 X 3 4 d 31 X 4 4 d 38 X 4 3 d 64 X 4 4 d 19 X 4 4 d 11 X 4 4 d 19 X 4 4 d 11 X 4 3 d 8 X 4 4 d 7 X 4 -4 d 23 X 4 -3 d 19 X 3 3 d 12 X 4 -3 d 3 3 d 31 X 4 -3 d 4 -4 d 3 -4 d 8 X 4 -4 d 4 -4 d 7 X 4 -3 d 11 X 4 -4 d 4 -4
 d 4 -4 d 15 X 4 -4 d 19 X 4 -7 d 3 -4 d 4 -4 d 4 -4 d 4 -3 d 4 -4 d 3 -8 d 4 -4 d 4 -4 d 4 -3 d 4 -4 d 4 -4 d 3 -8 d 4 -3 d 4 -4 d 4 -4 d 4 X 3 -4 d 4 -4 d 4 X 4 -3 d 4 -8 d 3 X 4 -4 d 4 -7 d 4 -4 d 4 -4 d 7 X 4 -8 d 4 -3 d 4 -4 d 3 X 4 -4 d 4 -4 d
 4 -4 d 4 -3 d 3 -4 d 4 -12 d 4 -7 d 4 -8 d 4 -7 d 3 -8 d 4 -8 d 4 -4 d 4 -3 d 4 -4 d 3 -8 d 4 -4 d 4 -3 d 4 -4 d 4 -4 d 4 -8 d 3 -3 d 4 -4 d 4 -4 d 4 X 4 -4 d 3 -4 d 4 -3 d 4 -8 d 4 -4 d 4 -4 d 3 -3 d 4 -8 d 4 -4 d 4 -4 d 4 -3 d 3 -8 d 4 -4 d 4 -4 d
 4 -3 d 4 -4 d 3 -4 d 4 -4 d 4 -4 d 4 -3 d 4 -8 d 3 -4 d 8 X 4 -4 d 4 -4 d 3 X 4 -3 d 4 -8 d 4 -4 d 4 -4 d 3 -7 d 4 -4 d 4 -4 d 4 -4 d 4 -7 d 4 -8 d 3 -4 d 4 -3 d 4 X 4 -8 d 4 -4 d 3 -4 d 4 -3 d 4 X 4 -4 d 4 -8 d 3 -4 d 4 X 4 -3 d 4 -4 d 4 -4 d 3 -4
 d 4 X 4 -4 d 4 -3 d 4 -8 d 3 -8 d 4 -3 d 4 -4 d 4 -4 d 4 -8 d 3 -7 d 4 -4 d 4 -8 d 4 -4 d 4 -7 d 3 -4 d 4 -8 d 4 -7 d 4 -4 d 4 -8 d 3 -3 d 4 -4 d 4 -4 d 4 -8 d 4 -3 d 4 -8 d 3 -8 d 4 -7 d 4 -4 d 4 -4 d 4 -4 d 3 -3 d 4 -8 d 4 -4 d 4 -4 d 4 -11 d 3 -8
 d 4 -11 d 4 -8 d 4 -7 d 4 -8 d 3 -4 d 4 -4 d 4 -3 d 4 X 4 -4 d 3 -4 d 4 -8 d 4 -3 d 4 X 4 -4 d 3 -4 d 4 -4 d 4 -4 d 4 -3 d 4 -4 d 3 -4 d 4 -8 d 4 -3 d 4 X 4 -4 d 3 X 4 -4 d 4 -4 d 4 -4 d 4 -3 d 4 -8 d 3 -4 d 4 -4 d 4 -7 d 4 -4 d 7 X 4 -4 d 4 X 4 -4
 d 4 -4 d 3 -3 d 4 -4 d 4 -4 d 11 X 4 -4 d 4 -4 d 4 -3 d 7 X 4 -4 d 8 X 4 -4 d 11 X 4 -4 d 4 4 d 3 X 4 4 d 4 -4 d 4 -4 d 4 X 3 -4 d 4 -3 d 4 -4 d 4 -4 d 15 X 4 -4 d 4 -4 d 4 -7 d 3 -4 d 23 X 4 -4 d 4 X 4 -4 d 3 X 4 -3 d 4 -4 d 4 -12 d 4 -11 d 3 -15 d
 4 -8 d 19 X 4 -15 d 4 -12 d 84 X s black 3 lw 245 202 m 1796 X s 280 242 m -40 Y s 333 222 m -20 Y s 386 222 m -20 Y s 439 222 m -20 Y s 492 242 m -40 Y s 545 222 m -20 Y s 598 222 m -20 Y s 651 222 m -20 Y s 704 242 m -40 Y s 757 222 m -20 Y s 810
 222 m -20 Y s 863 222 m -20 Y s 916 242 m -40 Y s 969 222 m -20 Y s 1022 222 m -20 Y s 1075 222 m -20 Y s 1128 242 m -40 Y s 1181 222 m -20 Y s 1234 222 m -20 Y s 1287 222 m -20 Y s 1340 242 m -40 Y s 1393 222 m -20 Y s 1446 222 m -20 Y s 1499 222 m
 -20 Y s 1552 242 m -40 Y s 1605 222 m -20 Y s 1658 222 m -20 Y s 1711 222 m -20 Y s 1764 242 m -40 Y s 1817 222 m -20 Y s 1870 222 m -20 Y s 1923 222 m -20 Y s 1976 242 m -40 Y s 280 242 m -40 Y s 1976 242 m -40 Y s 2029 222 m -20 Y s 245 202 m 1143
 Y s 291 202 m -46 X s 268 254 m -23 X s 268 306 m -23 X s 268 358 m -23 X s 291 410 m -46 X s 268 462 m -23 X s 268 514 m -23 X s 268 566 m -23 X s 291 618 m -46 X s 268 670 m -23 X s 268 722 m -23 X s 268 774 m -23 X s 291 826 m -46 X s 268 878 m
 -23 X s 268 930 m -23 X s 268 982 m -23 X s 291 1034 m -46 X s 268 1086 m -23 X s 268 1137 m -23 X s 268 1189 m -23 X s 291 1241 m -46 X s 291 1241 m -46 X s 268 1293 m -23 X s 268 1345 m -23 X s 0.490196 0.545098 0.615686 c 0.95 0.95 0.95 c
 0.490196 0.545098 0.615686 c 907 202 245 1345 bl 245 1345 m 907 X s 1152 1345 m 202 Y s 1152 1547 m -907 X s 245 1547 m -202 Y s black
 gsave  2268 1682 0 0 C 517.039 1473.94 t 0 r /Times-Italic findfont 57.0734 sf 0 0 m (Signal efficiency) show NC gr  0 0 0.933333 c 9 lw 286 1497 m 190 X s black
 gsave  2268 1682 0 0 C 517.039 1373.03 t 0 r /Times-Italic findfont 57.0734 sf 0 0 m (Background efficiency) show NC gr  1 0 0 c 286 1396 m 190 X s 0.490196 0.545098 0.615686 c 3 lw 0.95 0.95 0.95 c 0.490196 0.545098 0.615686 c 889 202 1152 1345 bl
 1152 1345 m 889 X s 2041 1345 m 202 Y s 2041 1547 m -889 X s 1152 1547 m -202 Y s black
 gsave  2268 1682 0 0 C 1418.68 1490.76 t 0 r /Times-Italic findfont 57.0734 sf 0 0 m (Signal purity) show NC gr  0 0 0.933333 c[  52 12 ] 0 sd 6 lw 1192 1514 m 187 X s black
 gsave  2268 1682 0 0 C 1418.68 1423.49 t 0 r /Times-Italic findfont 57.0734 sf 0 0 m (Signal efficiency*purity) show NC gr  0 0 0.933333 c[  22 12 ] 0 sd 1192 1446 m 187 X s black
 gsave  2268 1682 0 0 C 1418.68 1356.22 t 0 r /Times-Italic findfont 57.0734 sf 0 0 m (S/#sqrt{S+B}) show NC gr  0 0.666667 0 c[  ] 0 sd 9 lw 1192 1379 m 187 X s black 3 lw 245 1241 m 1796 X s
 gsave  2268 1682 0 0 C 338.636 388.099 t 0 r /Helvetica-Bold findfont 53.2685 sf 0 0 m (For 1000 signal and 1000 background) show NC gr 
 gsave  2268 1682 0 0 C 1061.57 319.611 t 0 r /Helvetica-Bold findfont 53.2685 sf 0 0 m ( is) show NC gr 
 gsave  2268 1682 0 0 C 958.833 319.611 t 0 r /Helvetica-Bold findfont 53.2685 sf 0 0 m (S+B) show NC gr  6 lw 936 361 m 8 -45 d s 0 lw 944 316 m 7 61 d s 951 377 m 111 X s
 gsave  2268 1682 0 0 C 338.636 319.611 t 0 r /Helvetica-Bold findfont 53.2685 sf 0 0 m (events the maximum S/) show NC gr 
 gsave  2268 1682 0 0 C 338.636 254.928 t 0 r /Helvetica-Bold findfont 53.2685 sf 0 0 m (23.22 when cutting at  0.31) show NC gr  0.490196 0.545098 0.615686 c 3 lw 0.364706 0.419608 0.490196 c 1476 96 23 1577 bf 0.490196 0.545098 0.615686 c 23 1577 m
 1476 X s 1499 1577 m 96 Y s 1499 1673 m -1476 X s 23 1673 m -96 Y s 1 1 1 c black 1 1 1 c
 gsave  2268 1682 0 0 C 76.0979 1605.67 t 0 r /Helvetica-Bold findfont 76.0979 sf 0 0 m (Cut efficiencies and optimal cut value) show NC gr  0 0.666667 0 c 2041 202 m 1143 Y s black 0 0.666667 0 c
 gsave  2268 1682 0 0 C 2203.03 966.443 t 90 r /Helvetica-Bold findfont 64.6832 sf 0 0 m (Significance) show NC gr  1995 202 m 46 X s 2018 247 m 23 X s 2018 291 m 23 X s 2018 336 m 23 X s 2018 381 m 23 X s 1995 426 m 46 X s 2018 471 m 23 X s 2018 515
 m 23 X s 2018 560 m 23 X s 2018 605 m 23 X s 1995 650 m 46 X s 2018 694 m 23 X s 2018 739 m 23 X s 2018 784 m 23 X s 2018 829 m 23 X s 1995 874 m 46 X s 2018 918 m 23 X s 2018 963 m 23 X s 2018 1008 m 23 X s 2018 1053 m 23 X s 1995 1097 m 46 X s
 2018 1142 m 23 X s 2018 1187 m 23 X s 2018 1232 m 23 X s 2018 1277 m 23 X s 1995 1321 m 46 X s 1995 1321 m 46 X s black 0 0.666667 0 c
 gsave  2268 1682 0 0 C 2050.84 178.83 t 0 r /Helvetica-Bold findfont 64.6832 sf 0 0 m (0) show NC gr  black 0 0.666667 0 c
 gsave  2268 1682 0 0 C 2050.84 399.514 t 0 r /Helvetica-Bold findfont 64.6832 sf 0 0 m (5) show NC gr  black 0 0.666667 0 c
 gsave  2268 1682 0 0 C 2050.84 624.003 t 0 r /Helvetica-Bold findfont 64.6832 sf 0 0 m (10) show NC gr  black 0 0.666667 0 c
 gsave  2268 1682 0 0 C 2050.84 848.491 t 0 r /Helvetica-Bold findfont 64.6832 sf 0 0 m (15) show NC gr  black 0 0.666667 0 c
 gsave  2268 1682 0 0 C 2050.84 1072.98 t 0 r /Helvetica-Bold findfont 64.6832 sf 0 0 m (20) show NC gr  black 0 0.666667 0 c
 gsave  2268 1682 0 0 C 2050.84 1297.47 t 0 r /Helvetica-Bold findfont 64.6832 sf 0 0 m (25) show NC gr 
 gr  gr showpage
end
%%EOF
