%!PS-Adobe-2.0 EPSF-2.0
%%BoundingBox:  0 0 567 420
%%Title: plots/mvaeffs_LikelihoodKDE.eps: Cut efficiencies for LikelihoodKDE classifier
%%Creator: ROOT Version 5.34/09
%%CreationDate: Thu Jan  2 18:35:58 2014
%%EndComments
%%BeginProlog
80 dict begin
/s {stroke} def /l {lineto} def /m {moveto} def /t {translate} def
/r {rotate} def /rl {roll}  def /R {repeat} def
/d {rlineto} def /rm {rmoveto} def /gr {grestore} def /f {eofill} def
/c {setrgbcolor} def /black {0 setgray} def /sd {setdash} def
/cl {closepath} def /sf {scalefont setfont} def /lw {setlinewidth} def
/box {m dup 0 exch d exch 0 d 0 exch neg d cl} def
/NC{systemdict begin initclip end}def/C{NC box clip newpath}def
/bl {box s} def /bf {box f} def /Y { 0 exch d} def /X { 0 d} def 
/K {{pop pop 0 moveto} exch kshow} bind def
/ita {/ang 15 def gsave [1 0 ang dup sin exch cos div 1 0 0] concat} def 
/mp {newpath /y exch def /x exch def} def
/side {[w .77 mul w .23 mul] .385 w mul sd w 0 l currentpoint t -144 r} def
/mr {mp x y w2 0 360 arc} def /m24 {mr s} def /m20 {mr f} def
/mb {mp x y w2 add m w2 neg 0 d 0 w neg d w 0 d 0 w d cl} def
/mt {mp x y w2 add m w2 neg w neg d w 0 d cl} def
/m21 {mb f} def /m25 {mb s} def /m22 {mt f} def /m26{mt s} def
/m23 {mp x y w2 sub m w2 w d w neg 0 d cl f} def
/m27 {mp x y w2 add m w3 neg w2 neg d w3 w2 neg d w3 w2 d cl s} def
/m28 {mp x w2 sub y w2 sub w3 add m w3 0 d  0 w3 neg d w3 0 d 0 w3 d w3 0 d  0 w3 d w3 neg 0 d 0 w3 d w3 neg 0 d 0 w3 neg d w3 neg 0 d cl s } def
/m29 {mp gsave x w2 sub y w2 add w3 sub m currentpoint t 4 {side} repeat cl fill gr} def
/m30 {mp gsave x w2 sub y w2 add w3 sub m currentpoint t 4 {side} repeat cl s gr} def
/m31 {mp x y w2 sub m 0 w d x w2 sub y m w 0 d x w2 sub y w2 add m w w neg d x w2 sub y w2 sub m w w d s} def
/m32 {mp x y w2 sub m w2 w d w neg 0 d cl s} def
/m33 {mp x y w2 add m w3 neg w2 neg d w3 w2 neg d w3 w2 d cl f} def
/m34 {mp x w2 sub y w2 sub w3 add m w3 0 d  0 w3 neg d w3 0 d 0 w3 d w3 0 d  0 w3 d w3 neg 0 d 0 w3 d w3 neg 0 d 0 w3 neg d w3 neg 0 d cl f } def
/m2 {mp x y w2 sub m 0 w d x w2 sub y m w 0 d s} def
/m5 {mp x w2 sub y w2 sub m w w d x w2 sub y w2 add m w w neg d s} def
/reEncode {exch findfont dup length dict begin {1 index /FID eq  {pop pop} {def} ifelse } forall /Encoding exch def currentdict end dup /FontName get exch definefont pop } def [/Times-Bold /Times-Italic /Times-BoldItalic /Helvetica /Helvetica-Oblique
 /Helvetica-Bold /Helvetica-BoldOblique /Courier /Courier-Oblique /Courier-Bold /Courier-BoldOblique /Times-Roman /AvantGarde-Book /AvantGarde-BookOblique /AvantGarde-Demi /AvantGarde-DemiOblique /Bookman-Demi /Bookman-DemiItalic /Bookman-Light
 /Bookman-LightItalic /Helvetica-Narrow /Helvetica-Narrow-Bold /Helvetica-Narrow-BoldOblique /Helvetica-Narrow-Oblique /NewCenturySchlbk-Roman /NewCenturySchlbk-Bold /NewCenturySchlbk-BoldItalic /NewCenturySchlbk-Italic /Palatino-Bold
 /Palatino-BoldItalic /Palatino-Italic /Palatino-Roman ] {ISOLatin1Encoding reEncode } forall
%%EndProlog
%%BeginSetup
%%EndSetup
newpath  gsave  .25 .25 scale  gsave  0 0 t 0.490196 0.545098 0.615686 c[  ] 0 sd 3 lw 0.941176 0.941176 0.941176 c 2268 1682 0 0 bf black 1 1 0.992157 c 1796 1143 245 202 bf black 1796 1143 245 202 bl 1 1 0.992157 c 1796 1143 245 202 bf black 1796
 1143 245 202 bl 245 202 m 1796 X s[ 4 8] 0 sd 269 1345 m -1143 Y s 510 1345 m -1143 Y s 750 1345 m -1143 Y s 991 1345 m -1143 Y s 1231 1345 m -1143 Y s 1472 1345 m -1143 Y s 1712 1345 m -1143 Y s 1952 1345 m -1143 Y s 269 1345 m -1143 Y s 1952 1345
 m -1143 Y s[  ] 0 sd 245 202 m 1143 Y s[ 4 8] 0 sd 2041 202 m -1796 X s 2041 410 m -1796 X s 2041 618 m -1796 X s 2041 826 m -1796 X s 2041 1034 m -1796 X s 2041 1241 m -1796 X s 2041 1241 m -1796 X s 0 0 0.933333 c[  22 12 ] 0 sd 6 lw 0.49 0.6 0.82
 c black 0 0 0.933333 c 245 723 m cl s 248 723 m cl s 252 723 m cl s 256 723 m cl s 260 723 m cl s 264 723 m cl s 267 723 m cl s 271 723 m cl s 275 723 m cl s 279 723 m cl s 283 723 m cl s 287 723 m cl s 290 723 m cl s 294 723 m cl s 298 723 m cl s
 302 723 m cl s 306 723 m cl s 309 727 m -4 Y s 313 727 m -4 Y s 317 727 m cl s 321 727 m cl s 325 727 m cl s 328 727 m -4 Y s 332 727 m -4 Y s 336 727 m -4 Y s 340 723 m cl s 344 723 m cl s 347 723 m cl s 351 723 m cl s 355 723 m cl s 359 723 m cl s
 363 727 m -4 Y s 366 727 m -4 Y s 370 727 m cl s 374 727 m -4 Y s 378 727 m -4 Y s 382 727 m -4 Y s 385 727 m -4 Y s 389 727 m -4 Y s 393 723 m cl s 397 723 m cl s 401 723 m cl s 404 723 m cl s 408 723 m cl s 412 727 m -4 Y s 416 727 m -4 Y s 420
 723 m cl s 423 723 m -4 Y s 427 719 m cl s 431 719 m cl s 435 719 m cl s 439 719 m cl s 443 719 m cl s 446 719 m -4 Y s 450 719 m -4 Y s 454 719 m cl s 458 719 m cl s 462 719 m -4 Y s 465 715 m cl s 469 719 m -4 Y s 473 719 m -4 Y s 477 715 m cl s
 481 715 m cl s 484 715 m cl s 488 715 m cl s 492 715 m cl s 496 715 m cl s 500 715 m cl s 503 719 m -4 Y s 507 719 m -4 Y s 511 715 m cl s 515 715 m cl s 519 715 m cl s 522 715 m cl s 526 715 m cl s 530 715 m -3 Y s 534 712 m cl s 538 712 m cl s 541
 712 m cl s 545 712 m cl s 549 712 m cl s 553 712 m cl s 557 712 m -4 Y s 560 708 m cl s 564 708 m cl s 568 708 m cl s 572 708 m cl s 576 708 m -4 Y s 579 704 m cl s 583 704 m cl s 587 704 m cl s 591 704 m cl s 595 704 m cl s 599 704 m cl s 602 704 m
 -4 Y s 606 700 m cl s 610 700 m -4 Y s 614 696 m cl s 618 696 m -4 Y s 621 692 m cl s 625 692 m -3 Y s 629 689 m cl s 633 689 m -4 Y s 637 685 m cl s 640 685 m -4 Y s 644 681 m cl s 648 681 m cl s 652 681 m -4 Y s 656 677 m cl s 659 677 m -4 Y s 663
 673 m cl s 667 673 m cl s 671 673 m -3 Y s 675 670 m cl s 678 670 m -4 Y s 682 666 m cl s 686 666 m -4 Y s 690 662 m cl s 694 662 m cl s 697 662 m cl s 701 662 m cl s 705 662 m -4 Y s 709 658 m cl s 713 658 m cl s 716 658 m -4 Y s 720 654 m cl s 724
 654 m cl s 728 654 m -3 Y s 732 654 m -3 Y s 735 651 m cl s 739 651 m cl s 743 651 m -4 Y s 747 647 m cl s 751 647 m cl s 755 647 m cl s 758 647 m -4 Y s 762 643 m cl s 766 643 m -4 Y s 770 639 m cl s 774 639 m cl s 777 639 m cl s 781 639 m cl s 785
 639 m -4 Y s 789 635 m cl s 793 635 m cl s 796 635 m -3 Y s 800 635 m -3 Y s 804 635 m -3 Y s 808 635 m -3 Y s 812 632 m cl s 815 632 m cl s 819 632 m -4 Y s 823 628 m cl s 827 628 m cl s 831 628 m cl s 834 624 m cl s 838 624 m cl s 842 624 m -4 Y s
 846 620 m -4 Y s 850 616 m cl s 853 616 m cl s 857 616 m -3 Y s 861 613 m -4 Y s 865 609 m cl s 869 609 m cl s 872 609 m cl s 876 609 m cl s 880 609 m cl s 884 609 m -4 Y s 888 605 m cl s 891 605 m cl s 895 605 m cl s 899 605 m cl s 903 609 m -4 Y s
 907 609 m -4 Y s 911 609 m -4 Y s 914 609 m -4 Y s 918 609 m -4 Y s 922 609 m cl s 926 609 m -4 Y s 930 609 m -4 Y s 933 605 m cl s 937 605 m cl s 941 605 m -4 Y s 945 601 m -4 Y s 949 601 m -4 Y s 952 597 m cl s 956 597 m -3 Y s 960 594 m -4 Y s
 964 594 m -4 Y s 968 590 m cl s 971 590 m -4 Y s 975 590 m -4 Y s 979 586 m -4 Y s 983 582 m cl s 987 582 m -4 Y s 990 578 m -19 Y s 994 559 m cl s 998 559 m -3 Y s 1002 556 m -4 Y s 1006 552 m -4 Y s 1009 548 m cl s 1013 544 m cl s 1017 544 m cl s
 1021 544 m -4 Y s 1025 540 m cl s 1028 544 m -4 Y s 1032 540 m cl s 1036 540 m -4 Y s 1040 536 m -7 Y s 1044 529 m cl s 1047 529 m -4 Y s 1051 525 m -4 Y s 1055 521 m cl s 1059 521 m cl s 1063 521 m -4 Y s 1067 517 m -3 Y s 1070 514 m cl s 1074 514
 m -4 Y s 1078 510 m -4 Y s 1082 506 m cl s 1086 506 m -4 Y s 1089 502 m -4 Y s 1093 498 m -3 Y s 1097 495 m cl s 1101 495 m cl s 1105 495 m -4 Y s 1108 491 m -4 Y s 1112 487 m cl s 1116 487 m cl s 1120 487 m -4 Y s 1124 483 m -4 Y s 1127 479 m -3 Y
 s 1131 476 m cl s 1135 476 m -4 Y s 1139 472 m -8 Y s 1143 464 m cl s 1146 464 m -4 Y s 1150 460 m cl s 1154 460 m -3 Y s 1158 457 m -4 Y s 1162 453 m cl s 1165 453 m cl s 1169 453 m cl s 1173 453 m -4 Y s 1177 453 m cl s 1181 453 m -4 Y s 1184 449
 m cl s 1188 449 m -4 Y s 1192 445 m -4 Y s 1196 441 m -3 Y s 1200 438 m -4 Y s 1203 434 m -4 Y s 1207 430 m -8 Y s 1211 422 m -3 Y s 1215 419 m -4 Y s 1219 415 m cl s 1223 415 m -4 Y s 1226 415 m -4 Y s 1230 411 m cl s 1234 411 m cl s 1238 411 m -8
 Y s 1242 403 m -3 Y s 1245 400 m -4 Y s 1249 396 m -4 Y s 1253 392 m -4 Y s 1257 388 m -4 Y s 1261 384 m -4 Y s 1264 380 m cl s 1268 380 m -7 Y s 1272 373 m cl s 1276 373 m -4 Y s 1280 369 m -4 Y s 1283 365 m -4 Y s 1287 361 m cl s 1291 361 m -3 Y s
 1295 358 m -4 Y s 1299 354 m cl s 1302 354 m -4 Y s 1306 350 m cl s 1310 350 m -4 Y s 1314 346 m -4 Y s 1318 342 m -3 Y s 1321 339 m -4 Y s 1325 335 m -4 Y s 1329 331 m cl s 1333 331 m -4 Y s 1337 327 m cl s 1340 327 m -7 Y s 1344 320 m cl s 1348
 320 m -4 Y s 1352 320 m -4 Y s 1356 316 m -4 Y s 1359 312 m -4 Y s 1363 308 m -7 Y s 1367 301 m cl s 1371 301 m -4 Y s 1375 297 m -4 Y s 1379 293 m cl s 1382 293 m -4 Y s 1386 289 m -4 Y s 1390 285 m -3 Y s 1394 282 m -4 Y s 1398 278 m cl s 1401 278
 m -4 Y s 1405 274 m -4 Y s 1409 270 m cl s 1413 270 m cl s 1417 270 m cl s 1420 270 m -4 Y s 1424 266 m -3 Y s 1428 263 m cl s 1432 263 m -4 Y s 1436 259 m cl s 1439 259 m -4 Y s 1443 255 m cl s 1447 255 m -4 Y s 1451 251 m cl s 1455 251 m cl s 1458
 251 m cl s 1462 251 m -4 Y s 1466 247 m cl s 1470 247 m cl s 1474 247 m cl s 1477 247 m cl s 1481 247 m cl s 1485 244 m cl s 1489 244 m cl s 1493 244 m cl s 1496 244 m -4 Y s 1500 240 m cl s 1504 240 m cl s 1508 240 m cl s 1512 240 m cl s 1515 240 m
 cl s 1519 240 m cl s 1523 240 m -4 Y s 1527 236 m cl s 1531 236 m cl s 1535 236 m cl s 1538 236 m -4 Y s 1542 232 m cl s 1546 236 m -4 Y s 1550 232 m cl s 1554 232 m cl s 1557 232 m cl s 1561 232 m cl s 1565 232 m cl s 1569 232 m cl s 1573 232 m cl
 s 1576 232 m cl s 1580 232 m -4 Y s 1584 232 m -4 Y s 1588 232 m -4 Y s 1592 232 m cl s 1595 232 m cl s 1599 232 m cl s 1603 232 m -4 Y s 1607 228 m cl s 1611 228 m cl s 1614 228 m cl s 1618 228 m cl s 1622 228 m cl s 1626 228 m -4 Y s 1630 228 m cl
 s 1633 228 m -4 Y s 1637 224 m cl s 1641 224 m cl s 1645 224 m cl s 1649 224 m cl s 1652 224 m cl s 1656 224 m cl s 1660 224 m cl s 1664 224 m -3 Y s 1668 221 m cl s 1671 221 m cl s 1675 221 m cl s 1679 221 m cl s 1683 221 m cl s 1687 221 m cl s
 1691 221 m cl s 1694 221 m cl s 1698 221 m cl s 1702 221 m cl s 1706 221 m cl s 1710 221 m cl s 1713 221 m cl s 1717 221 m cl s 1721 221 m cl s 1725 221 m cl s 1729 221 m cl s 1732 221 m cl s 1736 221 m cl s 1740 221 m cl s 1744 217 m cl s 1748 217
 m cl s 1751 217 m cl s 1755 217 m cl s 1759 217 m cl s 1763 217 m cl s 1767 217 m cl s 1770 217 m cl s 1774 217 m cl s 1778 217 m cl s 1782 217 m cl s 1786 217 m cl s 1789 217 m cl s 1793 217 m cl s 1797 217 m cl s 1801 217 m cl s 1805 217 m cl s
 1808 217 m cl s 1812 217 m cl s 1816 217 m cl s 1820 217 m cl s 1824 217 m cl s 1827 217 m cl s 1831 217 m cl s 1835 217 m cl s 1839 217 m cl s 1843 217 m cl s 1847 217 m cl s 1850 217 m cl s 1854 217 m cl s 1858 217 m cl s 1862 217 m cl s 1866 217
 m cl s 1869 217 m cl s 1873 217 m cl s 1877 217 m cl s 1881 217 m -4 Y s 1885 213 m cl s 1888 213 m cl s 1892 213 m cl s 1896 213 m cl s 1900 213 m cl s 1904 213 m cl s 1907 213 m cl s 1911 213 m -4 Y s 1915 209 m cl s 1919 209 m cl s 1923 209 m cl
 s 1926 213 m -4 Y s 1930 209 m cl s 1934 209 m cl s 1938 209 m cl s 1942 209 m cl s 1945 209 m cl s 1949 209 m cl s 1953 209 m cl s 1957 209 m cl s 1961 209 m cl s 1964 209 m cl s 1968 209 m cl s 1972 209 m cl s 245 723 m 61 X 3 4 d 27 X 4 -4 d 19 X
 4 4 d 26 X 4 -4 d 15 X 4 4 d 4 X 4 -4 d 3 X 4 -4 d 35 X 3 -4 d 4 4 d 4 X 4 -4 d 23 X 3 4 d 4 X 4 -4 d 19 X 4 -3 d 23 X 3 -4 d 16 X 3 -4 d 23 X 4 -4 d 4 X 4 -4 d 4 X 3 -4 d 4 X 4 -3 d 4 X 4 -4 d 3 X 4 -4 d 8 X 4 -4 d 3 X 4 -4 d 8 X 4 -3 d 3 X 4 -4 d
 4 X 4 -4 d 15 X 4 -4 d 7 X 4 -4 d 12 X 3 -3 d 8 X 4 -4 d 11 X 4 -4 d 4 X 4 -4 d 15 X 4 -4 d 19 X 4 -3 d 7 X 4 -4 d 8 X 3 -4 d 8 X 4 -4 d 4 -4 d 7 X 4 -3 d 4 -4 d 19 X 4 -4 d 11 X 4 4 d 27 X 3 -4 d 8 X 4 -4 d 4 X 3 -4 d 4 X 4 -3 d 4 X 4 -4 d 7 X 4 -4
 d 4 -4 d 4 X 3 -11 d 4 -12 d 4 X 4 -3 d 4 -4 d 3 -4 d 4 -4 d 8 X 4 -4 d 3 4 d 4 -4 d 4 X 4 -7 d 4 -4 d 3 X 4 -4 d 4 -4 d 8 X 4 -4 d 3 -3 d 4 X 4 -4 d 4 -4 d 4 X 3 -4 d 4 -4 d 4 -3 d 8 X 3 -4 d 4 -4 d 8 X 4 -4 d 3 -4 d 4 -3 d 4 X 4 -8 d 4 -4 d 3 X 4
 -4 d 4 X 4 -3 d 4 -4 d 19 X 3 -4 d 4 X 4 -4 d 4 -4 d 4 -3 d 3 -4 d 4 -8 d 4 -4 d 4 -3 d 4 -4 d 7 X 4 -4 d 4 X 4 -4 d 4 -4 d 3 -3 d 4 -4 d 4 -4 d 4 -4 d 4 -4 d 3 -4 d 4 -3 d 4 -4 d 4 X 4 -4 d 3 -4 d 4 -4 d 4 X 4 -3 d 4 -4 d 3 X 4 -4 d 4 X 4 -4 d 4 -4
 d 3 -3 d 4 -4 d 4 -4 d 4 X 4 -4 d 3 -4 d 4 -3 d 8 X 4 -4 d 3 -4 d 4 -8 d 4 -3 d 4 X 4 -4 d 4 -4 d 3 X 4 -4 d 4 -4 d 4 -3 d 4 -4 d 3 X 4 -4 d 4 -4 d 11 X 4 -4 d 4 -3 d 4 X 4 -4 d 3 X 4 -4 d 4 X 4 -4 d 11 X 4 -4 d 15 X 4 -3 d 11 X 4 -4 d 23 X 4 -4 d
 11 X 4 -4 d 4 4 d 4 -4 d 53 X 4 -4 d 26 X 4 -4 d 27 X 4 -3 d 72 X 4 -4 d 137 X 4 -4 d 26 X 4 -4 d 8 X 3 4 d 4 -4 d 42 X s black[  ] 0 sd 3 lw 245 202 m 1796 X s
 gsave  2268 1682 0 0 C 551.71 30.4391 t 0 r /Helvetica-Bold findfont 72.293 sf 0 0 m (Cut value applied on LikelihoodKDE output) show NC gr  269 242 m -40 Y s 317 222 m -20 Y s 365 222 m -20 Y s 414 222 m -20 Y s 462 222 m -20 Y s 510 242 m -40 Y s
 558 222 m -20 Y s 606 222 m -20 Y s 654 222 m -20 Y s 702 222 m -20 Y s 750 242 m -40 Y s 798 222 m -20 Y s 846 222 m -20 Y s 894 222 m -20 Y s 943 222 m -20 Y s 991 242 m -40 Y s 1039 222 m -20 Y s 1087 222 m -20 Y s 1135 222 m -20 Y s 1183 222 m
 -20 Y s 1231 242 m -40 Y s 1279 222 m -20 Y s 1327 222 m -20 Y s 1375 222 m -20 Y s 1423 222 m -20 Y s 1472 242 m -40 Y s 1520 222 m -20 Y s 1568 222 m -20 Y s 1616 222 m -20 Y s 1664 222 m -20 Y s 1712 242 m -40 Y s 1760 222 m -20 Y s 1808 222 m
 -20 Y s 1856 222 m -20 Y s 1904 222 m -20 Y s 1952 242 m -40 Y s 269 242 m -40 Y s 1952 242 m -40 Y s 2001 222 m -20 Y s
 gsave  2268 1682 0 0 C 220.684 129.366 t 0 r /Helvetica-Bold findfont 64.6832 sf 0 0 m (0.2) show NC gr 
 gsave  2268 1682 0 0 C 460.392 129.366 t 0 r /Helvetica-Bold findfont 64.6832 sf 0 0 m (0.3) show NC gr 
 gsave  2268 1682 0 0 C 703.905 129.366 t 0 r /Helvetica-Bold findfont 64.6832 sf 0 0 m (0.4) show NC gr 
 gsave  2268 1682 0 0 C 943.614 129.366 t 0 r /Helvetica-Bold findfont 64.6832 sf 0 0 m (0.5) show NC gr 
 gsave  2268 1682 0 0 C 1183.32 129.366 t 0 r /Helvetica-Bold findfont 64.6832 sf 0 0 m (0.6) show NC gr 
 gsave  2268 1682 0 0 C 1423.03 129.366 t 0 r /Helvetica-Bold findfont 64.6832 sf 0 0 m (0.7) show NC gr 
 gsave  2268 1682 0 0 C 1662.74 129.366 t 0 r /Helvetica-Bold findfont 64.6832 sf 0 0 m (0.8) show NC gr 
 gsave  2268 1682 0 0 C 1906.25 129.366 t 0 r /Helvetica-Bold findfont 64.6832 sf 0 0 m (0.9) show NC gr  245 202 m 1143 Y s
 gsave  2268 1682 0 0 C 64.6832 734.344 t 90 r /Helvetica-Bold findfont 72.293 sf 0 0 m (Efficiency \(Purity\)) show NC gr  291 202 m -46 X s 268 254 m -23 X s 268 306 m -23 X s 268 358 m -23 X s 291 410 m -46 X s 268 462 m -23 X s 268 514 m -23 X s
 268 566 m -23 X s 291 618 m -46 X s 268 670 m -23 X s 268 722 m -23 X s 268 774 m -23 X s 291 826 m -46 X s 268 878 m -23 X s 268 930 m -23 X s 268 982 m -23 X s 291 1034 m -46 X s 268 1086 m -23 X s 268 1137 m -23 X s 268 1189 m -23 X s 291 1241 m
 -46 X s 291 1241 m -46 X s 268 1293 m -23 X s 268 1345 m -23 X s
 gsave  2268 1682 0 0 C 182.635 178.83 t 0 r /Helvetica-Bold findfont 64.6832 sf 0 0 m (0) show NC gr 
 gsave  2268 1682 0 0 C 129.366 384.294 t 0 r /Helvetica-Bold findfont 64.6832 sf 0 0 m (0.2) show NC gr 
 gsave  2268 1682 0 0 C 125.561 593.563 t 0 r /Helvetica-Bold findfont 64.6832 sf 0 0 m (0.4) show NC gr 
 gsave  2268 1682 0 0 C 129.366 799.028 t 0 r /Helvetica-Bold findfont 64.6832 sf 0 0 m (0.6) show NC gr 
 gsave  2268 1682 0 0 C 125.561 1008.3 t 0 r /Helvetica-Bold findfont 64.6832 sf 0 0 m (0.8) show NC gr 
 gsave  2268 1682 0 0 C 190.245 1217.57 t 0 r /Helvetica-Bold findfont 64.6832 sf 0 0 m (1) show NC gr  0 0 0.933333 c[  52 12 ] 0 sd 6 lw 0.49 0.6 0.82 c black 0 0 0.933333 c 248 723 m cl s 252 723 m cl s 256 723 m cl s 260 723 m cl s 264 723 m cl s
 267 723 m cl s 271 723 m cl s 275 723 m cl s 279 723 m cl s 283 723 m cl s 287 723 m cl s 290 723 m cl s 294 723 m cl s 298 723 m cl s 302 727 m -4 Y s 306 727 m cl s 309 727 m cl s 313 727 m cl s 317 727 m cl s 321 727 m cl s 325 727 m cl s 328 727
 m cl s 332 727 m cl s 336 727 m cl s 340 727 m cl s 344 727 m cl s 347 727 m cl s 351 727 m cl s 355 727 m cl s 359 727 m cl s 363 731 m -4 Y s 366 731 m cl s 370 731 m cl s 374 731 m cl s 378 731 m cl s 382 731 m cl s 385 731 m cl s 389 731 m cl s
 393 731 m cl s 397 731 m cl s 401 731 m cl s 404 734 m -3 Y s 408 734 m cl s 412 734 m cl s 416 734 m cl s 420 734 m cl s 423 734 m cl s 427 734 m cl s 431 734 m cl s 435 734 m cl s 439 734 m cl s 443 734 m cl s 446 734 m cl s 450 738 m -4 Y s 454
 738 m cl s 458 738 m cl s 462 738 m cl s 465 738 m cl s 469 738 m cl s 473 742 m -4 Y s 477 742 m -4 Y s 481 742 m cl s 484 742 m cl s 488 742 m cl s 492 746 m -4 Y s 496 746 m cl s 500 746 m cl s 503 746 m cl s 507 746 m cl s 511 746 m cl s 515 746
 m cl s 519 746 m cl s 522 746 m cl s 526 750 m -4 Y s 530 750 m cl s 534 750 m cl s 538 750 m cl s 541 750 m cl s 545 750 m cl s 549 750 m cl s 553 750 m cl s 557 753 m -3 Y s 560 753 m cl s 564 753 m cl s 568 753 m cl s 572 753 m cl s 576 757 m -4
 Y s 579 757 m -4 Y s 583 757 m -4 Y s 587 757 m cl s 591 761 m -4 Y s 595 761 m cl s 599 761 m cl s 602 761 m cl s 606 761 m cl s 610 761 m cl s 614 761 m cl s 618 761 m cl s 621 761 m cl s 625 761 m cl s 629 761 m -4 Y s 633 761 m -4 Y s 637 757 m
 cl s 640 757 m cl s 644 757 m cl s 648 757 m cl s 652 757 m cl s 656 757 m cl s 659 761 m -4 Y s 663 761 m -4 Y s 667 761 m cl s 671 761 m cl s 675 761 m cl s 678 761 m cl s 682 761 m cl s 686 761 m cl s 690 761 m cl s 694 761 m cl s 697 761 m cl s
 701 765 m -4 Y s 705 765 m -4 Y s 709 765 m -4 Y s 713 765 m cl s 716 765 m cl s 720 765 m cl s 724 765 m cl s 728 769 m -4 Y s 732 769 m -4 Y s 735 769 m cl s 739 769 m cl s 743 769 m cl s 747 769 m cl s 751 769 m cl s 755 769 m cl s 758 769 m cl s
 762 772 m -3 Y s 766 772 m -3 Y s 770 772 m cl s 774 772 m cl s 777 772 m cl s 781 776 m -4 Y s 785 776 m cl s 789 776 m cl s 793 776 m cl s 796 776 m cl s 800 780 m -4 Y s 804 780 m cl s 808 780 m cl s 812 784 m -4 Y s 815 784 m -4 Y s 819 784 m cl
 s 823 784 m cl s 827 784 m cl s 831 784 m cl s 834 784 m cl s 838 784 m cl s 842 784 m cl s 846 784 m cl s 850 784 m cl s 853 788 m -4 Y s 857 788 m -4 Y s 861 784 m cl s 865 784 m cl s 869 788 m -4 Y s 872 788 m cl s 876 788 m cl s 880 791 m -3 Y s
 884 791 m -3 Y s 888 791 m cl s 891 791 m cl s 895 795 m -4 Y s 899 795 m cl s 903 799 m -4 Y s 907 799 m -4 Y s 911 799 m cl s 914 803 m -4 Y s 918 803 m cl s 922 807 m -4 Y s 926 807 m -4 Y s 930 807 m cl s 933 807 m cl s 937 810 m -3 Y s 941 810
 m -3 Y s 945 807 m cl s 949 810 m -3 Y s 952 810 m cl s 956 810 m cl s 960 810 m cl s 964 810 m cl s 968 814 m -4 Y s 971 814 m cl s 975 814 m cl s 979 814 m cl s 983 814 m cl s 987 814 m cl s 990 814 m cl s 994 818 m -4 Y s 998 818 m -4 Y s 1002
 818 m cl s 1006 818 m cl s 1009 818 m -4 Y s 1013 814 m cl s 1017 818 m -4 Y s 1021 818 m cl s 1025 818 m cl s 1028 822 m -4 Y s 1032 822 m cl s 1036 822 m cl s 1040 822 m cl s 1044 822 m -4 Y s 1047 822 m -4 Y s 1051 822 m cl s 1055 826 m -4 Y s
 1059 826 m -4 Y s 1063 826 m cl s 1067 826 m -4 Y s 1070 826 m cl s 1074 826 m -4 Y s 1078 826 m cl s 1082 826 m cl s 1086 829 m -3 Y s 1089 833 m -4 Y s 1093 833 m -4 Y s 1097 833 m cl s 1101 833 m cl s 1105 833 m cl s 1108 833 m cl s 1112 837 m -4
 Y s 1116 841 m -4 Y s 1120 845 m -4 Y s 1124 848 m -3 Y s 1127 845 m cl s 1131 845 m cl s 1135 848 m -3 Y s 1139 848 m -3 Y s 1143 848 m -3 Y s 1146 848 m -3 Y s 1150 852 m -4 Y s 1154 852 m -4 Y s 1158 852 m -4 Y s 1162 848 m cl s 1165 856 m -4 Y s
 1169 856 m cl s 1173 860 m -4 Y s 1177 864 m -4 Y s 1181 864 m -4 Y s 1184 868 m -4 Y s 1188 868 m cl s 1192 868 m -4 Y s 1196 868 m -4 Y s 1200 864 m cl s 1203 868 m -4 Y s 1207 868 m -4 Y s 1211 864 m -4 Y s 1215 864 m cl s 1219 864 m cl s 1223
 868 m -4 Y s 1226 871 m -3 Y s 1230 879 m -8 Y s 1234 879 m -4 Y s 1238 879 m cl s 1242 879 m -4 Y s 1245 879 m -4 Y s 1249 883 m -4 Y s 1253 883 m -4 Y s 1257 883 m -4 Y s 1261 879 m cl s 1264 887 m -4 Y s 1268 887 m -8 Y s 1272 883 m -4 Y s 1276
 887 m -4 Y s 1280 887 m -4 Y s 1283 887 m -8 Y s 1287 894 m -7 Y s 1291 894 m -4 Y s 1295 894 m -4 Y s 1299 902 m -8 Y s 1302 906 m -8 Y s 1306 906 m -4 Y s 1310 909 m -3 Y s 1314 909 m -3 Y s 1318 909 m -3 Y s 1321 909 m -3 Y s 1325 906 m -4 Y s
 1329 909 m -7 Y s 1333 913 m -4 Y s 1337 917 m -4 Y s 1340 921 m -8 Y s 1344 917 m -4 Y s 1348 921 m -8 Y s 1352 928 m -7 Y s 1356 928 m -7 Y s 1359 921 m -4 Y s 1363 917 m -4 Y s 1367 917 m -4 Y s 1371 917 m -4 Y s 1375 921 m -4 Y s 1379 928 m -11
 Y s 1382 932 m -7 Y s 1386 932 m -11 Y s 1390 921 m -4 Y s 1394 917 m -8 Y s 1398 917 m -11 Y s 1401 917 m -4 Y s 1405 913 m -4 Y s 1409 909 m -3 Y s 1413 925 m -19 Y s 1417 932 m -11 Y s 1420 936 m -8 Y s 1424 936 m -8 Y s 1428 932 m -4 Y s 1432
 936 m -8 Y s 1436 928 m -3 Y s 1439 925 m -8 Y s 1443 925 m -8 Y s 1447 925 m -4 Y s 1451 921 m -4 Y s 1455 925 m cl s 1458 940 m -15 Y s 1462 932 m -7 Y s 1466 928 m -3 Y s 1470 925 m cl s 1474 928 m -3 Y s 1477 944 m -16 Y s 1481 947 m -11 Y s
 1485 940 m cl s 1489 940 m -8 Y s 1493 932 m -4 Y s 1496 936 m -8 Y s 1500 940 m -12 Y s 1504 944 m -4 Y s 1508 947 m -3 Y s 1512 959 m -15 Y s 1515 959 m -4 Y s 1519 963 m -8 Y s 1523 959 m -4 Y s 1527 966 m -7 Y s 1531 966 m cl s 1535 966 m cl s
 1538 966 m -15 Y s 1542 951 m cl s 1546 970 m -19 Y s 1550 974 m -4 Y s 1554 974 m -4 Y s 1557 970 m cl s 1561 970 m -7 Y s 1565 970 m -7 Y s 1569 966 m -3 Y s 1573 963 m cl s 1576 974 m -11 Y s 1580 970 m -4 Y s 1584 970 m cl s 1588 978 m -8 Y s
 1592 985 m -7 Y s 1595 993 m -8 Y s 1599 993 m cl s 1603 993 m -11 Y s 1607 997 m -15 Y s 1611 1004 m -15 Y s 1614 1001 m -8 Y s 1618 993 m cl s 1622 993 m cl s 1626 993 m cl s 1630 1008 m cl s 1633 1008 m -4 Y s 1637 1004 m -3 Y s 1641 1001 m -4 Y
 s 1645 1001 m -12 Y s 1649 1008 m -19 Y s 1652 1004 m cl s 1656 1004 m -7 Y s 1660 1031 m -15 Y s 1664 1024 m cl s 1668 1024 m cl s 1671 1024 m cl s 1675 1024 m -8 Y s 1679 1016 m -4 Y s 1683 1012 m -4 Y s 1687 1008 m cl s 1691 1008 m -7 Y s 1694
 1024 m -23 Y s 1698 1024 m -4 Y s 1702 1054 m -34 Y s 1706 1073 m -19 Y s 1710 1073 m cl s 1713 1073 m cl s 1717 1073 m -4 Y s 1721 1069 m cl s 1725 1069 m cl s 1729 1069 m -4 Y s 1732 1065 m -3 Y s 1736 1062 m cl s 1740 1062 m -4 Y s 1744 1054 m cl
 s 1748 1054 m -4 Y s 1751 1050 m cl s 1755 1050 m cl s 1759 1050 m cl s 1763 1050 m cl s 1767 1050 m -4 Y s 1770 1046 m cl s 1774 1046 m cl s 1778 1046 m -3 Y s 1782 1088 m -45 Y s 1786 1088 m -4 Y s 1789 1096 m -12 Y s 1793 1096 m cl s 1797 1119 m
 -23 Y s 1801 1119 m cl s 1805 1119 m cl s 1808 1119 m cl s 1812 1119 m -4 Y s 1816 1126 m -11 Y s 1820 1126 m cl s 1824 1134 m -12 Y s 1827 1164 m -30 Y s 1831 1164 m cl s 1835 1164 m -4 Y s 1839 1160 m cl s 1843 1160 m cl s 1847 1176 m -16 Y s 1850
 1210 m -34 Y s 1854 1210 m -4 Y s 1858 1206 m cl s 1862 1206 m cl s 1866 1206 m cl s 1869 1206 m -4 Y s 1873 1202 m cl s 1877 1202 m cl s 1881 1202 m -3 Y s 1885 1199 m cl s 1888 1199 m cl s 1892 1199 m cl s 1896 1199 m -8 Y s 1900 1191 m cl s 1904
 1191 m cl s 1907 1187 m -4 Y s 1911 1183 m -3 Y s 1915 1180 m cl s 1919 1180 m cl s 1923 1180 m cl s 1926 1210 m -30 Y s 1930 1210 m cl s 1934 1210 m -4 Y s 1938 1206 m -4 Y s 1942 1202 m cl s 1945 1202 m cl s 1949 1202 m cl s 1953 1244 m -42 Y s
 1957 1244 m cl s 1961 1244 m cl s 1964 1244 m cl s 1968 1244 m cl s 1972 1244 m cl s 1976 1244 m cl s 1980 1244 m cl s 1983 1244 m cl s 1987 1244 m cl s 1991 1244 m cl s 1995 1244 m cl s 1999 1244 m cl s 2003 1244 m cl s 2006 1244 m cl s 2010 1244 m
 cl s 2014 1244 m cl s 2018 1244 m cl s 2022 1244 m cl s 2025 1244 m cl s 2029 1244 m cl s 2033 1244 m cl s 2037 1244 m cl s 2041 1244 m cl s 245 723 m 3 X s 248 723 m 50 X 4 4 d 57 X 4 4 d 38 X 3 3 d 42 X 4 4 d 19 X 4 4 d 15 X 4 4 d 30 X 4 4 d 27 X
 4 3 d 15 X 4 4 d 11 X 4 4 d 42 X 4 -4 d 19 X 3 4 d 38 X 4 4 d 23 X 4 4 d 30 X 4 3 d 15 X 4 4 d 15 X 4 4 d 8 X 4 4 d 38 X 3 4 d 4 X 4 -4 d 4 X 4 4 d 7 X 4 3 d 11 X 4 4 d 4 X 4 4 d 8 X 3 4 d 4 X 4 4 d 11 X 4 3 d 4 X 4 -3 d 4 3 d 15 X 4 4 d 22 X 4 4 d
 15 X 4 -4 d 4 4 d 8 X 3 4 d 23 X 4 4 d 27 X 4 3 d 3 4 d 19 X 4 4 d 4 4 d 4 4 d 4 3 d 3 -3 d 4 X 4 3 d 11 X 4 4 d 8 X 4 -4 d 3 8 d 4 X 4 4 d 4 4 d 4 X 3 4 d 12 X 4 -4 d 3 4 d 4 X 4 -4 d 8 X 4 4 d 3 3 d 4 4 d 4 4 d 11 X 4 4 d 8 X 4 -4 d 3 8 d 4 -4 d 4
 X 4 4 d 4 X 3 -4 d 4 7 d 4 4 d 4 X 4 4 d 3 4 d 4 4 d 4 3 d 11 X 4 -3 d 4 X 4 7 d 4 4 d 11 X 4 8 d 4 X 3 -4 d 4 -4 d 8 X 4 4 d 4 4 d 3 3 d 4 X 4 -7 d 4 -8 d 4 X 3 4 d 4 -4 d 4 -4 d 4 8 d 4 11 d 3 4 d 12 X 4 -4 d 3 -7 d 4 X 4 4 d 4 -4 d 4 4 d 3 7 d 4
 -4 d 4 X 4 -3 d 4 3 d 3 8 d 4 8 d 4 -4 d 4 -4 d 4 -4 d 3 X 4 4 d 4 8 d 4 3 d 4 4 d 3 8 d 8 X 4 4 d 4 3 d 4 X 3 -7 d 4 -8 d 4 12 d 4 11 d 4 X 3 -4 d 4 -4 d 8 X 4 -3 d 3 7 d 8 X 4 4 d 4 8 d 3 7 d 4 4 d 4 -4 d 4 X 4 8 d 3 X 4 -4 d 8 X 4 15 d 3 X 4 -4 d
 4 -3 d 4 -4 d 4 4 d 3 3 d 4 -3 d 4 23 d 11 X 4 -4 d 4 -4 d 4 -4 d 4 -4 d 4 -4 d 3 8 d 4 12 d 4 15 d 4 26 d 4 8 d 7 X 4 -4 d 8 X 3 -4 d 4 -3 d 4 X 4 -8 d 4 X 3 -4 d 16 X 3 -4 d 8 X 4 19 d 4 23 d 3 4 d 4 4 d 4 11 d 4 12 d 11 X 4 3 d 4 4 d 4 4 d 3 19 d
 4 15 d 4 X 4 -4 d 4 X 4 8 d 3 27 d 4 15 d 4 -4 d 11 X 4 -4 d 8 X 4 -3 d 7 X 4 -4 d 4 -4 d 4 X 3 -4 d 4 -4 d 4 -3 d 8 X 3 15 d 4 15 d 4 X 4 -4 d 4 -4 d 7 X 4 23 d 4 19 d 84 X s[  ] 0 sd 9 lw 0.49 0.6 0.82 c black 0 0 0.933333 c 248 1244 m cl s 252
 1244 m cl s 256 1244 m cl s 260 1244 m cl s 264 1244 m cl s 267 1244 m cl s 271 1244 m cl s 275 1244 m cl s 279 1244 m cl s 283 1244 m cl s 287 1244 m cl s 290 1244 m -4 Y s 294 1240 m cl s 298 1240 m cl s 302 1240 m cl s 306 1240 m cl s 309 1240 m
 cl s 313 1240 m cl s 317 1240 m cl s 321 1240 m cl s 325 1240 m cl s 328 1240 m cl s 332 1240 m cl s 336 1240 m -3 Y s 340 1237 m cl s 344 1237 m cl s 347 1237 m cl s 351 1237 m cl s 355 1237 m cl s 359 1237 m cl s 363 1237 m cl s 366 1237 m cl s
 370 1237 m -4 Y s 374 1233 m cl s 378 1233 m cl s 382 1233 m cl s 385 1233 m cl s 389 1233 m -4 Y s 393 1229 m cl s 397 1229 m -4 Y s 401 1225 m cl s 404 1225 m cl s 408 1225 m cl s 412 1225 m cl s 416 1225 m -4 Y s 420 1221 m -3 Y s 423 1218 m cl s
 427 1218 m -4 Y s 431 1214 m -4 Y s 435 1210 m cl s 439 1210 m cl s 443 1210 m -4 Y s 446 1206 m cl s 450 1206 m cl s 454 1206 m -4 Y s 458 1202 m cl s 462 1202 m cl s 465 1202 m cl s 469 1202 m cl s 473 1202 m -3 Y s 477 1199 m -4 Y s 481 1195 m -4
 Y s 484 1191 m cl s 488 1191 m cl s 492 1191 m cl s 496 1191 m -4 Y s 500 1187 m cl s 503 1187 m cl s 507 1187 m -4 Y s 511 1183 m cl s 515 1183 m cl s 519 1183 m cl s 522 1183 m -3 Y s 526 1180 m cl s 530 1180 m -4 Y s 534 1176 m cl s 538 1176 m cl
 s 541 1176 m -4 Y s 545 1172 m -4 Y s 549 1168 m -4 Y s 553 1164 m cl s 557 1164 m -4 Y s 560 1160 m cl s 564 1160 m -3 Y s 568 1157 m cl s 572 1153 m cl s 576 1153 m -4 Y s 579 1149 m -4 Y s 583 1145 m cl s 587 1145 m -4 Y s 591 1141 m cl s 595
 1141 m -3 Y s 599 1138 m -4 Y s 602 1134 m -4 Y s 606 1130 m cl s 610 1130 m -4 Y s 614 1126 m -4 Y s 618 1122 m -3 Y s 621 1119 m -4 Y s 625 1115 m -4 Y s 629 1111 m cl s 633 1111 m -4 Y s 637 1107 m -4 Y s 640 1103 m -3 Y s 644 1100 m cl s 648
 1100 m -4 Y s 652 1096 m -4 Y s 656 1092 m -4 Y s 659 1088 m -4 Y s 663 1081 m cl s 667 1081 m -4 Y s 671 1077 m -4 Y s 675 1073 m -4 Y s 678 1069 m cl s 682 1065 m cl s 686 1065 m -7 Y s 690 1058 m cl s 694 1058 m cl s 697 1058 m -4 Y s 701 1054 m
 cl s 705 1054 m -4 Y s 709 1050 m -4 Y s 713 1046 m cl s 716 1046 m -3 Y s 720 1043 m -4 Y s 724 1039 m -4 Y s 728 1035 m -4 Y s 732 1031 m cl s 735 1031 m -4 Y s 739 1027 m cl s 743 1027 m -7 Y s 747 1020 m cl s 751 1020 m -4 Y s 755 1016 m cl s
 758 1016 m -4 Y s 762 1012 m -4 Y s 766 1008 m -7 Y s 770 1001 m cl s 774 1001 m cl s 777 1001 m -4 Y s 781 997 m cl s 785 997 m -8 Y s 789 989 m cl s 793 989 m -4 Y s 796 985 m -3 Y s 800 982 m cl s 804 982 m -4 Y s 808 978 m cl s 812 978 m -8 Y s
 815 970 m cl s 819 970 m -4 Y s 823 966 m cl s 827 966 m -3 Y s 831 963 m cl s 834 959 m cl s 838 959 m -8 Y s 842 951 m -4 Y s 846 947 m -3 Y s 850 944 m -4 Y s 853 940 m cl s 857 940 m -4 Y s 861 936 m -4 Y s 865 932 m -4 Y s 869 928 m -3 Y s 872
 925 m cl s 876 925 m cl s 880 925 m -4 Y s 884 921 m -4 Y s 888 917 m cl s 891 917 m -4 Y s 895 913 m cl s 899 913 m cl s 903 913 m -4 Y s 907 909 m cl s 911 909 m -3 Y s 914 906 m cl s 918 906 m -4 Y s 922 902 m cl s 926 902 m -4 Y s 930 898 m cl s
 933 898 m -4 Y s 937 894 m -4 Y s 941 890 m -3 Y s 945 887 m -4 Y s 949 883 m -4 Y s 952 879 m -4 Y s 956 875 m -4 Y s 960 871 m -3 Y s 964 868 m -4 Y s 968 864 m -4 Y s 971 860 m cl s 975 860 m -4 Y s 979 856 m -8 Y s 983 848 m -3 Y s 987 845 m -4
 Y s 990 841 m -34 Y s 994 807 m cl s 998 807 m -4 Y s 1002 799 m -4 Y s 1006 795 m -7 Y s 1009 788 m -4 Y s 1013 784 m -4 Y s 1017 780 m cl s 1021 780 m -4 Y s 1025 776 m cl s 1028 776 m -4 Y s 1032 772 m -3 Y s 1036 769 m -8 Y s 1040 761 m -8 Y s
 1044 753 m -3 Y s 1047 750 m -4 Y s 1051 746 m -8 Y s 1055 738 m cl s 1059 738 m -4 Y s 1063 734 m -3 Y s 1067 731 m -8 Y s 1070 723 m -4 Y s 1074 719 m -4 Y s 1078 715 m -3 Y s 1082 712 m -8 Y s 1086 704 m -4 Y s 1089 700 m -8 Y s 1093 692 m -3 Y s
 1097 689 m -4 Y s 1101 685 m -4 Y s 1105 681 m -8 Y s 1108 673 m cl s 1112 673 m -7 Y s 1116 666 m cl s 1120 666 m -8 Y s 1124 658 m -7 Y s 1127 651 m -4 Y s 1131 647 m -4 Y s 1135 643 m -8 Y s 1139 635 m -7 Y s 1143 628 m -4 Y s 1146 624 m -4 Y s
 1150 620 m -4 Y s 1154 616 m -7 Y s 1158 609 m -4 Y s 1162 605 m cl s 1165 605 m -4 Y s 1169 601 m cl s 1173 601 m -4 Y s 1177 597 m -3 Y s 1181 594 m -8 Y s 1184 586 m cl s 1188 586 m -4 Y s 1192 582 m -4 Y s 1196 575 m -4 Y s 1200 571 m -8 Y s
 1203 563 m -4 Y s 1207 559 m -11 Y s 1211 548 m -8 Y s 1215 540 m -4 Y s 1219 536 m -3 Y s 1223 533 m -4 Y s 1226 529 m cl s 1230 529 m -4 Y s 1234 525 m -4 Y s 1238 521 m -7 Y s 1242 514 m -8 Y s 1245 506 m -8 Y s 1249 498 m -7 Y s 1253 491 m -4 Y
 s 1257 487 m -4 Y s 1261 483 m -4 Y s 1264 479 m -3 Y s 1268 476 m -12 Y s 1272 464 m -4 Y s 1276 460 m -3 Y s 1280 457 m -8 Y s 1283 449 m -8 Y s 1287 441 m cl s 1291 441 m -7 Y s 1295 434 m -4 Y s 1299 430 m -4 Y s 1302 426 m -4 Y s 1306 422 m -3
 Y s 1310 419 m -4 Y s 1314 415 m -8 Y s 1318 407 m -4 Y s 1321 403 m -3 Y s 1325 400 m -4 Y s 1329 396 m -4 Y s 1333 392 m -4 Y s 1337 388 m -8 Y s 1340 380 m -3 Y s 1344 377 m -4 Y s 1348 373 m -4 Y s 1352 369 m -4 Y s 1356 365 m -4 Y s 1359 361 m
 -7 Y s 1363 354 m -8 Y s 1367 346 m cl s 1371 346 m -7 Y s 1375 339 m -4 Y s 1379 335 m -4 Y s 1382 331 m -4 Y s 1386 327 m -4 Y s 1390 323 m -3 Y s 1394 320 m -8 Y s 1398 312 m cl s 1401 312 m -8 Y s 1405 304 m -3 Y s 1409 301 m cl s 1413 301 m cl
 s 1417 297 m cl s 1420 297 m -4 Y s 1424 293 m -4 Y s 1428 289 m cl s 1432 289 m -4 Y s 1436 285 m -3 Y s 1439 282 m -4 Y s 1443 278 m cl s 1447 278 m -4 Y s 1451 274 m cl s 1455 274 m cl s 1458 274 m cl s 1462 270 m cl s 1466 270 m cl s 1470 270 m
 -4 Y s 1474 266 m cl s 1477 266 m cl s 1481 266 m -3 Y s 1485 263 m cl s 1489 263 m -4 Y s 1493 259 m cl s 1496 259 m -4 Y s 1500 255 m cl s 1504 255 m cl s 1508 255 m cl s 1512 255 m -4 Y s 1515 251 m cl s 1519 251 m cl s 1523 251 m cl s 1527 251 m
 -4 Y s 1531 247 m cl s 1535 247 m cl s 1538 247 m -3 Y s 1542 244 m cl s 1546 244 m cl s 1550 244 m cl s 1554 244 m cl s 1557 244 m cl s 1561 244 m cl s 1565 244 m -4 Y s 1569 240 m cl s 1573 240 m cl s 1576 240 m cl s 1580 240 m cl s 1584 240 m cl
 s 1588 240 m cl s 1592 240 m cl s 1595 240 m cl s 1599 240 m cl s 1603 240 m -4 Y s 1607 236 m cl s 1611 236 m cl s 1614 236 m -4 Y s 1618 232 m cl s 1622 232 m cl s 1626 232 m cl s 1630 232 m cl s 1633 232 m cl s 1637 232 m cl s 1641 232 m cl s
 1645 232 m -4 Y s 1649 228 m cl s 1652 228 m cl s 1656 228 m cl s 1660 228 m cl s 1664 228 m cl s 1668 228 m cl s 1671 228 m cl s 1675 228 m cl s 1679 228 m -4 Y s 1683 224 m cl s 1687 224 m cl s 1691 224 m cl s 1694 224 m cl s 1698 224 m cl s 1702
 224 m cl s 1706 224 m cl s 1710 224 m cl s 1713 224 m cl s 1717 224 m cl s 1721 224 m cl s 1725 224 m cl s 1729 224 m cl s 1732 224 m cl s 1736 224 m cl s 1740 224 m -3 Y s 1744 221 m cl s 1748 221 m cl s 1751 221 m cl s 1755 221 m cl s 1759 221 m
 cl s 1763 221 m cl s 1767 221 m cl s 1770 221 m cl s 1774 221 m cl s 1778 221 m cl s 1782 221 m cl s 1786 221 m cl s 1789 221 m cl s 1793 221 m cl s 1797 221 m cl s 1801 221 m cl s 1805 221 m cl s 1808 221 m cl s 1812 221 m cl s 1816 221 m cl s 1820
 221 m cl s 1824 221 m cl s 1827 221 m cl s 1831 221 m cl s 1835 221 m -4 Y s 1839 217 m cl s 1843 217 m cl s 1847 217 m cl s 1850 217 m cl s 1854 217 m cl s 1858 217 m cl s 1862 217 m cl s 1866 217 m cl s 1869 217 m cl s 1873 217 m cl s 1877 217 m
 cl s 1881 217 m cl s 1885 217 m cl s 1888 217 m cl s 1892 217 m cl s 1896 217 m -4 Y s 1900 213 m cl s 1904 213 m cl s 1907 213 m cl s 1911 213 m cl s 1915 213 m cl s 1919 213 m cl s 1923 213 m cl s 1926 213 m -4 Y s 1930 209 m cl s 1934 209 m cl s
 1938 209 m cl s 1942 209 m cl s 1945 209 m cl s 1949 209 m cl s 1953 209 m cl s 1957 209 m cl s 1961 209 m cl s 1964 209 m cl s 1968 209 m cl s 1972 209 m cl s 245 1244 m 3 X s 248 1244 m 42 X 4 -4 d 42 X 4 -3 d 30 X 4 -4 d 15 X 4 -4 d 4 X 4 -4 d 15
 X 4 -4 d 3 -3 d 4 X 4 -4 d 4 -4 d 8 X 3 -4 d 8 X 4 -4 d 15 X 4 -3 d 4 -4 d 3 -4 d 12 X 4 -4 d 7 X 4 -4 d 11 X 4 -3 d 4 X 4 -4 d 7 X 4 -4 d 4 -4 d 4 -4 d 4 X 3 -4 d 4 X 4 -3 d 4 -4 d 4 X 3 -4 d 4 -4 d 4 X 4 -4 d 4 X 4 -3 d 3 -4 d 4 -4 d 4 X 4 -4 d 4
 -4 d 3 -3 d 4 -4 d 4 -4 d 4 X 4 -4 d 3 -4 d 4 -3 d 4 X 4 -4 d 4 -4 d 3 -4 d 4 -7 d 4 X 4 -4 d 4 -4 d 3 -4 d 4 -4 d 4 -3 d 4 -4 d 7 X 4 -4 d 4 X 4 -4 d 4 -4 d 3 X 4 -3 d 4 -4 d 4 -4 d 4 -4 d 3 X 4 -4 d 4 -3 d 4 -4 d 4 X 4 -4 d 3 X 4 -4 d 4 -8 d 4 -3
 d 7 X 4 -4 d 4 -4 d 4 -4 d 4 X 3 -4 d 4 -3 d 4 X 4 -4 d 4 -4 d 3 -4 d 4 X 4 -4 d 4 X 4 -3 d 3 -4 d 4 -4 d 4 -4 d 4 -4 d 4 -3 d 3 -4 d 4 X 4 -4 d 4 -4 d 4 -4 d 3 -3 d 8 X 4 -4 d 4 -4 d 3 X 4 -4 d 8 X 4 -4 d 4 X 3 -3 d 4 X 4 -4 d 4 X 4 -4 d 3 X 4 -4 d
 4 -4 d 4 -3 d 4 -4 d 3 -4 d 4 -4 d 4 -4 d 4 -3 d 4 -4 d 3 -4 d 4 X 4 -8 d 4 -4 d 4 -3 d 3 -19 d 4 -19 d 4 X 4 -8 d 4 -8 d 3 -3 d 4 -4 d 4 -4 d 4 X 4 -4 d 3 X 4 -4 d 4 -7 d 4 -8 d 4 -4 d 3 -3 d 4 -8 d 4 -4 d 4 X 4 -4 d 4 -7 d 3 -4 d 4 -4 d 4 -4 d 4
 -7 d 4 -4 d 3 -8 d 4 -4 d 4 -3 d 4 -4 d 4 -8 d 3 -4 d 4 -3 d 4 -4 d 4 -4 d 4 -8 d 3 -3 d 4 -4 d 4 -8 d 4 -7 d 4 -4 d 3 -4 d 4 -4 d 4 -7 d 4 -4 d 4 -4 d 3 X 4 -4 d 4 X 4 -4 d 4 -7 d 3 -4 d 4 X 4 -4 d 4 -7 d 4 -8 d 3 -4 d 4 -7 d 4 -12 d 4 -4 d 4 -4 d
 4 -3 d 3 -4 d 4 X 4 -4 d 4 -8 d 4 -7 d 3 -8 d 4 -7 d 4 -4 d 4 -4 d 4 -4 d 3 -4 d 4 -7 d 4 -8 d 4 -4 d 4 -7 d 3 -8 d 4 -4 d 4 -3 d 4 -4 d 4 -4 d 3 -4 d 4 -4 d 4 -3 d 4 -8 d 4 -4 d 3 -4 d 4 -3 d 4 -4 d 4 -4 d 4 -8 d 3 -4 d 4 -3 d 4 -4 d 4 -4 d 4 -4 d
 3 -7 d 4 -8 d 4 -4 d 4 -4 d 4 -3 d 4 -4 d 3 -4 d 4 -4 d 4 -4 d 4 -7 d 4 -4 d 3 -4 d 4 -4 d 4 -3 d 4 X 4 -4 d 3 X 4 -4 d 4 -4 d 4 X 4 -4 d 3 -3 d 4 -4 d 4 X 4 -4 d 7 X 4 -4 d 8 X 4 -4 d 7 X 4 -3 d 4 X 4 -4 d 3 X 4 -4 d 12 X 3 -4 d 12 X 4 -4 d 7 X 4
 -3 d 23 X 4 -4 d 34 X 4 -4 d 7 X 4 -4 d 27 X 4 -4 d 30 X 4 -4 d 57 X 4 -3 d 91 X 4 -4 d 57 X 4 -4 d 26 X 4 -4 d 42 X s 1 0 0 c black 1 0 0 c 248 1244 m cl s 252 1244 m cl s 256 1244 m cl s 260 1244 m cl s 264 1244 m cl s 267 1244 m cl s 271 1244 m
 cl s 275 1244 m cl s 279 1244 m cl s 283 1244 m cl s 287 1244 m -4 Y s 290 1240 m cl s 294 1240 m cl s 298 1240 m -3 Y s 302 1237 m cl s 306 1237 m cl s 309 1237 m -4 Y s 313 1233 m cl s 317 1233 m -4 Y s 321 1229 m cl s 325 1229 m cl s 328 1229 m
 -4 Y s 332 1225 m cl s 336 1225 m -4 Y s 340 1221 m cl s 344 1221 m cl s 347 1221 m cl s 351 1221 m -3 Y s 355 1218 m cl s 359 1218 m -4 Y s 363 1214 m cl s 366 1214 m cl s 370 1214 m -4 Y s 374 1210 m cl s 378 1210 m -4 Y s 382 1206 m cl s 385 1206
 m -4 Y s 389 1202 m -3 Y s 393 1199 m cl s 397 1199 m -4 Y s 401 1195 m -4 Y s 404 1191 m cl s 408 1191 m -4 Y s 412 1187 m -4 Y s 416 1183 m -3 Y s 420 1180 m cl s 423 1180 m -4 Y s 427 1176 m cl s 431 1176 m -4 Y s 435 1172 m -8 Y s 439 1164 m cl
 s 443 1164 m -4 Y s 446 1160 m cl s 450 1157 m -4 Y s 454 1153 m -4 Y s 458 1149 m cl s 462 1149 m -4 Y s 465 1145 m cl s 469 1145 m -4 Y s 473 1141 m -3 Y s 477 1138 m -4 Y s 481 1134 m -8 Y s 484 1126 m -4 Y s 488 1122 m -3 Y s 492 1119 m -8 Y s
 496 1111 m cl s 500 1111 m -4 Y s 503 1107 m -4 Y s 507 1103 m -3 Y s 511 1100 m cl s 515 1100 m cl s 519 1100 m -4 Y s 522 1096 m cl s 526 1096 m -4 Y s 530 1092 m cl s 534 1092 m -4 Y s 538 1088 m -4 Y s 541 1084 m -3 Y s 545 1081 m -4 Y s 549
 1077 m -8 Y s 553 1069 m cl s 557 1065 m -3 Y s 560 1062 m cl s 564 1062 m -4 Y s 568 1058 m -8 Y s 572 1050 m -4 Y s 576 1046 m -3 Y s 579 1043 m -4 Y s 583 1039 m -8 Y s 587 1031 m -7 Y s 591 1020 m -4 Y s 595 1016 m -4 Y s 599 1012 m -4 Y s 602
 1008 m cl s 606 1008 m -4 Y s 610 1004 m cl s 614 1004 m cl s 618 1004 m -3 Y s 621 1001 m -4 Y s 625 997 m -4 Y s 629 993 m cl s 633 993 m cl s 637 993 m -4 Y s 640 989 m -4 Y s 644 985 m cl s 648 985 m -3 Y s 652 982 m cl s 656 982 m -4 Y s 659
 978 m -8 Y s 663 970 m -4 Y s 667 966 m -7 Y s 671 959 m -4 Y s 675 955 m -4 Y s 678 951 m -4 Y s 682 947 m cl s 686 947 m -3 Y s 690 944 m -4 Y s 694 940 m -4 Y s 697 936 m cl s 701 936 m -4 Y s 705 932 m cl s 709 932 m -4 Y s 713 928 m -3 Y s 716
 925 m -8 Y s 720 917 m cl s 724 917 m -8 Y s 728 909 m -3 Y s 732 906 m -4 Y s 735 902 m -4 Y s 739 898 m -4 Y s 743 894 m -4 Y s 747 890 m -3 Y s 751 887 m -4 Y s 755 883 m cl s 758 883 m -4 Y s 762 875 m cl s 766 875 m -7 Y s 770 868 m -4 Y s 774
 864 m -4 Y s 777 860 m -4 Y s 781 856 m -4 Y s 785 852 m -4 Y s 789 848 m -3 Y s 793 845 m -4 Y s 796 841 m -4 Y s 800 837 m -8 Y s 804 829 m -3 Y s 808 826 m -4 Y s 812 822 m -4 Y s 815 818 m -4 Y s 819 814 m cl s 823 814 m -4 Y s 827 810 m -3 Y s
 831 807 m -4 Y s 834 803 m -4 Y s 838 799 m -4 Y s 842 795 m -4 Y s 846 791 m cl s 850 791 m -7 Y s 853 784 m -4 Y s 857 780 m cl s 861 780 m cl s 865 780 m -4 Y s 869 772 m -7 Y s 872 765 m cl s 876 765 m -4 Y s 880 761 m -4 Y s 884 757 m cl s 888
 757 m -4 Y s 891 753 m -3 Y s 895 750 m -4 Y s 899 742 m cl s 903 742 m -8 Y s 907 734 m -3 Y s 911 731 m -4 Y s 914 727 m -4 Y s 918 723 m -8 Y s 922 715 m -3 Y s 926 712 m -4 Y s 930 708 m -4 Y s 933 704 m -4 Y s 937 700 m -4 Y s 941 696 m cl s
 945 696 m -4 Y s 949 692 m -3 Y s 952 689 m -8 Y s 956 681 m -4 Y s 960 677 m -4 Y s 964 673 m cl s 968 673 m -3 Y s 971 670 m -8 Y s 975 662 m cl s 979 662 m -4 Y s 983 658 m -4 Y s 987 654 m -3 Y s 990 651 m -23 Y s 994 628 m -4 Y s 998 624 m -4 Y
 s 1002 620 m -4 Y s 1006 616 m -3 Y s 1009 613 m -4 Y s 1013 609 m cl s 1017 609 m -4 Y s 1021 605 m -4 Y s 1025 601 m -4 Y s 1028 597 m -3 Y s 1032 594 m -4 Y s 1036 590 m -8 Y s 1040 582 m cl s 1044 582 m -4 Y s 1047 578 m -3 Y s 1051 575 m -8 Y s
 1055 567 m -4 Y s 1059 563 m cl s 1063 563 m -4 Y s 1067 559 m -3 Y s 1070 556 m -4 Y s 1074 552 m cl s 1078 552 m -8 Y s 1082 544 m -4 Y s 1086 540 m -7 Y s 1089 533 m -8 Y s 1093 525 m -4 Y s 1097 521 m -4 Y s 1101 517 m -3 Y s 1105 514 m -4 Y s
 1108 510 m -4 Y s 1112 506 m -4 Y s 1116 502 m -7 Y s 1120 495 m -4 Y s 1124 487 m -8 Y s 1127 479 m cl s 1131 476 m cl s 1135 476 m -4 Y s 1139 472 m -8 Y s 1143 464 m -4 Y s 1146 460 m -3 Y s 1150 457 m -4 Y s 1154 453 m cl s 1158 453 m -4 Y s
 1162 449 m cl s 1165 445 m -4 Y s 1169 441 m cl s 1173 441 m -7 Y s 1177 434 m -4 Y s 1181 430 m -8 Y s 1184 422 m cl s 1188 422 m -3 Y s 1192 419 m -4 Y s 1196 415 m cl s 1200 415 m -4 Y s 1203 411 m -4 Y s 1207 407 m -4 Y s 1211 403 m -3 Y s 1215
 400 m -4 Y s 1219 396 m -4 Y s 1223 392 m -4 Y s 1226 388 m -4 Y s 1230 384 m -7 Y s 1234 377 m cl s 1238 377 m -4 Y s 1242 373 m -4 Y s 1245 369 m -8 Y s 1249 361 m -3 Y s 1253 358 m -4 Y s 1257 354 m cl s 1261 354 m -4 Y s 1264 350 m -4 Y s 1268
 346 m -4 Y s 1272 342 m cl s 1276 342 m -7 Y s 1280 335 m cl s 1283 335 m -8 Y s 1287 327 m -4 Y s 1291 323 m cl s 1295 323 m -3 Y s 1299 320 m -4 Y s 1302 316 m -4 Y s 1306 312 m -4 Y s 1310 308 m -4 Y s 1314 304 m -3 Y s 1318 301 m -4 Y s 1321 297
 m cl s 1325 297 m cl s 1329 297 m -4 Y s 1333 293 m -4 Y s 1337 289 m -4 Y s 1340 285 m -3 Y s 1344 282 m cl s 1348 282 m -4 Y s 1352 278 m -4 Y s 1356 274 m cl s 1359 274 m cl s 1363 270 m cl s 1367 270 m cl s 1371 270 m -4 Y s 1375 266 m -3 Y s
 1379 263 m -4 Y s 1382 259 m -4 Y s 1386 255 m cl s 1390 255 m cl s 1394 255 m cl s 1398 255 m -4 Y s 1401 251 m cl s 1405 251 m cl s 1409 251 m cl s 1413 251 m -4 Y s 1417 247 m -3 Y s 1420 244 m cl s 1424 244 m -4 Y s 1428 240 m cl s 1432 240 m cl
 s 1436 240 m cl s 1439 240 m cl s 1443 240 m -4 Y s 1447 236 m cl s 1451 236 m cl s 1455 236 m cl s 1458 236 m -4 Y s 1462 232 m cl s 1466 232 m cl s 1470 232 m cl s 1474 232 m cl s 1477 232 m -4 Y s 1481 228 m cl s 1485 228 m cl s 1489 228 m cl s
 1493 228 m cl s 1496 228 m -4 Y s 1500 224 m cl s 1504 224 m cl s 1508 224 m cl s 1512 224 m -3 Y s 1515 221 m cl s 1519 221 m cl s 1523 221 m cl s 1527 221 m cl s 1531 221 m cl s 1535 221 m cl s 1538 221 m cl s 1542 221 m cl s 1546 221 m -4 Y s
 1550 217 m cl s 1554 217 m cl s 1557 217 m cl s 1561 217 m cl s 1565 217 m cl s 1569 217 m cl s 1573 217 m cl s 1576 217 m cl s 1580 217 m cl s 1584 217 m cl s 1588 217 m cl s 1592 217 m cl s 1595 217 m -4 Y s 1599 213 m cl s 1603 213 m cl s 1607
 213 m cl s 1611 213 m cl s 1614 213 m cl s 1618 213 m cl s 1622 213 m cl s 1626 213 m cl s 1630 213 m cl s 1633 213 m cl s 1637 213 m cl s 1641 213 m cl s 1645 213 m cl s 1649 213 m cl s 1652 213 m cl s 1656 213 m cl s 1660 209 m cl s 1664 209 m cl
 s 1668 209 m cl s 1671 209 m cl s 1675 209 m cl s 1679 209 m cl s 1683 209 m cl s 1687 209 m cl s 1691 209 m cl s 1694 209 m cl s 1698 209 m cl s 1702 209 m cl s 1706 209 m cl s 1710 209 m cl s 1713 209 m cl s 1717 209 m cl s 1721 209 m cl s 1725
 209 m cl s 1729 209 m cl s 1732 209 m cl s 1736 209 m cl s 1740 209 m cl s 1744 209 m cl s 1748 209 m cl s 1751 209 m cl s 1755 209 m cl s 1759 209 m cl s 1763 209 m cl s 1767 209 m cl s 1770 209 m cl s 1774 209 m cl s 1778 209 m cl s 1782 209 m cl
 s 245 1244 m 3 X s 248 1244 m 39 X 3 -4 d 8 X 4 -3 d 7 X 4 -4 d 4 X 4 -4 d 7 X 4 -4 d 4 X 4 -4 d 11 X 4 -3 d 4 X 4 -4 d 7 X 4 -4 d 4 X 4 -4 d 3 X 4 -4 d 4 -3 d 4 X 4 -4 d 3 -4 d 4 X 4 -4 d 4 -4 d 4 -3 d 3 X 4 -4 d 4 X 4 -8 d 4 -4 d 4 X 3 -4 d 4 -3 d
 4 -4 d 4 -4 d 4 X 3 -4 d 4 X 4 -4 d 4 -3 d 4 -8 d 3 -4 d 4 -4 d 4 -7 d 4 -4 d 4 X 3 -4 d 4 -4 d 4 -3 d 8 X 3 -4 d 4 X 4 -4 d 4 X 4 -4 d 3 -4 d 4 -3 d 4 -8 d 4 -4 d 4 -4 d 3 -3 d 4 X 4 -8 d 4 -4 d 4 -4 d 3 -3 d 4 -8 d 4 -8 d 4 -7 d 4 -4 d 4 -4 d 3 -4
 d 4 X 4 -4 d 8 X 3 -3 d 4 -4 d 4 -4 d 8 X 3 -4 d 4 -4 d 4 X 4 -3 d 4 X 3 -8 d 4 -4 d 4 -7 d 4 -4 d 4 -4 d 3 -4 d 4 -4 d 4 X 4 -3 d 4 -4 d 3 -4 d 4 X 4 -4 d 4 X 4 -4 d 3 -7 d 4 -4 d 4 -4 d 4 -4 d 4 -3 d 3 -4 d 4 -4 d 4 -4 d 4 -4 d 4 -3 d 4 -4 d 3 X 4
 -8 d 4 -4 d 4 -3 d 4 -4 d 3 -4 d 4 -4 d 4 -4 d 4 -4 d 4 -3 d 3 -4 d 4 -8 d 4 -4 d 4 -3 d 4 -4 d 3 -4 d 4 -4 d 4 X 4 -4 d 4 -3 d 3 -4 d 4 -4 d 4 -4 d 4 -4 d 4 -3 d 3 -4 d 4 -4 d 8 X 4 -11 d 3 -4 d 4 X 4 -4 d 4 -4 d 4 X 3 -4 d 4 -3 d 4 -8 d 4 -4 d 4
 -4 d 4 -3 d 3 -4 d 4 -8 d 4 -4 d 4 -3 d 4 -4 d 3 -4 d 4 -4 d 4 -4 d 4 X 4 -4 d 3 -7 d 4 -4 d 4 -4 d 4 -4 d 4 X 3 -7 d 4 -4 d 4 X 4 -4 d 4 -4 d 3 -15 d 4 -11 d 4 -4 d 4 -4 d 4 -4 d 3 -3 d 4 -4 d 4 X 4 -4 d 4 -4 d 3 -4 d 4 -3 d 4 -8 d 4 -4 d 4 X 3 -4
 d 4 -7 d 4 -4 d 4 -4 d 4 X 4 -4 d 3 -3 d 4 -4 d 4 -4 d 4 -4 d 4 -8 d 3 -7 d 4 -4 d 4 -4 d 4 -4 d 4 -3 d 3 -4 d 4 -4 d 4 -8 d 4 -3 d 4 -12 d 3 -4 d 4 -3 d 4 X 4 -8 d 4 -4 d 3 -4 d 4 -3 d 4 -4 d 4 X 4 -4 d 3 -4 d 4 -4 d 4 -3 d 4 -4 d 4 -8 d 3 -4 d 4 X
 4 -3 d 4 -4 d 4 X 3 -4 d 4 -4 d 4 -4 d 4 -3 d 4 -4 d 4 -4 d 3 -4 d 4 -8 d 4 -3 d 4 X 4 -4 d 3 -8 d 4 -4 d 4 -3 d 4 -4 d 4 X 3 -4 d 4 -4 d 4 -4 d 4 -3 d 4 -4 d 3 -4 d 4 -4 d 4 -4 d 4 X 4 -3 d 3 -4 d 4 -4 d 4 -4 d 4 -4 d 4 -3 d 3 -4 d 8 X 4 -4 d 4 -4
 d 3 -4 d 4 -3 d 4 X 4 -4 d 4 -4 d 3 X 4 -4 d 8 X 4 -4 d 4 -3 d 3 -4 d 4 -4 d 12 X 3 -4 d 12 X 4 -4 d 3 -3 d 4 X 4 -4 d 15 X 4 -4 d 11 X 4 -4 d 15 X 4 -4 d 15 X 4 -4 d 12 X 3 -3 d 31 X 4 -4 d 45 X 4 -4 d 57 X 4 -4 d 122 X s 0 0.666667 0 c 1 1 1 c
 black 0 0.666667 0 c 248 1240 m cl s 252 1240 m cl s 256 1240 m cl s 260 1240 m cl s 264 1240 m cl s 267 1240 m cl s 271 1240 m cl s 275 1240 m cl s 279 1240 m cl s 283 1240 m cl s 287 1240 m cl s 290 1240 m cl s 294 1240 m cl s 298 1240 m cl s 302
 1240 m cl s 306 1244 m -4 Y s 309 1244 m cl s 313 1244 m cl s 317 1244 m cl s 321 1244 m cl s 325 1244 m cl s 328 1244 m -4 Y s 332 1244 m cl s 336 1244 m -4 Y s 340 1244 m -4 Y s 344 1244 m -4 Y s 347 1240 m cl s 351 1240 m cl s 355 1240 m cl s 359
 1244 m -4 Y s 363 1244 m cl s 366 1244 m cl s 370 1244 m cl s 374 1244 m cl s 378 1244 m cl s 382 1244 m cl s 385 1244 m cl s 389 1244 m -4 Y s 393 1240 m cl s 397 1240 m cl s 401 1240 m cl s 404 1240 m cl s 408 1240 m cl s 412 1244 m -4 Y s 416
 1244 m -4 Y s 420 1240 m cl s 423 1240 m -3 Y s 427 1237 m cl s 431 1237 m cl s 435 1237 m cl s 439 1237 m cl s 443 1237 m cl s 446 1237 m -4 Y s 450 1237 m -4 Y s 454 1237 m cl s 458 1237 m cl s 462 1237 m cl s 465 1237 m -4 Y s 469 1237 m -4 Y s
 473 1237 m -4 Y s 477 1233 m cl s 481 1233 m cl s 484 1233 m cl s 488 1233 m cl s 492 1233 m cl s 496 1237 m -4 Y s 500 1233 m cl s 503 1237 m -4 Y s 507 1237 m -4 Y s 511 1233 m cl s 515 1233 m cl s 519 1233 m cl s 522 1233 m cl s 526 1233 m cl s
 530 1233 m cl s 534 1233 m -4 Y s 538 1229 m cl s 541 1229 m cl s 545 1229 m cl s 549 1229 m cl s 553 1229 m cl s 557 1229 m -4 Y s 560 1225 m cl s 564 1225 m cl s 568 1225 m cl s 572 1225 m cl s 576 1225 m -4 Y s 579 1221 m cl s 583 1221 m cl s 587
 1225 m -4 Y s 591 1221 m cl s 595 1221 m cl s 599 1221 m cl s 602 1221 m -3 Y s 606 1218 m cl s 610 1218 m -4 Y s 614 1214 m cl s 618 1214 m -4 Y s 621 1210 m cl s 625 1210 m -4 Y s 629 1206 m cl s 633 1206 m -4 Y s 637 1202 m cl s 640 1202 m -3 Y s
 644 1199 m cl s 648 1199 m cl s 652 1199 m -4 Y s 656 1195 m cl s 659 1195 m -4 Y s 663 1191 m -4 Y s 667 1191 m -4 Y s 671 1187 m cl s 675 1187 m -4 Y s 678 1183 m cl s 682 1183 m -3 Y s 686 1180 m cl s 690 1180 m cl s 694 1180 m -4 Y s 697 1176 m
 cl s 701 1176 m cl s 705 1176 m -4 Y s 709 1176 m -4 Y s 713 1176 m cl s 716 1176 m -4 Y s 720 1172 m -4 Y s 724 1168 m cl s 728 1168 m cl s 732 1168 m -4 Y s 735 1168 m -4 Y s 739 1168 m -4 Y s 743 1164 m cl s 747 1164 m -4 Y s 751 1160 m cl s 755
 1160 m cl s 758 1160 m -3 Y s 762 1157 m cl s 766 1157 m -4 Y s 770 1153 m cl s 774 1153 m cl s 777 1153 m cl s 781 1153 m cl s 785 1153 m -4 Y s 789 1149 m cl s 793 1149 m cl s 796 1149 m -4 Y s 800 1149 m -4 Y s 804 1149 m -4 Y s 808 1149 m -4 Y s
 812 1145 m cl s 815 1145 m cl s 819 1145 m -4 Y s 823 1141 m cl s 827 1141 m -3 Y s 831 1141 m -3 Y s 834 1138 m cl s 838 1138 m -4 Y s 842 1134 m cl s 846 1134 m -4 Y s 850 1130 m -4 Y s 853 1126 m cl s 857 1126 m cl s 861 1126 m -4 Y s 865 1122 m
 -3 Y s 869 1119 m cl s 872 1122 m -3 Y s 876 1122 m -3 Y s 880 1119 m cl s 884 1119 m cl s 888 1119 m -4 Y s 891 1119 m -4 Y s 895 1115 m cl s 899 1115 m cl s 903 1119 m -4 Y s 907 1119 m cl s 911 1119 m cl s 914 1119 m -4 Y s 918 1119 m -4 Y s 922
 1119 m cl s 926 1119 m cl s 930 1119 m -4 Y s 933 1115 m cl s 937 1115 m cl s 941 1115 m -4 Y s 945 1111 m -4 Y s 949 1107 m cl s 952 1107 m cl s 956 1107 m -4 Y s 960 1103 m -3 Y s 964 1100 m -4 Y s 968 1096 m cl s 971 1096 m cl s 975 1096 m -4 Y s
 979 1092 m -4 Y s 983 1088 m cl s 987 1088 m -4 Y s 990 1084 m -22 Y s 994 1062 m cl s 998 1062 m -4 Y s 1002 1058 m -4 Y s 1006 1054 m -4 Y s 1009 1050 m -4 Y s 1013 1046 m -3 Y s 1017 1043 m cl s 1021 1043 m cl s 1025 1043 m -4 Y s 1028 1043 m -4
 Y s 1032 1039 m cl s 1036 1039 m -4 Y s 1040 1035 m -8 Y s 1044 1027 m -3 Y s 1047 1024 m -4 Y s 1051 1020 m -4 Y s 1055 1016 m cl s 1059 1016 m -4 Y s 1063 1012 m -4 Y s 1067 1008 m -4 Y s 1070 1004 m cl s 1074 1004 m -3 Y s 1078 1001 m -4 Y s 1082
 997 m -4 Y s 1086 993 m -4 Y s 1089 989 m -4 Y s 1093 985 m -3 Y s 1097 982 m cl s 1101 982 m -4 Y s 1105 978 m -4 Y s 1108 974 m -4 Y s 1112 970 m -4 Y s 1116 970 m -4 Y s 1120 970 m -4 Y s 1124 966 m -7 Y s 1127 959 m -4 Y s 1131 955 m -4 Y s 1135
 951 m -4 Y s 1139 947 m -7 Y s 1143 940 m -4 Y s 1146 936 m -4 Y s 1150 932 m cl s 1154 932 m -4 Y s 1158 928 m -7 Y s 1162 925 m -4 Y s 1165 925 m -4 Y s 1169 921 m cl s 1173 921 m -4 Y s 1177 921 m cl s 1181 921 m -8 Y s 1184 917 m -4 Y s 1188 917
 m -8 Y s 1192 909 m -3 Y s 1196 906 m -8 Y s 1200 898 m -4 Y s 1203 894 m -4 Y s 1207 887 m -12 Y s 1211 875 m -7 Y s 1215 868 m -4 Y s 1219 868 m -4 Y s 1223 864 m -4 Y s 1226 864 m -4 Y s 1230 860 m cl s 1234 860 m -4 Y s 1238 856 m -8 Y s 1242
 848 m -7 Y s 1245 841 m -8 Y s 1249 833 m -7 Y s 1253 826 m -4 Y s 1257 822 m -4 Y s 1261 818 m -8 Y s 1264 810 m cl s 1268 810 m -11 Y s 1272 799 m -4 Y s 1276 791 m -3 Y s 1280 788 m -8 Y s 1283 780 m -8 Y s 1287 772 m cl s 1291 772 m -7 Y s 1295
 765 m -4 Y s 1299 765 m -4 Y s 1302 761 m -8 Y s 1306 757 m -4 Y s 1310 753 m -3 Y s 1314 750 m -12 Y s 1318 738 m -4 Y s 1321 734 m -7 Y s 1325 727 m -8 Y s 1329 719 m cl s 1333 719 m -7 Y s 1337 712 m -4 Y s 1340 708 m -12 Y s 1344 696 m -4 Y s
 1348 692 m -3 Y s 1352 689 m -4 Y s 1356 685 m -4 Y s 1359 681 m -15 Y s 1363 666 m -12 Y s 1367 654 m -3 Y s 1371 651 m -8 Y s 1375 643 m -8 Y s 1379 635 m -3 Y s 1382 632 m -4 Y s 1386 628 m -12 Y s 1390 616 m -7 Y s 1394 609 m -12 Y s 1398 597 m
 -3 Y s 1401 594 m -12 Y s 1405 582 m -7 Y s 1409 575 m -4 Y s 1413 575 m -4 Y s 1417 575 m -4 Y s 1420 571 m -8 Y s 1424 563 m -7 Y s 1428 556 m -4 Y s 1432 556 m -8 Y s 1436 544 m -4 Y s 1439 540 m -11 Y s 1443 529 m cl s 1447 529 m -8 Y s 1451 521
 m cl s 1455 521 m cl s 1458 521 m -4 Y s 1462 517 m -7 Y s 1466 510 m cl s 1470 510 m -4 Y s 1474 506 m cl s 1477 506 m cl s 1481 506 m -8 Y s 1485 498 m -3 Y s 1489 495 m -4 Y s 1493 487 m -4 Y s 1496 487 m -8 Y s 1500 479 m -3 Y s 1504 479 m -3 Y
 s 1508 479 m -3 Y s 1512 476 m -4 Y s 1515 476 m -4 Y s 1519 476 m -4 Y s 1523 472 m -8 Y s 1527 468 m -4 Y s 1531 464 m cl s 1535 464 m -4 Y s 1538 460 m -7 Y s 1542 453 m cl s 1546 457 m -4 Y s 1550 453 m cl s 1554 453 m cl s 1557 453 m -4 Y s
 1561 449 m -4 Y s 1565 445 m -4 Y s 1569 441 m cl s 1573 441 m cl s 1576 441 m -3 Y s 1580 438 m cl s 1584 438 m cl s 1588 438 m cl s 1592 441 m -3 Y s 1595 441 m cl s 1599 441 m -3 Y s 1603 438 m -8 Y s 1607 434 m -4 Y s 1611 430 m -4 Y s 1614 426
 m -4 Y s 1618 422 m cl s 1622 422 m cl s 1626 422 m -3 Y s 1630 422 m cl s 1633 422 m -3 Y s 1637 419 m -4 Y s 1641 415 m cl s 1645 415 m -8 Y s 1649 407 m cl s 1652 407 m cl s 1656 407 m -4 Y s 1660 407 m -4 Y s 1664 403 m -3 Y s 1668 400 m cl s
 1671 400 m cl s 1675 400 m -4 Y s 1679 396 m cl s 1683 396 m -4 Y s 1687 392 m cl s 1691 392 m -4 Y s 1694 388 m cl s 1698 388 m cl s 1702 392 m -4 Y s 1706 392 m cl s 1710 392 m cl s 1713 392 m cl s 1717 392 m cl s 1721 392 m cl s 1725 392 m cl s
 1729 392 m -4 Y s 1732 388 m -4 Y s 1736 384 m cl s 1740 384 m -4 Y s 1744 380 m cl s 1748 380 m -3 Y s 1751 377 m cl s 1755 377 m cl s 1759 377 m cl s 1763 377 m cl s 1767 377 m cl s 1770 377 m cl s 1774 377 m cl s 1778 377 m -4 Y s 1782 377 m -4 Y
 s 1786 377 m cl s 1789 377 m cl s 1793 377 m cl s 1797 380 m -3 Y s 1801 380 m cl s 1805 380 m cl s 1808 380 m cl s 1812 380 m -3 Y s 1816 377 m -4 Y s 1820 377 m cl s 1824 377 m -4 Y s 1827 373 m cl s 1831 373 m cl s 1835 373 m cl s 1839 373 m cl s
 1843 373 m cl s 1847 373 m cl s 1850 377 m -4 Y s 1854 377 m -4 Y s 1858 373 m cl s 1862 373 m cl s 1866 373 m -4 Y s 1869 369 m -4 Y s 1873 365 m -4 Y s 1877 361 m -3 Y s 1881 358 m -4 Y s 1885 354 m cl s 1888 354 m cl s 1892 354 m cl s 1896 354 m
 -12 Y s 1900 342 m cl s 1904 342 m cl s 1907 335 m -4 Y s 1911 331 m -4 Y s 1915 327 m cl s 1919 327 m cl s 1923 327 m cl s 1926 327 m -4 Y s 1930 323 m cl s 1934 323 m cl s 1938 323 m -7 Y s 1942 316 m cl s 1945 316 m cl s 1949 312 m cl s 1953 316
 m -4 Y s 1957 312 m -4 Y s 1961 308 m -4 Y s 1964 304 m -3 Y s 1968 297 m cl s 1972 297 m -8 Y s 1976 289 m -4 Y s 1980 285 m -7 Y s 1983 278 m cl s 1987 278 m cl s 1991 278 m cl s 1995 278 m cl s 1999 278 m -4 Y s 2003 274 m cl s 2006 274 m cl s
 2010 274 m cl s 2014 274 m cl s 2018 274 m cl s 2022 274 m -4 Y s 2025 270 m -4 Y s 2029 266 m cl s 2033 266 m -15 Y s 2037 251 m -4 Y s 2041 247 m cl s 245 1240 m 3 X s 248 1240 m 54 X 4 4 d 38 X 3 -4 d 8 X 4 4 d 30 X 4 -4 d 15 X 4 4 d 4 X 4 -4 d 3
 X 4 -3 d 46 X 4 -4 d 15 X 4 4 d 4 -4 d 3 4 d 4 X 4 -4 d 23 X 4 -4 d 19 X 3 -4 d 16 X 3 -4 d 4 X 4 4 d 4 -4 d 11 X 4 -3 d 4 X 4 -4 d 4 X 3 -4 d 4 X 4 -4 d 4 X 4 -4 d 3 X 4 -3 d 8 X 4 -4 d 3 X 4 -4 d 4 X 4 -4 d 4 X 3 -4 d 4 X 4 -3 d 8 X 3 -4 d 19 X 4
 -4 d 4 -4 d 15 X 4 -4 d 4 X 4 -4 d 7 X 4 -3 d 4 X 4 -4 d 15 X 4 -4 d 19 X 4 -4 d 7 X 4 -4 d 8 X 3 -3 d 4 X 4 -4 d 4 X 4 -4 d 3 -4 d 8 X 4 -4 d 4 -3 d 3 3 d 4 X 4 -3 d 11 X 4 -4 d 4 X 4 4 d 27 X 3 -4 d 8 X 4 -4 d 4 -4 d 7 X 4 -4 d 4 -3 d 4 -4 d 7 X 4
 -4 d 4 -4 d 4 X 3 -15 d 4 -11 d 4 X 4 -4 d 4 -4 d 3 -4 d 4 -4 d 4 -3 d 11 X 4 -4 d 4 X 4 -8 d 4 -4 d 3 -3 d 4 -4 d 4 -4 d 4 X 4 -4 d 4 -4 d 3 -4 d 4 X 4 -3 d 4 -4 d 4 -4 d 3 -4 d 4 -4 d 4 -3 d 4 X 4 -4 d 3 -4 d 4 -4 d 8 X 4 -7 d 3 -4 d 4 -4 d 4 -4 d
 4 -7 d 4 -4 d 3 -4 d 4 -4 d 4 X 4 -7 d 7 X 4 -4 d 8 X 4 -4 d 3 X 4 -4 d 4 -4 d 4 -7 d 4 -4 d 3 -4 d 4 -11 d 4 -12 d 4 -3 d 4 X 4 -4 d 3 X 4 -4 d 4 X 4 -8 d 4 -7 d 3 -8 d 4 -8 d 4 -3 d 4 -4 d 4 -8 d 3 -4 d 4 -3 d 4 -8 d 4 -8 d 4 -7 d 3 -8 d 4 -4 d 4
 -3 d 4 -4 d 4 X 3 -8 d 4 X 4 -4 d 4 -7 d 4 -8 d 3 -7 d 4 -8 d 4 -4 d 4 -4 d 4 -3 d 3 -8 d 4 -8 d 4 -4 d 4 -3 d 4 -4 d 3 -12 d 4 -11 d 4 -8 d 4 -7 d 4 -8 d 4 -4 d 3 -3 d 4 -8 d 4 -11 d 4 -8 d 4 -8 d 3 -7 d 4 -12 d 4 -3 d 8 X 3 -8 d 4 -8 d 4 -3 d 4 -4
 d 4 -8 d 3 -8 d 4 -7 d 4 -4 d 4 -4 d 7 X 4 -7 d 4 -4 d 4 X 4 -4 d 3 X 4 -4 d 4 -4 d 4 -3 d 4 -8 d 3 -4 d 4 -4 d 8 X 4 -3 d 7 X 4 -8 d 4 X 4 -4 d 4 X 3 -7 d 4 -4 d 4 4 d 4 -4 d 7 X 4 -4 d 4 -4 d 4 -4 d 7 X 4 -3 d 8 X 4 3 d 7 X 4 -7 d 4 X 4 -4 d 3 -4
 d 4 -4 d 15 X 4 -3 d 4 -4 d 4 -4 d 4 -4 d 11 X 4 -4 d 4 -3 d 7 X 4 -4 d 4 X 4 -4 d 4 X 3 -4 d 4 X 4 4 d 27 X 3 -4 d 4 -4 d 4 X 4 -4 d 4 X 3 -3 d 42 X 4 3 d 15 X 4 -3 d 8 X 3 -4 d 20 X 3 4 d 4 X 4 -4 d 8 X 3 -4 d 4 -4 d 4 -4 d 4 -3 d 4 -4 d 7 X 4 -4
 d 4 -8 d 4 X 3 -7 d 4 -4 d 4 -4 d 11 X 4 -4 d 4 X 4 -3 d 4 -4 d 3 X 4 -4 d 4 4 d 4 -4 d 4 -4 d 3 -4 d 4 -7 d 4 -4 d 4 -4 d 4 -7 d 3 -4 d 16 X 4 -4 d 19 X 3 -4 d 4 -4 d 4 -7 d 4 -8 d 4 -4 d s black 3 lw 245 202 m 1796 X s 269 242 m -40 Y s 317 222 m
 -20 Y s 365 222 m -20 Y s 414 222 m -20 Y s 462 222 m -20 Y s 510 242 m -40 Y s 558 222 m -20 Y s 606 222 m -20 Y s 654 222 m -20 Y s 702 222 m -20 Y s 750 242 m -40 Y s 798 222 m -20 Y s 846 222 m -20 Y s 894 222 m -20 Y s 943 222 m -20 Y s 991 242
 m -40 Y s 1039 222 m -20 Y s 1087 222 m -20 Y s 1135 222 m -20 Y s 1183 222 m -20 Y s 1231 242 m -40 Y s 1279 222 m -20 Y s 1327 222 m -20 Y s 1375 222 m -20 Y s 1423 222 m -20 Y s 1472 242 m -40 Y s 1520 222 m -20 Y s 1568 222 m -20 Y s 1616 222 m
 -20 Y s 1664 222 m -20 Y s 1712 242 m -40 Y s 1760 222 m -20 Y s 1808 222 m -20 Y s 1856 222 m -20 Y s 1904 222 m -20 Y s 1952 242 m -40 Y s 269 242 m -40 Y s 1952 242 m -40 Y s 2001 222 m -20 Y s 245 202 m 1143 Y s 291 202 m -46 X s 268 254 m -23 X
 s 268 306 m -23 X s 268 358 m -23 X s 291 410 m -46 X s 268 462 m -23 X s 268 514 m -23 X s 268 566 m -23 X s 291 618 m -46 X s 268 670 m -23 X s 268 722 m -23 X s 268 774 m -23 X s 291 826 m -46 X s 268 878 m -23 X s 268 930 m -23 X s 268 982 m -23
 X s 291 1034 m -46 X s 268 1086 m -23 X s 268 1137 m -23 X s 268 1189 m -23 X s 291 1241 m -46 X s 291 1241 m -46 X s 268 1293 m -23 X s 268 1345 m -23 X s 0.490196 0.545098 0.615686 c 0.95 0.95 0.95 c 0.490196 0.545098 0.615686 c 907 202 245 1345
 bl 245 1345 m 907 X s 1152 1345 m 202 Y s 1152 1547 m -907 X s 245 1547 m -202 Y s black
 gsave  2268 1682 0 0 C 517.039 1473.94 t 0 r /Times-Italic findfont 57.0734 sf 0 0 m (Signal efficiency) show NC gr  0 0 0.933333 c 9 lw 286 1497 m 190 X s black
 gsave  2268 1682 0 0 C 517.039 1373.03 t 0 r /Times-Italic findfont 57.0734 sf 0 0 m (Background efficiency) show NC gr  1 0 0 c 286 1396 m 190 X s 0.490196 0.545098 0.615686 c 3 lw 0.95 0.95 0.95 c 0.490196 0.545098 0.615686 c 889 202 1152 1345 bl
 1152 1345 m 889 X s 2041 1345 m 202 Y s 2041 1547 m -889 X s 1152 1547 m -202 Y s black
 gsave  2268 1682 0 0 C 1418.68 1490.76 t 0 r /Times-Italic findfont 57.0734 sf 0 0 m (Signal purity) show NC gr  0 0 0.933333 c[  52 12 ] 0 sd 6 lw 1192 1514 m 187 X s black
 gsave  2268 1682 0 0 C 1418.68 1423.49 t 0 r /Times-Italic findfont 57.0734 sf 0 0 m (Signal efficiency*purity) show NC gr  0 0 0.933333 c[  22 12 ] 0 sd 1192 1446 m 187 X s black
 gsave  2268 1682 0 0 C 1418.68 1356.22 t 0 r /Times-Italic findfont 57.0734 sf 0 0 m (S/#sqrt{S+B}) show NC gr  0 0.666667 0 c[  ] 0 sd 9 lw 1192 1379 m 187 X s black 3 lw 245 1241 m 1796 X s
 gsave  2268 1682 0 0 C 338.636 388.099 t 0 r /Helvetica-Bold findfont 53.2685 sf 0 0 m (For 1000 signal and 1000 background) show NC gr 
 gsave  2268 1682 0 0 C 1061.57 319.611 t 0 r /Helvetica-Bold findfont 53.2685 sf 0 0 m ( is) show NC gr 
 gsave  2268 1682 0 0 C 958.833 319.611 t 0 r /Helvetica-Bold findfont 53.2685 sf 0 0 m (S+B) show NC gr  6 lw 936 361 m 8 -45 d s 0 lw 944 316 m 7 61 d s 951 377 m 111 X s
 gsave  2268 1682 0 0 C 338.636 319.611 t 0 r /Helvetica-Bold findfont 53.2685 sf 0 0 m (events the maximum S/) show NC gr 
 gsave  2268 1682 0 0 C 338.636 254.928 t 0 r /Helvetica-Bold findfont 53.2685 sf 0 0 m (22.40 when cutting at  0.22) show NC gr  0.490196 0.545098 0.615686 c 3 lw 0.364706 0.419608 0.490196 c 1476 96 23 1577 bf 0.490196 0.545098 0.615686 c 23 1577 m
 1476 X s 1499 1577 m 96 Y s 1499 1673 m -1476 X s 23 1673 m -96 Y s 1 1 1 c black 1 1 1 c
 gsave  2268 1682 0 0 C 76.0979 1605.67 t 0 r /Helvetica-Bold findfont 76.0979 sf 0 0 m (Cut efficiencies and optimal cut value) show NC gr  0 0.666667 0 c 2041 202 m 1143 Y s black 0 0.666667 0 c
 gsave  2268 1682 0 0 C 2203.03 966.443 t 90 r /Helvetica-Bold findfont 64.6832 sf 0 0 m (Significance) show NC gr  1995 202 m 46 X s 2018 225 m 23 X s 2018 248 m 23 X s 2018 271 m 23 X s 1995 295 m 46 X s 2018 318 m 23 X s 2018 341 m 23 X s 2018 364
 m 23 X s 1995 387 m 46 X s 2018 411 m 23 X s 2018 434 m 23 X s 2018 457 m 23 X s 1995 480 m 46 X s 2018 503 m 23 X s 2018 527 m 23 X s 2018 550 m 23 X s 1995 573 m 46 X s 2018 596 m 23 X s 2018 619 m 23 X s 2018 643 m 23 X s 1995 666 m 46 X s 2018
 689 m 23 X s 2018 712 m 23 X s 2018 735 m 23 X s 1995 759 m 46 X s 2018 782 m 23 X s 2018 805 m 23 X s 2018 828 m 23 X s 1995 851 m 46 X s 2018 875 m 23 X s 2018 898 m 23 X s 2018 921 m 23 X s 1995 944 m 46 X s 2018 967 m 23 X s 2018 991 m 23 X s
 2018 1014 m 23 X s 1995 1037 m 46 X s 2018 1060 m 23 X s 2018 1083 m 23 X s 2018 1107 m 23 X s 1995 1130 m 46 X s 2018 1153 m 23 X s 2018 1176 m 23 X s 2018 1199 m 23 X s 1995 1223 m 46 X s 2018 1246 m 23 X s 2018 1269 m 23 X s 2018 1292 m 23 X s
 1995 1315 m 46 X s 1995 1315 m 46 X s 2018 1339 m 23 X s black 0 0.666667 0 c
 gsave  2268 1682 0 0 C 2050.84 178.83 t 0 r /Helvetica-Bold findfont 64.6832 sf 0 0 m (0) show NC gr  black 0 0.666667 0 c
 gsave  2268 1682 0 0 C 2050.84 270.147 t 0 r /Helvetica-Bold findfont 64.6832 sf 0 0 m (2) show NC gr  black 0 0.666667 0 c
 gsave  2268 1682 0 0 C 2050.84 361.465 t 0 r /Helvetica-Bold findfont 64.6832 sf 0 0 m (4) show NC gr  black 0 0.666667 0 c
 gsave  2268 1682 0 0 C 2050.84 456.587 t 0 r /Helvetica-Bold findfont 64.6832 sf 0 0 m (6) show NC gr  black 0 0.666667 0 c
 gsave  2268 1682 0 0 C 2050.84 547.905 t 0 r /Helvetica-Bold findfont 64.6832 sf 0 0 m (8) show NC gr  black 0 0.666667 0 c
 gsave  2268 1682 0 0 C 2050.84 639.222 t 0 r /Helvetica-Bold findfont 64.6832 sf 0 0 m (10) show NC gr  black 0 0.666667 0 c
 gsave  2268 1682 0 0 C 2050.84 734.344 t 0 r /Helvetica-Bold findfont 64.6832 sf 0 0 m (12) show NC gr  black 0 0.666667 0 c
 gsave  2268 1682 0 0 C 2050.84 825.662 t 0 r /Helvetica-Bold findfont 64.6832 sf 0 0 m (14) show NC gr  black 0 0.666667 0 c
 gsave  2268 1682 0 0 C 2050.84 920.784 t 0 r /Helvetica-Bold findfont 64.6832 sf 0 0 m (16) show NC gr  black 0 0.666667 0 c
 gsave  2268 1682 0 0 C 2050.84 1012.1 t 0 r /Helvetica-Bold findfont 64.6832 sf 0 0 m (18) show NC gr  black 0 0.666667 0 c
 gsave  2268 1682 0 0 C 2050.84 1103.42 t 0 r /Helvetica-Bold findfont 64.6832 sf 0 0 m (20) show NC gr  black 0 0.666667 0 c
 gsave  2268 1682 0 0 C 2050.84 1198.54 t 0 r /Helvetica-Bold findfont 64.6832 sf 0 0 m (22) show NC gr  black 0 0.666667 0 c
 gsave  2268 1682 0 0 C 2050.84 1289.86 t 0 r /Helvetica-Bold findfont 64.6832 sf 0 0 m (24) show NC gr 
 gr  gr showpage
end
%%EOF
