%!PS-Adobe-2.0 EPSF-2.0
%%BoundingBox:  0 0 567 420
%%Title: plots/mvaeffs_BDTB.eps: Cut efficiencies for BDTB classifier
%%Creator: ROOT Version 5.34/09
%%CreationDate: Thu Jan  2 18:35:58 2014
%%EndComments
%%BeginProlog
80 dict begin
/s {stroke} def /l {lineto} def /m {moveto} def /t {translate} def
/r {rotate} def /rl {roll}  def /R {repeat} def
/d {rlineto} def /rm {rmoveto} def /gr {grestore} def /f {eofill} def
/c {setrgbcolor} def /black {0 setgray} def /sd {setdash} def
/cl {closepath} def /sf {scalefont setfont} def /lw {setlinewidth} def
/box {m dup 0 exch d exch 0 d 0 exch neg d cl} def
/NC{systemdict begin initclip end}def/C{NC box clip newpath}def
/bl {box s} def /bf {box f} def /Y { 0 exch d} def /X { 0 d} def 
/K {{pop pop 0 moveto} exch kshow} bind def
/ita {/ang 15 def gsave [1 0 ang dup sin exch cos div 1 0 0] concat} def 
/mp {newpath /y exch def /x exch def} def
/side {[w .77 mul w .23 mul] .385 w mul sd w 0 l currentpoint t -144 r} def
/mr {mp x y w2 0 360 arc} def /m24 {mr s} def /m20 {mr f} def
/mb {mp x y w2 add m w2 neg 0 d 0 w neg d w 0 d 0 w d cl} def
/mt {mp x y w2 add m w2 neg w neg d w 0 d cl} def
/m21 {mb f} def /m25 {mb s} def /m22 {mt f} def /m26{mt s} def
/m23 {mp x y w2 sub m w2 w d w neg 0 d cl f} def
/m27 {mp x y w2 add m w3 neg w2 neg d w3 w2 neg d w3 w2 d cl s} def
/m28 {mp x w2 sub y w2 sub w3 add m w3 0 d  0 w3 neg d w3 0 d 0 w3 d w3 0 d  0 w3 d w3 neg 0 d 0 w3 d w3 neg 0 d 0 w3 neg d w3 neg 0 d cl s } def
/m29 {mp gsave x w2 sub y w2 add w3 sub m currentpoint t 4 {side} repeat cl fill gr} def
/m30 {mp gsave x w2 sub y w2 add w3 sub m currentpoint t 4 {side} repeat cl s gr} def
/m31 {mp x y w2 sub m 0 w d x w2 sub y m w 0 d x w2 sub y w2 add m w w neg d x w2 sub y w2 sub m w w d s} def
/m32 {mp x y w2 sub m w2 w d w neg 0 d cl s} def
/m33 {mp x y w2 add m w3 neg w2 neg d w3 w2 neg d w3 w2 d cl f} def
/m34 {mp x w2 sub y w2 sub w3 add m w3 0 d  0 w3 neg d w3 0 d 0 w3 d w3 0 d  0 w3 d w3 neg 0 d 0 w3 d w3 neg 0 d 0 w3 neg d w3 neg 0 d cl f } def
/m2 {mp x y w2 sub m 0 w d x w2 sub y m w 0 d s} def
/m5 {mp x w2 sub y w2 sub m w w d x w2 sub y w2 add m w w neg d s} def
/reEncode {exch findfont dup length dict begin {1 index /FID eq  {pop pop} {def} ifelse } forall /Encoding exch def currentdict end dup /FontName get exch definefont pop } def [/Times-Bold /Times-Italic /Times-BoldItalic /Helvetica /Helvetica-Oblique
 /Helvetica-Bold /Helvetica-BoldOblique /Courier /Courier-Oblique /Courier-Bold /Courier-BoldOblique /Times-Roman /AvantGarde-Book /AvantGarde-BookOblique /AvantGarde-Demi /AvantGarde-DemiOblique /Bookman-Demi /Bookman-DemiItalic /Bookman-Light
 /Bookman-LightItalic /Helvetica-Narrow /Helvetica-Narrow-Bold /Helvetica-Narrow-BoldOblique /Helvetica-Narrow-Oblique /NewCenturySchlbk-Roman /NewCenturySchlbk-Bold /NewCenturySchlbk-BoldItalic /NewCenturySchlbk-Italic /Palatino-Bold
 /Palatino-BoldItalic /Palatino-Italic /Palatino-Roman ] {ISOLatin1Encoding reEncode } forall
%%EndProlog
%%BeginSetup
%%EndSetup
newpath  gsave  .25 .25 scale  gsave  0 0 t 0.490196 0.545098 0.615686 c[  ] 0 sd 3 lw 0.941176 0.941176 0.941176 c 2268 1682 0 0 bf black 1 1 0.992157 c 1796 1143 245 202 bf black 1796 1143 245 202 bl 1 1 0.992157 c 1796 1143 245 202 bf black 1796
 1143 245 202 bl 245 202 m 1796 X s[ 4 8] 0 sd 245 1345 m -1143 Y s 694 1345 m -1143 Y s 1143 1345 m -1143 Y s 1592 1345 m -1143 Y s 2041 1345 m -1143 Y s 2041 1345 m -1143 Y s[  ] 0 sd 245 202 m 1143 Y s[ 4 8] 0 sd 2041 280 m -1796 X s 2041 399 m
 -1796 X s 2041 517 m -1796 X s 2041 635 m -1796 X s 2041 754 m -1796 X s 2041 872 m -1796 X s 2041 990 m -1796 X s 2041 1109 m -1796 X s 2041 1227 m -1796 X s 2041 1345 m -1796 X s 2041 280 m -1796 X s 0 0 0.933333 c[  22 12 ] 0 sd 6 lw 0.49 0.6
 0.82 c black 0 0 0.933333 c 245 635 m -30 Y s 248 605 m cl s 252 605 m cl s 256 605 m cl s 260 605 m cl s 264 605 m cl s 267 605 m cl s 271 605 m cl s 275 605 m cl s 279 605 m cl s 283 605 m cl s 287 605 m cl s 290 605 m -11 Y s 294 594 m cl s 298
 594 m cl s 302 594 m -88 Y s 306 506 m cl s 309 506 m cl s 313 506 m cl s 317 506 m cl s 321 506 m cl s 325 506 m cl s 328 506 m cl s 332 506 m cl s 336 506 m cl s 340 506 m cl s 344 506 m cl s 347 506 m cl s 351 506 m cl s 355 506 m cl s 359 506 m
 cl s 363 506 m cl s 366 506 m cl s 370 506 m cl s 374 506 m cl s 378 506 m cl s 382 506 m cl s 385 506 m cl s 389 506 m cl s 393 506 m cl s 397 506 m cl s 401 506 m -4 Y s 404 502 m cl s 408 502 m cl s 412 502 m cl s 416 502 m cl s 420 502 m cl s
 423 502 m cl s 427 502 m cl s 431 502 m cl s 435 502 m cl s 439 502 m cl s 443 502 m cl s 446 502 m -4 Y s 450 498 m cl s 454 498 m cl s 458 498 m cl s 462 487 m cl s 465 487 m cl s 469 487 m cl s 473 487 m cl s 477 487 m cl s 481 487 m cl s 484 487
 m cl s 488 487 m cl s 492 487 m cl s 496 487 m cl s 500 487 m cl s 503 487 m cl s 507 487 m cl s 511 487 m cl s 515 487 m cl s 519 487 m cl s 522 487 m cl s 526 487 m cl s 530 487 m cl s 534 487 m cl s 538 487 m cl s 541 487 m cl s 545 487 m cl s
 549 487 m cl s 553 487 m cl s 557 487 m cl s 560 487 m cl s 564 487 m cl s 568 487 m cl s 572 487 m cl s 576 487 m cl s 579 487 m cl s 583 487 m cl s 587 487 m cl s 591 487 m cl s 595 487 m cl s 599 487 m cl s 602 487 m cl s 606 487 m cl s 610 487 m
 cl s 614 487 m cl s 618 487 m cl s 621 487 m cl s 625 487 m cl s 629 487 m cl s 633 487 m cl s 637 487 m cl s 640 487 m cl s 644 487 m cl s 648 487 m cl s 652 487 m cl s 656 487 m cl s 659 487 m cl s 663 487 m cl s 667 487 m cl s 671 487 m cl s 675
 487 m cl s 678 487 m cl s 682 487 m cl s 686 487 m cl s 690 487 m cl s 694 487 m cl s 697 487 m cl s 701 487 m cl s 705 487 m cl s 709 487 m cl s 713 487 m cl s 716 487 m cl s 720 487 m cl s 724 487 m cl s 728 487 m cl s 732 487 m cl s 735 487 m cl
 s 739 487 m cl s 743 487 m cl s 747 487 m cl s 751 487 m cl s 755 487 m cl s 758 487 m cl s 762 487 m cl s 766 487 m cl s 770 487 m cl s 774 487 m cl s 777 487 m cl s 781 487 m cl s 785 487 m cl s 789 487 m cl s 793 487 m cl s 796 487 m cl s 800 487
 m cl s 804 487 m cl s 808 487 m cl s 812 487 m cl s 815 487 m cl s 819 487 m cl s 823 487 m cl s 827 487 m cl s 831 487 m cl s 834 487 m cl s 838 487 m cl s 842 487 m cl s 846 487 m cl s 850 487 m cl s 853 487 m cl s 857 487 m cl s 861 487 m cl s
 865 487 m cl s 869 487 m cl s 872 487 m cl s 876 487 m cl s 880 491 m -4 Y s 884 491 m cl s 888 491 m cl s 891 491 m cl s 895 491 m cl s 899 491 m cl s 903 491 m cl s 907 491 m cl s 911 491 m cl s 914 491 m cl s 918 491 m cl s 922 491 m cl s 926 491
 m cl s 930 491 m cl s 933 491 m cl s 937 491 m cl s 941 491 m cl s 945 491 m cl s 949 491 m cl s 952 491 m cl s 956 491 m cl s 960 491 m cl s 964 491 m cl s 968 491 m cl s 971 491 m cl s 975 491 m cl s 979 491 m cl s 983 491 m cl s 987 491 m cl s
 990 491 m cl s 994 491 m cl s 998 491 m cl s 1002 491 m cl s 1006 491 m cl s 1009 491 m cl s 1013 491 m cl s 1017 491 m cl s 1021 491 m cl s 1025 491 m cl s 1028 491 m cl s 1032 491 m cl s 1036 491 m cl s 1040 491 m cl s 1044 491 m cl s 1047 491 m
 cl s 1051 491 m cl s 1055 491 m cl s 1059 491 m cl s 1063 491 m cl s 1067 491 m cl s 1070 491 m -4 Y s 1074 487 m cl s 1078 487 m cl s 1082 487 m cl s 1086 487 m cl s 1089 487 m cl s 1093 487 m cl s 1097 487 m cl s 1101 487 m cl s 1105 487 m cl s
 1108 487 m cl s 1112 487 m cl s 1116 487 m cl s 1120 487 m cl s 1124 487 m cl s 1127 487 m cl s 1131 487 m cl s 1135 487 m cl s 1139 487 m cl s 1143 487 m cl s 1146 487 m cl s 1150 487 m cl s 1154 487 m cl s 1158 487 m cl s 1162 487 m cl s 1165 487
 m cl s 1169 487 m cl s 1173 487 m cl s 1177 487 m cl s 1181 487 m cl s 1184 487 m cl s 1188 487 m cl s 1192 487 m cl s 1196 487 m cl s 1200 487 m cl s 1203 487 m cl s 1207 487 m cl s 1211 487 m cl s 1215 487 m cl s 1219 487 m cl s 1223 487 m cl s
 1226 487 m cl s 1230 487 m cl s 1234 487 m cl s 1238 487 m cl s 1242 487 m cl s 1245 487 m cl s 1249 487 m cl s 1253 487 m cl s 1257 487 m cl s 1261 487 m cl s 1264 487 m cl s 1268 487 m cl s 1272 487 m cl s 1276 487 m cl s 1280 487 m cl s 1283 487
 m cl s 1287 487 m cl s 1291 487 m cl s 1295 487 m cl s 1299 487 m cl s 1302 487 m cl s 1306 487 m cl s 1310 487 m cl s 1314 487 m cl s 1318 487 m cl s 1321 487 m cl s 1325 487 m cl s 1329 487 m cl s 1333 487 m cl s 1337 487 m cl s 1340 487 m cl s
 1344 487 m cl s 1348 487 m cl s 1352 487 m -4 Y s 1356 483 m cl s 1359 483 m cl s 1363 483 m cl s 1367 483 m cl s 1371 483 m cl s 1375 483 m -7 Y s 1379 476 m cl s 1382 476 m cl s 1386 476 m cl s 1390 476 m cl s 1394 476 m cl s 1398 476 m cl s 1401
 479 m -3 Y s 1405 479 m cl s 1409 472 m cl s 1413 472 m cl s 1417 472 m cl s 1420 472 m cl s 1424 472 m -4 Y s 1428 468 m -15 Y s 1432 453 m cl s 1436 453 m -4 Y s 1439 449 m cl s 1443 449 m cl s 1447 449 m cl s 1451 449 m cl s 1455 449 m cl s 1458
 449 m cl s 1462 449 m cl s 1466 449 m cl s 1470 449 m cl s 1474 449 m cl s 1477 449 m cl s 1481 449 m cl s 1485 449 m cl s 1489 449 m cl s 1493 449 m cl s 1496 449 m cl s 1500 449 m cl s 1504 449 m cl s 1508 449 m cl s 1512 449 m cl s 1515 449 m cl
 s 1519 449 m cl s 1523 449 m cl s 1527 449 m cl s 1531 449 m cl s 1535 449 m cl s 1538 449 m cl s 1542 449 m cl s 1546 449 m cl s 1550 449 m cl s 1554 449 m cl s 1557 449 m cl s 1561 449 m cl s 1565 449 m cl s 1569 449 m cl s 1573 449 m cl s 1576
 449 m -4 Y s 1580 445 m cl s 1584 445 m cl s 1588 445 m -4 Y s 1592 441 m cl s 1595 441 m cl s 1599 441 m cl s 1603 441 m cl s 1607 441 m cl s 1611 441 m -68 Y s 1614 373 m cl s 1618 373 m -4 Y s 1622 369 m cl s 1626 369 m cl s 1630 369 m cl s 1633
 369 m cl s 1637 369 m cl s 1641 369 m cl s 1645 369 m cl s 1649 369 m cl s 1652 369 m cl s 1656 369 m cl s 1660 369 m cl s 1664 369 m cl s 1668 369 m -49 Y s 1671 320 m cl s 1675 320 m cl s 1679 320 m cl s 1683 320 m cl s 1687 320 m cl s 1691 320 m
 cl s 1694 320 m cl s 1698 320 m cl s 1702 320 m cl s 1706 320 m cl s 1710 320 m cl s 1713 320 m cl s 1717 320 m cl s 1721 320 m cl s 1725 320 m cl s 1729 320 m cl s 1732 320 m cl s 1736 320 m cl s 1740 320 m cl s 1744 320 m cl s 1748 320 m cl s 1751
 320 m cl s 1755 320 m cl s 1759 320 m cl s 1763 320 m cl s 1767 320 m cl s 1770 320 m cl s 1774 320 m cl s 1778 320 m cl s 1782 320 m cl s 1786 320 m cl s 1789 320 m cl s 1793 320 m cl s 1797 320 m cl s 1801 320 m cl s 1805 320 m cl s 1808 320 m cl
 s 1812 320 m cl s 1816 320 m cl s 1820 320 m cl s 1824 320 m cl s 1827 320 m cl s 1831 320 m cl s 1835 320 m cl s 1839 320 m cl s 1843 320 m cl s 1847 320 m cl s 1850 320 m cl s 1854 320 m cl s 1858 320 m cl s 1862 320 m cl s 1866 320 m cl s 1869
 320 m -4 Y s 1873 316 m cl s 1877 316 m cl s 1881 316 m cl s 1885 316 m cl s 1888 316 m cl s 1892 316 m cl s 1896 316 m cl s 1900 316 m cl s 1904 316 m cl s 1907 312 m cl s 1911 312 m cl s 1915 312 m cl s 1919 312 m cl s 1923 312 m cl s 1926 312 m
 cl s 1930 312 m cl s 1934 312 m cl s 1938 312 m cl s 1942 312 m cl s 1945 312 m cl s 1949 312 m cl s 1953 312 m cl s 1957 312 m cl s 1961 312 m cl s 1964 312 m -4 Y s 1968 308 m cl s 1972 308 m cl s 1976 308 m cl s 1980 308 m cl s 1983 308 m cl s
 1987 308 m cl s 1991 308 m -4 Y s 1995 304 m cl s 1999 304 m cl s 2003 304 m -3 Y s 2006 301 m cl s 2010 301 m -8 Y s 2014 293 m -4 Y s 2018 289 m -7 Y s 2022 282 m -4 Y s 2025 278 m -4 Y s 2029 274 m cl s 2033 274 m cl s 2037 274 m -15 Y s 2041 259
 m cl s 245 620 m 3 -15 d 39 X 3 -4 d 4 -7 d 4 X 4 -42 d 4 -46 d 95 X 3 -4 d 42 X 4 -4 d 8 X 4 -11 d 414 X 4 4 d 190 X 4 -4 d 278 X 4 -4 d 15 X 4 -4 d 4 -3 d 19 X 3 3 d 4 X 4 -7 d 15 X 4 -12 d 4 -7 d 4 X 3 -4 d 137 X 4 -4 d 8 X 4 -4 d 15 X 4 -34 d 3
 -34 d 4 X 4 -4 d 42 X 4 -23 d 3 -26 d 198 X 4 -4 d 31 X 3 -4 d 57 X 4 -4 d 23 X 4 -4 d 8 X 3 -3 d 4 -4 d 4 -4 d 4 -8 d 4 -3 d 3 -4 d 4 -4 d 4 X 4 -8 d 4 -7 d s black[  ] 0 sd 3 lw 245 202 m 1796 X s
 gsave  2268 1682 0 0 C 867.516 30.4391 t 0 r /Helvetica-Bold findfont 72.293 sf 0 0 m (Cut value applied on BDTB output) show NC gr  245 242 m -40 Y s 335 222 m -20 Y s 425 222 m -20 Y s 514 222 m -20 Y s 604 222 m -20 Y s 694 242 m -40 Y s 784 222
 m -20 Y s 874 222 m -20 Y s 963 222 m -20 Y s 1053 222 m -20 Y s 1143 242 m -40 Y s 1233 222 m -20 Y s 1323 222 m -20 Y s 1412 222 m -20 Y s 1502 222 m -20 Y s 1592 242 m -40 Y s 1682 222 m -20 Y s 1772 222 m -20 Y s 1861 222 m -20 Y s 1951 222 m
 -20 Y s 2041 242 m -40 Y s 2041 242 m -40 Y s
 gsave  2268 1682 0 0 C 216.879 129.366 t 0 r /Helvetica-Bold findfont 64.6832 sf 0 0 m (\2551) show NC gr 
 gsave  2268 1682 0 0 C 635.417 129.366 t 0 r /Helvetica-Bold findfont 64.6832 sf 0 0 m (\2550.5) show NC gr 
 gsave  2268 1682 0 0 C 1122.44 129.366 t 0 r /Helvetica-Bold findfont 64.6832 sf 0 0 m (0) show NC gr 
 gsave  2268 1682 0 0 C 1544.79 129.366 t 0 r /Helvetica-Bold findfont 64.6832 sf 0 0 m (0.5) show NC gr 
 gsave  2268 1682 0 0 C 2024.2 129.366 t 0 r /Helvetica-Bold findfont 64.6832 sf 0 0 m (1) show NC gr  245 202 m 1143 Y s
 gsave  2268 1682 0 0 C 64.6832 734.344 t 90 r /Helvetica-Bold findfont 72.293 sf 0 0 m (Efficiency \(Purity\)) show NC gr  291 280 m -46 X s 268 304 m -23 X s 268 328 m -23 X s 268 351 m -23 X s 268 375 m -23 X s 291 399 m -46 X s 268 422 m -23 X s
 268 446 m -23 X s 268 470 m -23 X s 268 493 m -23 X s 291 517 m -46 X s 268 541 m -23 X s 268 564 m -23 X s 268 588 m -23 X s 268 612 m -23 X s 291 635 m -46 X s 268 659 m -23 X s 268 683 m -23 X s 268 706 m -23 X s 268 730 m -23 X s 291 754 m -46 X
 s 268 777 m -23 X s 268 801 m -23 X s 268 825 m -23 X s 268 848 m -23 X s 291 872 m -46 X s 268 896 m -23 X s 268 919 m -23 X s 268 943 m -23 X s 268 967 m -23 X s 291 990 m -46 X s 268 1014 m -23 X s 268 1038 m -23 X s 268 1061 m -23 X s 268 1085 m
 -23 X s 291 1109 m -46 X s 268 1132 m -23 X s 268 1156 m -23 X s 268 1180 m -23 X s 268 1203 m -23 X s 291 1227 m -46 X s 268 1251 m -23 X s 268 1274 m -23 X s 268 1298 m -23 X s 268 1322 m -23 X s 291 1345 m -46 X s 291 280 m -46 X s 268 257 m -23
 X s 268 233 m -23 X s 268 209 m -23 X s
 gsave  2268 1682 0 0 C 129.366 254.928 t 0 r /Helvetica-Bold findfont 64.6832 sf 0 0 m (0.2) show NC gr 
 gsave  2268 1682 0 0 C 129.366 372.88 t 0 r /Helvetica-Bold findfont 64.6832 sf 0 0 m (0.3) show NC gr 
 gsave  2268 1682 0 0 C 125.561 490.831 t 0 r /Helvetica-Bold findfont 64.6832 sf 0 0 m (0.4) show NC gr 
 gsave  2268 1682 0 0 C 129.366 608.783 t 0 r /Helvetica-Bold findfont 64.6832 sf 0 0 m (0.5) show NC gr 
 gsave  2268 1682 0 0 C 129.366 730.54 t 0 r /Helvetica-Bold findfont 64.6832 sf 0 0 m (0.6) show NC gr 
 gsave  2268 1682 0 0 C 125.561 848.491 t 0 r /Helvetica-Bold findfont 64.6832 sf 0 0 m (0.7) show NC gr 
 gsave  2268 1682 0 0 C 125.561 966.443 t 0 r /Helvetica-Bold findfont 64.6832 sf 0 0 m (0.8) show NC gr 
 gsave  2268 1682 0 0 C 129.366 1084.39 t 0 r /Helvetica-Bold findfont 64.6832 sf 0 0 m (0.9) show NC gr 
 gsave  2268 1682 0 0 C 190.245 1202.35 t 0 r /Helvetica-Bold findfont 64.6832 sf 0 0 m (1) show NC gr 
 gsave  2268 1682 0 0 C 136.976 1320.3 t 0 r /Helvetica-Bold findfont 64.6832 sf 0 0 m (1.1) show NC gr  0 0 0.933333 c[  52 12 ] 0 sd 6 lw 0.49 0.6 0.82 c black 0 0 0.933333 c 248 708 m cl s 252 708 m cl s 256 708 m cl s 260 708 m cl s 264 708 m cl
 s 267 708 m cl s 271 708 m cl s 275 708 m cl s 279 708 m cl s 283 708 m cl s 287 708 m cl s 290 712 m -4 Y s 294 712 m cl s 298 712 m cl s 302 803 m -91 Y s 306 803 m cl s 309 803 m cl s 313 803 m cl s 317 803 m cl s 321 803 m cl s 325 803 m cl s
 328 803 m cl s 332 803 m cl s 336 803 m cl s 340 803 m cl s 344 803 m cl s 347 803 m cl s 351 803 m cl s 355 803 m cl s 359 803 m cl s 363 803 m cl s 366 803 m cl s 370 803 m cl s 374 803 m cl s 378 803 m cl s 382 803 m cl s 385 803 m cl s 389 803 m
 cl s 393 803 m cl s 397 803 m cl s 401 803 m cl s 404 803 m cl s 408 803 m cl s 412 803 m cl s 416 803 m cl s 420 803 m cl s 423 803 m cl s 427 803 m cl s 431 803 m cl s 435 803 m cl s 439 803 m cl s 443 803 m cl s 446 803 m cl s 450 803 m cl s 454
 803 m cl s 458 803 m cl s 462 799 m cl s 465 799 m cl s 469 799 m cl s 473 799 m cl s 477 799 m cl s 481 799 m cl s 484 799 m cl s 488 799 m cl s 492 799 m cl s 496 799 m cl s 500 799 m cl s 503 799 m cl s 507 799 m cl s 511 799 m cl s 515 799 m cl
 s 519 799 m cl s 522 799 m cl s 526 799 m cl s 530 799 m cl s 534 799 m cl s 538 799 m cl s 541 799 m cl s 545 799 m cl s 549 799 m cl s 553 799 m cl s 557 799 m cl s 560 799 m cl s 564 799 m cl s 568 799 m cl s 572 799 m cl s 576 799 m cl s 579 799
 m cl s 583 799 m cl s 587 799 m cl s 591 799 m cl s 595 799 m cl s 599 799 m cl s 602 799 m cl s 606 799 m cl s 610 799 m cl s 614 799 m cl s 618 799 m cl s 621 799 m cl s 625 799 m cl s 629 799 m cl s 633 799 m cl s 637 799 m cl s 640 799 m cl s
 644 799 m cl s 648 799 m cl s 652 799 m cl s 656 799 m cl s 659 799 m cl s 663 799 m cl s 667 799 m cl s 671 799 m cl s 675 799 m cl s 678 799 m cl s 682 799 m cl s 686 799 m cl s 690 799 m cl s 694 799 m cl s 697 799 m cl s 701 799 m cl s 705 799 m
 cl s 709 799 m cl s 713 799 m cl s 716 799 m cl s 720 799 m cl s 724 799 m cl s 728 799 m cl s 732 799 m cl s 735 799 m cl s 739 799 m cl s 743 799 m cl s 747 799 m cl s 751 799 m cl s 755 799 m cl s 758 799 m cl s 762 799 m cl s 766 799 m cl s 770
 799 m cl s 774 799 m cl s 777 799 m cl s 781 799 m cl s 785 799 m cl s 789 799 m cl s 793 799 m cl s 796 799 m cl s 800 799 m cl s 804 799 m cl s 808 799 m cl s 812 799 m cl s 815 799 m cl s 819 799 m cl s 823 799 m cl s 827 799 m cl s 831 799 m cl
 s 834 799 m cl s 838 799 m cl s 842 799 m cl s 846 799 m cl s 850 799 m cl s 853 799 m cl s 857 799 m cl s 861 799 m cl s 865 799 m cl s 869 799 m cl s 872 799 m cl s 876 799 m cl s 880 807 m -8 Y s 884 807 m cl s 888 807 m cl s 891 807 m cl s 895
 807 m cl s 899 807 m cl s 903 807 m cl s 907 807 m cl s 911 807 m cl s 914 807 m cl s 918 807 m cl s 922 807 m cl s 926 807 m cl s 930 807 m cl s 933 807 m cl s 937 807 m cl s 941 807 m cl s 945 807 m cl s 949 807 m cl s 952 807 m cl s 956 807 m cl
 s 960 807 m cl s 964 807 m cl s 968 807 m cl s 971 807 m cl s 975 807 m cl s 979 807 m cl s 983 807 m cl s 987 807 m cl s 990 807 m cl s 994 807 m cl s 998 807 m cl s 1002 807 m cl s 1006 807 m cl s 1009 807 m cl s 1013 807 m cl s 1017 807 m cl s
 1021 807 m cl s 1025 807 m cl s 1028 807 m cl s 1032 807 m cl s 1036 807 m cl s 1040 807 m cl s 1044 807 m cl s 1047 807 m cl s 1051 807 m cl s 1055 807 m cl s 1059 807 m cl s 1063 807 m cl s 1067 807 m cl s 1070 807 m cl s 1074 807 m cl s 1078 807
 m cl s 1082 807 m cl s 1086 807 m cl s 1089 807 m cl s 1093 807 m cl s 1097 807 m cl s 1101 807 m cl s 1105 807 m cl s 1108 807 m cl s 1112 807 m cl s 1116 807 m cl s 1120 807 m cl s 1124 807 m cl s 1127 807 m cl s 1131 807 m cl s 1135 807 m cl s
 1139 807 m cl s 1143 807 m cl s 1146 807 m cl s 1150 807 m cl s 1154 807 m cl s 1158 807 m cl s 1162 807 m cl s 1165 807 m cl s 1169 807 m cl s 1173 807 m cl s 1177 807 m cl s 1181 807 m cl s 1184 807 m cl s 1188 807 m cl s 1192 807 m cl s 1196 807
 m cl s 1200 807 m cl s 1203 807 m cl s 1207 807 m cl s 1211 807 m cl s 1215 807 m cl s 1219 807 m cl s 1223 807 m cl s 1226 807 m cl s 1230 807 m cl s 1234 807 m cl s 1238 807 m cl s 1242 807 m cl s 1245 807 m cl s 1249 807 m cl s 1253 807 m cl s
 1257 807 m cl s 1261 807 m cl s 1264 807 m cl s 1268 807 m cl s 1272 807 m cl s 1276 807 m cl s 1280 807 m cl s 1283 807 m cl s 1287 807 m cl s 1291 807 m cl s 1295 807 m cl s 1299 807 m cl s 1302 807 m cl s 1306 807 m cl s 1310 807 m cl s 1314 807
 m cl s 1318 807 m cl s 1321 807 m cl s 1325 807 m cl s 1329 807 m cl s 1333 807 m cl s 1337 807 m cl s 1340 807 m cl s 1344 807 m cl s 1348 810 m -3 Y s 1352 810 m -3 Y s 1356 807 m cl s 1359 810 m -3 Y s 1363 810 m cl s 1367 810 m cl s 1371 810 m
 cl s 1375 814 m -4 Y s 1379 814 m cl s 1382 814 m cl s 1386 818 m -4 Y s 1390 818 m cl s 1394 818 m cl s 1398 818 m cl s 1401 818 m cl s 1405 818 m cl s 1409 818 m cl s 1413 818 m cl s 1417 818 m cl s 1420 818 m cl s 1424 818 m cl s 1428 818 m -4 Y
 s 1432 814 m cl s 1436 818 m -4 Y s 1439 818 m cl s 1443 818 m cl s 1447 818 m cl s 1451 818 m cl s 1455 818 m cl s 1458 818 m cl s 1462 818 m cl s 1466 818 m cl s 1470 818 m cl s 1474 818 m cl s 1477 818 m cl s 1481 818 m cl s 1485 818 m cl s 1489
 818 m cl s 1493 822 m -4 Y s 1496 822 m cl s 1500 822 m cl s 1504 822 m cl s 1508 822 m cl s 1512 822 m cl s 1515 822 m cl s 1519 822 m cl s 1523 822 m cl s 1527 822 m cl s 1531 822 m cl s 1535 822 m cl s 1538 822 m cl s 1542 822 m cl s 1546 822 m
 cl s 1550 822 m cl s 1554 826 m -4 Y s 1557 826 m cl s 1561 826 m cl s 1565 826 m cl s 1569 826 m cl s 1573 826 m cl s 1576 826 m -4 Y s 1580 822 m cl s 1584 822 m cl s 1588 822 m cl s 1592 822 m cl s 1595 822 m cl s 1599 822 m cl s 1603 822 m cl s
 1607 822 m cl s 1611 947 m -125 Y s 1614 947 m cl s 1618 947 m -3 Y s 1622 944 m cl s 1626 944 m cl s 1630 944 m cl s 1633 944 m cl s 1637 944 m cl s 1641 944 m cl s 1645 944 m cl s 1649 944 m cl s 1652 959 m -15 Y s 1656 959 m cl s 1660 959 m cl s
 1664 959 m cl s 1668 1001 m -42 Y s 1671 1001 m cl s 1675 1001 m cl s 1679 1001 m cl s 1683 1001 m cl s 1687 1001 m cl s 1691 1001 m cl s 1694 1001 m cl s 1698 1001 m cl s 1702 1001 m cl s 1706 1001 m cl s 1710 1001 m cl s 1713 1001 m cl s 1717 1001
 m cl s 1721 1001 m cl s 1725 1001 m cl s 1729 1001 m cl s 1732 1001 m cl s 1736 1001 m cl s 1740 1001 m cl s 1744 1001 m cl s 1748 1001 m cl s 1751 1001 m cl s 1755 1001 m cl s 1759 1001 m cl s 1763 1001 m cl s 1767 1001 m cl s 1770 1001 m cl s 1774
 1001 m cl s 1778 1001 m cl s 1782 1001 m cl s 1786 1001 m cl s 1789 1001 m cl s 1793 1001 m cl s 1797 1001 m cl s 1801 1001 m cl s 1805 1001 m cl s 1808 1001 m cl s 1812 1001 m cl s 1816 1001 m cl s 1820 1001 m cl s 1824 1001 m cl s 1827 1001 m cl s
 1831 1001 m cl s 1835 1001 m cl s 1839 1001 m cl s 1843 1004 m -3 Y s 1847 1004 m cl s 1850 1004 m cl s 1854 1004 m cl s 1858 1004 m cl s 1862 1008 m -4 Y s 1866 1008 m cl s 1869 1008 m cl s 1873 1008 m cl s 1877 1008 m cl s 1881 1008 m cl s 1885
 1008 m cl s 1888 1008 m cl s 1892 1008 m cl s 1896 1008 m cl s 1900 1012 m -4 Y s 1904 1012 m cl s 1907 1016 m cl s 1911 1016 m cl s 1915 1016 m cl s 1919 1016 m cl s 1923 1016 m cl s 1926 1016 m cl s 1930 1016 m cl s 1934 1016 m cl s 1938 1016 m cl
 s 1942 1020 m -4 Y s 1945 1020 m cl s 1949 1024 m -4 Y s 1953 1024 m cl s 1957 1024 m cl s 1961 1027 m -3 Y s 1964 1027 m cl s 1968 1027 m -3 Y s 1972 1027 m -3 Y s 1976 1027 m cl s 1980 1027 m cl s 1983 1031 m -4 Y s 1987 1035 m -4 Y s 1991 1035 m
 cl s 1995 1039 m -4 Y s 1999 1039 m cl s 2003 1039 m cl s 2006 1039 m cl s 2010 1039 m -4 Y s 2014 1035 m cl s 2018 1035 m -4 Y s 2022 1031 m cl s 2025 1039 m -8 Y s 2029 1039 m cl s 2033 1043 m -4 Y s 2037 1046 m -3 Y s 2041 1046 m cl s 245 676 m 3
 32 d s 248 708 m 39 X 3 4 d 8 X 4 45 d 4 46 d 152 X 4 -4 d 414 X 4 4 d 4 4 d 460 X 4 3 d 4 X 4 -3 d 3 3 d 12 X 4 4 d 7 X 4 4 d 42 X 4 -4 d 4 4 d 53 X 4 4 d 57 X 4 4 d 22 X 4 -4 d 27 X 4 65 d 3 60 d 4 X 4 -3 d 27 X 3 7 d 4 8 d 8 X 4 23 d 3 19 d 168 X
 4 3 d 15 X 4 4 d 34 X 4 4 d 4 X 3 4 d 31 X 4 4 d 3 X 4 4 d 8 X 4 3 d 19 X 3 4 d 4 4 d 4 X 4 4 d 15 X 4 -4 d 4 X 4 -4 d 3 4 d 4 4 d 4 4 d 4 3 d 4 X s[  ] 0 sd 9 lw 0.49 0.6 0.82 c black 0 0 0.933333 c 248 1046 m cl s 252 1046 m cl s 256 1046 m cl s
 260 1046 m cl s 264 1046 m cl s 267 1046 m cl s 271 1046 m cl s 275 1046 m cl s 279 1046 m cl s 283 1046 m cl s 287 1046 m cl s 290 1046 m -26 Y s 294 1020 m cl s 298 1020 m cl s 302 1020 m -255 Y s 306 765 m cl s 309 765 m cl s 313 765 m cl s 317
 765 m cl s 321 765 m cl s 325 765 m cl s 328 765 m cl s 332 765 m cl s 336 765 m cl s 340 765 m cl s 344 765 m cl s 347 765 m cl s 351 765 m cl s 355 765 m cl s 359 765 m cl s 363 765 m cl s 366 765 m cl s 370 765 m cl s 374 765 m cl s 378 765 m cl
 s 382 765 m cl s 385 765 m cl s 389 765 m cl s 393 765 m cl s 397 765 m cl s 401 765 m -8 Y s 404 757 m cl s 408 757 m cl s 412 757 m cl s 416 757 m cl s 420 757 m cl s 423 757 m cl s 427 757 m cl s 431 757 m cl s 435 757 m cl s 439 757 m cl s 443
 757 m cl s 446 757 m -4 Y s 450 753 m cl s 454 753 m cl s 458 753 m cl s 462 738 m cl s 465 738 m cl s 469 738 m cl s 473 738 m cl s 477 738 m cl s 481 738 m cl s 484 738 m cl s 488 738 m cl s 492 738 m cl s 496 738 m cl s 500 738 m cl s 503 738 m
 cl s 507 738 m cl s 511 738 m cl s 515 738 m cl s 519 738 m cl s 522 738 m cl s 526 738 m cl s 530 738 m cl s 534 738 m cl s 538 738 m cl s 541 738 m cl s 545 738 m cl s 549 738 m cl s 553 738 m cl s 557 738 m cl s 560 738 m cl s 564 738 m cl s 568
 738 m cl s 572 738 m cl s 576 738 m cl s 579 738 m cl s 583 738 m cl s 587 738 m cl s 591 738 m cl s 595 738 m cl s 599 738 m cl s 602 738 m cl s 606 738 m cl s 610 738 m cl s 614 738 m cl s 618 738 m cl s 621 738 m cl s 625 738 m cl s 629 738 m cl
 s 633 738 m cl s 637 738 m cl s 640 738 m cl s 644 738 m cl s 648 738 m cl s 652 738 m cl s 656 738 m cl s 659 738 m cl s 663 738 m cl s 667 738 m cl s 671 738 m cl s 675 738 m cl s 678 738 m cl s 682 738 m cl s 686 738 m cl s 690 738 m cl s 694 738
 m cl s 697 738 m cl s 701 738 m cl s 705 738 m cl s 709 738 m cl s 713 738 m cl s 716 738 m cl s 720 738 m cl s 724 738 m cl s 728 738 m cl s 732 738 m cl s 735 738 m cl s 739 738 m cl s 743 738 m cl s 747 738 m cl s 751 738 m cl s 755 738 m cl s
 758 738 m cl s 762 738 m cl s 766 738 m cl s 770 738 m cl s 774 738 m cl s 777 738 m cl s 781 738 m cl s 785 738 m cl s 789 738 m cl s 793 738 m cl s 796 738 m cl s 800 738 m cl s 804 738 m cl s 808 738 m cl s 812 738 m cl s 815 738 m cl s 819 738 m
 cl s 823 738 m cl s 827 738 m cl s 831 738 m cl s 834 738 m cl s 838 738 m cl s 842 738 m cl s 846 738 m cl s 850 738 m cl s 853 738 m cl s 857 738 m cl s 861 738 m cl s 865 738 m cl s 869 738 m cl s 872 738 m cl s 876 738 m cl s 880 738 m cl s 884
 738 m cl s 888 738 m cl s 891 738 m cl s 895 738 m cl s 899 738 m cl s 903 738 m cl s 907 738 m cl s 911 738 m cl s 914 738 m cl s 918 738 m cl s 922 738 m cl s 926 738 m cl s 930 738 m cl s 933 738 m cl s 937 738 m cl s 941 738 m cl s 945 738 m cl
 s 949 738 m cl s 952 738 m cl s 956 738 m cl s 960 738 m cl s 964 738 m cl s 968 738 m -4 Y s 971 734 m cl s 975 734 m cl s 979 734 m cl s 983 734 m cl s 987 734 m cl s 990 734 m cl s 994 734 m cl s 998 734 m cl s 1002 734 m cl s 1006 734 m cl s
 1009 734 m cl s 1013 734 m cl s 1017 734 m cl s 1021 734 m cl s 1025 734 m cl s 1028 734 m cl s 1032 734 m cl s 1036 734 m cl s 1040 734 m cl s 1044 734 m cl s 1047 734 m cl s 1051 734 m cl s 1055 734 m cl s 1059 734 m cl s 1063 734 m cl s 1067 734
 m cl s 1070 734 m cl s 1074 734 m cl s 1078 734 m cl s 1082 734 m cl s 1086 734 m -3 Y s 1089 731 m cl s 1093 731 m cl s 1097 731 m cl s 1101 731 m cl s 1105 731 m cl s 1108 731 m cl s 1112 731 m cl s 1116 731 m cl s 1120 731 m cl s 1124 731 m cl s
 1127 731 m cl s 1131 731 m cl s 1135 731 m cl s 1139 731 m cl s 1143 731 m cl s 1146 731 m cl s 1150 731 m cl s 1154 731 m cl s 1158 731 m cl s 1162 731 m cl s 1165 731 m cl s 1169 731 m cl s 1173 731 m cl s 1177 731 m cl s 1181 731 m cl s 1184 731
 m cl s 1188 731 m cl s 1192 731 m cl s 1196 731 m cl s 1200 731 m cl s 1203 731 m cl s 1207 731 m cl s 1211 731 m cl s 1215 731 m cl s 1219 731 m cl s 1223 731 m cl s 1226 731 m cl s 1230 731 m cl s 1234 731 m cl s 1238 731 m cl s 1242 731 m cl s
 1245 731 m cl s 1249 731 m cl s 1253 731 m cl s 1257 731 m cl s 1261 731 m cl s 1264 731 m cl s 1268 731 m cl s 1272 731 m cl s 1276 731 m cl s 1280 731 m cl s 1283 731 m cl s 1287 731 m cl s 1291 731 m cl s 1295 731 m cl s 1299 731 m cl s 1302 731
 m cl s 1306 731 m cl s 1310 731 m cl s 1314 731 m cl s 1318 731 m cl s 1321 731 m cl s 1325 731 m cl s 1329 731 m cl s 1333 731 m cl s 1337 731 m cl s 1340 731 m cl s 1344 731 m cl s 1348 731 m cl s 1352 731 m -4 Y s 1356 727 m cl s 1359 727 m cl s
 1363 727 m cl s 1367 727 m cl s 1371 727 m cl s 1375 727 m -19 Y s 1379 708 m cl s 1382 708 m cl s 1386 708 m cl s 1390 708 m cl s 1394 708 m cl s 1398 708 m cl s 1401 708 m cl s 1405 708 m cl s 1409 700 m cl s 1413 700 m -4 Y s 1417 696 m cl s 1420
 696 m cl s 1424 696 m -7 Y s 1428 689 m -19 Y s 1432 670 m cl s 1436 670 m -4 Y s 1439 666 m cl s 1443 666 m cl s 1447 666 m -4 Y s 1451 662 m cl s 1455 662 m cl s 1458 662 m cl s 1462 662 m cl s 1466 662 m cl s 1470 662 m cl s 1474 662 m cl s 1477
 662 m cl s 1481 662 m cl s 1485 662 m cl s 1489 662 m cl s 1493 662 m cl s 1496 662 m cl s 1500 662 m cl s 1504 662 m cl s 1508 662 m cl s 1512 662 m cl s 1515 662 m cl s 1519 662 m cl s 1523 662 m cl s 1527 662 m cl s 1531 662 m cl s 1535 662 m -4
 Y s 1538 658 m cl s 1542 658 m cl s 1546 658 m cl s 1550 658 m cl s 1554 658 m cl s 1557 658 m cl s 1561 658 m cl s 1565 658 m cl s 1569 658 m cl s 1573 658 m cl s 1576 658 m -4 Y s 1580 654 m cl s 1584 654 m cl s 1588 654 m -3 Y s 1592 651 m -4 Y s
 1595 647 m cl s 1599 647 m cl s 1603 647 m cl s 1607 647 m cl s 1611 647 m -171 Y s 1614 476 m cl s 1618 476 m -4 Y s 1622 472 m cl s 1626 472 m cl s 1630 472 m cl s 1633 472 m cl s 1637 472 m cl s 1641 472 m cl s 1645 472 m cl s 1649 472 m cl s
 1652 472 m -8 Y s 1656 464 m cl s 1660 464 m cl s 1664 464 m cl s 1668 464 m -76 Y s 1671 388 m cl s 1675 388 m cl s 1679 388 m cl s 1683 388 m cl s 1687 388 m cl s 1691 388 m cl s 1694 388 m cl s 1698 388 m cl s 1702 388 m cl s 1706 388 m cl s 1710
 388 m cl s 1713 388 m cl s 1717 388 m cl s 1721 388 m cl s 1725 388 m cl s 1729 388 m cl s 1732 388 m cl s 1736 388 m cl s 1740 388 m cl s 1744 388 m cl s 1748 388 m cl s 1751 388 m cl s 1755 388 m cl s 1759 388 m cl s 1763 388 m cl s 1767 388 m cl
 s 1770 388 m cl s 1774 388 m cl s 1778 388 m cl s 1782 388 m cl s 1786 388 m cl s 1789 388 m cl s 1793 388 m cl s 1797 388 m cl s 1801 388 m cl s 1805 388 m cl s 1808 388 m cl s 1812 388 m cl s 1816 388 m cl s 1820 388 m cl s 1824 388 m cl s 1827
 388 m cl s 1831 388 m cl s 1835 388 m -4 Y s 1839 384 m cl s 1843 384 m cl s 1847 384 m cl s 1850 384 m cl s 1854 384 m cl s 1858 384 m cl s 1862 384 m cl s 1866 384 m -4 Y s 1869 380 m cl s 1873 380 m cl s 1877 380 m cl s 1881 380 m cl s 1885 380 m
 cl s 1888 380 m cl s 1892 380 m -3 Y s 1896 377 m cl s 1900 377 m cl s 1904 377 m cl s 1907 373 m cl s 1911 373 m cl s 1915 373 m cl s 1919 373 m cl s 1923 373 m cl s 1926 373 m cl s 1930 373 m cl s 1934 373 m -4 Y s 1938 369 m cl s 1942 369 m cl s
 1945 369 m cl s 1949 369 m -4 Y s 1953 365 m cl s 1957 365 m cl s 1961 365 m cl s 1964 365 m cl s 1968 365 m -4 Y s 1972 361 m cl s 1976 361 m cl s 1980 361 m cl s 1983 361 m cl s 1987 361 m -3 Y s 1991 358 m -4 Y s 1995 354 m cl s 1999 354 m cl s
 2003 354 m -4 Y s 2006 350 m cl s 2010 350 m -8 Y s 2014 342 m -3 Y s 2018 339 m -8 Y s 2022 331 m -4 Y s 2025 327 m -7 Y s 2029 320 m cl s 2033 320 m -4 Y s 2037 316 m -19 Y s 2041 297 m cl s 245 1131 m 3 -85 d s 248 1046 m 39 X 3 -11 d 4 -15 d 4 X
 4 -126 d 4 -129 d 91 X 4 -4 d 3 -4 d 42 X 4 -4 d 8 X 4 -15 d 506 X 3 -4 d 115 X 3 -3 d 263 X 4 -4 d 15 X 4 -8 d 4 -11 d 26 X 4 -8 d 4 X 4 -4 d 3 X 4 -4 d 4 -11 d 4 -11 d 4 X 3 -4 d 8 X 4 -4 d 84 X 3 -4 d 38 X 4 -4 d 8 X 4 -3 d 3 -4 d 12 X 4 -84 d 3
 -87 d 4 X 4 -4 d 27 X 3 -4 d 4 -4 d 8 X 4 -38 d 3 -38 d 164 X 4 -4 d 27 X 3 -4 d 23 X 4 -3 d 8 X 3 -4 d 27 X 4 -4 d 11 X 4 -4 d 15 X 4 -4 d 15 X 4 -3 d 4 -4 d 8 X 3 -4 d 4 -4 d 4 -4 d 4 -7 d 4 -4 d 3 -8 d 4 -3 d 4 X 4 -12 d 4 -11 d s 1 0 0 c black 1
 0 0 c 248 837 m cl s 252 837 m cl s 256 837 m cl s 260 837 m cl s 264 837 m cl s 267 837 m cl s 271 837 m cl s 275 837 m cl s 279 837 m cl s 283 837 m cl s 287 837 m cl s 290 837 m -30 Y s 294 807 m cl s 298 807 m cl s 302 807 m -358 Y s 306 449 m
 cl s 309 449 m cl s 313 449 m cl s 317 449 m cl s 321 449 m cl s 325 449 m cl s 328 449 m cl s 332 449 m cl s 336 449 m cl s 340 449 m cl s 344 449 m cl s 347 449 m cl s 351 449 m cl s 355 449 m cl s 359 449 m cl s 363 449 m cl s 366 449 m cl s 370
 449 m cl s 374 449 m cl s 378 449 m cl s 382 449 m cl s 385 449 m cl s 389 449 m cl s 393 449 m cl s 397 449 m cl s 401 449 m -4 Y s 404 445 m cl s 408 445 m cl s 412 445 m cl s 416 445 m cl s 420 445 m cl s 423 445 m cl s 427 445 m cl s 431 445 m
 cl s 435 445 m cl s 439 445 m cl s 443 445 m cl s 446 445 m cl s 450 445 m cl s 454 445 m cl s 458 445 m cl s 462 441 m cl s 465 441 m cl s 469 441 m cl s 473 441 m cl s 477 441 m cl s 481 441 m cl s 484 441 m cl s 488 441 m cl s 492 441 m cl s 496
 441 m cl s 500 441 m cl s 503 441 m cl s 507 441 m cl s 511 441 m cl s 515 441 m cl s 519 441 m cl s 522 441 m cl s 526 441 m cl s 530 441 m cl s 534 441 m cl s 538 441 m cl s 541 441 m cl s 545 441 m cl s 549 441 m cl s 553 441 m cl s 557 441 m cl
 s 560 441 m cl s 564 441 m cl s 568 441 m cl s 572 441 m cl s 576 441 m cl s 579 441 m cl s 583 441 m cl s 587 441 m cl s 591 441 m cl s 595 441 m cl s 599 441 m cl s 602 441 m cl s 606 441 m cl s 610 441 m cl s 614 441 m cl s 618 441 m cl s 621 441
 m cl s 625 441 m cl s 629 441 m cl s 633 441 m cl s 637 441 m cl s 640 441 m cl s 644 441 m cl s 648 441 m cl s 652 441 m cl s 656 441 m cl s 659 441 m cl s 663 441 m cl s 667 441 m cl s 671 441 m cl s 675 441 m cl s 678 441 m cl s 682 441 m cl s
 686 441 m cl s 690 441 m cl s 694 441 m cl s 697 441 m cl s 701 441 m cl s 705 441 m cl s 709 441 m cl s 713 441 m cl s 716 441 m cl s 720 441 m cl s 724 441 m cl s 728 441 m cl s 732 441 m cl s 735 441 m cl s 739 441 m cl s 743 441 m cl s 747 441 m
 cl s 751 441 m cl s 755 441 m cl s 758 441 m cl s 762 441 m cl s 766 441 m cl s 770 441 m cl s 774 441 m cl s 777 441 m cl s 781 441 m cl s 785 441 m cl s 789 441 m cl s 793 441 m cl s 796 441 m cl s 800 441 m cl s 804 441 m cl s 808 441 m cl s 812
 441 m cl s 815 441 m cl s 819 441 m cl s 823 441 m cl s 827 441 m cl s 831 441 m cl s 834 441 m cl s 838 441 m cl s 842 441 m cl s 846 441 m cl s 850 441 m cl s 853 441 m cl s 857 441 m cl s 861 441 m cl s 865 441 m cl s 869 441 m cl s 872 441 m cl
 s 876 441 m cl s 880 441 m -11 Y s 884 430 m cl s 888 430 m cl s 891 430 m cl s 895 430 m cl s 899 430 m cl s 903 430 m cl s 907 430 m cl s 911 430 m cl s 914 430 m cl s 918 430 m cl s 922 430 m cl s 926 430 m cl s 930 430 m cl s 933 430 m cl s 937
 430 m cl s 941 430 m cl s 945 430 m cl s 949 430 m cl s 952 430 m cl s 956 430 m cl s 960 430 m cl s 964 430 m cl s 968 430 m cl s 971 430 m cl s 975 430 m cl s 979 430 m cl s 983 430 m cl s 987 430 m cl s 990 430 m cl s 994 430 m -4 Y s 998 426 m
 cl s 1002 426 m cl s 1006 426 m cl s 1009 426 m cl s 1013 426 m cl s 1017 426 m cl s 1021 426 m cl s 1025 426 m cl s 1028 426 m cl s 1032 426 m cl s 1036 426 m cl s 1040 426 m cl s 1044 426 m cl s 1047 426 m cl s 1051 426 m cl s 1055 426 m cl s 1059
 426 m cl s 1063 426 m cl s 1067 426 m cl s 1070 426 m cl s 1074 426 m cl s 1078 426 m cl s 1082 426 m cl s 1086 426 m cl s 1089 426 m cl s 1093 426 m cl s 1097 426 m cl s 1101 426 m cl s 1105 426 m cl s 1108 426 m cl s 1112 426 m cl s 1116 426 m cl
 s 1120 426 m cl s 1124 426 m cl s 1127 426 m cl s 1131 426 m cl s 1135 426 m cl s 1139 426 m cl s 1143 426 m cl s 1146 426 m cl s 1150 426 m cl s 1154 426 m cl s 1158 426 m cl s 1162 426 m cl s 1165 426 m cl s 1169 426 m cl s 1173 426 m cl s 1177
 426 m cl s 1181 426 m cl s 1184 426 m cl s 1188 426 m cl s 1192 426 m cl s 1196 426 m cl s 1200 426 m cl s 1203 426 m cl s 1207 426 m cl s 1211 426 m cl s 1215 426 m cl s 1219 426 m cl s 1223 426 m cl s 1226 426 m cl s 1230 426 m cl s 1234 426 m cl
 s 1238 426 m cl s 1242 426 m cl s 1245 426 m cl s 1249 426 m cl s 1253 426 m cl s 1257 426 m cl s 1261 426 m cl s 1264 426 m cl s 1268 426 m cl s 1272 426 m cl s 1276 426 m cl s 1280 426 m cl s 1283 426 m cl s 1287 426 m cl s 1291 426 m cl s 1295
 426 m cl s 1299 426 m cl s 1302 426 m cl s 1306 426 m cl s 1310 426 m cl s 1314 426 m cl s 1318 426 m cl s 1321 426 m cl s 1325 426 m cl s 1329 426 m cl s 1333 426 m cl s 1337 426 m cl s 1340 426 m cl s 1344 426 m cl s 1348 426 m -4 Y s 1352 422 m
 cl s 1356 422 m cl s 1359 422 m -3 Y s 1363 419 m cl s 1367 419 m cl s 1371 419 m cl s 1375 419 m -16 Y s 1379 403 m cl s 1382 403 m cl s 1386 403 m -3 Y s 1390 400 m cl s 1394 400 m -4 Y s 1398 396 m cl s 1401 396 m cl s 1405 396 m cl s 1409 396 m
 cl s 1413 396 m -4 Y s 1417 392 m -4 Y s 1420 388 m cl s 1424 388 m cl s 1428 388 m -8 Y s 1432 380 m cl s 1436 380 m -3 Y s 1439 377 m -4 Y s 1443 373 m cl s 1447 373 m cl s 1451 373 m cl s 1455 373 m cl s 1458 373 m cl s 1462 373 m cl s 1466 373 m
 cl s 1470 373 m cl s 1474 373 m cl s 1477 373 m cl s 1481 373 m cl s 1485 373 m cl s 1489 373 m cl s 1493 373 m -4 Y s 1496 369 m cl s 1500 369 m cl s 1504 369 m cl s 1508 369 m cl s 1512 369 m cl s 1515 369 m cl s 1519 369 m cl s 1523 369 m cl s
 1527 369 m cl s 1531 369 m cl s 1535 369 m -4 Y s 1538 365 m cl s 1542 365 m cl s 1546 365 m cl s 1550 365 m cl s 1554 365 m cl s 1557 365 m cl s 1561 365 m cl s 1565 365 m -4 Y s 1569 361 m cl s 1573 361 m cl s 1576 361 m cl s 1580 361 m cl s 1584
 361 m cl s 1588 361 m cl s 1592 361 m cl s 1595 361 m cl s 1599 361 m cl s 1603 361 m cl s 1607 361 m cl s 1611 361 m cl s 245 1021 m 3 -184 d s 248 837 m 39 X 3 -15 d 4 -15 d 4 X 4 -179 d 4 -179 d 95 X 3 -4 d 54 X 4 -4 d 414 X 4 -3 d 4 -8 d 110 X 4
 -4 d 350 X 4 -4 d 7 X 4 -3 d 8 X 4 -8 d 4 -8 d 7 X 4 -3 d 4 X 4 -4 d 15 X 4 -4 d 3 -4 d 4 X 4 -4 d 4 -4 d 4 X 3 -3 d 4 -4 d 50 X 3 -4 d 39 X 3 -4 d 27 X 4 -4 d 42 X s 0 0.666667 0 c 1 1 1 c black 0 0.666667 0 c 248 1195 m cl s 252 1195 m cl s 256
 1195 m cl s 260 1195 m cl s 264 1195 m cl s 267 1195 m cl s 271 1195 m cl s 275 1195 m cl s 279 1195 m cl s 283 1195 m cl s 287 1195 m cl s 290 1195 m -12 Y s 294 1183 m cl s 298 1183 m cl s 302 1183 m -91 Y s 306 1092 m cl s 309 1092 m cl s 313
 1092 m cl s 317 1092 m cl s 321 1092 m cl s 325 1092 m cl s 328 1092 m cl s 332 1092 m cl s 336 1092 m cl s 340 1092 m cl s 344 1092 m cl s 347 1092 m cl s 351 1092 m cl s 355 1092 m cl s 359 1092 m cl s 363 1092 m cl s 366 1092 m cl s 370 1092 m cl
 s 374 1092 m cl s 378 1092 m cl s 382 1092 m cl s 385 1092 m cl s 389 1092 m cl s 393 1092 m cl s 397 1092 m cl s 401 1092 m -8 Y s 404 1084 m cl s 408 1084 m cl s 412 1084 m cl s 416 1084 m cl s 420 1084 m cl s 423 1084 m cl s 427 1084 m cl s 431
 1084 m cl s 435 1084 m cl s 439 1084 m cl s 443 1084 m cl s 446 1084 m -3 Y s 450 1081 m cl s 454 1081 m cl s 458 1081 m cl s 462 1069 m cl s 465 1069 m cl s 469 1069 m cl s 473 1069 m cl s 477 1069 m cl s 481 1069 m cl s 484 1069 m cl s 488 1069 m
 cl s 492 1069 m cl s 496 1069 m cl s 500 1069 m cl s 503 1069 m cl s 507 1069 m cl s 511 1069 m cl s 515 1069 m cl s 519 1069 m cl s 522 1069 m cl s 526 1069 m cl s 530 1069 m cl s 534 1069 m cl s 538 1069 m cl s 541 1069 m cl s 545 1069 m cl s 549
 1069 m cl s 553 1069 m cl s 557 1069 m cl s 560 1069 m cl s 564 1069 m cl s 568 1069 m cl s 572 1069 m cl s 576 1069 m cl s 579 1069 m cl s 583 1069 m cl s 587 1069 m cl s 591 1069 m cl s 595 1069 m cl s 599 1069 m cl s 602 1069 m cl s 606 1069 m cl
 s 610 1069 m cl s 614 1069 m cl s 618 1069 m cl s 621 1069 m cl s 625 1069 m cl s 629 1069 m cl s 633 1069 m cl s 637 1069 m cl s 640 1069 m cl s 644 1069 m cl s 648 1069 m cl s 652 1069 m cl s 656 1069 m cl s 659 1069 m cl s 663 1069 m cl s 667
 1069 m cl s 671 1069 m cl s 675 1069 m cl s 678 1069 m cl s 682 1069 m cl s 686 1069 m cl s 690 1069 m cl s 694 1069 m cl s 697 1069 m cl s 701 1069 m cl s 705 1069 m cl s 709 1069 m cl s 713 1069 m cl s 716 1069 m cl s 720 1069 m cl s 724 1069 m cl
 s 728 1069 m cl s 732 1069 m cl s 735 1069 m cl s 739 1069 m cl s 743 1069 m cl s 747 1069 m cl s 751 1069 m cl s 755 1069 m cl s 758 1069 m cl s 762 1069 m cl s 766 1069 m cl s 770 1069 m cl s 774 1069 m cl s 777 1069 m cl s 781 1069 m cl s 785
 1069 m cl s 789 1069 m cl s 793 1069 m cl s 796 1069 m cl s 800 1069 m cl s 804 1069 m cl s 808 1069 m cl s 812 1069 m cl s 815 1069 m cl s 819 1069 m cl s 823 1069 m cl s 827 1069 m cl s 831 1069 m cl s 834 1069 m cl s 838 1069 m cl s 842 1069 m cl
 s 846 1069 m cl s 850 1069 m cl s 853 1069 m cl s 857 1069 m cl s 861 1069 m cl s 865 1069 m cl s 869 1069 m cl s 872 1069 m cl s 876 1069 m cl s 880 1073 m -4 Y s 884 1073 m cl s 888 1073 m cl s 891 1073 m cl s 895 1073 m cl s 899 1073 m cl s 903
 1073 m cl s 907 1073 m cl s 911 1073 m cl s 914 1073 m cl s 918 1073 m cl s 922 1073 m cl s 926 1073 m cl s 930 1073 m cl s 933 1073 m cl s 937 1073 m cl s 941 1073 m cl s 945 1073 m cl s 949 1073 m cl s 952 1073 m cl s 956 1073 m cl s 960 1073 m cl
 s 964 1073 m cl s 968 1073 m -4 Y s 971 1069 m cl s 975 1069 m cl s 979 1069 m cl s 983 1069 m cl s 987 1069 m cl s 990 1069 m cl s 994 1069 m cl s 998 1069 m cl s 1002 1069 m cl s 1006 1069 m cl s 1009 1069 m cl s 1013 1069 m cl s 1017 1069 m cl s
 1021 1069 m cl s 1025 1069 m cl s 1028 1069 m cl s 1032 1069 m cl s 1036 1069 m cl s 1040 1069 m cl s 1044 1069 m cl s 1047 1069 m cl s 1051 1069 m cl s 1055 1069 m cl s 1059 1069 m cl s 1063 1069 m cl s 1067 1069 m cl s 1070 1069 m cl s 1074 1069 m
 cl s 1078 1069 m cl s 1082 1069 m cl s 1086 1069 m -4 Y s 1089 1065 m cl s 1093 1065 m cl s 1097 1065 m cl s 1101 1065 m cl s 1105 1065 m cl s 1108 1065 m cl s 1112 1065 m cl s 1116 1065 m cl s 1120 1065 m cl s 1124 1065 m cl s 1127 1065 m cl s 1131
 1065 m cl s 1135 1065 m cl s 1139 1065 m cl s 1143 1065 m cl s 1146 1065 m cl s 1150 1065 m cl s 1154 1065 m cl s 1158 1065 m cl s 1162 1065 m cl s 1165 1065 m cl s 1169 1065 m cl s 1173 1065 m cl s 1177 1065 m cl s 1181 1065 m cl s 1184 1065 m cl s
 1188 1065 m cl s 1192 1065 m cl s 1196 1065 m cl s 1200 1065 m cl s 1203 1065 m cl s 1207 1065 m cl s 1211 1065 m cl s 1215 1065 m cl s 1219 1065 m cl s 1223 1065 m cl s 1226 1065 m cl s 1230 1065 m cl s 1234 1065 m cl s 1238 1065 m cl s 1242 1065 m
 cl s 1245 1065 m cl s 1249 1065 m cl s 1253 1065 m cl s 1257 1065 m cl s 1261 1065 m cl s 1264 1065 m cl s 1268 1065 m cl s 1272 1065 m cl s 1276 1065 m cl s 1280 1065 m cl s 1283 1065 m cl s 1287 1065 m cl s 1291 1065 m cl s 1295 1065 m cl s 1299
 1065 m cl s 1302 1065 m cl s 1306 1065 m cl s 1310 1069 m -4 Y s 1314 1069 m cl s 1318 1069 m cl s 1321 1069 m cl s 1325 1069 m cl s 1329 1069 m cl s 1333 1069 m cl s 1337 1069 m cl s 1340 1069 m cl s 1344 1069 m cl s 1348 1069 m cl s 1352 1069 m -4
 Y s 1356 1065 m cl s 1359 1065 m cl s 1363 1065 m cl s 1367 1065 m cl s 1371 1065 m cl s 1375 1065 m -11 Y s 1379 1054 m cl s 1382 1054 m cl s 1386 1058 m -4 Y s 1390 1058 m cl s 1394 1058 m -4 Y s 1398 1058 m -4 Y s 1401 1058 m cl s 1405 1058 m cl
 s 1409 1050 m cl s 1413 1050 m cl s 1417 1050 m -4 Y s 1420 1046 m cl s 1424 1046 m cl s 1428 1046 m -19 Y s 1432 1027 m cl s 1436 1027 m -3 Y s 1439 1024 m cl s 1443 1024 m cl s 1447 1024 m cl s 1451 1024 m cl s 1455 1024 m cl s 1458 1024 m cl s
 1462 1024 m cl s 1466 1024 m cl s 1470 1024 m cl s 1474 1024 m cl s 1477 1024 m cl s 1481 1024 m cl s 1485 1024 m cl s 1489 1024 m cl s 1493 1024 m cl s 1496 1024 m cl s 1500 1024 m cl s 1504 1024 m cl s 1508 1024 m cl s 1512 1024 m cl s 1515 1024 m
 cl s 1519 1024 m cl s 1523 1024 m cl s 1527 1024 m cl s 1531 1024 m cl s 1535 1024 m -4 Y s 1538 1024 m -4 Y s 1542 1024 m cl s 1546 1024 m cl s 1550 1024 m cl s 1554 1024 m cl s 1557 1024 m cl s 1561 1024 m cl s 1565 1024 m cl s 1569 1024 m cl s
 1573 1024 m -4 Y s 1576 1020 m cl s 1580 1020 m cl s 1584 1020 m cl s 1588 1020 m -4 Y s 1592 1016 m -4 Y s 1595 1012 m cl s 1599 1012 m cl s 1603 1012 m cl s 1607 1012 m cl s 1611 1012 m -84 Y s 1614 928 m -3 Y s 1618 925 m cl s 1622 925 m cl s
 1626 925 m cl s 1630 925 m cl s 1633 925 m cl s 1637 925 m cl s 1641 925 m cl s 1645 925 m cl s 1649 925 m cl s 1652 925 m -4 Y s 1656 921 m cl s 1660 921 m cl s 1664 921 m cl s 1668 921 m -69 Y s 1671 852 m cl s 1675 852 m cl s 1679 852 m cl s 1683
 852 m cl s 1687 852 m cl s 1691 852 m cl s 1694 852 m cl s 1698 852 m cl s 1702 852 m cl s 1706 852 m cl s 1710 852 m cl s 1713 852 m cl s 1717 852 m cl s 1721 852 m cl s 1725 852 m cl s 1729 852 m cl s 1732 852 m cl s 1736 852 m cl s 1740 852 m cl
 s 1744 852 m cl s 1748 852 m cl s 1751 852 m cl s 1755 852 m cl s 1759 852 m cl s 1763 852 m cl s 1767 852 m cl s 1770 852 m cl s 1774 852 m cl s 1778 852 m cl s 1782 852 m cl s 1786 852 m cl s 1789 852 m cl s 1793 852 m cl s 1797 852 m cl s 1801
 852 m cl s 1805 852 m cl s 1808 852 m cl s 1812 852 m cl s 1816 852 m cl s 1820 852 m cl s 1824 852 m cl s 1827 852 m cl s 1831 852 m cl s 1835 852 m cl s 1839 852 m -4 Y s 1843 852 m -4 Y s 1847 852 m cl s 1850 852 m cl s 1854 852 m cl s 1858 852 m
 cl s 1862 852 m cl s 1866 852 m -4 Y s 1869 848 m cl s 1873 848 m cl s 1877 848 m cl s 1881 848 m cl s 1885 848 m cl s 1888 848 m cl s 1892 848 m -3 Y s 1896 845 m cl s 1900 848 m -3 Y s 1904 848 m cl s 1907 841 m cl s 1911 841 m cl s 1915 841 m cl
 s 1919 841 m cl s 1923 841 m cl s 1926 841 m cl s 1930 841 m cl s 1934 841 m -4 Y s 1938 837 m cl s 1942 837 m cl s 1945 837 m cl s 1949 837 m cl s 1953 837 m cl s 1957 837 m cl s 1961 841 m -4 Y s 1964 841 m -4 Y s 1968 837 m -4 Y s 1972 833 m cl s
 1976 833 m cl s 1980 833 m cl s 1983 837 m -4 Y s 1987 837 m -4 Y s 1991 833 m -4 Y s 1995 829 m -3 Y s 1999 826 m cl s 2003 826 m cl s 2006 826 m cl s 2010 826 m -16 Y s 2014 810 m -3 Y s 2018 807 m -12 Y s 2022 795 m -7 Y s 2025 788 m -4 Y s 2029
 784 m cl s 2033 784 m -4 Y s 2037 780 m -27 Y s 2041 753 m cl s 245 1212 m 3 -17 d s 248 1195 m 39 X 3 -4 d 4 -8 d 4 X 4 -45 d 4 -46 d 91 X 4 -4 d 3 -4 d 42 X 4 -3 d 8 X 4 -12 d 414 X 4 4 d 88 X 3 -4 d 115 X 3 -4 d 217 X 4 4 d 42 X 4 -4 d 15 X 4 -3
 d 4 -8 d 3 X 4 4 d 19 X 4 -8 d 8 X 3 -4 d 4 X 4 -7 d 4 -12 d 4 X 3 -3 d 134 X 3 -4 d 12 X 4 -4 d 3 -4 d 12 X 4 -42 d 3 -42 d 4 -3 d 34 X 4 -4 d 8 X 4 -34 d 3 -35 d 195 X 3 -4 d 23 X 4 -3 d 4 3 d 4 X 3 -7 d 27 X 4 -4 d 19 X 4 4 d 3 X 4 -4 d 4 -4 d 8
 X 3 4 d 4 X 4 -4 d 4 -4 d 4 -3 d 7 X 4 -8 d 4 -8 d 4 -7 d 4 -12 d 3 -3 d 4 -4 d 4 X 4 -15 d 4 -16 d s black 3 lw 245 202 m 1796 X s 245 242 m -40 Y s 335 222 m -20 Y s 425 222 m -20 Y s 514 222 m -20 Y s 604 222 m -20 Y s 694 242 m -40 Y s 784 222 m
 -20 Y s 874 222 m -20 Y s 963 222 m -20 Y s 1053 222 m -20 Y s 1143 242 m -40 Y s 1233 222 m -20 Y s 1323 222 m -20 Y s 1412 222 m -20 Y s 1502 222 m -20 Y s 1592 242 m -40 Y s 1682 222 m -20 Y s 1772 222 m -20 Y s 1861 222 m -20 Y s 1951 222 m -20
 Y s 2041 242 m -40 Y s 2041 242 m -40 Y s 245 202 m 1143 Y s 291 280 m -46 X s 268 304 m -23 X s 268 328 m -23 X s 268 351 m -23 X s 268 375 m -23 X s 291 399 m -46 X s 268 422 m -23 X s 268 446 m -23 X s 268 470 m -23 X s 268 493 m -23 X s 291 517
 m -46 X s 268 541 m -23 X s 268 564 m -23 X s 268 588 m -23 X s 268 612 m -23 X s 291 635 m -46 X s 268 659 m -23 X s 268 683 m -23 X s 268 706 m -23 X s 268 730 m -23 X s 291 754 m -46 X s 268 777 m -23 X s 268 801 m -23 X s 268 825 m -23 X s 268
 848 m -23 X s 291 872 m -46 X s 268 896 m -23 X s 268 919 m -23 X s 268 943 m -23 X s 268 967 m -23 X s 291 990 m -46 X s 268 1014 m -23 X s 268 1038 m -23 X s 268 1061 m -23 X s 268 1085 m -23 X s 291 1109 m -46 X s 268 1132 m -23 X s 268 1156 m
 -23 X s 268 1180 m -23 X s 268 1203 m -23 X s 291 1227 m -46 X s 268 1251 m -23 X s 268 1274 m -23 X s 268 1298 m -23 X s 268 1322 m -23 X s 291 1345 m -46 X s 291 280 m -46 X s 268 257 m -23 X s 268 233 m -23 X s 268 209 m -23 X s 0.490196 0.545098
 0.615686 c 0.95 0.95 0.95 c 0.490196 0.545098 0.615686 c 907 202 245 1345 bl 245 1345 m 907 X s 1152 1345 m 202 Y s 1152 1547 m -907 X s 245 1547 m -202 Y s black
 gsave  2268 1682 0 0 C 517.039 1473.94 t 0 r /Times-Italic findfont 57.0734 sf 0 0 m (Signal efficiency) show NC gr  0 0 0.933333 c 9 lw 286 1497 m 190 X s black
 gsave  2268 1682 0 0 C 517.039 1373.03 t 0 r /Times-Italic findfont 57.0734 sf 0 0 m (Background efficiency) show NC gr  1 0 0 c 286 1396 m 190 X s 0.490196 0.545098 0.615686 c 3 lw 0.95 0.95 0.95 c 0.490196 0.545098 0.615686 c 889 202 1152 1345 bl
 1152 1345 m 889 X s 2041 1345 m 202 Y s 2041 1547 m -889 X s 1152 1547 m -202 Y s black
 gsave  2268 1682 0 0 C 1418.68 1490.76 t 0 r /Times-Italic findfont 57.0734 sf 0 0 m (Signal purity) show NC gr  0 0 0.933333 c[  52 12 ] 0 sd 6 lw 1192 1514 m 187 X s black
 gsave  2268 1682 0 0 C 1418.68 1423.49 t 0 r /Times-Italic findfont 57.0734 sf 0 0 m (Signal efficiency*purity) show NC gr  0 0 0.933333 c[  22 12 ] 0 sd 1192 1446 m 187 X s black
 gsave  2268 1682 0 0 C 1418.68 1356.22 t 0 r /Times-Italic findfont 57.0734 sf 0 0 m (S/#sqrt{S+B}) show NC gr  0 0.666667 0 c[  ] 0 sd 9 lw 1192 1379 m 187 X s black 3 lw 245 1227 m 1796 X s
 gsave  2268 1682 0 0 C 338.636 388.099 t 0 r /Helvetica-Bold findfont 53.2685 sf 0 0 m (For 1000 signal and 1000 background) show NC gr 
 gsave  2268 1682 0 0 C 1061.57 319.611 t 0 r /Helvetica-Bold findfont 53.2685 sf 0 0 m ( is) show NC gr 
 gsave  2268 1682 0 0 C 958.833 319.611 t 0 r /Helvetica-Bold findfont 53.2685 sf 0 0 m (S+B) show NC gr  6 lw 936 361 m 8 -45 d s 0 lw 944 316 m 7 61 d s 951 377 m 111 X s
 gsave  2268 1682 0 0 C 338.636 319.611 t 0 r /Helvetica-Bold findfont 53.2685 sf 0 0 m (events the maximum S/) show NC gr 
 gsave  2268 1682 0 0 C 338.636 254.928 t 0 r /Helvetica-Bold findfont 53.2685 sf 0 0 m (22.36 when cutting at \2551.00) show NC gr  0.490196 0.545098 0.615686 c 3 lw 0.364706 0.419608 0.490196 c 1476 96 23 1577 bf 0.490196 0.545098 0.615686 c 23
 1577 m 1476 X s 1499 1577 m 96 Y s 1499 1673 m -1476 X s 23 1673 m -96 Y s 1 1 1 c black 1 1 1 c
 gsave  2268 1682 0 0 C 76.0979 1605.67 t 0 r /Helvetica-Bold findfont 76.0979 sf 0 0 m (Cut efficiencies and optimal cut value) show NC gr  0 0.666667 0 c 2041 202 m 1143 Y s black 0 0.666667 0 c
 gsave  2268 1682 0 0 C 2203.03 966.443 t 90 r /Helvetica-Bold findfont 64.6832 sf 0 0 m (Significance) show NC gr  1995 202 m 46 X s 2018 225 m 23 X s 2018 248 m 23 X s 2018 272 m 23 X s 1995 295 m 46 X s 2018 318 m 23 X s 2018 341 m 23 X s 2018 365
 m 23 X s 1995 388 m 46 X s 2018 411 m 23 X s 2018 434 m 23 X s 2018 458 m 23 X s 1995 481 m 46 X s 2018 504 m 23 X s 2018 527 m 23 X s 2018 551 m 23 X s 1995 574 m 46 X s 2018 597 m 23 X s 2018 620 m 23 X s 2018 644 m 23 X s 1995 667 m 46 X s 2018
 690 m 23 X s 2018 713 m 23 X s 2018 736 m 23 X s 1995 760 m 46 X s 2018 783 m 23 X s 2018 806 m 23 X s 2018 829 m 23 X s 1995 853 m 46 X s 2018 876 m 23 X s 2018 899 m 23 X s 2018 922 m 23 X s 1995 946 m 46 X s 2018 969 m 23 X s 2018 992 m 23 X s
 2018 1015 m 23 X s 1995 1039 m 46 X s 2018 1062 m 23 X s 2018 1085 m 23 X s 2018 1108 m 23 X s 1995 1132 m 46 X s 2018 1155 m 23 X s 2018 1178 m 23 X s 2018 1201 m 23 X s 1995 1225 m 46 X s 2018 1248 m 23 X s 2018 1271 m 23 X s 2018 1294 m 23 X s
 1995 1318 m 46 X s 1995 1318 m 46 X s 2018 1341 m 23 X s black 0 0.666667 0 c
 gsave  2268 1682 0 0 C 2050.84 178.83 t 0 r /Helvetica-Bold findfont 64.6832 sf 0 0 m (0) show NC gr  black 0 0.666667 0 c
 gsave  2268 1682 0 0 C 2050.84 270.147 t 0 r /Helvetica-Bold findfont 64.6832 sf 0 0 m (2) show NC gr  black 0 0.666667 0 c
 gsave  2268 1682 0 0 C 2050.84 361.465 t 0 r /Helvetica-Bold findfont 64.6832 sf 0 0 m (4) show NC gr  black 0 0.666667 0 c
 gsave  2268 1682 0 0 C 2050.84 456.587 t 0 r /Helvetica-Bold findfont 64.6832 sf 0 0 m (6) show NC gr  black 0 0.666667 0 c
 gsave  2268 1682 0 0 C 2050.84 547.905 t 0 r /Helvetica-Bold findfont 64.6832 sf 0 0 m (8) show NC gr  black 0 0.666667 0 c
 gsave  2268 1682 0 0 C 2050.84 643.027 t 0 r /Helvetica-Bold findfont 64.6832 sf 0 0 m (10) show NC gr  black 0 0.666667 0 c
 gsave  2268 1682 0 0 C 2050.84 734.344 t 0 r /Helvetica-Bold findfont 64.6832 sf 0 0 m (12) show NC gr  black 0 0.666667 0 c
 gsave  2268 1682 0 0 C 2050.84 829.467 t 0 r /Helvetica-Bold findfont 64.6832 sf 0 0 m (14) show NC gr  black 0 0.666667 0 c
 gsave  2268 1682 0 0 C 2050.84 920.784 t 0 r /Helvetica-Bold findfont 64.6832 sf 0 0 m (16) show NC gr  black 0 0.666667 0 c
 gsave  2268 1682 0 0 C 2050.84 1012.1 t 0 r /Helvetica-Bold findfont 64.6832 sf 0 0 m (18) show NC gr  black 0 0.666667 0 c
 gsave  2268 1682 0 0 C 2050.84 1107.22 t 0 r /Helvetica-Bold findfont 64.6832 sf 0 0 m (20) show NC gr  black 0 0.666667 0 c
 gsave  2268 1682 0 0 C 2050.84 1198.54 t 0 r /Helvetica-Bold findfont 64.6832 sf 0 0 m (22) show NC gr  black 0 0.666667 0 c
 gsave  2268 1682 0 0 C 2050.84 1293.66 t 0 r /Helvetica-Bold findfont 64.6832 sf 0 0 m (24) show NC gr 
 gr  gr showpage
end
%%EOF
