%!PS-Adobe-2.0 EPSF-2.0
%%BoundingBox:  0 0 567 420
%%Title: plots/mvaeffs_TMlpANN.eps: Cut efficiencies for TMlpANN classifier
%%Creator: ROOT Version 5.34/09
%%CreationDate: Thu Jan  2 18:35:59 2014
%%EndComments
%%BeginProlog
80 dict begin
/s {stroke} def /l {lineto} def /m {moveto} def /t {translate} def
/r {rotate} def /rl {roll}  def /R {repeat} def
/d {rlineto} def /rm {rmoveto} def /gr {grestore} def /f {eofill} def
/c {setrgbcolor} def /black {0 setgray} def /sd {setdash} def
/cl {closepath} def /sf {scalefont setfont} def /lw {setlinewidth} def
/box {m dup 0 exch d exch 0 d 0 exch neg d cl} def
/NC{systemdict begin initclip end}def/C{NC box clip newpath}def
/bl {box s} def /bf {box f} def /Y { 0 exch d} def /X { 0 d} def 
/K {{pop pop 0 moveto} exch kshow} bind def
/ita {/ang 15 def gsave [1 0 ang dup sin exch cos div 1 0 0] concat} def 
/mp {newpath /y exch def /x exch def} def
/side {[w .77 mul w .23 mul] .385 w mul sd w 0 l currentpoint t -144 r} def
/mr {mp x y w2 0 360 arc} def /m24 {mr s} def /m20 {mr f} def
/mb {mp x y w2 add m w2 neg 0 d 0 w neg d w 0 d 0 w d cl} def
/mt {mp x y w2 add m w2 neg w neg d w 0 d cl} def
/m21 {mb f} def /m25 {mb s} def /m22 {mt f} def /m26{mt s} def
/m23 {mp x y w2 sub m w2 w d w neg 0 d cl f} def
/m27 {mp x y w2 add m w3 neg w2 neg d w3 w2 neg d w3 w2 d cl s} def
/m28 {mp x w2 sub y w2 sub w3 add m w3 0 d  0 w3 neg d w3 0 d 0 w3 d w3 0 d  0 w3 d w3 neg 0 d 0 w3 d w3 neg 0 d 0 w3 neg d w3 neg 0 d cl s } def
/m29 {mp gsave x w2 sub y w2 add w3 sub m currentpoint t 4 {side} repeat cl fill gr} def
/m30 {mp gsave x w2 sub y w2 add w3 sub m currentpoint t 4 {side} repeat cl s gr} def
/m31 {mp x y w2 sub m 0 w d x w2 sub y m w 0 d x w2 sub y w2 add m w w neg d x w2 sub y w2 sub m w w d s} def
/m32 {mp x y w2 sub m w2 w d w neg 0 d cl s} def
/m33 {mp x y w2 add m w3 neg w2 neg d w3 w2 neg d w3 w2 d cl f} def
/m34 {mp x w2 sub y w2 sub w3 add m w3 0 d  0 w3 neg d w3 0 d 0 w3 d w3 0 d  0 w3 d w3 neg 0 d 0 w3 d w3 neg 0 d 0 w3 neg d w3 neg 0 d cl f } def
/m2 {mp x y w2 sub m 0 w d x w2 sub y m w 0 d s} def
/m5 {mp x w2 sub y w2 sub m w w d x w2 sub y w2 add m w w neg d s} def
/reEncode {exch findfont dup length dict begin {1 index /FID eq  {pop pop} {def} ifelse } forall /Encoding exch def currentdict end dup /FontName get exch definefont pop } def [/Times-Bold /Times-Italic /Times-BoldItalic /Helvetica /Helvetica-Oblique
 /Helvetica-Bold /Helvetica-BoldOblique /Courier /Courier-Oblique /Courier-Bold /Courier-BoldOblique /Times-Roman /AvantGarde-Book /AvantGarde-BookOblique /AvantGarde-Demi /AvantGarde-DemiOblique /Bookman-Demi /Bookman-DemiItalic /Bookman-Light
 /Bookman-LightItalic /Helvetica-Narrow /Helvetica-Narrow-Bold /Helvetica-Narrow-BoldOblique /Helvetica-Narrow-Oblique /NewCenturySchlbk-Roman /NewCenturySchlbk-Bold /NewCenturySchlbk-BoldItalic /NewCenturySchlbk-Italic /Palatino-Bold
 /Palatino-BoldItalic /Palatino-Italic /Palatino-Roman ] {ISOLatin1Encoding reEncode } forall
%%EndProlog
%%BeginSetup
%%EndSetup
newpath  gsave  .25 .25 scale  gsave  0 0 t 0.490196 0.545098 0.615686 c[  ] 0 sd 3 lw 0.941176 0.941176 0.941176 c 2268 1682 0 0 bf black 1 1 0.992157 c 1796 1143 245 202 bf black 1796 1143 245 202 bl 1 1 0.992157 c 1796 1143 245 202 bf black 1796
 1143 245 202 bl 245 202 m 1796 X s[ 4 8] 0 sd 292 1345 m -1143 Y s 553 1345 m -1143 Y s 814 1345 m -1143 Y s 1075 1345 m -1143 Y s 1336 1345 m -1143 Y s 1597 1345 m -1143 Y s 1858 1345 m -1143 Y s 292 1345 m -1143 Y s 1858 1345 m -1143 Y s[  ] 0 sd
 245 202 m 1143 Y s[ 4 8] 0 sd 2041 202 m -1796 X s 2041 410 m -1796 X s 2041 618 m -1796 X s 2041 826 m -1796 X s 2041 1034 m -1796 X s 2041 1241 m -1796 X s 2041 1241 m -1796 X s 0 0 0.933333 c[  22 12 ] 0 sd 6 lw 0.49 0.6 0.82 c black 0 0 0.933333
 c 245 723 m cl s 248 723 m cl s 252 723 m cl s 256 723 m cl s 260 723 m cl s 264 723 m cl s 267 723 m cl s 271 723 m cl s 275 723 m cl s 279 723 m cl s 283 723 m cl s 287 723 m cl s 290 723 m cl s 294 723 m cl s 298 723 m cl s 302 723 m cl s 306 723
 m cl s 309 723 m cl s 313 723 m cl s 317 723 m cl s 321 723 m cl s 325 723 m cl s 328 723 m cl s 332 723 m cl s 336 723 m cl s 340 723 m cl s 344 723 m cl s 347 723 m cl s 351 723 m cl s 355 723 m cl s 359 723 m cl s 363 723 m cl s 366 723 m cl s
 370 723 m cl s 374 723 m cl s 378 723 m cl s 382 723 m cl s 385 723 m cl s 389 723 m cl s 393 723 m cl s 397 723 m cl s 401 723 m cl s 404 727 m -4 Y s 408 727 m -4 Y s 412 727 m cl s 416 727 m -4 Y s 420 727 m -4 Y s 423 727 m cl s 427 727 m cl s
 431 727 m cl s 435 727 m cl s 439 727 m cl s 443 727 m cl s 446 727 m cl s 450 727 m cl s 454 727 m cl s 458 727 m cl s 462 727 m cl s 465 727 m cl s 469 727 m cl s 473 727 m cl s 477 727 m cl s 481 727 m cl s 484 727 m cl s 488 727 m cl s 492 727 m
 cl s 496 727 m cl s 500 727 m cl s 503 727 m cl s 507 727 m cl s 511 727 m cl s 515 727 m cl s 519 727 m cl s 522 727 m cl s 526 727 m cl s 530 727 m cl s 534 727 m cl s 538 727 m cl s 541 731 m -4 Y s 545 731 m cl s 549 731 m cl s 553 731 m cl s
 557 731 m cl s 560 731 m cl s 564 731 m cl s 568 731 m cl s 572 731 m cl s 576 731 m cl s 579 731 m cl s 583 731 m cl s 587 731 m cl s 591 731 m cl s 595 731 m cl s 599 731 m cl s 602 731 m cl s 606 731 m cl s 610 731 m cl s 614 731 m cl s 618 731 m
 cl s 621 731 m cl s 625 731 m cl s 629 731 m cl s 633 731 m cl s 637 731 m cl s 640 731 m cl s 644 731 m cl s 648 731 m cl s 652 731 m cl s 656 731 m cl s 659 731 m cl s 663 734 m -3 Y s 667 734 m cl s 671 734 m cl s 675 734 m cl s 678 734 m cl s
 682 734 m -3 Y s 686 731 m cl s 690 734 m -3 Y s 694 734 m cl s 697 734 m cl s 701 734 m cl s 705 734 m cl s 709 734 m cl s 713 738 m -4 Y s 716 738 m -4 Y s 720 738 m cl s 724 738 m cl s 728 738 m cl s 732 738 m cl s 735 738 m cl s 739 738 m cl s
 743 738 m cl s 747 738 m cl s 751 738 m cl s 755 742 m -4 Y s 758 742 m cl s 762 742 m cl s 766 742 m cl s 770 746 m -4 Y s 774 746 m cl s 777 746 m cl s 781 750 m -4 Y s 785 750 m cl s 789 750 m cl s 793 750 m cl s 796 750 m cl s 800 753 m -3 Y s
 804 753 m cl s 808 753 m cl s 812 753 m cl s 815 757 m -4 Y s 819 757 m -4 Y s 823 757 m cl s 827 757 m cl s 831 757 m cl s 834 757 m cl s 838 761 m -4 Y s 842 761 m -4 Y s 846 761 m cl s 850 761 m cl s 853 761 m -4 Y s 857 757 m cl s 861 757 m cl s
 865 757 m cl s 869 757 m cl s 872 757 m cl s 876 761 m -4 Y s 880 761 m -4 Y s 884 761 m -4 Y s 888 757 m cl s 891 757 m cl s 895 757 m cl s 899 757 m cl s 903 761 m -4 Y s 907 761 m cl s 911 761 m cl s 914 765 m -4 Y s 918 765 m cl s 922 769 m -4 Y
 s 926 769 m -4 Y s 930 765 m cl s 933 769 m -4 Y s 937 769 m cl s 941 769 m cl s 945 769 m cl s 949 772 m -3 Y s 952 772 m cl s 956 772 m cl s 960 772 m cl s 964 772 m cl s 968 772 m cl s 971 772 m cl s 975 776 m -4 Y s 979 776 m cl s 983 780 m -4 Y
 s 987 780 m -4 Y s 990 776 m cl s 994 780 m -4 Y s 998 780 m cl s 1002 784 m -4 Y s 1006 784 m -4 Y s 1009 780 m cl s 1013 780 m cl s 1017 780 m cl s 1021 780 m cl s 1025 784 m -4 Y s 1028 788 m -4 Y s 1032 788 m -4 Y s 1036 784 m cl s 1040 788 m -4
 Y s 1044 788 m cl s 1047 788 m cl s 1051 788 m cl s 1055 788 m cl s 1059 788 m cl s 1063 788 m cl s 1067 788 m cl s 1070 788 m cl s 1074 791 m -3 Y s 1078 788 m cl s 1082 788 m cl s 1086 788 m -4 Y s 1089 788 m -4 Y s 1093 788 m -4 Y s 1097 788 m cl
 s 1101 788 m -4 Y s 1105 788 m -4 Y s 1108 784 m cl s 1112 784 m cl s 1116 784 m -8 Y s 1120 776 m cl s 1124 776 m cl s 1127 776 m cl s 1131 776 m -4 Y s 1135 772 m cl s 1139 772 m -3 Y s 1143 772 m -3 Y s 1146 769 m -4 Y s 1150 765 m cl s 1154 765
 m -4 Y s 1158 765 m -4 Y s 1162 765 m -4 Y s 1165 761 m -4 Y s 1169 757 m cl s 1173 757 m -4 Y s 1177 753 m -3 Y s 1181 750 m -4 Y s 1184 750 m -4 Y s 1188 746 m cl s 1192 746 m -4 Y s 1196 742 m -4 Y s 1200 738 m cl s 1203 734 m cl s 1207 734 m -7
 Y s 1211 727 m cl s 1215 727 m -4 Y s 1219 723 m -4 Y s 1223 719 m -4 Y s 1226 719 m -4 Y s 1230 715 m -3 Y s 1234 712 m -4 Y s 1238 708 m cl s 1242 708 m cl s 1245 708 m cl s 1249 708 m cl s 1253 708 m -4 Y s 1257 704 m cl s 1261 704 m -4 Y s 1264
 704 m -4 Y s 1268 704 m -4 Y s 1272 700 m -8 Y s 1276 692 m -3 Y s 1280 689 m -4 Y s 1283 685 m cl s 1287 685 m -4 Y s 1291 681 m -4 Y s 1295 677 m cl s 1299 677 m -4 Y s 1302 673 m -3 Y s 1306 673 m -3 Y s 1310 670 m cl s 1314 670 m -4 Y s 1318 666
 m cl s 1321 666 m -4 Y s 1325 662 m -4 Y s 1329 658 m -4 Y s 1333 658 m -4 Y s 1337 654 m cl s 1340 654 m cl s 1344 651 m cl s 1348 651 m -4 Y s 1352 647 m -4 Y s 1356 643 m -4 Y s 1359 639 m -7 Y s 1363 632 m -4 Y s 1367 628 m -4 Y s 1371 624 m -4
 Y s 1375 620 m cl s 1379 620 m -4 Y s 1382 616 m cl s 1386 616 m -3 Y s 1390 613 m -4 Y s 1394 609 m cl s 1398 609 m -4 Y s 1401 609 m -4 Y s 1405 605 m cl s 1409 605 m -4 Y s 1413 601 m cl s 1417 601 m -7 Y s 1420 594 m cl s 1424 594 m -4 Y s 1428
 590 m -4 Y s 1432 586 m -4 Y s 1436 582 m -4 Y s 1439 578 m -3 Y s 1443 575 m cl s 1447 575 m -4 Y s 1451 571 m cl s 1455 571 m -4 Y s 1458 567 m -4 Y s 1462 563 m -7 Y s 1466 556 m -4 Y s 1470 552 m cl s 1474 552 m -4 Y s 1477 548 m -4 Y s 1481 544
 m -4 Y s 1485 544 m -8 Y s 1489 540 m -4 Y s 1493 536 m cl s 1496 536 m -3 Y s 1500 533 m cl s 1504 533 m -4 Y s 1508 529 m -4 Y s 1512 525 m -4 Y s 1515 521 m -4 Y s 1519 517 m -3 Y s 1523 514 m -4 Y s 1527 510 m cl s 1531 510 m -4 Y s 1535 506 m
 cl s 1538 506 m -4 Y s 1542 502 m -4 Y s 1546 498 m -3 Y s 1550 495 m -4 Y s 1554 491 m cl s 1557 491 m cl s 1561 491 m cl s 1565 491 m -4 Y s 1569 487 m -4 Y s 1573 483 m -4 Y s 1576 479 m -3 Y s 1580 476 m -4 Y s 1584 472 m -4 Y s 1588 468 m -4 Y
 s 1592 464 m -4 Y s 1595 460 m -3 Y s 1599 457 m -8 Y s 1603 453 m -8 Y s 1607 445 m -4 Y s 1611 441 m -3 Y s 1614 438 m -8 Y s 1618 430 m -8 Y s 1622 422 m -7 Y s 1626 415 m -4 Y s 1630 411 m -4 Y s 1633 407 m -11 Y s 1637 396 m -4 Y s 1641 392 m
 -12 Y s 1645 380 m -7 Y s 1649 373 m -8 Y s 1652 365 m -4 Y s 1656 361 m -3 Y s 1660 358 m -4 Y s 1664 354 m -4 Y s 1668 350 m -8 Y s 1671 342 m -3 Y s 1675 339 m -4 Y s 1679 335 m -4 Y s 1683 331 m -4 Y s 1687 327 m -4 Y s 1691 323 m cl s 1694 323
 m -7 Y s 1698 320 m -4 Y s 1702 316 m -4 Y s 1706 312 m -4 Y s 1710 308 m -4 Y s 1713 304 m -3 Y s 1717 301 m -4 Y s 1721 297 m cl s 1725 297 m -4 Y s 1729 293 m cl s 1732 293 m -4 Y s 1736 289 m -4 Y s 1740 285 m cl s 1744 285 m -3 Y s 1748 282 m
 cl s 1751 282 m -4 Y s 1755 278 m cl s 1759 278 m -4 Y s 1763 274 m cl s 1767 274 m -4 Y s 1770 270 m cl s 1774 270 m cl s 1778 270 m -4 Y s 1782 266 m cl s 1786 266 m cl s 1789 266 m -3 Y s 1793 263 m cl s 1797 263 m -4 Y s 1801 259 m -4 Y s 1805
 255 m cl s 1808 255 m -4 Y s 1812 251 m -4 Y s 1816 247 m cl s 1820 247 m -3 Y s 1824 244 m cl s 1827 244 m cl s 1831 244 m -4 Y s 1835 240 m -4 Y s 1839 236 m cl s 1843 236 m cl s 1847 236 m cl s 1850 236 m -4 Y s 1854 232 m cl s 1858 232 m cl s
 1862 232 m -4 Y s 1866 228 m cl s 1869 228 m cl s 1873 228 m -4 Y s 1877 224 m cl s 1881 224 m cl s 1885 224 m -3 Y s 1888 221 m cl s 1892 221 m cl s 1896 221 m -4 Y s 1900 217 m cl s 1904 217 m cl s 1907 217 m cl s 1911 217 m -4 Y s 1915 213 m cl s
 1919 213 m cl s 1923 213 m cl s 1926 213 m cl s 1930 213 m -4 Y s 1934 209 m cl s 1938 209 m cl s 1942 209 m cl s 1945 209 m cl s 1949 209 m cl s 1953 209 m cl s 1957 209 m cl s 1961 209 m cl s 1964 209 m cl s 1968 209 m cl s 1972 209 m cl s 1976
 209 m cl s 245 723 m 156 X 3 4 d 134 X 3 4 d 118 X 4 3 d 19 X 4 -3 d 4 3 d 19 X 4 4 d 38 X 4 4 d 11 X 4 4 d 7 X 4 4 d 15 X 4 3 d 12 X 3 4 d 19 X 4 4 d 15 X 4 -4 d 15 X 4 4 d 8 X 4 -4 d 11 X 4 4 d 8 X 3 4 d 4 X 4 4 d 4 X 4 -4 d 3 4 d 12 X 4 3 d 22 X
 4 4 d 4 X 4 4 d 4 X 3 -4 d 4 4 d 4 X 4 4 d 4 X 3 -4 d 12 X 4 4 d 3 4 d 4 X 4 -4 d 4 4 d 30 X 4 3 d 4 -3 d 27 X 3 -4 d 4 X 4 -4 d 4 -4 d 11 X 4 -4 d 8 X 3 -3 d 4 -4 d 12 X 3 -4 d 4 -4 d 4 X 4 -4 d 4 -3 d 3 X 4 -4 d 4 X 4 -4 d 4 -4 d 3 -4 d 4 -3 d 4
 -4 d 4 X 4 -4 d 4 -4 d 3 X 4 -4 d 4 -3 d 4 -4 d 15 X 4 -4 d 11 X 4 -8 d 4 -4 d 4 -3 d 3 -4 d 4 X 4 -4 d 4 -4 d 4 X 3 -4 d 4 X 4 -3 d 4 X 4 -4 d 3 X 4 -4 d 4 -4 d 4 X 4 -4 d 3 X 4 -3 d 4 X 4 -4 d 4 -4 d 3 -8 d 4 -3 d 4 -4 d 4 -4 d 4 -4 d 4 X 3 -4 d 4
 X 4 -3 d 4 -4 d 7 X 4 -4 d 4 X 4 -4 d 4 -4 d 3 -3 d 4 X 4 -4 d 4 -4 d 4 -4 d 3 -4 d 4 -3 d 4 X 4 -4 d 4 X 3 -4 d 4 -8 d 4 -3 d 4 -4 d 4 X 3 -4 d 4 -4 d 4 -4 d 4 X 4 -4 d 3 X 4 -3 d 4 X 4 -4 d 4 -4 d 3 -4 d 4 -4 d 4 -3 d 4 -4 d 4 X 4 -4 d 3 X 4 -4 d
 4 -4 d 4 -3 d 4 -4 d 11 X 4 -4 d 4 -4 d 3 -4 d 4 -3 d 4 -4 d 4 -4 d 4 -4 d 3 -4 d 4 -7 d 4 -4 d 4 -4 d 4 -4 d 3 -7 d 4 -8 d 4 -7 d 4 -4 d 4 -4 d 3 -8 d 4 -7 d 4 -8 d 4 -11 d 4 -8 d 3 -4 d 4 -4 d 4 -3 d 4 -4 d 4 -8 d 3 -4 d 4 -3 d 4 -4 d 4 -4 d 4 -4
 d 4 -4 d 3 -3 d 4 X 4 -4 d 4 -4 d 4 -4 d 3 -4 d 4 -3 d 4 -4 d 4 X 4 -4 d 3 X 4 -4 d 4 -4 d 4 X 4 -3 d 3 X 4 -4 d 4 X 4 -4 d 4 X 3 -4 d 8 X 4 -4 d 7 X 4 -3 d 4 X 4 -4 d 4 -4 d 3 X 4 -4 d 4 -4 d 4 X 4 -3 d 7 X 4 -4 d 4 -4 d 11 X 4 -4 d 8 X 4 -4 d 7 X
 4 -4 d 8 X 3 -3 d 8 X 4 -4 d 11 X 4 -4 d 15 X 4 -4 d 42 X s black[  ] 0 sd 3 lw 245 202 m 1796 X s
 gsave  2268 1682 0 0 C 741.954 30.4391 t 0 r /Helvetica-Bold findfont 72.293 sf 0 0 m (Cut value applied on TMlpANN output) show NC gr  292 242 m -40 Y s 358 222 m -20 Y s 423 222 m -20 Y s 488 222 m -20 Y s 553 242 m -40 Y s 619 222 m -20 Y s 684
 222 m -20 Y s 749 222 m -20 Y s 814 242 m -40 Y s 880 222 m -20 Y s 945 222 m -20 Y s 1010 222 m -20 Y s 1075 242 m -40 Y s 1140 222 m -20 Y s 1206 222 m -20 Y s 1271 222 m -20 Y s 1336 242 m -40 Y s 1401 222 m -20 Y s 1467 222 m -20 Y s 1532 222 m
 -20 Y s 1597 242 m -40 Y s 1662 222 m -20 Y s 1728 222 m -20 Y s 1793 222 m -20 Y s 1858 242 m -40 Y s 292 242 m -40 Y s 1858 242 m -40 Y s 1923 222 m -20 Y s 1989 222 m -20 Y s
 gsave  2268 1682 0 0 C 232.099 129.366 t 0 r /Helvetica-Bold findfont 64.6832 sf 0 0 m (\2550.2) show NC gr 
 gsave  2268 1682 0 0 C 532.685 129.366 t 0 r /Helvetica-Bold findfont 64.6832 sf 0 0 m (0) show NC gr 
 gsave  2268 1682 0 0 C 768.589 129.366 t 0 r /Helvetica-Bold findfont 64.6832 sf 0 0 m (0.2) show NC gr 
 gsave  2268 1682 0 0 C 1027.32 129.366 t 0 r /Helvetica-Bold findfont 64.6832 sf 0 0 m (0.4) show NC gr 
 gsave  2268 1682 0 0 C 1289.86 129.366 t 0 r /Helvetica-Bold findfont 64.6832 sf 0 0 m (0.6) show NC gr 
 gsave  2268 1682 0 0 C 1548.59 129.366 t 0 r /Helvetica-Bold findfont 64.6832 sf 0 0 m (0.8) show NC gr 
 gsave  2268 1682 0 0 C 1841.57 129.366 t 0 r /Helvetica-Bold findfont 64.6832 sf 0 0 m (1) show NC gr  245 202 m 1143 Y s
 gsave  2268 1682 0 0 C 64.6832 734.344 t 90 r /Helvetica-Bold findfont 72.293 sf 0 0 m (Efficiency \(Purity\)) show NC gr  291 202 m -46 X s 268 254 m -23 X s 268 306 m -23 X s 268 358 m -23 X s 291 410 m -46 X s 268 462 m -23 X s 268 514 m -23 X s
 268 566 m -23 X s 291 618 m -46 X s 268 670 m -23 X s 268 722 m -23 X s 268 774 m -23 X s 291 826 m -46 X s 268 878 m -23 X s 268 930 m -23 X s 268 982 m -23 X s 291 1034 m -46 X s 268 1086 m -23 X s 268 1137 m -23 X s 268 1189 m -23 X s 291 1241 m
 -46 X s 291 1241 m -46 X s 268 1293 m -23 X s 268 1345 m -23 X s
 gsave  2268 1682 0 0 C 182.635 178.83 t 0 r /Helvetica-Bold findfont 64.6832 sf 0 0 m (0) show NC gr 
 gsave  2268 1682 0 0 C 129.366 384.294 t 0 r /Helvetica-Bold findfont 64.6832 sf 0 0 m (0.2) show NC gr 
 gsave  2268 1682 0 0 C 125.561 593.563 t 0 r /Helvetica-Bold findfont 64.6832 sf 0 0 m (0.4) show NC gr 
 gsave  2268 1682 0 0 C 129.366 799.028 t 0 r /Helvetica-Bold findfont 64.6832 sf 0 0 m (0.6) show NC gr 
 gsave  2268 1682 0 0 C 125.561 1008.3 t 0 r /Helvetica-Bold findfont 64.6832 sf 0 0 m (0.8) show NC gr 
 gsave  2268 1682 0 0 C 190.245 1217.57 t 0 r /Helvetica-Bold findfont 64.6832 sf 0 0 m (1) show NC gr  0 0 0.933333 c[  52 12 ] 0 sd 6 lw 0.49 0.6 0.82 c black 0 0 0.933333 c 248 723 m cl s 252 723 m cl s 256 723 m cl s 260 723 m cl s 264 723 m cl s
 267 723 m cl s 271 723 m cl s 275 723 m cl s 279 723 m cl s 283 723 m cl s 287 723 m cl s 290 723 m cl s 294 723 m cl s 298 723 m cl s 302 723 m cl s 306 723 m cl s 309 723 m cl s 313 723 m cl s 317 723 m cl s 321 723 m cl s 325 723 m cl s 328 723 m
 cl s 332 723 m cl s 336 723 m cl s 340 723 m cl s 344 723 m cl s 347 723 m cl s 351 723 m cl s 355 723 m cl s 359 723 m cl s 363 723 m cl s 366 723 m cl s 370 723 m cl s 374 723 m cl s 378 723 m cl s 382 723 m cl s 385 723 m cl s 389 723 m cl s 393
 723 m cl s 397 723 m cl s 401 723 m cl s 404 727 m -4 Y s 408 727 m cl s 412 727 m cl s 416 727 m cl s 420 727 m cl s 423 727 m cl s 427 727 m cl s 431 727 m cl s 435 727 m cl s 439 727 m cl s 443 727 m cl s 446 727 m cl s 450 727 m cl s 454 727 m
 cl s 458 727 m cl s 462 727 m cl s 465 727 m cl s 469 727 m cl s 473 727 m cl s 477 727 m cl s 481 727 m cl s 484 727 m cl s 488 727 m cl s 492 727 m cl s 496 727 m cl s 500 727 m cl s 503 727 m cl s 507 727 m cl s 511 727 m cl s 515 731 m -4 Y s
 519 731 m cl s 522 731 m cl s 526 731 m cl s 530 731 m cl s 534 731 m cl s 538 731 m cl s 541 731 m cl s 545 731 m cl s 549 731 m cl s 553 731 m cl s 557 731 m cl s 560 731 m cl s 564 731 m cl s 568 734 m -3 Y s 572 734 m cl s 576 734 m cl s 579 734
 m cl s 583 734 m cl s 587 734 m cl s 591 734 m cl s 595 734 m cl s 599 734 m cl s 602 734 m cl s 606 734 m cl s 610 734 m cl s 614 734 m cl s 618 734 m cl s 621 734 m cl s 625 734 m cl s 629 734 m cl s 633 734 m cl s 637 734 m cl s 640 734 m cl s
 644 734 m cl s 648 734 m cl s 652 734 m cl s 656 734 m cl s 659 734 m cl s 663 738 m -4 Y s 667 738 m cl s 671 738 m cl s 675 738 m cl s 678 738 m cl s 682 738 m cl s 686 738 m cl s 690 738 m cl s 694 738 m cl s 697 738 m cl s 701 738 m cl s 705 738
 m cl s 709 742 m -4 Y s 713 742 m cl s 716 742 m cl s 720 742 m cl s 724 742 m cl s 728 746 m -4 Y s 732 746 m cl s 735 746 m cl s 739 746 m cl s 743 746 m cl s 747 746 m cl s 751 746 m cl s 755 750 m -4 Y s 758 750 m cl s 762 750 m cl s 766 753 m
 -3 Y s 770 753 m cl s 774 753 m cl s 777 757 m -4 Y s 781 757 m cl s 785 757 m cl s 789 757 m cl s 793 761 m cl s 796 761 m cl s 800 761 m cl s 804 765 m -4 Y s 808 765 m cl s 812 765 m cl s 815 769 m -4 Y s 819 769 m cl s 823 769 m cl s 827 772 m
 -3 Y s 831 772 m cl s 834 772 m cl s 838 776 m -4 Y s 842 776 m cl s 846 776 m cl s 850 776 m cl s 853 776 m cl s 857 776 m cl s 861 780 m -4 Y s 865 780 m -4 Y s 869 780 m cl s 872 784 m -4 Y s 876 784 m cl s 880 788 m -4 Y s 884 788 m cl s 888 788
 m cl s 891 788 m cl s 895 791 m -3 Y s 899 791 m cl s 903 795 m -4 Y s 907 795 m cl s 911 799 m -4 Y s 914 803 m -4 Y s 918 807 m -4 Y s 922 807 m cl s 926 810 m -3 Y s 930 810 m cl s 933 814 m -4 Y s 937 814 m cl s 941 818 m -4 Y s 945 818 m cl s
 949 822 m -4 Y s 952 822 m cl s 956 826 m -4 Y s 960 826 m cl s 964 826 m cl s 968 829 m -3 Y s 971 829 m cl s 975 833 m -4 Y s 979 837 m -4 Y s 983 837 m cl s 987 841 m -4 Y s 990 841 m cl s 994 845 m -4 Y s 998 848 m -3 Y s 1002 848 m cl s 1006
 848 m cl s 1009 852 m -4 Y s 1013 852 m cl s 1017 852 m cl s 1021 856 m -4 Y s 1025 856 m cl s 1028 864 m -8 Y s 1032 864 m cl s 1036 864 m cl s 1040 868 m -4 Y s 1044 871 m -3 Y s 1047 875 m -4 Y s 1051 875 m -4 Y s 1055 875 m cl s 1059 879 m -4 Y
 s 1063 879 m cl s 1067 883 m cl s 1070 887 m -4 Y s 1074 887 m cl s 1078 890 m -3 Y s 1082 890 m cl s 1086 890 m cl s 1089 894 m -4 Y s 1093 894 m cl s 1097 898 m -4 Y s 1101 898 m cl s 1105 902 m -4 Y s 1108 902 m cl s 1112 902 m cl s 1116 902 m cl
 s 1120 906 m -4 Y s 1124 906 m cl s 1127 909 m -3 Y s 1131 909 m cl s 1135 913 m -4 Y s 1139 917 m -4 Y s 1143 917 m cl s 1146 917 m cl s 1150 921 m -4 Y s 1154 921 m cl s 1158 925 m -4 Y s 1162 928 m -3 Y s 1165 928 m -3 Y s 1169 928 m -3 Y s 1173
 928 m cl s 1177 928 m cl s 1181 928 m cl s 1184 932 m -4 Y s 1188 932 m cl s 1192 932 m cl s 1196 936 m -4 Y s 1200 936 m -4 Y s 1203 936 m cl s 1207 936 m cl s 1211 936 m cl s 1215 936 m cl s 1219 936 m cl s 1223 936 m cl s 1226 940 m -4 Y s 1230
 940 m cl s 1234 940 m cl s 1238 944 m cl s 1242 947 m -3 Y s 1245 947 m cl s 1249 951 m -4 Y s 1253 951 m cl s 1257 955 m -4 Y s 1261 955 m cl s 1264 959 m -4 Y s 1268 959 m cl s 1272 959 m cl s 1276 959 m cl s 1280 963 m -4 Y s 1283 966 m -3 Y s
 1287 966 m cl s 1291 966 m cl s 1295 970 m -4 Y s 1299 970 m cl s 1302 970 m cl s 1306 974 m -4 Y s 1310 974 m cl s 1314 978 m -4 Y s 1318 978 m cl s 1321 982 m -4 Y s 1325 982 m cl s 1329 985 m -3 Y s 1333 985 m cl s 1337 985 m cl s 1340 989 m cl s
 1344 989 m cl s 1348 989 m cl s 1352 989 m cl s 1356 989 m cl s 1359 989 m -4 Y s 1363 989 m -4 Y s 1367 989 m cl s 1371 989 m cl s 1375 993 m -4 Y s 1379 993 m cl s 1382 993 m cl s 1386 997 m -4 Y s 1390 1001 m -4 Y s 1394 1001 m -4 Y s 1398 1004 m
 -3 Y s 1401 1008 m -4 Y s 1405 1008 m cl s 1409 1012 m -4 Y s 1413 1012 m cl s 1417 1012 m cl s 1420 1016 m -4 Y s 1424 1020 m -4 Y s 1428 1020 m cl s 1432 1024 m -4 Y s 1436 1024 m -4 Y s 1439 1024 m -4 Y s 1443 1027 m -3 Y s 1447 1027 m cl s 1451
 1027 m cl s 1455 1031 m -4 Y s 1458 1031 m cl s 1462 1031 m cl s 1466 1031 m -4 Y s 1470 1031 m cl s 1474 1039 m -8 Y s 1477 1039 m -4 Y s 1481 1039 m -4 Y s 1485 1039 m cl s 1489 1043 m -4 Y s 1493 1043 m cl s 1496 1046 m -3 Y s 1500 1050 m -4 Y s
 1504 1054 m -4 Y s 1508 1054 m -4 Y s 1512 1054 m cl s 1515 1058 m -4 Y s 1519 1054 m cl s 1523 1058 m -4 Y s 1527 1058 m -4 Y s 1531 1058 m cl s 1535 1062 m -4 Y s 1538 1062 m cl s 1542 1065 m -3 Y s 1546 1065 m cl s 1550 1069 m -4 Y s 1554 1073 m
 -4 Y s 1557 1077 m -8 Y s 1561 1081 m -4 Y s 1565 1081 m cl s 1569 1084 m -3 Y s 1573 1084 m cl s 1576 1084 m -3 Y s 1580 1088 m -4 Y s 1584 1088 m -4 Y s 1588 1092 m -4 Y s 1592 1096 m -4 Y s 1595 1096 m cl s 1599 1096 m -4 Y s 1603 1096 m cl s
 1607 1096 m cl s 1611 1100 m -4 Y s 1614 1100 m -4 Y s 1618 1096 m -4 Y s 1622 1100 m -4 Y s 1626 1100 m -4 Y s 1630 1107 m -7 Y s 1633 1107 m -4 Y s 1637 1111 m -8 Y s 1641 1115 m -4 Y s 1645 1115 m -4 Y s 1649 1111 m -4 Y s 1652 1107 m -4 Y s 1656
 1103 m cl s 1660 1107 m -4 Y s 1664 1107 m -4 Y s 1668 1107 m -4 Y s 1671 1107 m -4 Y s 1675 1107 m -4 Y s 1679 1107 m cl s 1683 1107 m -4 Y s 1687 1107 m -4 Y s 1691 1107 m -4 Y s 1694 1107 m -7 Y s 1698 1103 m -3 Y s 1702 1103 m -3 Y s 1706 1100 m
 -4 Y s 1710 1096 m -4 Y s 1713 1092 m -4 Y s 1717 1096 m -8 Y s 1721 1100 m -4 Y s 1725 1103 m -7 Y s 1729 1122 m -19 Y s 1732 1122 m -3 Y s 1736 1130 m -11 Y s 1740 1130 m -4 Y s 1744 1138 m -12 Y s 1748 1149 m -15 Y s 1751 1153 m -4 Y s 1755 1153
 m -4 Y s 1759 1149 m -4 Y s 1763 1153 m -8 Y s 1767 1149 m cl s 1770 1149 m cl s 1774 1149 m cl s 1778 1149 m -4 Y s 1782 1153 m -8 Y s 1786 1153 m -4 Y s 1789 1149 m -4 Y s 1793 1145 m cl s 1797 1149 m -4 Y s 1801 1149 m -4 Y s 1805 1153 m -12 Y s
 1808 1149 m -4 Y s 1812 1149 m -4 Y s 1816 1145 m -4 Y s 1820 1141 m -3 Y s 1824 1138 m cl s 1827 1141 m -3 Y s 1831 1138 m -4 Y s 1835 1134 m -8 Y s 1839 1126 m -4 Y s 1843 1122 m -3 Y s 1847 1119 m -4 Y s 1850 1115 m -4 Y s 1854 1122 m -11 Y s
 1858 1122 m -7 Y s 1862 1115 m -12 Y s 1866 1141 m -38 Y s 1869 1168 m -27 Y s 1873 1168 m -8 Y s 1877 1160 m -7 Y s 1881 1153 m -4 Y s 1885 1149 m -8 Y s 1888 1141 m -3 Y s 1892 1138 m -4 Y s 1896 1134 m -4 Y s 1900 1130 m -11 Y s 1904 1115 m -4 Y
 s 1907 1111 m -8 Y s 1911 1103 m -7 Y s 1915 1096 m cl s 1919 1096 m -8 Y s 1923 1103 m -7 Y s 1926 1096 m -4 Y s 1930 1088 m -26 Y s 1934 1062 m -8 Y s 1938 1054 m -8 Y s 1942 1046 m cl s 1945 1046 m cl s 1949 1039 m cl s 1953 1039 m cl s 1957 1039
 m -8 Y s 1961 1031 m -15 Y s 1964 1016 m -19 Y s 1968 997 m cl s 1972 997 m -27 Y s 1976 1001 m -76 Y s 1980 925 m -73 Y s 1983 852 m -49 Y s 1987 803 m -65 Y s 1991 738 m cl s 1995 738 m cl s 1999 738 m cl s 2003 909 m -171 Y s 2006 871 m cl s 2010
 925 m -96 Y s 2014 871 m -175 Y s 2018 696 m cl s 2022 871 m -175 Y s 2025 871 m cl s 2029 871 m cl s 2033 1244 m -373 Y s 2037 1244 m cl s 2041 1244 m cl s 245 723 m 3 X s 248 723 m 153 X 3 4 d 107 X 4 4 d 49 X 4 3 d 91 X 4 4 d 42 X 4 4 d 15 X 4 4
 d 23 X 4 4 d 7 X 4 3 d 8 X 3 4 d 12 X 4 4 d 7 X 4 4 d 8 X 3 4 d 8 X 4 3 d 7 X 4 4 d 19 X 4 4 d 8 X 3 4 d 4 X 4 4 d 11 X 4 3 d 4 X 4 4 d 4 X 4 4 d 3 4 d 4 4 d 4 X 4 3 d 4 X 3 4 d 4 X 4 4 d 4 X 4 4 d 3 X 4 4 d 8 X 4 3 d 3 X 4 4 d 4 4 d 4 X 4 4 d 3 X 4
 4 d 4 3 d 8 X 3 4 d 8 X 4 4 d 4 X 3 4 d 4 4 d 4 X 4 4 d 4 3 d 3 4 d 8 X 4 4 d 4 X 4 4 d 3 4 d 4 X 4 3 d 8 X 3 4 d 4 X 4 4 d 4 X 4 4 d 11 X 4 4 d 4 X 3 3 d 4 X 4 4 d 4 4 d 7 X 4 4 d 4 X 4 4 d 4 3 d 19 X 3 4 d 8 X 4 4 d 27 X 3 4 d 8 X 4 4 d 4 3 d 3 X
 4 4 d 4 X 4 4 d 4 X 3 4 d 12 X 4 4 d 3 3 d 8 X 4 4 d 7 X 4 4 d 4 X 4 4 d 4 X 3 4 d 4 X 4 3 d 8 X 3 4 d 31 X 4 4 d 7 X 4 4 d 4 4 d 4 X 4 3 d 3 4 d 4 X 4 4 d 8 X 3 4 d 4 4 d 4 X 4 4 d 7 X 4 3 d 8 X 4 4 d 15 X 4 4 d 3 4 d 8 X 4 4 d 4 X 3 3 d 4 4 d 4 4
 d 8 X 3 4 d 4 -4 d 4 4 d 8 X 4 4 d 3 X 4 3 d 4 X 4 4 d 4 4 d 3 X 4 8 d 4 X 4 3 d 7 X 4 4 d 4 X 4 4 d 4 4 d 15 X 4 4 d 3 X 4 -4 d 4 4 d 4 X 4 3 d 3 4 d 4 X 4 8 d 4 X 4 -4 d 3 -4 d 4 -4 d 4 4 d 31 X 3 -4 d 8 X 4 -3 d 4 -4 d 3 -4 d 4 X 4 8 d 4 X 4 15 d
 3 7 d 4 4 d 4 4 d 4 4 d 4 7 d 3 12 d 4 X 4 -4 d 23 X 4 4 d 3 -4 d 4 -4 d 4 4 d 15 X 4 -4 d 4 -4 d 4 -3 d 3 3 d 4 -3 d 4 -8 d 4 -4 d 4 -4 d 4 -3 d 3 -4 d 4 4 d 4 X 4 -8 d 4 11 d 3 35 d 4 7 d 4 -7 d 4 -4 d 4 -8 d 3 -4 d 4 -3 d 4 -4 d 4 -8 d 4 -11 d 3
 -8 d 4 -7 d 4 -4 d 4 -4 d 4 8 d 3 -4 d 4 -19 d 4 -19 d 4 -8 d 4 -4 d 3 X 4 -7 d 4 X 4 -4 d 4 -11 d 3 -16 d 4 -11 d 4 -12 d 4 -22 d 4 -73 d 3 -61 d 4 -57 d 4 -34 d 8 X 4 88 d 3 45 d 4 8 d 4 -95 d 4 -88 d 4 88 d 3 87 d 4 X 4 187 d 4 186 d 4 X s[  ] 0
 sd 9 lw 0.49 0.6 0.82 c black 0 0 0.933333 c 248 1244 m cl s 252 1244 m cl s 256 1244 m cl s 260 1244 m cl s 264 1244 m cl s 267 1244 m cl s 271 1244 m cl s 275 1244 m cl s 279 1244 m cl s 283 1244 m cl s 287 1244 m cl s 290 1244 m cl s 294 1244 m
 cl s 298 1244 m cl s 302 1244 m cl s 306 1244 m cl s 309 1244 m cl s 313 1244 m cl s 317 1244 m cl s 321 1244 m cl s 325 1244 m cl s 328 1244 m cl s 332 1244 m cl s 336 1244 m cl s 340 1244 m cl s 344 1244 m cl s 347 1244 m cl s 351 1244 m cl s 355
 1244 m cl s 359 1244 m cl s 363 1244 m cl s 366 1244 m cl s 370 1244 m cl s 374 1244 m cl s 378 1244 m cl s 382 1244 m cl s 385 1244 m cl s 389 1244 m cl s 393 1244 m cl s 397 1244 m cl s 401 1244 m cl s 404 1244 m cl s 408 1244 m cl s 412 1244 m cl
 s 416 1244 m cl s 420 1244 m cl s 423 1244 m cl s 427 1244 m cl s 431 1244 m cl s 435 1244 m cl s 439 1244 m cl s 443 1244 m cl s 446 1244 m cl s 450 1244 m cl s 454 1244 m cl s 458 1244 m cl s 462 1244 m cl s 465 1244 m cl s 469 1244 m cl s 473
 1244 m cl s 477 1244 m cl s 481 1244 m cl s 484 1244 m cl s 488 1244 m cl s 492 1244 m cl s 496 1244 m -4 Y s 500 1240 m cl s 503 1240 m cl s 507 1240 m cl s 511 1240 m cl s 515 1240 m cl s 519 1240 m cl s 522 1240 m cl s 526 1240 m cl s 530 1240 m
 cl s 534 1240 m cl s 538 1240 m cl s 541 1240 m cl s 545 1240 m cl s 549 1240 m cl s 553 1240 m cl s 557 1240 m cl s 560 1240 m cl s 564 1240 m cl s 568 1240 m cl s 572 1240 m cl s 576 1240 m cl s 579 1240 m cl s 583 1240 m cl s 587 1240 m cl s 591
 1240 m cl s 595 1240 m cl s 599 1240 m cl s 602 1240 m -3 Y s 606 1237 m cl s 610 1237 m cl s 614 1237 m cl s 618 1237 m cl s 621 1237 m cl s 625 1237 m cl s 629 1237 m cl s 633 1237 m cl s 637 1237 m cl s 640 1237 m cl s 644 1237 m cl s 648 1237 m
 cl s 652 1237 m cl s 656 1237 m cl s 659 1237 m cl s 663 1237 m cl s 667 1237 m cl s 671 1237 m cl s 675 1237 m cl s 678 1237 m cl s 682 1237 m -4 Y s 686 1233 m cl s 690 1233 m cl s 694 1233 m cl s 697 1233 m cl s 701 1233 m cl s 705 1233 m cl s
 709 1233 m cl s 713 1233 m cl s 716 1233 m cl s 720 1233 m cl s 724 1233 m cl s 728 1233 m cl s 732 1233 m cl s 735 1233 m cl s 739 1233 m -4 Y s 743 1229 m cl s 747 1229 m cl s 751 1229 m cl s 755 1229 m cl s 758 1229 m cl s 762 1229 m cl s 766
 1229 m cl s 770 1229 m cl s 774 1229 m cl s 777 1229 m -4 Y s 781 1225 m cl s 785 1225 m cl s 789 1225 m cl s 793 1225 m cl s 796 1225 m cl s 800 1225 m cl s 804 1225 m -4 Y s 808 1221 m cl s 812 1221 m cl s 815 1221 m cl s 819 1221 m -3 Y s 823
 1218 m cl s 827 1218 m cl s 831 1218 m cl s 834 1218 m cl s 838 1218 m -4 Y s 842 1214 m cl s 846 1214 m cl s 850 1214 m -4 Y s 853 1210 m -4 Y s 857 1206 m cl s 861 1206 m cl s 865 1206 m -4 Y s 869 1202 m -3 Y s 872 1199 m cl s 876 1199 m cl s 880
 1199 m -4 Y s 884 1195 m -4 Y s 888 1191 m cl s 891 1191 m -4 Y s 895 1187 m cl s 899 1187 m -4 Y s 903 1183 m cl s 907 1183 m -3 Y s 911 1180 m -4 Y s 914 1176 m cl s 918 1176 m cl s 922 1176 m -4 Y s 926 1172 m -4 Y s 930 1168 m -4 Y s 933 1164 m
 cl s 937 1164 m cl s 941 1164 m -4 Y s 945 1160 m cl s 949 1160 m -3 Y s 952 1157 m cl s 956 1157 m cl s 960 1157 m cl s 964 1157 m -4 Y s 968 1153 m -4 Y s 971 1149 m cl s 975 1149 m cl s 979 1149 m -4 Y s 983 1145 m cl s 987 1145 m -4 Y s 990 1141
 m cl s 994 1141 m -3 Y s 998 1138 m cl s 1002 1138 m cl s 1006 1138 m -4 Y s 1009 1134 m -4 Y s 1013 1130 m -4 Y s 1017 1126 m cl s 1021 1126 m cl s 1025 1126 m cl s 1028 1126 m -4 Y s 1032 1122 m cl s 1036 1122 m -3 Y s 1040 1119 m -4 Y s 1044 1115
 m cl s 1047 1115 m -4 Y s 1051 1111 m -4 Y s 1055 1107 m cl s 1059 1107 m -4 Y s 1063 1103 m -3 Y s 1067 1100 m cl s 1070 1100 m -4 Y s 1074 1096 m -4 Y s 1078 1092 m -4 Y s 1082 1088 m -4 Y s 1086 1084 m cl s 1089 1084 m -3 Y s 1093 1081 m cl s
 1097 1081 m -4 Y s 1101 1077 m -4 Y s 1105 1073 m cl s 1108 1069 m cl s 1112 1069 m -4 Y s 1116 1065 m -7 Y s 1120 1058 m -4 Y s 1124 1054 m -4 Y s 1127 1050 m -4 Y s 1131 1046 m -3 Y s 1135 1043 m -8 Y s 1139 1035 m -4 Y s 1143 1031 m -4 Y s 1146
 1027 m -7 Y s 1150 1020 m cl s 1154 1020 m -8 Y s 1158 1012 m cl s 1162 1012 m -4 Y s 1165 1008 m -7 Y s 1169 1001 m cl s 1173 1001 m -8 Y s 1177 993 m -8 Y s 1181 985 m -3 Y s 1184 982 m -4 Y s 1188 978 m -4 Y s 1192 974 m -4 Y s 1196 970 m -4 Y s
 1200 966 m -3 Y s 1203 959 m -4 Y s 1207 955 m -8 Y s 1211 947 m cl s 1215 947 m -7 Y s 1219 940 m -4 Y s 1223 936 m -4 Y s 1226 932 m -4 Y s 1230 928 m -7 Y s 1234 921 m -4 Y s 1238 917 m -4 Y s 1242 913 m cl s 1245 913 m -4 Y s 1249 909 m -3 Y s
 1253 906 m -4 Y s 1257 898 m -4 Y s 1261 894 m -4 Y s 1264 890 m cl s 1268 890 m -7 Y s 1272 883 m -8 Y s 1276 875 m -7 Y s 1280 868 m -4 Y s 1283 864 m -4 Y s 1287 860 m -8 Y s 1291 852 m -4 Y s 1295 848 m -3 Y s 1299 845 m -4 Y s 1302 841 m -4 Y s
 1306 837 m -4 Y s 1310 833 m -4 Y s 1314 829 m -3 Y s 1318 826 m -4 Y s 1321 822 m -4 Y s 1325 818 m -8 Y s 1329 810 m -3 Y s 1333 807 m -4 Y s 1337 803 m -4 Y s 1340 799 m cl s 1344 799 m -4 Y s 1348 795 m -4 Y s 1352 791 m -7 Y s 1356 784 m -4 Y s
 1359 780 m -8 Y s 1363 772 m -7 Y s 1367 765 m -4 Y s 1371 761 m -4 Y s 1375 757 m -4 Y s 1379 753 m -3 Y s 1382 750 m -4 Y s 1386 746 m -8 Y s 1390 738 m -4 Y s 1394 734 m -3 Y s 1398 731 m -4 Y s 1401 727 m -4 Y s 1405 723 m -4 Y s 1409 719 m -4 Y
 s 1413 715 m -3 Y s 1417 712 m -8 Y s 1420 704 m -4 Y s 1424 700 m -4 Y s 1428 696 m -4 Y s 1432 692 m -7 Y s 1436 685 m -4 Y s 1439 681 m -4 Y s 1443 677 m -4 Y s 1447 673 m -3 Y s 1451 670 m -4 Y s 1455 666 m -4 Y s 1458 662 m -8 Y s 1462 654 m -3
 Y s 1466 651 m -8 Y s 1470 643 m -4 Y s 1474 639 m -4 Y s 1477 635 m -3 Y s 1481 632 m -8 Y s 1485 624 m -4 Y s 1489 620 m -4 Y s 1493 616 m -3 Y s 1496 613 m -4 Y s 1500 609 m cl s 1504 609 m -8 Y s 1508 601 m -4 Y s 1512 597 m -7 Y s 1515 590 m -4
 Y s 1519 586 m -4 Y s 1523 582 m -4 Y s 1527 578 m -3 Y s 1531 575 m -4 Y s 1535 571 m cl s 1538 571 m -8 Y s 1542 563 m -4 Y s 1546 559 m -3 Y s 1550 556 m -4 Y s 1554 552 m -4 Y s 1557 548 m -4 Y s 1561 544 m cl s 1565 544 m -8 Y s 1569 536 m -3 Y
 s 1573 533 m -4 Y s 1576 529 m -4 Y s 1580 525 m -4 Y s 1584 521 m -7 Y s 1588 514 m -4 Y s 1592 510 m -8 Y s 1595 502 m -4 Y s 1599 498 m -7 Y s 1603 491 m -4 Y s 1607 487 m -8 Y s 1611 479 m -3 Y s 1614 476 m -8 Y s 1618 468 m -11 Y s 1622 457 m
 -8 Y s 1626 449 m -8 Y s 1630 441 m -3 Y s 1633 438 m -12 Y s 1637 426 m -7 Y s 1641 419 m -12 Y s 1645 407 m -7 Y s 1649 400 m -8 Y s 1652 392 m -8 Y s 1656 384 m -4 Y s 1660 380 m -3 Y s 1664 377 m -8 Y s 1668 369 m -4 Y s 1671 365 m -4 Y s 1675
 361 m -7 Y s 1679 354 m -4 Y s 1683 350 m -4 Y s 1687 346 m -4 Y s 1691 342 m cl s 1694 342 m -7 Y s 1698 335 m -4 Y s 1702 331 m -4 Y s 1706 327 m -4 Y s 1710 323 m -3 Y s 1713 320 m -4 Y s 1717 316 m -4 Y s 1721 312 m -4 Y s 1725 308 m cl s 1729
 308 m -4 Y s 1732 304 m -3 Y s 1736 301 m -4 Y s 1740 297 m -4 Y s 1744 293 m -4 Y s 1748 289 m cl s 1751 289 m -4 Y s 1755 285 m -3 Y s 1759 282 m cl s 1763 282 m cl s 1767 278 m cl s 1770 278 m cl s 1774 278 m -4 Y s 1778 274 m cl s 1782 274 m cl
 s 1786 274 m -4 Y s 1789 270 m cl s 1793 270 m -4 Y s 1797 266 m cl s 1801 266 m -3 Y s 1805 263 m -4 Y s 1808 259 m -4 Y s 1812 255 m cl s 1816 255 m -4 Y s 1820 251 m -4 Y s 1824 247 m cl s 1827 247 m cl s 1831 247 m cl s 1835 247 m -3 Y s 1839
 244 m -4 Y s 1843 240 m cl s 1847 240 m cl s 1850 240 m -4 Y s 1854 236 m cl s 1858 236 m cl s 1862 236 m -4 Y s 1866 232 m -4 Y s 1869 228 m cl s 1873 228 m cl s 1877 228 m -4 Y s 1881 224 m cl s 1885 224 m -3 Y s 1888 221 m cl s 1892 221 m cl s
 1896 221 m cl s 1900 221 m cl s 1904 217 m cl s 1907 217 m cl s 1911 217 m cl s 1915 217 m cl s 1919 217 m cl s 1923 217 m -4 Y s 1926 213 m cl s 1930 213 m cl s 1934 213 m cl s 1938 213 m cl s 1942 213 m cl s 1945 213 m cl s 1949 209 m cl s 1953
 209 m cl s 1957 209 m cl s 1961 209 m cl s 1964 209 m cl s 1968 209 m cl s 1972 209 m cl s 1976 209 m cl s 245 1244 m 3 X s 248 1244 m 248 X 4 -4 d 102 X 4 -3 d 76 X 4 -4 d 53 X 4 -4 d 34 X 4 -4 d 23 X 4 -4 d 11 X 4 -3 d 15 X 4 -4 d 8 X 3 -4 d 4 -4
 d 8 X 4 -4 d 3 -3 d 8 X 4 -4 d 4 -4 d 3 X 4 -4 d 4 X 4 -4 d 4 X 4 -3 d 3 -4 d 8 X 4 -4 d 4 -4 d 3 -4 d 8 X 4 -4 d 4 X 3 -3 d 12 X 4 -4 d 3 -4 d 8 X 4 -4 d 4 X 3 -4 d 4 X 4 -3 d 8 X 3 -4 d 4 -4 d 4 -4 d 11 X 4 -4 d 4 X 4 -3 d 4 -4 d 3 X 4 -4 d 4 -4 d
 4 X 4 -4 d 4 -3 d 3 X 4 -4 d 4 -4 d 4 -4 d 4 -4 d 3 X 4 -3 d 4 X 4 -4 d 4 -4 d 3 -4 d 4 X 4 -7 d 4 -4 d 4 -4 d 3 -4 d 4 -4 d 4 -7 d 4 -4 d 4 -4 d 3 -7 d 4 -4 d 4 -4 d 4 -4 d 4 X 3 -8 d 4 -3 d 4 -4 d 4 -8 d 4 -4 d 3 -3 d 4 -4 d 4 -4 d 4 -4 d 4 -4 d 3
 -7 d 4 -8 d 4 -4 d 4 -3 d 4 -4 d 4 -4 d 3 -4 d 4 -7 d 4 -4 d 4 -4 d 4 -4 d 3 X 4 -4 d 4 -3 d 4 -8 d 4 -4 d 3 -4 d 4 -3 d 4 -8 d 4 -8 d 4 -3 d 3 -4 d 4 -8 d 4 -4 d 4 -4 d 4 -3 d 3 -4 d 4 -4 d 4 -4 d 4 -4 d 4 -3 d 3 -4 d 4 -8 d 4 -4 d 4 -3 d 4 -4 d 3
 -4 d 4 X 4 -4 d 4 -7 d 4 -4 d 3 -8 d 4 -7 d 4 -4 d 4 -4 d 4 -4 d 4 -4 d 3 -3 d 4 -8 d 4 -4 d 4 -4 d 4 -3 d 3 -4 d 4 -4 d 4 -4 d 4 -4 d 4 -7 d 3 -4 d 4 -4 d 4 -4 d 4 -7 d 4 -4 d 3 -4 d 4 -4 d 4 -4 d 4 -3 d 4 -4 d 3 -8 d 4 -4 d 4 -7 d 4 -4 d 4 -4 d 3
 -4 d 4 -7 d 4 -4 d 4 -4 d 4 -4 d 3 -3 d 4 -4 d 4 -4 d 4 -4 d 4 -7 d 3 -4 d 4 -4 d 4 -4 d 4 -4 d 4 -3 d 4 -4 d 3 -4 d 4 -4 d 4 -4 d 4 -3 d 4 -4 d 3 -4 d 4 -4 d 4 -4 d 4 -4 d 4 -3 d 3 -4 d 4 -4 d 4 -8 d 4 -3 d 4 -8 d 3 -4 d 4 -7 d 4 -4 d 4 -8 d 4 -4 d
 3 -7 d 4 -8 d 4 -11 d 4 -8 d 4 -4 d 3 -7 d 4 -12 d 4 -7 d 4 -12 d 4 -7 d 3 -8 d 4 -4 d 4 -4 d 4 -7 d 4 -4 d 3 -4 d 4 -7 d 4 -4 d 4 -4 d 4 -4 d 4 -4 d 3 -3 d 4 -4 d 4 -4 d 4 -4 d 4 -4 d 3 -3 d 4 -4 d 4 -4 d 4 -4 d 4 X 3 -4 d 4 -3 d 4 -4 d 4 -4 d 4 -4
 d 3 X 4 -4 d 4 -3 d 4 X 4 -4 d 7 X 4 -4 d 8 X 3 -4 d 4 X 4 -4 d 4 X 4 -3 d 3 -4 d 4 -4 d 4 X 4 -4 d 4 -4 d 11 X 4 -3 d 4 -4 d 7 X 4 -4 d 8 X 4 -4 d 3 -4 d 8 X 4 -4 d 4 X 3 -3 d 12 X 4 -4 d 19 X 3 -4 d 19 X 4 -4 d 27 X s 1 0 0 c black 1 0 0 c 248
 1244 m cl s 252 1244 m cl s 256 1244 m cl s 260 1244 m cl s 264 1244 m cl s 267 1244 m cl s 271 1244 m cl s 275 1244 m cl s 279 1244 m cl s 283 1244 m cl s 287 1244 m cl s 290 1244 m -4 Y s 294 1240 m cl s 298 1240 m cl s 302 1240 m cl s 306 1240 m
 cl s 309 1240 m cl s 313 1240 m cl s 317 1240 m cl s 321 1240 m cl s 325 1240 m cl s 328 1240 m cl s 332 1240 m cl s 336 1240 m cl s 340 1240 m cl s 344 1240 m cl s 347 1240 m cl s 351 1240 m cl s 355 1240 m cl s 359 1240 m cl s 363 1240 m cl s 366
 1240 m cl s 370 1240 m cl s 374 1240 m cl s 378 1240 m cl s 382 1240 m cl s 385 1240 m cl s 389 1240 m cl s 393 1240 m cl s 397 1240 m cl s 401 1240 m cl s 404 1237 m cl s 408 1237 m cl s 412 1237 m cl s 416 1237 m cl s 420 1237 m cl s 423 1237 m cl
 s 427 1237 m cl s 431 1237 m cl s 435 1237 m cl s 439 1237 m -4 Y s 443 1233 m cl s 446 1233 m cl s 450 1233 m cl s 454 1233 m cl s 458 1233 m cl s 462 1233 m -4 Y s 465 1229 m cl s 469 1229 m cl s 473 1229 m cl s 477 1229 m cl s 481 1229 m -4 Y s
 484 1225 m cl s 488 1225 m cl s 492 1225 m cl s 496 1225 m cl s 500 1225 m cl s 503 1225 m cl s 507 1225 m -4 Y s 511 1221 m cl s 515 1221 m cl s 519 1221 m cl s 522 1221 m cl s 526 1221 m cl s 530 1221 m cl s 534 1221 m cl s 538 1221 m cl s 541
 1221 m -3 Y s 545 1218 m -4 Y s 549 1214 m cl s 553 1214 m -4 Y s 557 1210 m -4 Y s 560 1206 m cl s 564 1206 m cl s 568 1206 m cl s 572 1206 m -4 Y s 576 1202 m cl s 579 1202 m cl s 583 1202 m cl s 587 1202 m cl s 591 1202 m cl s 595 1202 m cl s 599
 1202 m -3 Y s 602 1199 m cl s 606 1199 m cl s 610 1199 m -4 Y s 614 1195 m cl s 618 1195 m cl s 621 1195 m cl s 625 1195 m -4 Y s 629 1191 m cl s 633 1191 m cl s 637 1191 m cl s 640 1191 m cl s 644 1191 m cl s 648 1191 m cl s 652 1191 m -4 Y s 656
 1187 m cl s 659 1187 m cl s 663 1187 m cl s 667 1187 m cl s 671 1187 m cl s 675 1187 m -4 Y s 678 1183 m cl s 682 1183 m cl s 686 1183 m -3 Y s 690 1180 m cl s 694 1180 m cl s 697 1180 m -4 Y s 701 1176 m -4 Y s 705 1172 m cl s 709 1172 m -4 Y s 713
 1168 m -4 Y s 716 1164 m -4 Y s 720 1160 m -3 Y s 724 1157 m cl s 728 1157 m -4 Y s 732 1153 m -4 Y s 735 1149 m cl s 739 1149 m -4 Y s 743 1145 m cl s 747 1145 m -4 Y s 751 1141 m cl s 755 1141 m -7 Y s 758 1134 m -4 Y s 762 1130 m -4 Y s 766 1126
 m -4 Y s 770 1122 m -3 Y s 774 1115 m cl s 777 1115 m -8 Y s 781 1107 m -4 Y s 785 1103 m -3 Y s 789 1100 m -4 Y s 793 1096 m -4 Y s 796 1092 m -4 Y s 800 1088 m -7 Y s 804 1081 m -8 Y s 808 1073 m -4 Y s 812 1069 m -4 Y s 815 1065 m -7 Y s 819 1058
 m -4 Y s 823 1054 m -4 Y s 827 1050 m -4 Y s 831 1046 m -3 Y s 834 1043 m -4 Y s 838 1039 m -4 Y s 842 1035 m -8 Y s 846 1027 m cl s 850 1024 m cl s 853 1024 m -4 Y s 857 1020 m cl s 861 1016 m cl s 865 1016 m -4 Y s 869 1008 m -4 Y s 872 1004 m -11
 Y s 876 993 m -8 Y s 880 985 m -3 Y s 884 982 m -4 Y s 888 978 m -4 Y s 891 974 m -8 Y s 895 966 m -7 Y s 899 959 m -4 Y s 903 955 m -8 Y s 907 947 m -11 Y s 911 936 m -8 Y s 914 928 m -11 Y s 918 917 m -8 Y s 922 909 m -7 Y s 926 898 m -4 Y s 930
 894 m -7 Y s 933 887 m -4 Y s 937 883 m -4 Y s 941 875 m -4 Y s 945 871 m -7 Y s 949 864 m -8 Y s 952 856 m -8 Y s 956 848 m -3 Y s 960 845 m -4 Y s 964 841 m -4 Y s 968 837 m -8 Y s 971 829 m -3 Y s 975 826 m -8 Y s 979 818 m -8 Y s 983 810 m -3 Y
 s 987 807 m -8 Y s 990 799 m -4 Y s 994 795 m -7 Y s 998 788 m -8 Y s 1002 780 m -8 Y s 1006 772 m -3 Y s 1009 769 m -4 Y s 1013 765 m -8 Y s 1017 757 m cl s 1021 757 m -4 Y s 1025 753 m -3 Y s 1028 746 m -8 Y s 1032 738 m -7 Y s 1036 731 m -4 Y s
 1040 727 m -8 Y s 1044 719 m -7 Y s 1047 712 m -8 Y s 1051 704 m -4 Y s 1055 700 m -4 Y s 1059 696 m -4 Y s 1063 689 m -4 Y s 1067 685 m -8 Y s 1070 677 m -4 Y s 1074 673 m -7 Y s 1078 666 m -4 Y s 1082 662 m -4 Y s 1086 658 m -4 Y s 1089 654 m -3 Y
 s 1093 651 m -8 Y s 1097 643 m -4 Y s 1101 639 m -4 Y s 1105 635 m -3 Y s 1108 632 m -8 Y s 1112 624 m cl s 1116 624 m -8 Y s 1120 616 m -3 Y s 1124 613 m -4 Y s 1127 609 m -8 Y s 1131 601 m -4 Y s 1135 597 m -3 Y s 1139 594 m -8 Y s 1143 586 m -8 Y
 s 1146 578 m -3 Y s 1150 575 m -4 Y s 1154 571 m -4 Y s 1158 567 m -4 Y s 1162 563 m -7 Y s 1165 556 m cl s 1169 556 m -4 Y s 1173 548 m cl s 1177 548 m -4 Y s 1181 544 m -4 Y s 1184 540 m -4 Y s 1188 536 m -3 Y s 1192 533 m -4 Y s 1196 529 m cl s
 1200 529 m -4 Y s 1203 525 m -4 Y s 1207 521 m -4 Y s 1211 517 m -3 Y s 1215 514 m -4 Y s 1219 510 m cl s 1223 510 m cl s 1226 510 m -8 Y s 1230 502 m -4 Y s 1234 498 m -3 Y s 1238 495 m -4 Y s 1242 491 m -4 Y s 1245 487 m -4 Y s 1249 483 m -4 Y s
 1253 479 m -3 Y s 1257 476 m -4 Y s 1261 472 m -4 Y s 1264 464 m -4 Y s 1268 460 m -3 Y s 1272 457 m cl s 1276 457 m -4 Y s 1280 453 m -4 Y s 1283 449 m -4 Y s 1287 445 m -4 Y s 1291 441 m -3 Y s 1295 438 m -4 Y s 1299 434 m -4 Y s 1302 430 m cl s
 1306 430 m -8 Y s 1310 422 m cl s 1314 422 m -3 Y s 1318 419 m -4 Y s 1321 415 m -4 Y s 1325 411 m cl s 1329 411 m -8 Y s 1333 403 m cl s 1337 403 m -3 Y s 1340 400 m -4 Y s 1344 396 m cl s 1348 396 m -4 Y s 1352 392 m cl s 1356 392 m cl s 1359 392
 m -4 Y s 1363 388 m -4 Y s 1367 384 m cl s 1371 384 m -4 Y s 1375 380 m cl s 1379 380 m -3 Y s 1382 377 m cl s 1386 377 m -4 Y s 1390 369 m -4 Y s 1394 365 m cl s 1398 365 m -4 Y s 1401 361 m -3 Y s 1405 358 m -4 Y s 1409 354 m -4 Y s 1413 350 m cl
 s 1417 350 m -4 Y s 1420 346 m -4 Y s 1424 342 m cl s 1428 339 m cl s 1432 335 m cl s 1436 335 m cl s 1439 331 m cl s 1443 331 m -4 Y s 1447 327 m -4 Y s 1451 323 m cl s 1455 323 m -3 Y s 1458 320 m cl s 1462 320 m cl s 1466 320 m -4 Y s 1470 316 m
 cl s 1474 316 m -4 Y s 1477 312 m -4 Y s 1481 308 m cl s 1485 308 m cl s 1489 308 m -4 Y s 1493 304 m -3 Y s 1496 301 m cl s 1500 301 m -4 Y s 1504 297 m -4 Y s 1508 293 m cl s 1512 293 m -4 Y s 1515 289 m cl s 1519 289 m cl s 1523 289 m -4 Y s 1527
 285 m cl s 1531 285 m cl s 1535 285 m -3 Y s 1538 282 m cl s 1542 282 m -4 Y s 1546 278 m cl s 1550 278 m -4 Y s 1554 274 m cl s 1557 274 m -8 Y s 1561 266 m cl s 1565 266 m cl s 1569 266 m -3 Y s 1573 263 m cl s 1576 263 m cl s 1580 263 m -4 Y s
 1584 259 m cl s 1588 259 m -4 Y s 1592 255 m cl s 1595 255 m -4 Y s 1599 251 m cl s 1603 251 m cl s 1607 251 m cl s 1611 251 m -4 Y s 1614 247 m cl s 1618 247 m cl s 1622 244 m cl s 1626 244 m cl s 1630 244 m -4 Y s 1633 240 m -4 Y s 1637 236 m cl s
 1641 236 m -4 Y s 1645 232 m cl s 1649 232 m cl s 1652 232 m cl s 1656 232 m cl s 1660 232 m -4 Y s 1664 228 m cl s 1668 228 m cl s 1671 228 m cl s 1675 228 m cl s 1679 228 m -4 Y s 1683 224 m cl s 1687 224 m cl s 1691 224 m cl s 1694 224 m cl s
 1698 224 m cl s 1702 224 m cl s 1706 224 m cl s 1710 224 m cl s 1713 224 m cl s 1717 224 m -3 Y s 1721 221 m cl s 1725 221 m cl s 1729 221 m -4 Y s 1732 217 m cl s 1736 217 m cl s 1740 217 m cl s 1744 217 m -4 Y s 1748 213 m cl s 1751 213 m cl s
 1755 213 m cl s 1759 213 m cl s 1763 213 m -4 Y s 1767 209 m cl s 1770 209 m cl s 1774 209 m cl s 1778 209 m cl s 1782 209 m cl s 1786 209 m cl s 1789 209 m cl s 1793 209 m cl s 1797 209 m cl s 1801 209 m cl s 1805 209 m cl s 1808 209 m cl s 1812
 209 m cl s 1816 209 m cl s 1820 209 m cl s 1824 209 m cl s 1827 209 m cl s 1831 209 m cl s 1835 209 m cl s 1839 209 m cl s 1843 209 m cl s 1847 209 m cl s 1850 209 m cl s 1854 209 m cl s 1858 209 m cl s 1862 209 m cl s 1866 209 m cl s 245 1244 m 3 X
 s 248 1244 m 42 X 4 -4 d 107 X 3 -3 d 35 X 4 -4 d 19 X 3 -4 d 16 X 3 -4 d 23 X 4 -4 d 30 X 4 -3 d 4 -4 d 4 X 4 -4 d 3 -4 d 12 X 4 -4 d 23 X 3 -3 d 8 X 4 -4 d 11 X 4 -4 d 23 X 4 -4 d 19 X 3 -4 d 8 X 4 -3 d 7 X 4 -4 d 4 -4 d 4 X 4 -4 d 3 -4 d 4 -4 d 4
 -3 d 4 X 4 -4 d 3 -4 d 4 X 4 -4 d 4 X 4 -4 d 4 -3 d 3 -4 d 4 -4 d 4 -4 d 4 -4 d 4 -7 d 3 -4 d 4 -4 d 4 -4 d 4 -3 d 4 -4 d 3 -4 d 4 -8 d 4 -7 d 4 -4 d 4 -4 d 3 -7 d 4 -4 d 4 -4 d 4 -4 d 4 -4 d 3 -3 d 4 -4 d 4 -8 d 4 -4 d 4 -3 d 3 X 4 -4 d 4 -4 d 4 X
 4 -8 d 3 -7 d 4 -12 d 4 -4 d 4 -3 d 4 -4 d 3 -8 d 4 -7 d 4 -4 d 4 -8 d 4 -7 d 4 -12 d 3 -7 d 4 -12 d 4 -7 d 4 -8 d 4 -8 d 3 -3 d 4 -4 d 4 -8 d 4 -7 d 4 -8 d 3 -8 d 4 -4 d 4 -3 d 4 -4 d 4 -8 d 3 -4 d 4 -7 d 4 -8 d 4 -4 d 4 -7 d 3 -4 d 4 -8 d 4 -7 d 4
 -8 d 4 -4 d 3 -3 d 4 -8 d 4 -4 d 4 X 4 -4 d 3 -11 d 4 -8 d 4 -3 d 4 -8 d 4 -8 d 3 -7 d 4 -4 d 4 -4 d 4 -4 d 4 -7 d 4 -8 d 3 -4 d 4 -7 d 4 -4 d 4 -4 d 4 -4 d 3 -4 d 4 -7 d 4 -4 d 4 -4 d 4 -4 d 3 -7 d 4 -4 d 4 -4 d 4 -4 d 4 -3 d 3 -8 d 4 -4 d 4 -4 d 4
 -7 d 4 -8 d 3 -4 d 4 -3 d 4 -4 d 4 -4 d 4 -8 d 3 -3 d 4 X 4 -8 d 4 X 4 -4 d 3 -4 d 4 -4 d 4 -3 d 4 -4 d 4 X 3 -4 d 4 -4 d 4 -4 d 4 -3 d 4 -4 d 4 X 3 -4 d 4 -4 d 4 -4 d 4 -3 d 4 -4 d 3 -4 d 4 -4 d 4 -4 d 4 -3 d 4 -4 d 3 -8 d 4 -4 d 4 -3 d 4 X 4 -4 d
 3 -4 d 4 -4 d 4 -4 d 4 -3 d 4 -4 d 3 -4 d 4 -4 d 4 -4 d 4 X 4 -3 d 3 -4 d 4 -4 d 4 -4 d 4 -4 d 4 X 3 -3 d 4 -4 d 4 X 4 -4 d 7 X 4 -4 d 4 -4 d 4 X 4 -4 d 4 X 3 -3 d 4 X 4 -8 d 4 -4 d 4 X 3 -4 d 4 -3 d 4 -4 d 4 -4 d 4 X 3 -4 d 4 -4 d 4 -3 d 4 -4 d 4 X
 3 -4 d 4 X 4 -4 d 4 -4 d 4 X 3 -3 d 8 X 4 -4 d 4 X 3 -4 d 4 -4 d 8 X 4 -4 d 3 -3 d 4 X 4 -4 d 4 -4 d 4 X 3 -4 d 8 X 4 -4 d 8 X 3 -3 d 4 X 4 -4 d 4 X 4 -4 d 3 -4 d 4 -4 d 8 X 4 -3 d 7 X 4 -4 d 4 X 4 -4 d 3 X 4 -4 d 12 X 3 -4 d 4 X 4 -3 d 8 X 3 -4 d 4
 -4 d 4 X 4 -4 d 15 X 4 -4 d 15 X 4 -4 d 34 X 4 -3 d 8 X 3 -4 d 12 X 4 -4 d 15 X 4 -4 d 99 X s 0 0.666667 0 c 1 1 1 c black 0 0.666667 0 c 248 1183 m cl s 252 1183 m cl s 256 1183 m cl s 260 1183 m cl s 264 1183 m cl s 267 1183 m cl s 271 1183 m cl s
 275 1183 m cl s 279 1183 m cl s 283 1183 m cl s 287 1183 m cl s 290 1183 m cl s 294 1183 m cl s 298 1183 m cl s 302 1183 m cl s 306 1183 m cl s 309 1183 m cl s 313 1183 m cl s 317 1183 m cl s 321 1183 m cl s 325 1183 m cl s 328 1183 m cl s 332 1183
 m cl s 336 1183 m cl s 340 1183 m cl s 344 1183 m cl s 347 1183 m cl s 351 1183 m cl s 355 1183 m cl s 359 1183 m cl s 363 1183 m cl s 366 1183 m cl s 370 1183 m cl s 374 1183 m cl s 378 1183 m cl s 382 1183 m cl s 385 1183 m cl s 389 1183 m cl s
 393 1183 m cl s 397 1183 m cl s 401 1183 m cl s 404 1183 m cl s 408 1183 m cl s 412 1183 m cl s 416 1183 m cl s 420 1183 m cl s 423 1183 m cl s 427 1183 m cl s 431 1183 m cl s 435 1183 m cl s 439 1183 m cl s 443 1183 m cl s 446 1183 m cl s 450 1183
 m cl s 454 1183 m cl s 458 1183 m cl s 462 1183 m cl s 465 1187 m -4 Y s 469 1187 m cl s 473 1187 m cl s 477 1187 m cl s 481 1187 m cl s 484 1187 m cl s 488 1187 m cl s 492 1187 m cl s 496 1187 m cl s 500 1187 m cl s 503 1187 m cl s 507 1187 m cl s
 511 1187 m cl s 515 1187 m cl s 519 1187 m cl s 522 1187 m cl s 526 1187 m cl s 530 1187 m cl s 534 1187 m cl s 538 1187 m cl s 541 1187 m cl s 545 1187 m cl s 549 1187 m cl s 553 1191 m -4 Y s 557 1191 m cl s 560 1191 m cl s 564 1191 m cl s 568
 1191 m cl s 572 1191 m cl s 576 1191 m cl s 579 1191 m cl s 583 1191 m cl s 587 1191 m cl s 591 1191 m cl s 595 1191 m cl s 599 1191 m cl s 602 1191 m cl s 606 1191 m cl s 610 1191 m cl s 614 1191 m cl s 618 1191 m cl s 621 1191 m cl s 625 1191 m cl
 s 629 1191 m cl s 633 1191 m cl s 637 1191 m cl s 640 1191 m cl s 644 1191 m cl s 648 1191 m cl s 652 1191 m cl s 656 1191 m cl s 659 1191 m cl s 663 1191 m cl s 667 1191 m cl s 671 1191 m cl s 675 1191 m cl s 678 1191 m cl s 682 1191 m cl s 686
 1191 m cl s 690 1191 m cl s 694 1191 m cl s 697 1191 m cl s 701 1191 m cl s 705 1191 m cl s 709 1195 m cl s 713 1195 m cl s 716 1195 m cl s 720 1195 m cl s 724 1195 m cl s 728 1199 m -4 Y s 732 1199 m -4 Y s 735 1199 m cl s 739 1199 m cl s 743 1199
 m cl s 747 1199 m cl s 751 1199 m cl s 755 1199 m cl s 758 1199 m cl s 762 1199 m cl s 766 1202 m -3 Y s 770 1202 m cl s 774 1202 m cl s 777 1206 m -4 Y s 781 1206 m cl s 785 1206 m cl s 789 1206 m cl s 793 1206 m cl s 796 1210 m -4 Y s 800 1210 m
 -4 Y s 804 1210 m cl s 808 1210 m cl s 812 1210 m cl s 815 1214 m -4 Y s 819 1214 m -4 Y s 823 1214 m cl s 827 1214 m cl s 831 1214 m cl s 834 1214 m cl s 838 1218 m -4 Y s 842 1218 m -4 Y s 846 1218 m cl s 850 1218 m cl s 853 1218 m -4 Y s 857 1214
 m cl s 861 1214 m cl s 865 1214 m cl s 869 1214 m cl s 872 1214 m cl s 876 1218 m -4 Y s 880 1218 m -4 Y s 884 1218 m -4 Y s 888 1214 m cl s 891 1214 m cl s 895 1214 m cl s 899 1214 m cl s 903 1218 m -4 Y s 907 1218 m cl s 911 1218 m cl s 914 1221 m
 -3 Y s 918 1221 m cl s 922 1221 m cl s 926 1221 m cl s 930 1221 m cl s 933 1221 m cl s 937 1225 m -4 Y s 941 1225 m -4 Y s 945 1225 m cl s 949 1225 m cl s 952 1229 m -4 Y s 956 1229 m -4 Y s 960 1229 m cl s 964 1229 m cl s 968 1229 m cl s 971 1229 m
 cl s 975 1229 m cl s 979 1233 m -4 Y s 983 1233 m cl s 987 1233 m cl s 990 1233 m cl s 994 1233 m cl s 998 1237 m -4 Y s 1002 1237 m cl s 1006 1237 m -4 Y s 1009 1237 m -4 Y s 1013 1237 m -4 Y s 1017 1237 m cl s 1021 1237 m cl s 1025 1237 m cl s
 1028 1240 m -3 Y s 1032 1240 m cl s 1036 1240 m -3 Y s 1040 1240 m -3 Y s 1044 1240 m cl s 1047 1244 m -4 Y s 1051 1240 m cl s 1055 1240 m cl s 1059 1240 m cl s 1063 1240 m cl s 1067 1244 m -4 Y s 1070 1244 m -4 Y s 1074 1244 m -4 Y s 1078 1240 m cl
 s 1082 1240 m cl s 1086 1240 m cl s 1089 1240 m cl s 1093 1240 m cl s 1097 1240 m cl s 1101 1240 m cl s 1105 1240 m cl s 1108 1240 m -3 Y s 1112 1237 m cl s 1116 1237 m -4 Y s 1120 1233 m cl s 1124 1233 m -4 Y s 1127 1233 m -4 Y s 1131 1229 m cl s
 1135 1229 m -4 Y s 1139 1225 m cl s 1143 1225 m cl s 1146 1225 m -4 Y s 1150 1221 m cl s 1154 1221 m -3 Y s 1158 1218 m cl s 1162 1218 m cl s 1165 1218 m -4 Y s 1169 1214 m cl s 1173 1214 m -4 Y s 1177 1210 m -4 Y s 1181 1206 m cl s 1184 1206 m -4 Y
 s 1188 1202 m cl s 1192 1202 m cl s 1196 1202 m -7 Y s 1200 1199 m -4 Y s 1203 1195 m -4 Y s 1207 1191 m -4 Y s 1211 1187 m cl s 1215 1187 m -4 Y s 1219 1183 m -3 Y s 1223 1180 m -4 Y s 1226 1176 m cl s 1230 1176 m -4 Y s 1234 1172 m -4 Y s 1238
 1168 m cl s 1242 1168 m cl s 1245 1168 m cl s 1249 1168 m cl s 1253 1168 m -4 Y s 1257 1164 m cl s 1261 1164 m -4 Y s 1264 1164 m -4 Y s 1268 1164 m -4 Y s 1272 1160 m -7 Y s 1276 1153 m -4 Y s 1280 1149 m -4 Y s 1283 1145 m cl s 1287 1145 m -4 Y s
 1291 1141 m -3 Y s 1295 1138 m cl s 1299 1138 m -4 Y s 1302 1134 m cl s 1306 1134 m -4 Y s 1310 1134 m -4 Y s 1314 1130 m -4 Y s 1318 1130 m -4 Y s 1321 1126 m -4 Y s 1325 1122 m -3 Y s 1329 1119 m -4 Y s 1333 1119 m -4 Y s 1337 1115 m cl s 1340
 1115 m cl s 1344 1111 m cl s 1348 1111 m -4 Y s 1352 1107 m -4 Y s 1356 1103 m -3 Y s 1359 1100 m -8 Y s 1363 1092 m -4 Y s 1367 1088 m -4 Y s 1371 1084 m -3 Y s 1375 1081 m cl s 1379 1081 m -4 Y s 1382 1077 m -4 Y s 1386 1077 m -4 Y s 1390 1073 m
 -4 Y s 1394 1069 m cl s 1398 1069 m -4 Y s 1401 1065 m cl s 1405 1065 m -3 Y s 1409 1062 m cl s 1413 1062 m -4 Y s 1417 1058 m -8 Y s 1420 1050 m cl s 1424 1050 m -4 Y s 1428 1046 m -3 Y s 1432 1043 m -4 Y s 1436 1039 m -4 Y s 1439 1035 m -4 Y s
 1443 1031 m cl s 1447 1031 m -4 Y s 1451 1027 m -3 Y s 1455 1024 m cl s 1458 1024 m -4 Y s 1462 1016 m -4 Y s 1466 1012 m -8 Y s 1470 1004 m cl s 1474 1004 m -3 Y s 1477 1001 m -4 Y s 1481 997 m -4 Y s 1485 993 m -4 Y s 1489 989 m -4 Y s 1493 985 m
 cl s 1496 985 m -3 Y s 1500 982 m cl s 1504 982 m -4 Y s 1508 978 m -4 Y s 1512 974 m -8 Y s 1515 966 m -3 Y s 1519 963 m cl s 1523 963 m -4 Y s 1527 959 m -8 Y s 1531 955 m -4 Y s 1535 951 m -4 Y s 1538 951 m -7 Y s 1542 944 m -4 Y s 1546 940 m -4
 Y s 1550 936 m -4 Y s 1554 932 m cl s 1557 932 m cl s 1561 932 m -4 Y s 1565 928 m -3 Y s 1569 925 m -4 Y s 1573 921 m -4 Y s 1576 917 m -4 Y s 1580 913 m -7 Y s 1584 906 m -4 Y s 1588 902 m -4 Y s 1592 898 m -4 Y s 1595 894 m -7 Y s 1599 887 m -8 Y
 s 1603 879 m -8 Y s 1607 871 m -7 Y s 1611 864 m -4 Y s 1614 860 m -12 Y s 1618 848 m -11 Y s 1622 837 m -8 Y s 1626 829 m -7 Y s 1630 818 m -4 Y s 1633 814 m -15 Y s 1637 799 m -8 Y s 1641 791 m -15 Y s 1645 776 m -11 Y s 1649 765 m -15 Y s 1652
 750 m -8 Y s 1656 742 m -8 Y s 1660 734 m -7 Y s 1664 727 m -8 Y s 1668 719 m -7 Y s 1671 712 m -8 Y s 1675 704 m -8 Y s 1679 696 m -7 Y s 1683 689 m -8 Y s 1687 681 m -4 Y s 1691 677 m -4 Y s 1694 673 m -11 Y s 1698 662 m -4 Y s 1702 654 m -7 Y s
 1706 647 m -8 Y s 1710 639 m -7 Y s 1713 632 m -8 Y s 1717 624 m -4 Y s 1721 620 m -7 Y s 1725 613 m -4 Y s 1729 613 m -4 Y s 1732 613 m -12 Y s 1736 601 m -7 Y s 1740 594 m -4 Y s 1744 586 m -4 Y s 1748 582 m cl s 1751 582 m -7 Y s 1755 575 m -4 Y
 s 1759 567 m -4 Y s 1763 563 m cl s 1767 559 m -3 Y s 1770 556 m -4 Y s 1774 556 m -8 Y s 1778 548 m -4 Y s 1782 544 m -4 Y s 1786 544 m -4 Y s 1789 540 m -7 Y s 1793 533 m -4 Y s 1797 529 m -4 Y s 1801 521 m -7 Y s 1805 514 m -8 Y s 1808 506 m -8 Y
 s 1812 498 m -7 Y s 1816 491 m -4 Y s 1820 487 m -8 Y s 1824 479 m -3 Y s 1827 476 m -4 Y s 1831 472 m -4 Y s 1835 468 m -15 Y s 1839 453 m -4 Y s 1843 449 m -8 Y s 1847 441 m cl s 1850 441 m -3 Y s 1854 438 m -4 Y s 1858 434 m -8 Y s 1862 426 m -11
 Y s 1866 419 m -8 Y s 1869 415 m -4 Y s 1873 411 m -8 Y s 1877 403 m -7 Y s 1881 396 m -4 Y s 1885 392 m -12 Y s 1888 380 m -3 Y s 1892 377 m -4 Y s 1896 373 m -4 Y s 1900 369 m -8 Y s 1904 358 m -4 Y s 1907 354 m -4 Y s 1911 350 m -8 Y s 1915 342 m
 cl s 1919 342 m -3 Y s 1923 339 m -4 Y s 1926 335 m -4 Y s 1930 331 m -15 Y s 1934 316 m cl s 1938 316 m -4 Y s 1942 312 m cl s 1945 312 m cl s 1949 308 m cl s 1953 308 m cl s 1957 308 m -4 Y s 1961 304 m -3 Y s 1964 301 m -8 Y s 1968 293 m cl s
 1972 293 m -8 Y s 1976 289 m -19 Y s 1980 270 m -11 Y s 1983 259 m -8 Y s 1987 251 m -7 Y s 1991 244 m cl s 1995 244 m cl s 1999 244 m cl s 2003 247 m -3 Y s 2006 244 m cl s 2010 244 m -8 Y s 2014 236 m -12 Y s 2018 224 m cl s 2022 228 m -4 Y s 2025
 228 m cl s 2029 228 m cl s 2033 232 m -8 Y s 2037 224 m cl s 2041 224 m cl s 245 1183 m 3 X s 248 1183 m 214 X 3 4 d 84 X 4 4 d 152 X 4 4 d 15 X 4 4 d 34 X 4 3 d 8 X 3 4 d 16 X 3 4 d 16 X 3 4 d 19 X 4 4 d 15 X 4 -4 d 15 X 4 4 d 8 X 4 -4 d 11 X 4 4 d
 8 X 3 3 d 19 X 4 4 d 12 X 3 4 d 23 X 4 4 d 15 X 4 4 d 27 X 3 3 d 16 X 3 4 d 4 -4 d 12 X 4 4 d 7 X 4 -4 d 30 X 4 -3 d 4 X 4 -4 d 7 X 4 -4 d 4 X 4 -4 d 7 X 4 -4 d 4 X 4 -3 d 7 X 4 -4 d 4 X 4 -4 d 4 -4 d 3 X 4 -4 d 4 X 4 -3 d 4 X 3 -4 d 4 -4 d 4 -4 d 4
 X 4 -4 d 4 -3 d 3 -4 d 4 X 4 -4 d 4 -4 d 15 X 4 -4 d 11 X 4 -7 d 4 -4 d 4 -4 d 3 -4 d 4 X 4 -4 d 4 -3 d 4 X 3 -4 d 8 X 4 -4 d 4 X 3 -4 d 4 -4 d 4 -3 d 4 X 4 -4 d 3 X 4 -4 d 4 X 4 -4 d 4 -4 d 3 -7 d 4 -4 d 4 -4 d 4 -4 d 4 -3 d 4 X 3 -4 d 4 X 4 -4 d 4
 -4 d 4 X 3 -4 d 4 X 4 -3 d 4 X 4 -8 d 3 -4 d 4 X 4 -4 d 4 -3 d 4 -4 d 3 -4 d 4 -4 d 4 X 4 -4 d 4 -3 d 3 X 4 -8 d 4 -8 d 4 -4 d 4 X 3 -3 d 4 -4 d 4 -4 d 4 -4 d 4 -4 d 3 X 4 -3 d 4 X 4 -4 d 4 -8 d 3 -4 d 4 -3 d 4 X 4 -8 d 4 X 4 -4 d 3 -4 d 4 -3 d 4 -4
 d 4 -4 d 4 -4 d 7 X 4 -4 d 4 -3 d 4 -4 d 3 -4 d 4 -8 d 4 -3 d 4 -4 d 4 -4 d 3 -8 d 4 -7 d 4 -8 d 4 -7 d 4 -4 d 3 -8 d 4 -11 d 4 -12 d 4 -7 d 4 -8 d 3 -11 d 4 -12 d 4 -11 d 4 -12 d 4 -15 d 3 -11 d 4 -8 d 4 -7 d 4 -8 d 4 -8 d 3 -7 d 4 -8 d 4 -8 d 4 -7
 d 4 -4 d 4 -4 d 3 -7 d 4 -8 d 4 -11 d 4 -8 d 4 -8 d 3 -7 d 4 -4 d 4 -8 d 4 -3 d 4 X 3 -4 d 4 -12 d 4 -3 d 4 -8 d 4 -4 d 3 -4 d 4 -3 d 4 -8 d 4 -4 d 4 -4 d 3 -3 d 4 -4 d 4 -4 d 4 -4 d 4 X 3 -8 d 4 -3 d 4 -4 d 4 -12 d 4 -7 d 3 -8 d 4 -7 d 4 -4 d 4 -8
 d 4 -4 d 3 -3 d 4 -4 d 4 -12 d 4 -7 d 4 -8 d 4 -4 d 3 X 4 -3 d 4 -8 d 4 -8 d 4 -7 d 3 X 4 -8 d 4 -7 d 4 -4 d 4 -8 d 3 -8 d 4 -3 d 4 -4 d 4 -8 d 4 -7 d 3 -4 d 4 -8 d 4 -4 d 4 X 4 -3 d 3 -4 d 4 -12 d 4 -7 d 4 X 4 -4 d 3 X 4 -4 d 8 X 4 -4 d 3 -7 d 4 -4
 d 4 -4 d 4 -7 d 4 -16 d 3 -11 d 4 -8 d 4 -3 d 8 X 4 3 d 3 -3 d 4 -4 d 4 -8 d 4 -8 d 4 4 d 11 X 4 -4 d 4 X s black 3 lw 245 202 m 1796 X s 292 242 m -40 Y s 358 222 m -20 Y s 423 222 m -20 Y s 488 222 m -20 Y s 553 242 m -40 Y s 619 222 m -20 Y s 684
 222 m -20 Y s 749 222 m -20 Y s 814 242 m -40 Y s 880 222 m -20 Y s 945 222 m -20 Y s 1010 222 m -20 Y s 1075 242 m -40 Y s 1140 222 m -20 Y s 1206 222 m -20 Y s 1271 222 m -20 Y s 1336 242 m -40 Y s 1401 222 m -20 Y s 1467 222 m -20 Y s 1532 222 m
 -20 Y s 1597 242 m -40 Y s 1662 222 m -20 Y s 1728 222 m -20 Y s 1793 222 m -20 Y s 1858 242 m -40 Y s 292 242 m -40 Y s 1858 242 m -40 Y s 1923 222 m -20 Y s 1989 222 m -20 Y s 245 202 m 1143 Y s 291 202 m -46 X s 268 254 m -23 X s 268 306 m -23 X
 s 268 358 m -23 X s 291 410 m -46 X s 268 462 m -23 X s 268 514 m -23 X s 268 566 m -23 X s 291 618 m -46 X s 268 670 m -23 X s 268 722 m -23 X s 268 774 m -23 X s 291 826 m -46 X s 268 878 m -23 X s 268 930 m -23 X s 268 982 m -23 X s 291 1034 m
 -46 X s 268 1086 m -23 X s 268 1137 m -23 X s 268 1189 m -23 X s 291 1241 m -46 X s 291 1241 m -46 X s 268 1293 m -23 X s 268 1345 m -23 X s 0.490196 0.545098 0.615686 c 0.95 0.95 0.95 c 0.490196 0.545098 0.615686 c 907 202 245 1345 bl 245 1345 m
 907 X s 1152 1345 m 202 Y s 1152 1547 m -907 X s 245 1547 m -202 Y s black
 gsave  2268 1682 0 0 C 517.039 1473.94 t 0 r /Times-Italic findfont 57.0734 sf 0 0 m (Signal efficiency) show NC gr  0 0 0.933333 c 9 lw 286 1497 m 190 X s black
 gsave  2268 1682 0 0 C 517.039 1373.03 t 0 r /Times-Italic findfont 57.0734 sf 0 0 m (Background efficiency) show NC gr  1 0 0 c 286 1396 m 190 X s 0.490196 0.545098 0.615686 c 3 lw 0.95 0.95 0.95 c 0.490196 0.545098 0.615686 c 889 202 1152 1345 bl
 1152 1345 m 889 X s 2041 1345 m 202 Y s 2041 1547 m -889 X s 1152 1547 m -202 Y s black
 gsave  2268 1682 0 0 C 1418.68 1490.76 t 0 r /Times-Italic findfont 57.0734 sf 0 0 m (Signal purity) show NC gr  0 0 0.933333 c[  52 12 ] 0 sd 6 lw 1192 1514 m 187 X s black
 gsave  2268 1682 0 0 C 1418.68 1423.49 t 0 r /Times-Italic findfont 57.0734 sf 0 0 m (Signal efficiency*purity) show NC gr  0 0 0.933333 c[  22 12 ] 0 sd 1192 1446 m 187 X s black
 gsave  2268 1682 0 0 C 1418.68 1356.22 t 0 r /Times-Italic findfont 57.0734 sf 0 0 m (S/#sqrt{S+B}) show NC gr  0 0.666667 0 c[  ] 0 sd 9 lw 1192 1379 m 187 X s black 3 lw 245 1241 m 1796 X s
 gsave  2268 1682 0 0 C 338.636 388.099 t 0 r /Helvetica-Bold findfont 53.2685 sf 0 0 m (For 1000 signal and 1000 background) show NC gr 
 gsave  2268 1682 0 0 C 1061.57 319.611 t 0 r /Helvetica-Bold findfont 53.2685 sf 0 0 m ( is) show NC gr 
 gsave  2268 1682 0 0 C 958.833 319.611 t 0 r /Helvetica-Bold findfont 53.2685 sf 0 0 m (S+B) show NC gr  6 lw 936 361 m 8 -45 d s 0 lw 944 316 m 7 61 d s 951 377 m 111 X s
 gsave  2268 1682 0 0 C 338.636 319.611 t 0 r /Helvetica-Bold findfont 53.2685 sf 0 0 m (events the maximum S/) show NC gr 
 gsave  2268 1682 0 0 C 338.636 254.928 t 0 r /Helvetica-Bold findfont 53.2685 sf 0 0 m (23.75 when cutting at  0.40) show NC gr  0.490196 0.545098 0.615686 c 3 lw 0.364706 0.419608 0.490196 c 1476 96 23 1577 bf 0.490196 0.545098 0.615686 c 23 1577 m
 1476 X s 1499 1577 m 96 Y s 1499 1673 m -1476 X s 23 1673 m -96 Y s 1 1 1 c black 1 1 1 c
 gsave  2268 1682 0 0 C 76.0979 1605.67 t 0 r /Helvetica-Bold findfont 76.0979 sf 0 0 m (Cut efficiencies and optimal cut value) show NC gr  0 0.666667 0 c 2041 202 m 1143 Y s black 0 0.666667 0 c
 gsave  2268 1682 0 0 C 2203.03 966.443 t 90 r /Helvetica-Bold findfont 64.6832 sf 0 0 m (Significance) show NC gr  1995 202 m 46 X s 2018 246 m 23 X s 2018 289 m 23 X s 2018 333 m 23 X s 2018 377 m 23 X s 1995 421 m 46 X s 2018 464 m 23 X s 2018 508
 m 23 X s 2018 552 m 23 X s 2018 596 m 23 X s 1995 640 m 46 X s 2018 683 m 23 X s 2018 727 m 23 X s 2018 771 m 23 X s 2018 815 m 23 X s 1995 858 m 46 X s 2018 902 m 23 X s 2018 946 m 23 X s 2018 990 m 23 X s 2018 1034 m 23 X s 1995 1077 m 46 X s 2018
 1121 m 23 X s 2018 1165 m 23 X s 2018 1209 m 23 X s 2018 1252 m 23 X s 1995 1296 m 46 X s 1995 1296 m 46 X s 2018 1340 m 23 X s black 0 0.666667 0 c
 gsave  2268 1682 0 0 C 2050.84 178.83 t 0 r /Helvetica-Bold findfont 64.6832 sf 0 0 m (0) show NC gr  black 0 0.666667 0 c
 gsave  2268 1682 0 0 C 2050.84 395.709 t 0 r /Helvetica-Bold findfont 64.6832 sf 0 0 m (5) show NC gr  black 0 0.666667 0 c
 gsave  2268 1682 0 0 C 2050.84 616.393 t 0 r /Helvetica-Bold findfont 64.6832 sf 0 0 m (10) show NC gr  black 0 0.666667 0 c
 gsave  2268 1682 0 0 C 2050.84 833.272 t 0 r /Helvetica-Bold findfont 64.6832 sf 0 0 m (15) show NC gr  black 0 0.666667 0 c
 gsave  2268 1682 0 0 C 2050.84 1053.96 t 0 r /Helvetica-Bold findfont 64.6832 sf 0 0 m (20) show NC gr  black 0 0.666667 0 c
 gsave  2268 1682 0 0 C 2050.84 1270.83 t 0 r /Helvetica-Bold findfont 64.6832 sf 0 0 m (25) show NC gr 
 gr  gr showpage
end
%%EOF
