%!PS-Adobe-2.0 EPSF-2.0
%%BoundingBox:  0 0 567 420
%%Title: plots/mvaeffs_MLPBFGS.eps: Cut efficiencies for MLPBFGS classifier
%%Creator: ROOT Version 5.34/09
%%CreationDate: Thu Jan  2 18:35:58 2014
%%EndComments
%%BeginProlog
80 dict begin
/s {stroke} def /l {lineto} def /m {moveto} def /t {translate} def
/r {rotate} def /rl {roll}  def /R {repeat} def
/d {rlineto} def /rm {rmoveto} def /gr {grestore} def /f {eofill} def
/c {setrgbcolor} def /black {0 setgray} def /sd {setdash} def
/cl {closepath} def /sf {scalefont setfont} def /lw {setlinewidth} def
/box {m dup 0 exch d exch 0 d 0 exch neg d cl} def
/NC{systemdict begin initclip end}def/C{NC box clip newpath}def
/bl {box s} def /bf {box f} def /Y { 0 exch d} def /X { 0 d} def 
/K {{pop pop 0 moveto} exch kshow} bind def
/ita {/ang 15 def gsave [1 0 ang dup sin exch cos div 1 0 0] concat} def 
/mp {newpath /y exch def /x exch def} def
/side {[w .77 mul w .23 mul] .385 w mul sd w 0 l currentpoint t -144 r} def
/mr {mp x y w2 0 360 arc} def /m24 {mr s} def /m20 {mr f} def
/mb {mp x y w2 add m w2 neg 0 d 0 w neg d w 0 d 0 w d cl} def
/mt {mp x y w2 add m w2 neg w neg d w 0 d cl} def
/m21 {mb f} def /m25 {mb s} def /m22 {mt f} def /m26{mt s} def
/m23 {mp x y w2 sub m w2 w d w neg 0 d cl f} def
/m27 {mp x y w2 add m w3 neg w2 neg d w3 w2 neg d w3 w2 d cl s} def
/m28 {mp x w2 sub y w2 sub w3 add m w3 0 d  0 w3 neg d w3 0 d 0 w3 d w3 0 d  0 w3 d w3 neg 0 d 0 w3 d w3 neg 0 d 0 w3 neg d w3 neg 0 d cl s } def
/m29 {mp gsave x w2 sub y w2 add w3 sub m currentpoint t 4 {side} repeat cl fill gr} def
/m30 {mp gsave x w2 sub y w2 add w3 sub m currentpoint t 4 {side} repeat cl s gr} def
/m31 {mp x y w2 sub m 0 w d x w2 sub y m w 0 d x w2 sub y w2 add m w w neg d x w2 sub y w2 sub m w w d s} def
/m32 {mp x y w2 sub m w2 w d w neg 0 d cl s} def
/m33 {mp x y w2 add m w3 neg w2 neg d w3 w2 neg d w3 w2 d cl f} def
/m34 {mp x w2 sub y w2 sub w3 add m w3 0 d  0 w3 neg d w3 0 d 0 w3 d w3 0 d  0 w3 d w3 neg 0 d 0 w3 d w3 neg 0 d 0 w3 neg d w3 neg 0 d cl f } def
/m2 {mp x y w2 sub m 0 w d x w2 sub y m w 0 d s} def
/m5 {mp x w2 sub y w2 sub m w w d x w2 sub y w2 add m w w neg d s} def
/reEncode {exch findfont dup length dict begin {1 index /FID eq  {pop pop} {def} ifelse } forall /Encoding exch def currentdict end dup /FontName get exch definefont pop } def [/Times-Bold /Times-Italic /Times-BoldItalic /Helvetica /Helvetica-Oblique
 /Helvetica-Bold /Helvetica-BoldOblique /Courier /Courier-Oblique /Courier-Bold /Courier-BoldOblique /Times-Roman /AvantGarde-Book /AvantGarde-BookOblique /AvantGarde-Demi /AvantGarde-DemiOblique /Bookman-Demi /Bookman-DemiItalic /Bookman-Light
 /Bookman-LightItalic /Helvetica-Narrow /Helvetica-Narrow-Bold /Helvetica-Narrow-BoldOblique /Helvetica-Narrow-Oblique /NewCenturySchlbk-Roman /NewCenturySchlbk-Bold /NewCenturySchlbk-BoldItalic /NewCenturySchlbk-Italic /Palatino-Bold
 /Palatino-BoldItalic /Palatino-Italic /Palatino-Roman ] {ISOLatin1Encoding reEncode } forall
%%EndProlog
%%BeginSetup
%%EndSetup
newpath  gsave  .25 .25 scale  gsave  0 0 t 0.490196 0.545098 0.615686 c[  ] 0 sd 3 lw 0.941176 0.941176 0.941176 c 2268 1682 0 0 bf black 1 1 0.992157 c 1796 1143 245 202 bf black 1796 1143 245 202 bl 1 1 0.992157 c 1796 1143 245 202 bf black 1796
 1143 245 202 bl 245 202 m 1796 X s[ 4 8] 0 sd 304 1345 m -1143 Y s 528 1345 m -1143 Y s 753 1345 m -1143 Y s 977 1345 m -1143 Y s 1202 1345 m -1143 Y s 1427 1345 m -1143 Y s 1651 1345 m -1143 Y s 1876 1345 m -1143 Y s 304 1345 m -1143 Y s 1876 1345
 m -1143 Y s[  ] 0 sd 245 202 m 1143 Y s[ 4 8] 0 sd 2041 202 m -1796 X s 2041 410 m -1796 X s 2041 618 m -1796 X s 2041 826 m -1796 X s 2041 1034 m -1796 X s 2041 1241 m -1796 X s 2041 1241 m -1796 X s 0 0 0.933333 c[  22 12 ] 0 sd 6 lw 0.49 0.6 0.82
 c black 0 0 0.933333 c 245 723 m cl s 248 723 m cl s 252 723 m cl s 256 723 m cl s 260 723 m cl s 264 723 m cl s 267 723 m cl s 271 723 m cl s 275 723 m cl s 279 723 m cl s 283 723 m cl s 287 723 m cl s 290 723 m cl s 294 723 m cl s 298 723 m cl s
 302 723 m cl s 306 723 m cl s 309 723 m cl s 313 723 m cl s 317 723 m cl s 321 723 m cl s 325 723 m cl s 328 723 m cl s 332 723 m cl s 336 723 m cl s 340 723 m cl s 344 723 m cl s 347 723 m cl s 351 723 m cl s 355 723 m cl s 359 723 m cl s 363 723 m
 cl s 366 723 m cl s 370 723 m cl s 374 727 m -4 Y s 378 727 m cl s 382 727 m cl s 385 727 m cl s 389 727 m cl s 393 727 m cl s 397 727 m cl s 401 727 m cl s 404 727 m cl s 408 727 m cl s 412 727 m cl s 416 727 m cl s 420 727 m cl s 423 727 m cl s
 427 731 m -4 Y s 431 731 m cl s 435 731 m cl s 439 731 m cl s 443 731 m cl s 446 731 m cl s 450 731 m cl s 454 731 m cl s 458 731 m cl s 462 731 m cl s 465 731 m cl s 469 731 m cl s 473 731 m cl s 477 731 m cl s 481 734 m -3 Y s 484 734 m cl s 488
 734 m cl s 492 734 m cl s 496 734 m cl s 500 734 m cl s 503 734 m cl s 507 734 m cl s 511 734 m cl s 515 738 m -4 Y s 519 738 m cl s 522 738 m cl s 526 738 m cl s 530 738 m cl s 534 738 m cl s 538 738 m cl s 541 738 m cl s 545 738 m cl s 549 738 m
 cl s 553 738 m cl s 557 738 m cl s 560 738 m cl s 564 738 m cl s 568 738 m cl s 572 738 m cl s 576 738 m cl s 579 738 m cl s 583 742 m -4 Y s 587 742 m cl s 591 742 m cl s 595 742 m cl s 599 742 m cl s 602 742 m cl s 606 742 m cl s 610 742 m cl s
 614 742 m cl s 618 742 m cl s 621 742 m cl s 625 742 m cl s 629 746 m -4 Y s 633 746 m -4 Y s 637 746 m -4 Y s 640 746 m -4 Y s 644 746 m -4 Y s 648 746 m cl s 652 746 m cl s 656 746 m cl s 659 746 m cl s 663 746 m cl s 667 750 m -4 Y s 671 750 m cl
 s 675 750 m cl s 678 750 m cl s 682 750 m cl s 686 753 m -3 Y s 690 753 m cl s 694 753 m cl s 697 753 m cl s 701 753 m cl s 705 753 m cl s 709 753 m cl s 713 753 m cl s 716 753 m cl s 720 757 m -4 Y s 724 757 m cl s 728 761 m -4 Y s 732 761 m cl s
 735 761 m cl s 739 761 m cl s 743 765 m -4 Y s 747 765 m -4 Y s 751 765 m -4 Y s 755 765 m cl s 758 765 m cl s 762 765 m cl s 766 769 m -4 Y s 770 769 m -4 Y s 774 769 m cl s 777 769 m cl s 781 769 m cl s 785 769 m cl s 789 769 m cl s 793 769 m cl s
 796 769 m cl s 800 769 m cl s 804 769 m cl s 808 769 m cl s 812 769 m cl s 815 769 m cl s 819 769 m cl s 823 769 m cl s 827 772 m -3 Y s 831 772 m -3 Y s 834 772 m -3 Y s 838 772 m -3 Y s 842 772 m -3 Y s 846 772 m cl s 850 772 m cl s 853 772 m cl s
 857 772 m cl s 861 772 m cl s 865 772 m cl s 869 772 m cl s 872 772 m cl s 876 772 m cl s 880 772 m cl s 884 772 m -3 Y s 888 772 m cl s 891 772 m cl s 895 772 m cl s 899 772 m cl s 903 772 m cl s 907 772 m cl s 911 772 m cl s 914 772 m cl s 918 772
 m -3 Y s 922 772 m -3 Y s 926 769 m cl s 930 769 m -4 Y s 933 769 m -4 Y s 937 765 m cl s 941 765 m cl s 945 765 m -4 Y s 949 765 m -4 Y s 952 765 m cl s 956 765 m -4 Y s 960 765 m -4 Y s 964 765 m -4 Y s 968 765 m -4 Y s 971 765 m -4 Y s 975 765 m
 cl s 979 765 m cl s 983 765 m cl s 987 769 m -4 Y s 990 761 m cl s 994 765 m -4 Y s 998 761 m -4 Y s 1002 757 m -4 Y s 1006 753 m cl s 1009 753 m -3 Y s 1013 753 m -3 Y s 1017 753 m cl s 1021 757 m -4 Y s 1025 757 m -4 Y s 1028 757 m -4 Y s 1032 753
 m -3 Y s 1036 750 m cl s 1040 750 m cl s 1044 750 m -4 Y s 1047 750 m -4 Y s 1051 746 m -4 Y s 1055 746 m cl s 1059 746 m -4 Y s 1063 742 m cl s 1067 738 m cl s 1070 738 m -4 Y s 1074 734 m -3 Y s 1078 731 m -4 Y s 1082 727 m cl s 1086 727 m -4 Y s
 1089 723 m cl s 1093 723 m -4 Y s 1097 719 m cl s 1101 719 m -4 Y s 1105 715 m cl s 1108 715 m -3 Y s 1112 715 m -3 Y s 1116 715 m -3 Y s 1120 712 m -4 Y s 1124 708 m cl s 1127 708 m -4 Y s 1131 704 m -4 Y s 1135 704 m -8 Y s 1139 696 m cl s 1143
 696 m -4 Y s 1146 692 m cl s 1150 692 m -3 Y s 1154 689 m -4 Y s 1158 685 m -8 Y s 1162 677 m -4 Y s 1165 673 m -3 Y s 1169 670 m -4 Y s 1173 666 m -4 Y s 1177 662 m -4 Y s 1181 658 m -4 Y s 1184 658 m -4 Y s 1188 654 m -7 Y s 1192 647 m -4 Y s 1196
 643 m -8 Y s 1200 639 m -7 Y s 1203 632 m -4 Y s 1207 628 m -4 Y s 1211 624 m -8 Y s 1215 616 m -3 Y s 1219 613 m -4 Y s 1223 609 m -4 Y s 1226 605 m -4 Y s 1230 601 m -4 Y s 1234 597 m -3 Y s 1238 594 m -4 Y s 1242 590 m -4 Y s 1245 586 m -4 Y s
 1249 586 m -8 Y s 1253 578 m -3 Y s 1257 575 m -8 Y s 1261 567 m cl s 1264 567 m -8 Y s 1268 559 m cl s 1272 559 m -3 Y s 1276 556 m -4 Y s 1280 552 m -4 Y s 1283 548 m -8 Y s 1287 540 m cl s 1291 540 m -7 Y s 1295 533 m -4 Y s 1299 529 m -4 Y s
 1302 529 m -4 Y s 1306 525 m cl s 1310 521 m -4 Y s 1314 517 m cl s 1318 517 m -7 Y s 1321 510 m -4 Y s 1325 506 m -4 Y s 1329 502 m cl s 1333 502 m cl s 1337 502 m cl s 1340 502 m -4 Y s 1344 502 m -7 Y s 1348 495 m -4 Y s 1352 491 m -8 Y s 1356
 483 m -4 Y s 1359 479 m -3 Y s 1363 476 m cl s 1367 476 m -4 Y s 1371 472 m -4 Y s 1375 468 m cl s 1379 468 m -8 Y s 1382 460 m -3 Y s 1386 457 m -4 Y s 1390 453 m cl s 1394 453 m -4 Y s 1398 449 m -4 Y s 1401 449 m -4 Y s 1405 445 m -4 Y s 1409 441
 m -3 Y s 1413 438 m -4 Y s 1417 434 m cl s 1420 434 m -4 Y s 1424 430 m -4 Y s 1428 426 m -4 Y s 1432 422 m cl s 1436 422 m -7 Y s 1439 415 m -4 Y s 1443 411 m -4 Y s 1447 407 m -4 Y s 1451 403 m -3 Y s 1455 400 m -4 Y s 1458 392 m -4 Y s 1462 388 m
 cl s 1466 388 m -11 Y s 1470 377 m cl s 1474 377 m -4 Y s 1477 373 m -8 Y s 1481 365 m cl s 1485 365 m -4 Y s 1489 361 m cl s 1493 361 m -3 Y s 1496 358 m cl s 1500 358 m -4 Y s 1504 358 m cl s 1508 358 m -4 Y s 1512 354 m cl s 1515 354 m -4 Y s
 1519 350 m -4 Y s 1523 346 m -4 Y s 1527 342 m cl s 1531 342 m -3 Y s 1535 339 m -4 Y s 1538 335 m cl s 1542 335 m -4 Y s 1546 331 m cl s 1550 331 m -4 Y s 1554 327 m cl s 1557 327 m -4 Y s 1561 323 m -3 Y s 1565 320 m cl s 1569 320 m -4 Y s 1573
 316 m -4 Y s 1576 312 m cl s 1580 312 m cl s 1584 312 m -4 Y s 1588 308 m -4 Y s 1592 304 m -3 Y s 1595 301 m -4 Y s 1599 297 m -4 Y s 1603 293 m cl s 1607 289 m cl s 1611 289 m cl s 1614 289 m -4 Y s 1618 285 m -3 Y s 1622 282 m cl s 1626 282 m -4
 Y s 1630 278 m cl s 1633 278 m cl s 1637 278 m cl s 1641 278 m cl s 1645 278 m -4 Y s 1649 274 m cl s 1652 274 m cl s 1656 274 m -4 Y s 1660 270 m cl s 1664 270 m -4 Y s 1668 266 m -3 Y s 1671 263 m cl s 1675 263 m cl s 1679 263 m -4 Y s 1683 259 m
 cl s 1687 259 m -4 Y s 1691 255 m -4 Y s 1694 251 m cl s 1698 251 m -4 Y s 1702 247 m cl s 1706 247 m cl s 1710 247 m -3 Y s 1713 244 m cl s 1717 244 m cl s 1721 244 m cl s 1725 244 m -4 Y s 1729 240 m cl s 1732 240 m cl s 1736 240 m cl s 1740 240 m
 cl s 1744 240 m -4 Y s 1748 236 m cl s 1751 236 m cl s 1755 236 m cl s 1759 236 m cl s 1763 236 m -4 Y s 1767 232 m cl s 1770 232 m cl s 1774 232 m cl s 1778 232 m -4 Y s 1782 228 m cl s 1786 228 m cl s 1789 228 m cl s 1793 228 m -4 Y s 1797 224 m
 cl s 1801 224 m cl s 1805 224 m cl s 1808 224 m cl s 1812 224 m cl s 1816 224 m cl s 1820 224 m -3 Y s 1824 221 m cl s 1827 221 m cl s 1831 221 m cl s 1835 221 m cl s 1839 221 m cl s 1843 221 m -4 Y s 1847 217 m cl s 1850 217 m cl s 1854 217 m cl s
 1858 217 m cl s 1862 217 m cl s 1866 217 m cl s 1869 217 m cl s 1873 217 m cl s 1877 217 m cl s 1881 217 m cl s 1885 217 m cl s 1888 217 m -4 Y s 1892 213 m cl s 1896 213 m cl s 1900 213 m cl s 1904 213 m cl s 1907 213 m cl s 1911 213 m cl s 1915
 213 m cl s 1919 213 m cl s 1923 213 m cl s 1926 213 m cl s 1930 213 m cl s 1934 213 m cl s 1938 213 m cl s 1942 213 m cl s 1945 213 m cl s 1949 213 m cl s 1953 213 m cl s 1957 213 m cl s 1961 213 m cl s 1964 213 m cl s 1968 213 m cl s 1972 213 m cl
 s 1976 213 m cl s 1980 213 m cl s 1983 213 m cl s 1987 213 m cl s 1991 213 m -4 Y s 1995 209 m cl s 1999 209 m cl s 2003 209 m cl s 245 723 m 125 X 4 4 d 49 X 4 4 d 50 X 4 3 d 30 X 4 4 d 64 X 4 4 d 42 X 4 4 d 34 X 4 4 d 15 X 4 3 d 30 X 4 4 d 4 X 4 4
 d 11 X 4 4 d 19 X 4 4 d 57 X 4 3 d 95 X 4 -3 d 7 X 4 -4 d 46 X 4 4 d 3 -8 d 4 4 d 4 -4 d 4 -4 d 4 -4 d 11 X 4 4 d 7 X 4 -4 d 4 -3 d 11 X 4 -4 d 8 X 4 -4 d 4 -4 d 3 X 4 -4 d 4 -3 d 4 -4 d 4 X 3 -4 d 4 X 4 -4 d 4 X 4 -4 d 11 X 4 -3 d 4 -4 d 3 X 4 -4 d
 4 -4 d 4 -4 d 4 X 3 -4 d 4 X 4 -3 d 4 -8 d 4 -4 d 3 -4 d 4 -3 d 4 -4 d 4 -4 d 4 -4 d 3 X 4 -7 d 4 -4 d 4 -8 d 4 -4 d 3 -3 d 4 -4 d 4 -8 d 4 -4 d 4 -3 d 4 -4 d 3 -4 d 4 -4 d 4 -4 d 4 -3 d 4 -4 d 3 -4 d 4 -4 d 4 -4 d 4 -7 d 4 -4 d 3 -4 d 4 -4 d 4 X 4
 -3 d 4 -4 d 3 -8 d 4 -4 d 4 -4 d 4 -3 d 4 -4 d 3 X 4 -4 d 4 -4 d 4 -4 d 4 -3 d 3 -4 d 4 -4 d 4 -4 d 11 X 4 -4 d 4 -3 d 4 -8 d 4 -4 d 3 -4 d 4 -3 d 4 X 4 -4 d 4 -4 d 4 -4 d 3 -4 d 4 -3 d 4 -4 d 4 X 4 -4 d 3 X 4 -4 d 4 -4 d 4 -3 d 4 -4 d 3 X 4 -4 d 4
 -4 d 4 -4 d 4 -3 d 3 -4 d 4 -4 d 4 -4 d 4 -4 d 4 -3 d 3 -8 d 4 -4 d 4 -4 d 4 -7 d 4 X 3 -8 d 4 -4 d 4 X 4 -4 d 4 X 3 -3 d 12 X 4 -4 d 3 X 4 -4 d 4 -4 d 4 -4 d 4 X 4 -3 d 3 -4 d 4 X 4 -4 d 4 X 4 -4 d 3 X 4 -4 d 4 -3 d 4 X 4 -4 d 3 -4 d 8 X 4 -4 d 4
 -4 d 3 -3 d 4 -4 d 4 -4 d 4 -4 d 7 X 4 -4 d 4 -3 d 4 X 4 -4 d 15 X 4 -4 d 7 X 4 -4 d 4 X 4 -4 d 3 -3 d 8 X 4 -4 d 4 X 4 -4 d 3 -4 d 4 X 4 -4 d 8 X 3 -3 d 12 X 4 -4 d 15 X 4 -4 d 15 X 4 -4 d 11 X 4 -4 d 11 X 4 -4 d 23 X 4 -3 d 19 X 4 -4 d 41 X 4 -4 d
 99 X 4 -4 d 8 X s black[  ] 0 sd 3 lw 245 202 m 1796 X s
 gsave  2268 1682 0 0 C 715.32 30.4391 t 0 r /Helvetica-Bold findfont 72.293 sf 0 0 m (Cut value applied on MLPBFGS output) show NC gr  304 242 m -40 Y s 360 222 m -20 Y s 416 222 m -20 Y s 472 222 m -20 Y s 528 242 m -40 Y s 584 222 m -20 Y s 641
 222 m -20 Y s 697 222 m -20 Y s 753 242 m -40 Y s 809 222 m -20 Y s 865 222 m -20 Y s 921 222 m -20 Y s 977 242 m -40 Y s 1034 222 m -20 Y s 1090 222 m -20 Y s 1146 222 m -20 Y s 1202 242 m -40 Y s 1258 222 m -20 Y s 1314 222 m -20 Y s 1371 222 m
 -20 Y s 1427 242 m -40 Y s 1483 222 m -20 Y s 1539 222 m -20 Y s 1595 222 m -20 Y s 1651 242 m -40 Y s 1707 222 m -20 Y s 1764 222 m -20 Y s 1820 222 m -20 Y s 1876 242 m -40 Y s 304 242 m -40 Y s 247 222 m -20 Y s 1876 242 m -40 Y s 1932 222 m -20
 Y s 1988 222 m -20 Y s
 gsave  2268 1682 0 0 C 243.513 129.366 t 0 r /Helvetica-Bold findfont 64.6832 sf 0 0 m (\2550.2) show NC gr 
 gsave  2268 1682 0 0 C 506.051 129.366 t 0 r /Helvetica-Bold findfont 64.6832 sf 0 0 m (0) show NC gr 
 gsave  2268 1682 0 0 C 703.905 129.366 t 0 r /Helvetica-Bold findfont 64.6832 sf 0 0 m (0.2) show NC gr 
 gsave  2268 1682 0 0 C 928.394 129.366 t 0 r /Helvetica-Bold findfont 64.6832 sf 0 0 m (0.4) show NC gr 
 gsave  2268 1682 0 0 C 1152.88 129.366 t 0 r /Helvetica-Bold findfont 64.6832 sf 0 0 m (0.6) show NC gr 
 gsave  2268 1682 0 0 C 1377.37 129.366 t 0 r /Helvetica-Bold findfont 64.6832 sf 0 0 m (0.8) show NC gr 
 gsave  2268 1682 0 0 C 1632.3 129.366 t 0 r /Helvetica-Bold findfont 64.6832 sf 0 0 m (1) show NC gr 
 gsave  2268 1682 0 0 C 1830.15 129.366 t 0 r /Helvetica-Bold findfont 64.6832 sf 0 0 m (1.2) show NC gr  245 202 m 1143 Y s
 gsave  2268 1682 0 0 C 64.6832 734.344 t 90 r /Helvetica-Bold findfont 72.293 sf 0 0 m (Efficiency \(Purity\)) show NC gr  291 202 m -46 X s 268 254 m -23 X s 268 306 m -23 X s 268 358 m -23 X s 291 410 m -46 X s 268 462 m -23 X s 268 514 m -23 X s
 268 566 m -23 X s 291 618 m -46 X s 268 670 m -23 X s 268 722 m -23 X s 268 774 m -23 X s 291 826 m -46 X s 268 878 m -23 X s 268 930 m -23 X s 268 982 m -23 X s 291 1034 m -46 X s 268 1086 m -23 X s 268 1137 m -23 X s 268 1189 m -23 X s 291 1241 m
 -46 X s 291 1241 m -46 X s 268 1293 m -23 X s 268 1345 m -23 X s
 gsave  2268 1682 0 0 C 182.635 178.83 t 0 r /Helvetica-Bold findfont 64.6832 sf 0 0 m (0) show NC gr 
 gsave  2268 1682 0 0 C 129.366 384.294 t 0 r /Helvetica-Bold findfont 64.6832 sf 0 0 m (0.2) show NC gr 
 gsave  2268 1682 0 0 C 125.561 593.563 t 0 r /Helvetica-Bold findfont 64.6832 sf 0 0 m (0.4) show NC gr 
 gsave  2268 1682 0 0 C 129.366 799.028 t 0 r /Helvetica-Bold findfont 64.6832 sf 0 0 m (0.6) show NC gr 
 gsave  2268 1682 0 0 C 125.561 1008.3 t 0 r /Helvetica-Bold findfont 64.6832 sf 0 0 m (0.8) show NC gr 
 gsave  2268 1682 0 0 C 190.245 1217.57 t 0 r /Helvetica-Bold findfont 64.6832 sf 0 0 m (1) show NC gr  0 0 0.933333 c[  52 12 ] 0 sd 6 lw 0.49 0.6 0.82 c black 0 0 0.933333 c 248 723 m cl s 252 723 m cl s 256 723 m cl s 260 723 m cl s 264 723 m cl s
 267 723 m cl s 271 723 m cl s 275 723 m cl s 279 723 m cl s 283 723 m cl s 287 723 m cl s 290 723 m cl s 294 723 m cl s 298 723 m cl s 302 723 m cl s 306 723 m cl s 309 723 m cl s 313 723 m cl s 317 723 m cl s 321 723 m cl s 325 723 m cl s 328 723 m
 cl s 332 723 m cl s 336 723 m cl s 340 723 m cl s 344 723 m cl s 347 723 m cl s 351 723 m cl s 355 723 m cl s 359 723 m cl s 363 723 m cl s 366 723 m cl s 370 723 m cl s 374 727 m -4 Y s 378 727 m cl s 382 727 m cl s 385 727 m cl s 389 727 m cl s
 393 727 m cl s 397 727 m cl s 401 727 m cl s 404 727 m cl s 408 727 m cl s 412 727 m cl s 416 727 m cl s 420 727 m cl s 423 727 m cl s 427 731 m -4 Y s 431 731 m cl s 435 731 m cl s 439 731 m cl s 443 731 m cl s 446 731 m cl s 450 731 m cl s 454 731
 m cl s 458 731 m cl s 462 731 m cl s 465 731 m cl s 469 731 m cl s 473 731 m cl s 477 731 m cl s 481 734 m -3 Y s 484 734 m cl s 488 734 m cl s 492 734 m cl s 496 734 m cl s 500 734 m cl s 503 734 m cl s 507 734 m cl s 511 734 m cl s 515 738 m -4 Y
 s 519 738 m cl s 522 738 m cl s 526 738 m cl s 530 738 m cl s 534 738 m cl s 538 738 m cl s 541 738 m cl s 545 738 m cl s 549 738 m cl s 553 738 m cl s 557 738 m cl s 560 738 m cl s 564 738 m cl s 568 738 m cl s 572 738 m cl s 576 742 m -4 Y s 579
 742 m cl s 583 742 m cl s 587 742 m cl s 591 742 m cl s 595 742 m cl s 599 742 m cl s 602 742 m cl s 606 742 m cl s 610 742 m cl s 614 742 m cl s 618 746 m -4 Y s 621 746 m cl s 625 746 m cl s 629 746 m cl s 633 746 m cl s 637 746 m cl s 640 746 m
 cl s 644 746 m cl s 648 746 m cl s 652 750 m -4 Y s 656 750 m cl s 659 750 m cl s 663 750 m cl s 667 750 m cl s 671 753 m -3 Y s 675 753 m cl s 678 753 m cl s 682 753 m cl s 686 757 m -4 Y s 690 757 m cl s 694 757 m cl s 697 757 m cl s 701 757 m cl
 s 705 757 m cl s 709 757 m cl s 713 761 m -4 Y s 716 761 m cl s 720 761 m cl s 724 765 m -4 Y s 728 765 m cl s 732 765 m cl s 735 769 m -4 Y s 739 769 m cl s 743 769 m cl s 747 769 m cl s 751 772 m -3 Y s 755 772 m cl s 758 772 m cl s 762 776 m -4 Y
 s 766 776 m cl s 770 776 m cl s 774 776 m cl s 777 776 m cl s 781 780 m -4 Y s 785 780 m cl s 789 780 m cl s 793 780 m cl s 796 780 m cl s 800 784 m cl s 804 784 m cl s 808 788 m -4 Y s 812 788 m cl s 815 788 m cl s 819 788 m cl s 823 791 m -3 Y s
 827 791 m cl s 831 791 m cl s 834 791 m cl s 838 791 m cl s 842 795 m -4 Y s 846 795 m cl s 850 799 m -4 Y s 853 799 m cl s 857 799 m cl s 861 803 m -4 Y s 865 803 m cl s 869 807 m -4 Y s 872 807 m -4 Y s 876 807 m cl s 880 807 m cl s 884 810 m -3 Y
 s 888 810 m cl s 891 814 m -4 Y s 895 814 m cl s 899 818 m -4 Y s 903 818 m cl s 907 818 m cl s 911 822 m cl s 914 822 m cl s 918 826 m -4 Y s 922 826 m cl s 926 829 m -3 Y s 930 829 m -3 Y s 933 829 m cl s 937 833 m -4 Y s 941 833 m cl s 945 837 m
 -4 Y s 949 837 m cl s 952 837 m cl s 956 841 m -4 Y s 960 845 m -4 Y s 964 845 m -4 Y s 968 848 m -3 Y s 971 848 m cl s 975 852 m cl s 979 856 m -4 Y s 983 860 m -4 Y s 987 860 m cl s 990 864 m -4 Y s 994 868 m -4 Y s 998 868 m -4 Y s 1002 868 m cl
 s 1006 868 m cl s 1009 871 m -3 Y s 1013 875 m -4 Y s 1017 879 m -4 Y s 1021 879 m cl s 1025 883 m -4 Y s 1028 887 m -4 Y s 1032 887 m cl s 1036 890 m -3 Y s 1040 890 m cl s 1044 894 m -4 Y s 1047 894 m cl s 1051 898 m -4 Y s 1055 902 m -4 Y s 1059
 906 m -4 Y s 1063 906 m cl s 1067 909 m -3 Y s 1070 909 m cl s 1074 909 m cl s 1078 913 m -4 Y s 1082 913 m cl s 1086 917 m -4 Y s 1089 921 m -4 Y s 1093 921 m cl s 1097 925 m -4 Y s 1101 928 m -3 Y s 1105 928 m cl s 1108 932 m -4 Y s 1112 936 m -4
 Y s 1116 940 m -4 Y s 1120 940 m cl s 1124 944 m -4 Y s 1127 947 m -3 Y s 1131 951 m -4 Y s 1135 951 m cl s 1139 955 m -4 Y s 1143 959 m -4 Y s 1146 963 m -8 Y s 1150 963 m cl s 1154 970 m -7 Y s 1158 970 m -4 Y s 1162 970 m cl s 1165 974 m -4 Y s
 1169 978 m -4 Y s 1173 982 m -4 Y s 1177 985 m -3 Y s 1181 989 m -4 Y s 1184 993 m -4 Y s 1188 993 m cl s 1192 997 m -4 Y s 1196 1001 m -4 Y s 1200 1004 m -3 Y s 1203 1004 m -3 Y s 1207 1008 m -4 Y s 1211 1008 m cl s 1215 1012 m -4 Y s 1219 1016 m
 -4 Y s 1223 1016 m cl s 1226 1016 m cl s 1230 1020 m -4 Y s 1234 1024 m -4 Y s 1238 1027 m -3 Y s 1242 1031 m -4 Y s 1245 1039 m -8 Y s 1249 1039 m -4 Y s 1253 1039 m cl s 1257 1043 m -4 Y s 1261 1046 m -3 Y s 1264 1046 m cl s 1268 1054 m -8 Y s
 1272 1058 m -8 Y s 1276 1058 m cl s 1280 1058 m cl s 1283 1058 m cl s 1287 1058 m cl s 1291 1062 m -4 Y s 1295 1062 m cl s 1299 1065 m -3 Y s 1302 1069 m -4 Y s 1306 1069 m -4 Y s 1310 1069 m cl s 1314 1073 m -4 Y s 1318 1073 m cl s 1321 1073 m cl s
 1325 1073 m cl s 1329 1077 m -4 Y s 1333 1081 m -4 Y s 1337 1088 m -7 Y s 1340 1092 m -4 Y s 1344 1096 m -4 Y s 1348 1096 m -4 Y s 1352 1096 m cl s 1356 1096 m cl s 1359 1103 m -7 Y s 1363 1103 m cl s 1367 1107 m -4 Y s 1371 1111 m -8 Y s 1375 1115
 m -4 Y s 1379 1115 m cl s 1382 1115 m cl s 1386 1119 m -4 Y s 1390 1119 m cl s 1394 1119 m cl s 1398 1122 m -3 Y s 1401 1122 m cl s 1405 1126 m -4 Y s 1409 1130 m -4 Y s 1413 1130 m -4 Y s 1417 1130 m cl s 1420 1134 m -4 Y s 1424 1134 m cl s 1428
 1134 m cl s 1432 1138 m -4 Y s 1436 1141 m -3 Y s 1439 1145 m -4 Y s 1443 1145 m -4 Y s 1447 1145 m -4 Y s 1451 1145 m -4 Y s 1455 1145 m cl s 1458 1145 m cl s 1462 1149 m -4 Y s 1466 1149 m -4 Y s 1470 1153 m -4 Y s 1474 1153 m cl s 1477 1153 m cl
 s 1481 1153 m cl s 1485 1157 m -8 Y s 1489 1157 m cl s 1493 1157 m cl s 1496 1160 m -3 Y s 1500 1172 m -12 Y s 1504 1180 m -4 Y s 1508 1187 m -7 Y s 1512 1187 m cl s 1515 1187 m cl s 1519 1187 m -4 Y s 1523 1183 m cl s 1527 1183 m cl s 1531 1183 m
 cl s 1535 1183 m -3 Y s 1538 1183 m -3 Y s 1542 1187 m -4 Y s 1546 1187 m cl s 1550 1187 m cl s 1554 1191 m -8 Y s 1557 1191 m cl s 1561 1191 m -4 Y s 1565 1187 m cl s 1569 1191 m -4 Y s 1573 1191 m cl s 1576 1199 m -8 Y s 1580 1195 m cl s 1584 1195
 m cl s 1588 1195 m cl s 1592 1195 m -4 Y s 1595 1195 m -4 Y s 1599 1195 m -4 Y s 1603 1195 m -4 Y s 1607 1195 m -4 Y s 1611 1195 m -4 Y s 1614 1195 m -4 Y s 1618 1202 m -11 Y s 1622 1202 m cl s 1626 1202 m cl s 1630 1202 m cl s 1633 1202 m cl s 1637
 1202 m cl s 1641 1206 m -4 Y s 1645 1206 m cl s 1649 1206 m cl s 1652 1206 m -4 Y s 1656 1202 m cl s 1660 1202 m cl s 1664 1202 m cl s 1668 1202 m -3 Y s 1671 1199 m cl s 1675 1199 m cl s 1679 1202 m -3 Y s 1683 1202 m -3 Y s 1687 1202 m cl s 1691
 1206 m -7 Y s 1694 1202 m cl s 1698 1206 m -7 Y s 1702 1206 m cl s 1706 1206 m -4 Y s 1710 1202 m cl s 1713 1202 m cl s 1717 1202 m cl s 1721 1202 m -3 Y s 1725 1221 m -22 Y s 1729 1221 m cl s 1732 1229 m -8 Y s 1736 1229 m cl s 1740 1237 m -8 Y s
 1744 1237 m cl s 1748 1237 m cl s 1751 1237 m cl s 1755 1237 m cl s 1759 1237 m cl s 1763 1237 m -4 Y s 1767 1233 m cl s 1770 1233 m cl s 1774 1233 m cl s 1778 1233 m cl s 1782 1233 m cl s 1786 1233 m cl s 1789 1233 m cl s 1793 1233 m cl s 1797 1233
 m cl s 1801 1233 m cl s 1805 1233 m cl s 1808 1233 m cl s 1812 1233 m -4 Y s 1816 1229 m cl s 1820 1229 m cl s 1824 1229 m cl s 1827 1244 m -15 Y s 1831 1244 m cl s 1835 1244 m cl s 1839 1244 m cl s 1843 1244 m cl s 1847 1244 m cl s 1850 1244 m cl s
 1854 1244 m cl s 1858 1244 m cl s 1862 1244 m cl s 1866 1244 m cl s 1869 1244 m cl s 1873 1244 m cl s 1877 1244 m cl s 1881 1244 m cl s 1885 1244 m cl s 1888 1244 m cl s 1892 1244 m cl s 1896 1244 m cl s 1900 1244 m cl s 1904 1244 m cl s 1907 1244 m
 cl s 1911 1244 m cl s 1915 1244 m cl s 1919 1244 m cl s 1923 1244 m cl s 1926 1244 m cl s 1930 1244 m cl s 1934 1244 m cl s 1938 1244 m cl s 1942 1244 m cl s 1945 1244 m cl s 1949 1244 m cl s 1953 1244 m cl s 1957 1244 m cl s 1961 1244 m cl s 1964
 1244 m cl s 1968 1244 m cl s 1972 1244 m cl s 1976 1244 m cl s 1980 1244 m cl s 1983 1244 m cl s 1987 1244 m cl s 1991 1244 m cl s 1995 1244 m cl s 1999 1244 m cl s 2003 1244 m cl s 2006 1244 m cl s 2010 1244 m cl s 2014 1244 m cl s 2018 1244 m cl s
 2022 1244 m cl s 2025 1244 m cl s 2029 1244 m cl s 2033 1244 m cl s 2037 1244 m cl s 2041 1244 m cl s 245 723 m 3 X s 248 723 m 122 X 4 4 d 49 X 4 4 d 50 X 4 3 d 30 X 4 4 d 57 X 4 4 d 38 X 4 4 d 30 X 4 4 d 15 X 4 3 d 11 X 4 4 d 23 X 4 4 d 7 X 4 4 d
 8 X 3 4 d 12 X 4 3 d 7 X 4 4 d 15 X 4 4 d 15 X 4 4 d 4 X 4 4 d 11 X 4 3 d 15 X 4 4 d 4 X 4 4 d 7 X 4 4 d 4 X 4 4 d 11 X 4 3 d 4 X 3 4 d 4 X 4 4 d 8 X 4 4 d 3 X 4 4 d 4 X 4 3 d 7 X 4 4 d 4 X 4 4 d 7 X 4 4 d 4 4 d 4 X 4 3 d 3 X 4 4 d 4 4 d 4 4 d 4 X 3
 4 d 4 4 d 12 X 3 3 d 4 4 d 4 4 d 4 X 4 4 d 3 4 d 4 X 4 3 d 4 X 4 4 d 3 X 4 4 d 4 4 d 4 4 d 4 X 4 3 d 7 X 4 4 d 4 X 4 4 d 3 4 d 4 X 4 4 d 4 3 d 4 X 3 4 d 4 4 d 4 4 d 4 X 4 4 d 3 3 d 4 4 d 4 X 4 4 d 4 4 d 3 X 4 4 d 4 3 d 4 4 d 4 X 3 4 d 4 4 d 4 4 d 4
 3 d 4 4 d 3 4 d 4 X 4 4 d 4 4 d 4 3 d 3 X 4 4 d 4 X 4 4 d 4 4 d 7 X 4 4 d 4 4 d 4 3 d 4 4 d 3 4 d 4 4 d 4 X 4 4 d 4 3 d 3 X 4 4 d 4 4 d 4 4 d 11 X 4 4 d 4 X 4 3 d 3 4 d 8 X 4 4 d 11 X 4 4 d 4 4 d 4 3 d 3 8 d 4 4 d 12 X 3 4 d 4 3 d 4 4 d 4 X 4 8 d 7
 X 4 4 d 8 X 4 3 d 3 X 4 4 d 4 4 d 8 X 3 4 d 8 X 4 4 d 4 3 d 3 4 d 19 X 4 4 d 4 X 4 4 d 15 X 4 4 d 4 X 3 3 d 4 8 d 4 12 d 4 3 d 4 4 d 7 X 4 -4 d 15 X 4 4 d 12 X 3 4 d 4 X 4 -4 d 4 4 d 4 X 3 4 d 38 X 4 4 d 4 3 d 15 X 4 4 d 11 X 4 -4 d 12 X 3 -3 d 4 X
 4 3 d 19 X 4 4 d 4 X 4 -4 d 11 X 4 8 d 4 11 d 3 4 d 4 4 d 4 4 d 4 4 d 19 X 4 -4 d 45 X 4 -4 d 8 X 3 8 d 4 7 d 210 X s[  ] 0 sd 9 lw 0.49 0.6 0.82 c black 0 0 0.933333 c 248 1244 m cl s 252 1244 m cl s 256 1244 m cl s 260 1244 m cl s 264 1244 m cl s
 267 1244 m cl s 271 1244 m cl s 275 1244 m cl s 279 1244 m cl s 283 1244 m cl s 287 1244 m cl s 290 1244 m cl s 294 1244 m cl s 298 1244 m cl s 302 1244 m cl s 306 1244 m cl s 309 1244 m cl s 313 1244 m cl s 317 1244 m cl s 321 1244 m cl s 325 1244
 m cl s 328 1244 m cl s 332 1244 m cl s 336 1244 m cl s 340 1244 m cl s 344 1244 m cl s 347 1244 m cl s 351 1244 m cl s 355 1244 m cl s 359 1244 m cl s 363 1244 m cl s 366 1244 m cl s 370 1244 m cl s 374 1244 m cl s 378 1244 m cl s 382 1244 m cl s
 385 1244 m cl s 389 1244 m cl s 393 1244 m cl s 397 1244 m cl s 401 1244 m cl s 404 1244 m cl s 408 1244 m cl s 412 1244 m cl s 416 1244 m cl s 420 1244 m cl s 423 1244 m cl s 427 1244 m cl s 431 1244 m cl s 435 1244 m cl s 439 1244 m cl s 443 1244
 m cl s 446 1244 m cl s 450 1244 m cl s 454 1244 m cl s 458 1244 m cl s 462 1244 m cl s 465 1244 m cl s 469 1244 m cl s 473 1244 m cl s 477 1244 m cl s 481 1244 m cl s 484 1244 m cl s 488 1244 m cl s 492 1244 m cl s 496 1244 m cl s 500 1244 m cl s
 503 1244 m cl s 507 1244 m cl s 511 1244 m cl s 515 1244 m cl s 519 1244 m cl s 522 1244 m cl s 526 1244 m cl s 530 1244 m cl s 534 1244 m cl s 538 1244 m cl s 541 1244 m cl s 545 1244 m cl s 549 1244 m cl s 553 1244 m cl s 557 1244 m cl s 560 1244
 m cl s 564 1244 m cl s 568 1244 m -4 Y s 572 1240 m cl s 576 1240 m cl s 579 1240 m cl s 583 1240 m cl s 587 1240 m cl s 591 1240 m cl s 595 1240 m cl s 599 1240 m cl s 602 1240 m cl s 606 1240 m cl s 610 1240 m cl s 614 1240 m cl s 618 1240 m cl s
 621 1240 m cl s 625 1240 m cl s 629 1240 m cl s 633 1240 m cl s 637 1240 m -3 Y s 640 1237 m cl s 644 1237 m cl s 648 1237 m cl s 652 1237 m cl s 656 1237 m cl s 659 1237 m cl s 663 1237 m cl s 667 1237 m cl s 671 1237 m cl s 675 1237 m cl s 678
 1237 m cl s 682 1237 m cl s 686 1237 m cl s 690 1237 m cl s 694 1237 m cl s 697 1237 m cl s 701 1237 m -4 Y s 705 1233 m cl s 709 1233 m cl s 713 1233 m cl s 716 1233 m cl s 720 1233 m cl s 724 1233 m cl s 728 1233 m cl s 732 1233 m cl s 735 1233 m
 cl s 739 1233 m cl s 743 1233 m cl s 747 1229 m cl s 751 1229 m cl s 755 1229 m cl s 758 1229 m cl s 762 1229 m cl s 766 1229 m cl s 770 1229 m cl s 774 1229 m -4 Y s 777 1225 m cl s 781 1225 m cl s 785 1225 m cl s 789 1225 m cl s 793 1225 m -4 Y s
 796 1221 m -3 Y s 800 1218 m cl s 804 1218 m -4 Y s 808 1214 m cl s 812 1214 m cl s 815 1214 m -4 Y s 819 1210 m cl s 823 1210 m -4 Y s 827 1206 m cl s 831 1206 m cl s 834 1206 m cl s 838 1202 m cl s 842 1202 m cl s 846 1202 m cl s 850 1202 m -3 Y s
 853 1199 m cl s 857 1199 m -4 Y s 861 1195 m cl s 865 1195 m -4 Y s 869 1191 m -4 Y s 872 1187 m -4 Y s 876 1183 m cl s 880 1183 m -3 Y s 884 1180 m cl s 888 1180 m -4 Y s 891 1176 m -4 Y s 895 1172 m cl s 899 1172 m -4 Y s 903 1168 m -4 Y s 907
 1164 m cl s 911 1164 m -4 Y s 914 1160 m -3 Y s 918 1157 m -4 Y s 922 1153 m -4 Y s 926 1149 m cl s 930 1149 m -8 Y s 933 1141 m -3 Y s 937 1138 m -8 Y s 941 1130 m -4 Y s 945 1126 m cl s 949 1122 m cl s 952 1122 m -3 Y s 956 1119 m cl s 960 1119 m
 -4 Y s 964 1115 m -4 Y s 968 1111 m -4 Y s 971 1107 m -4 Y s 975 1103 m cl s 979 1103 m -7 Y s 983 1096 m cl s 987 1096 m -8 Y s 990 1088 m -4 Y s 994 1084 m -3 Y s 998 1081 m -8 Y s 1002 1073 m -8 Y s 1006 1065 m -3 Y s 1009 1062 m -4 Y s 1013 1058
 m -4 Y s 1017 1054 m -4 Y s 1021 1050 m cl s 1025 1050 m -4 Y s 1028 1046 m -3 Y s 1032 1043 m -4 Y s 1036 1035 m -4 Y s 1040 1031 m -4 Y s 1044 1027 m -3 Y s 1047 1024 m -8 Y s 1051 1016 m -4 Y s 1055 1012 m -4 Y s 1059 1008 m -7 Y s 1063 1001 m -4
 Y s 1067 997 m -8 Y s 1070 989 m -4 Y s 1074 985 m -7 Y s 1078 978 m -8 Y s 1082 970 m -4 Y s 1086 966 m -3 Y s 1089 963 m -4 Y s 1093 959 m -8 Y s 1097 951 m -4 Y s 1101 947 m -7 Y s 1105 940 m -4 Y s 1108 936 m -4 Y s 1112 932 m -4 Y s 1116 928 m
 -7 Y s 1120 921 m -4 Y s 1124 917 m -4 Y s 1127 909 m -7 Y s 1131 902 m -4 Y s 1135 898 m -8 Y s 1139 890 m -3 Y s 1143 887 m -8 Y s 1146 879 m -4 Y s 1150 875 m -7 Y s 1154 868 m -12 Y s 1158 856 m -8 Y s 1162 848 m -7 Y s 1165 841 m -8 Y s 1169
 833 m -7 Y s 1173 826 m -8 Y s 1177 818 m -8 Y s 1181 810 m -7 Y s 1184 803 m -8 Y s 1188 795 m -7 Y s 1192 788 m -8 Y s 1196 780 m -8 Y s 1200 769 m -8 Y s 1203 761 m -8 Y s 1207 753 m -7 Y s 1211 746 m -12 Y s 1215 734 m -7 Y s 1219 727 m -4 Y s
 1223 723 m -4 Y s 1226 719 m -7 Y s 1230 712 m -4 Y s 1234 708 m -8 Y s 1238 700 m -11 Y s 1242 689 m -4 Y s 1245 685 m -4 Y s 1249 677 m -4 Y s 1253 670 m -4 Y s 1257 666 m -12 Y s 1261 654 m -3 Y s 1264 651 m -8 Y s 1268 643 m -4 Y s 1272 639 m -7
 Y s 1276 632 m -8 Y s 1280 624 m cl s 1283 620 m -4 Y s 1287 616 m -3 Y s 1291 613 m -8 Y s 1295 605 m -8 Y s 1299 597 m -3 Y s 1302 594 m cl s 1306 590 m cl s 1310 586 m -4 Y s 1314 582 m -4 Y s 1318 578 m -7 Y s 1321 571 m -4 Y s 1325 567 m -4 Y s
 1329 563 m -4 Y s 1333 559 m -3 Y s 1337 556 m cl s 1340 556 m -4 Y s 1344 552 m -8 Y s 1348 544 m -8 Y s 1352 536 m -3 Y s 1356 533 m -8 Y s 1359 525 m -4 Y s 1363 521 m -4 Y s 1367 517 m -7 Y s 1371 510 m -4 Y s 1375 506 m cl s 1379 506 m -8 Y s
 1382 498 m -7 Y s 1386 491 m -4 Y s 1390 487 m cl s 1394 487 m -8 Y s 1398 479 m cl s 1401 479 m -3 Y s 1405 476 m -4 Y s 1409 472 m -4 Y s 1413 468 m -4 Y s 1417 464 m -4 Y s 1420 460 m -3 Y s 1424 457 m -4 Y s 1428 453 m -4 Y s 1432 449 m -4 Y s
 1436 445 m -7 Y s 1439 438 m -4 Y s 1443 434 m -4 Y s 1447 430 m -4 Y s 1451 426 m -4 Y s 1455 422 m -7 Y s 1458 415 m -4 Y s 1462 407 m cl s 1466 407 m -11 Y s 1470 396 m -4 Y s 1474 392 m -4 Y s 1477 388 m -4 Y s 1481 384 m -4 Y s 1485 380 m -3 Y
 s 1489 377 m -4 Y s 1493 373 m cl s 1496 373 m -4 Y s 1500 369 m cl s 1504 369 m -4 Y s 1508 365 m -4 Y s 1512 361 m cl s 1515 361 m -3 Y s 1519 358 m -4 Y s 1523 354 m -4 Y s 1527 350 m cl s 1531 350 m -4 Y s 1535 346 m cl s 1538 346 m -4 Y s 1542
 342 m -3 Y s 1546 339 m cl s 1550 339 m -4 Y s 1554 335 m -4 Y s 1557 331 m cl s 1561 331 m -4 Y s 1565 327 m -4 Y s 1569 323 m -3 Y s 1573 320 m cl s 1576 320 m -4 Y s 1580 316 m cl s 1584 316 m -4 Y s 1588 312 m cl s 1592 308 m -4 Y s 1595 304 m
 -3 Y s 1599 301 m cl s 1603 301 m -4 Y s 1607 297 m -4 Y s 1611 293 m cl s 1614 293 m -4 Y s 1618 289 m -4 Y s 1622 285 m cl s 1626 285 m -3 Y s 1630 282 m cl s 1633 282 m cl s 1637 282 m cl s 1641 282 m -4 Y s 1645 278 m cl s 1649 278 m cl s 1652
 278 m -4 Y s 1656 274 m cl s 1660 274 m -4 Y s 1664 270 m cl s 1668 270 m -4 Y s 1671 266 m cl s 1675 266 m cl s 1679 263 m cl s 1683 263 m -4 Y s 1687 259 m cl s 1691 259 m -4 Y s 1694 255 m -4 Y s 1698 251 m cl s 1702 251 m cl s 1706 251 m -4 Y s
 1710 247 m cl s 1713 247 m cl s 1717 247 m -3 Y s 1721 244 m cl s 1725 244 m cl s 1729 244 m cl s 1732 240 m cl s 1736 240 m cl s 1740 240 m cl s 1744 240 m cl s 1748 240 m -4 Y s 1751 236 m cl s 1755 236 m cl s 1759 236 m cl s 1763 236 m -4 Y s
 1767 232 m cl s 1770 232 m cl s 1774 232 m cl s 1778 232 m -4 Y s 1782 228 m cl s 1786 228 m cl s 1789 228 m cl s 1793 228 m -4 Y s 1797 224 m cl s 1801 224 m cl s 1805 224 m cl s 1808 224 m cl s 1812 224 m cl s 1816 224 m cl s 1820 224 m cl s 1824
 224 m -3 Y s 1827 221 m cl s 1831 221 m cl s 1835 221 m cl s 1839 221 m cl s 1843 221 m -4 Y s 1847 217 m cl s 1850 217 m cl s 1854 217 m cl s 1858 217 m cl s 1862 217 m cl s 1866 217 m cl s 1869 217 m cl s 1873 217 m cl s 1877 217 m cl s 1881 217 m
 cl s 1885 217 m cl s 1888 217 m -4 Y s 1892 213 m cl s 1896 213 m cl s 1900 213 m cl s 1904 213 m cl s 1907 213 m cl s 1911 213 m cl s 1915 213 m cl s 1919 213 m cl s 1923 213 m cl s 1926 213 m cl s 1930 213 m cl s 1934 213 m cl s 1938 213 m cl s
 1942 213 m cl s 1945 213 m cl s 1949 213 m cl s 1953 213 m cl s 1957 213 m cl s 1961 213 m cl s 1964 213 m cl s 1968 213 m cl s 1972 213 m cl s 1976 213 m cl s 1980 213 m cl s 1983 213 m cl s 1987 213 m cl s 1991 213 m -4 Y s 1995 209 m cl s 1999
 209 m cl s 2003 209 m cl s 245 1244 m 3 X s 248 1244 m 320 X 4 -4 d 65 X 3 -3 d 61 X 4 -4 d 38 X 4 -4 d 27 X 3 -4 d 16 X 3 -4 d 4 -3 d 4 X 4 -4 d 7 X 4 -4 d 4 X 4 -4 d 7 X 4 -4 d 12 X 3 -3 d 4 X 4 -4 d 4 X 4 -4 d 3 -4 d 4 -4 d 4 X 4 -3 d 4 X 3 -4 d
 4 -4 d 4 X 4 -4 d 4 -4 d 4 X 3 -4 d 4 -3 d 4 -4 d 4 -4 d 4 -4 d 3 -4 d 4 -7 d 4 -4 d 4 -4 d 4 -4 d 3 X 4 -3 d 4 X 4 -4 d 4 -4 d 3 -4 d 4 -4 d 4 -3 d 4 -4 d 4 -4 d 3 -4 d 4 -4 d 4 -7 d 4 -8 d 4 -4 d 3 -3 d 4 -4 d 4 -4 d 4 -4 d 4 X 3 -4 d 4 -3 d 4 -8
 d 4 -4 d 4 -4 d 3 -7 d 4 -4 d 4 -4 d 4 -8 d 4 -3 d 4 -8 d 3 -4 d 4 -7 d 4 -8 d 4 -4 d 4 -4 d 3 -3 d 4 -8 d 4 -4 d 4 -7 d 4 -4 d 3 -4 d 4 -4 d 4 -7 d 4 -4 d 4 -4 d 3 -11 d 4 -4 d 4 -8 d 4 -4 d 4 -7 d 3 -4 d 4 -8 d 4 -7 d 4 -12 d 4 -7 d 3 -8 d 4 -8 d
 4 -7 d 4 -8 d 4 -7 d 3 -8 d 4 -8 d 4 -7 d 4 -8 d 4 -11 d 3 -8 d 4 -7 d 4 -8 d 4 -11 d 4 -4 d 4 -4 d 3 -8 d 4 -3 d 4 -8 d 4 -8 d 4 -7 d 3 -4 d 4 -8 d 4 -7 d 4 -8 d 4 -8 d 3 -7 d 4 -4 d 4 -8 d 4 -7 d 4 -4 d 3 -4 d 4 -4 d 4 -7 d 4 -8 d 4 -4 d 3 -3 d 4
 -4 d 4 -4 d 4 -4 d 4 -7 d 3 -4 d 4 -4 d 4 -4 d 4 -4 d 4 -3 d 3 X 4 -8 d 4 -8 d 4 -4 d 4 -7 d 3 -4 d 4 -4 d 4 -7 d 4 -4 d 4 -4 d 4 -4 d 3 -7 d 4 -4 d 4 -4 d 4 -4 d 4 -4 d 3 X 4 -3 d 4 -4 d 4 -4 d 4 -4 d 3 -4 d 4 -3 d 4 -4 d 4 -4 d 4 -8 d 3 -3 d 4 -4
 d 4 -4 d 4 -4 d 4 -7 d 3 -4 d 4 -8 d 4 -4 d 4 -7 d 4 -4 d 3 -4 d 4 -4 d 4 -4 d 4 -3 d 4 -4 d 3 X 4 -4 d 4 X 4 -4 d 4 -4 d 3 X 4 -3 d 4 -4 d 4 -4 d 4 X 4 -4 d 3 X 4 -4 d 4 -3 d 4 X 4 -4 d 3 -4 d 4 X 4 -4 d 4 -4 d 4 -3 d 3 X 4 -4 d 4 X 4 -4 d 4 -4 d 3
 -4 d 4 -3 d 4 X 4 -4 d 4 -4 d 3 X 4 -4 d 4 -4 d 4 X 4 -3 d 11 X 4 -4 d 7 X 4 -4 d 4 X 4 -4 d 4 X 3 -4 d 4 X 4 -3 d 4 X 4 -4 d 4 X 3 -4 d 4 -4 d 8 X 4 -4 d 7 X 4 -3 d 8 X 3 -4 d 16 X 3 -4 d 12 X 4 -4 d 11 X 4 -4 d 11 X 4 -4 d 27 X 3 -3 d 16 X 4 -4 d
 41 X 4 -4 d 99 X 4 -4 d 8 X s 1 0 0 c black 1 0 0 c 248 1244 m cl s 252 1244 m cl s 256 1244 m cl s 260 1244 m -4 Y s 264 1240 m cl s 267 1240 m cl s 271 1240 m cl s 275 1240 m cl s 279 1240 m cl s 283 1240 m cl s 287 1240 m cl s 290 1240 m cl s 294
 1240 m cl s 298 1240 m cl s 302 1240 m cl s 306 1240 m cl s 309 1240 m cl s 313 1240 m cl s 317 1240 m cl s 321 1240 m cl s 325 1240 m cl s 328 1240 m cl s 332 1240 m cl s 336 1240 m cl s 340 1240 m cl s 344 1240 m cl s 347 1240 m cl s 351 1240 m cl
 s 355 1240 m cl s 359 1240 m cl s 363 1240 m cl s 366 1240 m cl s 370 1240 m -3 Y s 374 1237 m cl s 378 1237 m cl s 382 1237 m cl s 385 1237 m cl s 389 1237 m cl s 393 1237 m -4 Y s 397 1233 m cl s 401 1233 m cl s 404 1233 m cl s 408 1233 m -4 Y s
 412 1229 m cl s 416 1229 m -4 Y s 420 1225 m cl s 423 1225 m cl s 427 1225 m -4 Y s 431 1221 m cl s 435 1221 m cl s 439 1221 m -3 Y s 443 1218 m cl s 446 1218 m cl s 450 1218 m cl s 454 1218 m cl s 458 1218 m cl s 462 1218 m -4 Y s 465 1214 m cl s
 469 1214 m cl s 473 1214 m cl s 477 1214 m -4 Y s 481 1210 m -4 Y s 484 1206 m cl s 488 1206 m -4 Y s 492 1202 m cl s 496 1202 m -3 Y s 500 1199 m cl s 503 1199 m -4 Y s 507 1195 m cl s 511 1195 m cl s 515 1195 m cl s 519 1195 m -4 Y s 522 1191 m cl
 s 526 1191 m cl s 530 1191 m -4 Y s 534 1187 m cl s 538 1187 m cl s 541 1187 m cl s 545 1187 m -4 Y s 549 1183 m cl s 553 1183 m cl s 557 1183 m cl s 560 1183 m cl s 564 1183 m -3 Y s 568 1180 m cl s 572 1180 m cl s 576 1180 m cl s 579 1180 m -4 Y s
 583 1176 m cl s 587 1176 m cl s 591 1176 m -4 Y s 595 1172 m cl s 599 1172 m cl s 602 1172 m cl s 606 1172 m -4 Y s 610 1168 m cl s 614 1168 m -4 Y s 618 1164 m cl s 621 1164 m -4 Y s 625 1160 m cl s 629 1160 m -3 Y s 633 1157 m cl s 637 1153 m cl s
 640 1153 m -4 Y s 644 1149 m cl s 648 1149 m -4 Y s 652 1145 m cl s 656 1145 m -4 Y s 659 1141 m -3 Y s 663 1138 m cl s 667 1138 m -4 Y s 671 1134 m -4 Y s 675 1130 m -4 Y s 678 1126 m cl s 682 1126 m -4 Y s 686 1122 m -7 Y s 690 1115 m cl s 694
 1115 m -4 Y s 697 1111 m -4 Y s 701 1107 m cl s 705 1107 m -4 Y s 709 1103 m cl s 713 1103 m -3 Y s 716 1100 m -4 Y s 720 1096 m -4 Y s 724 1092 m -4 Y s 728 1088 m -7 Y s 732 1081 m -4 Y s 735 1073 m -4 Y s 739 1069 m -4 Y s 743 1065 m cl s 747
 1065 m -3 Y s 751 1062 m -4 Y s 755 1058 m -8 Y s 758 1050 m -4 Y s 762 1046 m cl s 766 1046 m -3 Y s 770 1043 m -4 Y s 774 1039 m -4 Y s 777 1035 m -4 Y s 781 1031 m cl s 785 1031 m -7 Y s 789 1024 m -4 Y s 793 1020 m -4 Y s 796 1016 m cl s 800
 1012 m -4 Y s 804 1008 m -7 Y s 808 1001 m -4 Y s 812 997 m -4 Y s 815 993 m -4 Y s 819 989 m -4 Y s 823 985 m -7 Y s 827 978 m -4 Y s 831 974 m cl s 834 974 m -8 Y s 838 966 m cl s 842 966 m -3 Y s 846 963 m -4 Y s 850 959 m -8 Y s 853 951 m -4 Y s
 857 947 m -7 Y s 861 940 m -4 Y s 865 936 m -8 Y s 869 928 m -7 Y s 872 921 m -8 Y s 876 913 m -4 Y s 880 909 m -3 Y s 884 906 m -4 Y s 888 902 m -8 Y s 891 894 m -7 Y s 895 887 m -4 Y s 899 883 m -8 Y s 903 875 m -7 Y s 907 868 m -4 Y s 911 864 m
 -8 Y s 914 856 m -4 Y s 918 852 m -7 Y s 922 845 m -4 Y s 926 841 m -8 Y s 930 833 m -7 Y s 933 826 m -4 Y s 937 822 m -12 Y s 941 810 m -7 Y s 945 803 m -4 Y s 949 799 m -8 Y s 952 791 m -3 Y s 956 788 m -4 Y s 960 784 m -8 Y s 964 776 m -7 Y s 968
 769 m -8 Y s 971 761 m -8 Y s 975 750 m -4 Y s 979 746 m -12 Y s 983 734 m -7 Y s 987 723 m -4 Y s 990 719 m -7 Y s 994 712 m -8 Y s 998 700 m -4 Y s 1002 696 m -4 Y s 1006 692 m -3 Y s 1009 689 m -4 Y s 1013 685 m -15 Y s 1017 670 m -8 Y s 1021 662
 m -4 Y s 1025 658 m -7 Y s 1028 651 m -4 Y s 1032 647 m -8 Y s 1036 639 m -7 Y s 1040 632 m -8 Y s 1044 624 m -8 Y s 1047 616 m -3 Y s 1051 613 m -8 Y s 1055 605 m -11 Y s 1059 594 m -8 Y s 1063 586 m -4 Y s 1067 582 m -4 Y s 1070 578 m -7 Y s 1074
 571 m -4 Y s 1078 567 m -4 Y s 1082 563 m -7 Y s 1086 556 m -4 Y s 1089 552 m -8 Y s 1093 544 m -4 Y s 1097 540 m -7 Y s 1101 533 m -8 Y s 1105 525 m cl s 1108 525 m -11 Y s 1112 514 m -8 Y s 1116 506 m -4 Y s 1120 502 m -7 Y s 1124 495 m -4 Y s
 1127 487 m -4 Y s 1131 483 m -7 Y s 1135 472 m cl s 1139 472 m -4 Y s 1143 468 m -8 Y s 1146 460 m -7 Y s 1150 453 m -4 Y s 1154 449 m -11 Y s 1158 438 m -4 Y s 1162 434 m -4 Y s 1165 430 m -8 Y s 1169 422 m -3 Y s 1173 419 m -8 Y s 1177 411 m -4 Y
 s 1181 403 m -3 Y s 1184 396 m -4 Y s 1188 392 m -4 Y s 1192 388 m -4 Y s 1196 384 m -7 Y s 1200 377 m -4 Y s 1203 373 m -4 Y s 1207 369 m -8 Y s 1211 361 m -3 Y s 1215 358 m -4 Y s 1219 350 m cl s 1223 350 m -4 Y s 1226 346 m cl s 1230 346 m -4 Y s
 1234 342 m -3 Y s 1238 335 m -4 Y s 1242 331 m -4 Y s 1245 327 m -7 Y s 1249 320 m cl s 1253 320 m -4 Y s 1257 316 m -4 Y s 1261 312 m -4 Y s 1264 308 m -4 Y s 1268 304 m -3 Y s 1272 301 m -4 Y s 1276 297 m cl s 1280 297 m -4 Y s 1283 293 m cl s
 1287 293 m cl s 1291 293 m -4 Y s 1295 289 m cl s 1299 289 m -4 Y s 1302 285 m -3 Y s 1306 282 m cl s 1310 282 m cl s 1314 282 m -4 Y s 1318 278 m cl s 1321 278 m -4 Y s 1325 274 m cl s 1329 274 m -4 Y s 1333 270 m cl s 1337 270 m -4 Y s 1340 266 m
 -3 Y s 1344 263 m cl s 1348 263 m -4 Y s 1352 259 m cl s 1356 259 m cl s 1359 259 m -4 Y s 1363 255 m -4 Y s 1367 251 m cl s 1371 251 m -4 Y s 1375 247 m cl s 1379 247 m -3 Y s 1382 244 m cl s 1386 244 m cl s 1390 244 m cl s 1394 244 m -4 Y s 1398
 240 m cl s 1401 240 m cl s 1405 240 m -4 Y s 1409 236 m cl s 1413 236 m cl s 1417 236 m cl s 1420 236 m -4 Y s 1424 232 m cl s 1428 232 m cl s 1432 232 m cl s 1436 232 m -4 Y s 1439 228 m cl s 1443 228 m cl s 1447 228 m cl s 1451 228 m -4 Y s 1455
 224 m cl s 1458 224 m cl s 1462 224 m cl s 1466 224 m cl s 1470 224 m -3 Y s 1474 221 m cl s 1477 221 m cl s 1481 221 m cl s 1485 221 m cl s 1489 221 m cl s 1493 221 m cl s 1496 221 m -4 Y s 1500 217 m cl s 1504 217 m -4 Y s 1508 213 m cl s 1512 213
 m cl s 1515 213 m cl s 1519 213 m cl s 1523 213 m cl s 1527 213 m cl s 1531 213 m cl s 1535 213 m cl s 1538 213 m cl s 1542 213 m cl s 1546 213 m cl s 1550 213 m cl s 1554 213 m -4 Y s 1557 209 m cl s 1561 209 m cl s 1565 209 m cl s 1569 209 m cl s
 1573 209 m cl s 1576 209 m cl s 1580 209 m cl s 1584 209 m cl s 1588 209 m cl s 1592 209 m cl s 1595 209 m cl s 1599 209 m cl s 1603 209 m cl s 1607 209 m cl s 1611 209 m cl s 1614 209 m cl s 1618 209 m cl s 245 1244 m 3 X s 248 1244 m 12 X 4 -4 d
 106 X 4 -3 d 19 X 4 -4 d 11 X 4 -4 d 4 X 4 -4 d 7 X 4 -4 d 8 X 4 -3 d 19 X 3 -4 d 12 X 4 -4 d 3 -4 d 4 X 4 -4 d 4 X 4 -3 d 3 X 4 -4 d 12 X 3 -4 d 8 X 4 -4 d 11 X 4 -4 d 15 X 4 -3 d 11 X 4 -4 d 8 X 4 -4 d 11 X 4 -4 d 4 X 4 -4 d 3 X 4 -4 d 4 X 4 -3 d
 4 -4 d 3 X 4 -4 d 4 X 4 -4 d 4 X 3 -4 d 4 -3 d 4 X 4 -4 d 4 -4 d 3 -4 d 4 X 4 -7 d 4 -4 d 4 X 3 -4 d 4 -4 d 4 X 4 -4 d 4 X 3 -3 d 4 -4 d 4 -4 d 4 -8 d 4 -3 d 3 -8 d 4 -4 d 4 -4 d 4 X 4 -3 d 4 -8 d 3 -4 d 4 -4 d 4 X 4 -3 d 4 -4 d 3 -4 d 4 -4 d 4 -4 d
 4 -3 d 4 -4 d 3 -4 d 4 -4 d 4 -8 d 4 -3 d 4 -4 d 3 -4 d 4 -4 d 4 -7 d 4 -4 d 4 -4 d 3 -4 d 4 -4 d 4 X 4 -3 d 4 -8 d 3 -4 d 4 -7 d 4 -4 d 4 -8 d 4 -7 d 3 -8 d 4 -4 d 4 -4 d 4 -3 d 4 -8 d 3 -8 d 4 -3 d 4 -8 d 4 -8 d 4 -3 d 4 -8 d 3 -4 d 4 -8 d 4 -3 d
 4 -8 d 4 -8 d 3 -3 d 4 -8 d 4 -11 d 4 -4 d 4 -8 d 3 -4 d 4 -3 d 4 -8 d 4 -8 d 4 -7 d 3 -8 d 4 -7 d 4 -8 d 4 -11 d 4 -8 d 3 -8 d 4 -7 d 4 -8 d 4 -4 d 4 -4 d 3 -3 d 4 -12 d 4 -11 d 4 -4 d 4 -8 d 3 -3 d 4 -8 d 4 -8 d 4 -7 d 4 -8 d 3 -4 d 4 -7 d 4 -8 d
 4 -11 d 4 -4 d 4 -4 d 3 -7 d 4 -4 d 4 -4 d 4 -8 d 4 -3 d 3 -8 d 4 -4 d 4 -8 d 4 -7 d 4 -4 d 3 -4 d 4 -11 d 4 -4 d 4 -8 d 4 -3 d 3 -8 d 4 -8 d 4 -7 d 4 X 4 -8 d 3 -7 d 4 -4 d 4 -8 d 4 -7 d 4 -4 d 3 -8 d 4 -4 d 4 -7 d 4 -4 d 4 -8 d 3 -7 d 4 -4 d 4 -4
 d 4 -8 d 4 -3 d 3 -4 d 4 -8 d 4 -4 d 4 -3 d 4 -8 d 4 X 3 -4 d 4 X 4 -4 d 4 -7 d 4 -4 d 3 -8 d 4 -3 d 4 X 4 -4 d 4 -4 d 3 -4 d 4 -4 d 4 -3 d 4 -4 d 4 X 3 -4 d 8 X 4 -4 d 4 X 3 -4 d 4 -3 d 8 X 4 -4 d 3 X 4 -4 d 4 X 4 -4 d 4 X 3 -4 d 4 -3 d 4 X 4 -4 d
 7 X 4 -4 d 4 -4 d 4 X 4 -4 d 4 X 3 -3 d 12 X 4 -4 d 7 X 4 -4 d 11 X 4 -4 d 12 X 3 -4 d 12 X 4 -4 d 15 X 4 -3 d 22 X 4 -4 d 4 X 4 -4 d 46 X 3 -4 d 61 X s 0 0.666667 0 c 1 1 1 c black 0 0.666667 0 c 248 1195 m cl s 252 1195 m cl s 256 1195 m cl s 260
 1195 m cl s 264 1195 m cl s 267 1195 m cl s 271 1195 m cl s 275 1195 m cl s 279 1195 m cl s 283 1195 m cl s 287 1195 m cl s 290 1195 m cl s 294 1195 m cl s 298 1195 m cl s 302 1199 m -4 Y s 306 1199 m cl s 309 1199 m cl s 313 1199 m cl s 317 1199 m
 cl s 321 1199 m cl s 325 1199 m cl s 328 1199 m cl s 332 1199 m cl s 336 1199 m cl s 340 1199 m cl s 344 1199 m cl s 347 1199 m cl s 351 1199 m cl s 355 1199 m cl s 359 1199 m cl s 363 1199 m cl s 366 1199 m cl s 370 1199 m cl s 374 1199 m cl s 378
 1199 m cl s 382 1199 m cl s 385 1199 m cl s 389 1199 m cl s 393 1199 m cl s 397 1199 m cl s 401 1199 m cl s 404 1199 m cl s 408 1199 m cl s 412 1199 m cl s 416 1199 m cl s 420 1199 m cl s 423 1202 m -3 Y s 427 1202 m cl s 431 1202 m cl s 435 1202 m
 cl s 439 1202 m cl s 443 1202 m cl s 446 1202 m cl s 450 1202 m cl s 454 1202 m cl s 458 1202 m cl s 462 1202 m cl s 465 1202 m cl s 469 1202 m cl s 473 1202 m cl s 477 1206 m -4 Y s 481 1206 m cl s 484 1206 m cl s 488 1206 m cl s 492 1206 m cl s
 496 1206 m cl s 500 1206 m cl s 503 1206 m cl s 507 1206 m cl s 511 1210 m -4 Y s 515 1210 m cl s 519 1210 m cl s 522 1210 m cl s 526 1210 m cl s 530 1210 m cl s 534 1210 m cl s 538 1210 m cl s 541 1210 m cl s 545 1210 m cl s 549 1210 m cl s 553
 1210 m cl s 557 1210 m cl s 560 1210 m cl s 564 1210 m cl s 568 1210 m cl s 572 1210 m cl s 576 1210 m cl s 579 1210 m cl s 583 1214 m -4 Y s 587 1214 m cl s 591 1214 m cl s 595 1214 m cl s 599 1214 m cl s 602 1214 m cl s 606 1214 m cl s 610 1214 m
 cl s 614 1214 m cl s 618 1214 m cl s 621 1214 m cl s 625 1214 m cl s 629 1214 m cl s 633 1214 m cl s 637 1218 m -4 Y s 640 1214 m cl s 644 1214 m cl s 648 1218 m -4 Y s 652 1218 m -4 Y s 656 1218 m cl s 659 1218 m cl s 663 1218 m cl s 667 1218 m cl
 s 671 1221 m -3 Y s 675 1221 m cl s 678 1221 m cl s 682 1221 m cl s 686 1221 m cl s 690 1221 m cl s 694 1225 m -4 Y s 697 1225 m -4 Y s 701 1225 m cl s 705 1225 m cl s 709 1225 m cl s 713 1225 m cl s 716 1225 m cl s 720 1225 m cl s 724 1229 m cl s
 728 1229 m cl s 732 1229 m cl s 735 1233 m -4 Y s 739 1233 m cl s 743 1233 m cl s 747 1233 m cl s 751 1233 m cl s 755 1237 m -4 Y s 758 1237 m cl s 762 1237 m cl s 766 1237 m cl s 770 1237 m cl s 774 1237 m cl s 777 1237 m cl s 781 1237 m cl s 785
 1240 m -3 Y s 789 1240 m cl s 793 1240 m cl s 796 1240 m -3 Y s 800 1240 m -3 Y s 804 1240 m -3 Y s 808 1240 m cl s 812 1240 m -3 Y s 815 1240 m -3 Y s 819 1240 m -3 Y s 823 1240 m cl s 827 1240 m cl s 831 1240 m cl s 834 1240 m cl s 838 1240 m cl s
 842 1240 m cl s 846 1240 m cl s 850 1244 m -4 Y s 853 1244 m -4 Y s 857 1240 m cl s 861 1240 m cl s 865 1244 m -4 Y s 869 1244 m -4 Y s 872 1240 m cl s 876 1240 m cl s 880 1240 m cl s 884 1240 m cl s 888 1244 m -4 Y s 891 1244 m -4 Y s 895 1240 m cl
 s 899 1244 m -4 Y s 903 1240 m cl s 907 1240 m cl s 911 1240 m cl s 914 1240 m cl s 918 1240 m cl s 922 1240 m -3 Y s 926 1240 m -3 Y s 930 1240 m -3 Y s 933 1237 m cl s 937 1237 m -4 Y s 941 1233 m cl s 945 1233 m cl s 949 1233 m cl s 952 1233 m cl
 s 956 1233 m cl s 960 1233 m cl s 964 1233 m cl s 968 1233 m cl s 971 1233 m cl s 975 1233 m cl s 979 1233 m cl s 983 1237 m -4 Y s 987 1237 m -4 Y s 990 1233 m cl s 994 1233 m cl s 998 1233 m -4 Y s 1002 1229 m -4 Y s 1006 1225 m cl s 1009 1225 m
 -4 Y s 1013 1225 m -4 Y s 1017 1225 m -4 Y s 1021 1225 m cl s 1025 1225 m cl s 1028 1225 m cl s 1032 1225 m -4 Y s 1036 1221 m cl s 1040 1221 m cl s 1044 1221 m -3 Y s 1047 1218 m -4 Y s 1051 1218 m -4 Y s 1055 1218 m cl s 1059 1218 m -4 Y s 1063
 1214 m -4 Y s 1067 1210 m cl s 1070 1210 m -4 Y s 1074 1206 m -4 Y s 1078 1202 m -3 Y s 1082 1199 m cl s 1086 1199 m -4 Y s 1089 1199 m -4 Y s 1093 1195 m -4 Y s 1097 1191 m cl s 1101 1191 m -4 Y s 1105 1187 m cl s 1108 1187 m -4 Y s 1112 1187 m -4
 Y s 1116 1187 m cl s 1120 1183 m cl s 1124 1183 m -3 Y s 1127 1180 m -4 Y s 1131 1180 m -4 Y s 1135 1176 m -4 Y s 1139 1172 m -4 Y s 1143 1168 m cl s 1146 1168 m -4 Y s 1150 1164 m cl s 1154 1164 m -7 Y s 1158 1157 m -8 Y s 1162 1149 m -4 Y s 1165
 1149 m -4 Y s 1169 1145 m -4 Y s 1173 1141 m -3 Y s 1177 1138 m -4 Y s 1181 1134 m -4 Y s 1184 1130 m -4 Y s 1188 1126 m -4 Y s 1192 1122 m -7 Y s 1196 1115 m -4 Y s 1200 1111 m -8 Y s 1203 1103 m -3 Y s 1207 1100 m -4 Y s 1211 1096 m -8 Y s 1215
 1088 m -7 Y s 1219 1084 m -3 Y s 1223 1081 m -4 Y s 1226 1077 m -8 Y s 1230 1073 m -4 Y s 1234 1069 m -7 Y s 1238 1065 m -7 Y s 1242 1058 m -4 Y s 1245 1054 m -4 Y s 1249 1054 m -8 Y s 1253 1046 m -3 Y s 1257 1043 m -8 Y s 1261 1035 m -4 Y s 1264
 1031 m -4 Y s 1268 1027 m -3 Y s 1272 1024 m -4 Y s 1276 1020 m -8 Y s 1280 1012 m cl s 1283 1012 m -8 Y s 1287 1004 m -3 Y s 1291 1001 m -8 Y s 1295 993 m -4 Y s 1299 989 m -4 Y s 1302 985 m cl s 1306 985 m -3 Y s 1310 982 m -4 Y s 1314 978 m -4 Y
 s 1318 974 m -8 Y s 1321 966 m -3 Y s 1325 963 m -4 Y s 1329 959 m -4 Y s 1333 959 m -4 Y s 1337 955 m cl s 1340 955 m -4 Y s 1344 955 m -8 Y s 1348 947 m -7 Y s 1352 940 m -8 Y s 1356 932 m -7 Y s 1359 925 m cl s 1363 925 m -4 Y s 1367 921 m -8 Y s
 1371 917 m -4 Y s 1375 913 m -4 Y s 1379 909 m -7 Y s 1382 902 m -8 Y s 1386 898 m -4 Y s 1390 894 m -4 Y s 1394 890 m -7 Y s 1398 883 m cl s 1401 883 m -4 Y s 1405 879 m -4 Y s 1409 875 m -4 Y s 1413 871 m -3 Y s 1417 868 m -8 Y s 1420 864 m -8 Y s
 1424 856 m -4 Y s 1428 852 m -4 Y s 1432 848 m -3 Y s 1436 845 m -8 Y s 1439 837 m -4 Y s 1443 833 m -7 Y s 1447 826 m -8 Y s 1451 818 m -4 Y s 1455 814 m -11 Y s 1458 803 m -4 Y s 1462 799 m -4 Y s 1466 791 m -11 Y s 1470 780 m -4 Y s 1474 776 m -7
 Y s 1477 769 m -8 Y s 1481 761 m -4 Y s 1485 757 m -4 Y s 1489 753 m -3 Y s 1493 750 m -4 Y s 1496 746 m -4 Y s 1500 742 m -4 Y s 1504 742 m cl s 1508 742 m -4 Y s 1512 738 m -4 Y s 1515 734 m -7 Y s 1519 727 m -4 Y s 1523 719 m -4 Y s 1527 715 m -3
 Y s 1531 712 m -4 Y s 1535 708 m -4 Y s 1538 704 m -4 Y s 1542 700 m -4 Y s 1546 696 m -4 Y s 1550 692 m -3 Y s 1554 689 m -4 Y s 1557 685 m -8 Y s 1561 677 m -4 Y s 1565 673 m -3 Y s 1569 670 m -8 Y s 1573 662 m -4 Y s 1576 658 m cl s 1580 654 m cl
 s 1584 654 m -3 Y s 1588 651 m -8 Y s 1592 643 m -11 Y s 1595 632 m -8 Y s 1599 624 m -4 Y s 1603 620 m -7 Y s 1607 609 m cl s 1611 609 m -8 Y s 1614 601 m -4 Y s 1618 597 m -3 Y s 1622 590 m cl s 1626 590 m -8 Y s 1630 582 m cl s 1633 582 m cl s
 1637 578 m -3 Y s 1641 575 m cl s 1645 575 m cl s 1649 575 m -4 Y s 1652 571 m -8 Y s 1656 563 m cl s 1660 563 m -7 Y s 1664 556 m -4 Y s 1668 552 m -8 Y s 1671 544 m -4 Y s 1675 540 m -4 Y s 1679 536 m -7 Y s 1683 529 m -4 Y s 1687 525 m -4 Y s
 1691 521 m -15 Y s 1694 506 m -4 Y s 1698 498 m -3 Y s 1702 498 m -3 Y s 1706 495 m -4 Y s 1710 491 m -8 Y s 1713 483 m cl s 1717 483 m -4 Y s 1721 479 m -3 Y s 1725 476 m -8 Y s 1729 472 m cl s 1732 468 m cl s 1736 468 m cl s 1740 468 m -4 Y s 1744
 460 m -3 Y s 1748 457 m cl s 1751 457 m -4 Y s 1755 453 m -4 Y s 1759 449 m cl s 1763 449 m -8 Y s 1767 441 m -3 Y s 1770 438 m -4 Y s 1774 434 m -4 Y s 1778 430 m -4 Y s 1782 426 m cl s 1786 426 m -4 Y s 1789 422 m -7 Y s 1793 415 m -4 Y s 1797 411
 m -8 Y s 1801 403 m cl s 1805 403 m cl s 1808 403 m cl s 1812 403 m -3 Y s 1816 396 m cl s 1820 396 m -4 Y s 1824 392 m -4 Y s 1827 388 m cl s 1831 388 m -8 Y s 1835 380 m -3 Y s 1839 377 m -4 Y s 1843 373 m -4 Y s 1847 369 m cl s 1850 369 m -4 Y s
 1854 365 m -4 Y s 1858 361 m cl s 1862 361 m cl s 1866 361 m cl s 1869 361 m -3 Y s 1873 358 m cl s 1877 358 m cl s 1881 358 m -4 Y s 1885 354 m -4 Y s 1888 350 m -8 Y s 1892 342 m cl s 1896 342 m cl s 1900 342 m cl s 1904 342 m -3 Y s 1907 339 m -4
 Y s 1911 335 m cl s 1915 335 m -4 Y s 1919 331 m -4 Y s 1923 327 m cl s 1926 327 m cl s 1930 327 m cl s 1934 327 m cl s 1938 327 m cl s 1942 327 m cl s 1945 327 m cl s 1949 327 m cl s 1953 327 m cl s 1957 327 m -4 Y s 1961 323 m cl s 1964 323 m cl s
 1968 323 m cl s 1972 323 m cl s 1976 323 m cl s 1980 323 m cl s 1983 323 m cl s 1987 323 m cl s 1991 323 m -7 Y s 1995 312 m -11 Y s 1999 301 m cl s 2003 301 m -19 Y s 2006 282 m -8 Y s 2010 274 m -11 Y s 2014 263 m cl s 2018 263 m cl s 2022 263 m
 -4 Y s 2025 259 m -19 Y s 2029 240 m cl s 2033 240 m -16 Y s 2037 224 m cl s 2041 224 m cl s 245 1195 m 3 X s 248 1195 m 50 X 4 4 d 118 X 3 3 d 50 X 4 4 d 30 X 4 4 d 68 X 4 4 d 50 X 4 4 d 3 -4 d 4 X 4 4 d 19 X 4 3 d 19 X 4 4 d 26 X 4 4 d 8 X 3 4 d
 16 X 4 4 d 26 X 4 3 d 61 X 4 4 d 3 X 4 -4 d 4 X 4 4 d 4 X 3 -4 d 12 X 4 4 d 3 X 4 -4 d 4 4 d 4 -4 d 27 X 3 -3 d 4 X 4 -4 d 38 X 4 4 d 4 X 3 -4 d 8 X 4 -4 d 4 -4 d 26 X 4 -4 d 8 X 3 -3 d 12 X 4 -4 d 4 -4 d 3 X 4 -4 d 4 -4 d 4 -3 d 7 X 4 -4 d 4 -4 d 4
 X 4 -4 d 11 X 4 -4 d 4 X 3 -3 d 4 X 4 -4 d 4 -4 d 4 -4 d 3 X 4 -4 d 4 -4 d 4 -7 d 4 -4 d 3 X 4 -4 d 4 -4 d 4 -3 d 4 -4 d 3 -4 d 4 -4 d 4 -7 d 4 -4 d 4 -8 d 3 -4 d 4 -3 d 4 -8 d 4 -8 d 4 X 4 -3 d 3 -8 d 4 X 4 -8 d 4 -3 d 4 -4 d 3 -4 d 4 -4 d 4 -4 d 4
 -7 d 4 -4 d 3 -4 d 4 -4 d 4 -3 d 4 -8 d 4 -4 d 3 -4 d 4 -4 d 4 -7 d 4 -4 d 4 -4 d 3 -4 d 4 X 4 -3 d 4 -4 d 4 -8 d 3 -4 d 4 -3 d 4 -4 d 4 X 4 -4 d 3 X 4 -4 d 4 -7 d 4 -8 d 4 -8 d 3 -3 d 4 X 4 -8 d 4 X 4 -4 d 4 -7 d 3 -8 d 4 X 4 -4 d 4 -7 d 4 -4 d 3 X
 4 -4 d 4 -4 d 4 -4 d 4 -7 d 3 -4 d 4 -4 d 4 -4 d 4 -4 d 4 -7 d 3 -4 d 4 -8 d 4 -7 d 4 -4 d 4 -8 d 3 -7 d 4 -4 d 4 -11 d 4 -8 d 4 -8 d 3 -7 d 4 -4 d 4 -4 d 4 -4 d 4 -3 d 3 -4 d 4 -4 d 8 X 4 -4 d 3 -7 d 4 -4 d 4 -8 d 4 -4 d 4 -3 d 4 -4 d 3 -4 d 4 -4 d
 4 -4 d 4 -4 d 4 -3 d 3 -8 d 4 -4 d 4 -4 d 4 -7 d 4 -4 d 3 -4 d 4 -4 d 4 X 4 -7 d 4 -8 d 3 -11 d 4 -4 d 4 -8 d 4 -7 d 4 -4 d 3 -4 d 4 -4 d 4 -7 d 4 -4 d 4 -4 d 3 X 4 -4 d 4 -3 d 8 X 3 -8 d 4 -4 d 4 -4 d 4 -3 d 4 -8 d 3 -4 d 4 -4 d 4 -7 d 4 -4 d 4 -4
 d 4 -11 d 3 -8 d 4 -8 d 4 X 4 -3 d 4 -8 d 3 -4 d 4 X 4 -4 d 4 -7 d 4 X 3 -4 d 8 X 4 -8 d 4 -3 d 3 X 4 -4 d 4 -4 d 4 -4 d 4 -4 d 3 -3 d 4 -4 d 4 -4 d 4 -4 d 4 X 3 -7 d 4 -4 d 4 -8 d 4 -4 d 11 X 4 -7 d 4 X 4 -4 d 3 -4 d 4 -4 d 4 -4 d 4 -3 d 4 -4 d 4
 -4 d 3 X 4 -4 d 4 -4 d 11 X 4 -3 d 8 X 4 -4 d 3 -8 d 4 -4 d 12 X 3 -3 d 4 -4 d 4 X 4 -4 d 4 -4 d 34 X 4 -4 d 26 X 4 -3 d 4 -12 d 4 -7 d 4 -8 d 3 -15 d 4 -8 d 4 -7 d 8 X 3 -12 d 4 -11 d 4 -8 d 4 -8 d 4 X s black 3 lw 245 202 m 1796 X s 304 242 m -40
 Y s 360 222 m -20 Y s 416 222 m -20 Y s 472 222 m -20 Y s 528 242 m -40 Y s 584 222 m -20 Y s 641 222 m -20 Y s 697 222 m -20 Y s 753 242 m -40 Y s 809 222 m -20 Y s 865 222 m -20 Y s 921 222 m -20 Y s 977 242 m -40 Y s 1034 222 m -20 Y s 1090 222 m
 -20 Y s 1146 222 m -20 Y s 1202 242 m -40 Y s 1258 222 m -20 Y s 1314 222 m -20 Y s 1371 222 m -20 Y s 1427 242 m -40 Y s 1483 222 m -20 Y s 1539 222 m -20 Y s 1595 222 m -20 Y s 1651 242 m -40 Y s 1707 222 m -20 Y s 1764 222 m -20 Y s 1820 222 m
 -20 Y s 1876 242 m -40 Y s 304 242 m -40 Y s 247 222 m -20 Y s 1876 242 m -40 Y s 1932 222 m -20 Y s 1988 222 m -20 Y s 245 202 m 1143 Y s 291 202 m -46 X s 268 254 m -23 X s 268 306 m -23 X s 268 358 m -23 X s 291 410 m -46 X s 268 462 m -23 X s
 268 514 m -23 X s 268 566 m -23 X s 291 618 m -46 X s 268 670 m -23 X s 268 722 m -23 X s 268 774 m -23 X s 291 826 m -46 X s 268 878 m -23 X s 268 930 m -23 X s 268 982 m -23 X s 291 1034 m -46 X s 268 1086 m -23 X s 268 1137 m -23 X s 268 1189 m
 -23 X s 291 1241 m -46 X s 291 1241 m -46 X s 268 1293 m -23 X s 268 1345 m -23 X s 0.490196 0.545098 0.615686 c 0.95 0.95 0.95 c 0.490196 0.545098 0.615686 c 907 202 245 1345 bl 245 1345 m 907 X s 1152 1345 m 202 Y s 1152 1547 m -907 X s 245 1547 m
 -202 Y s black
 gsave  2268 1682 0 0 C 517.039 1473.94 t 0 r /Times-Italic findfont 57.0734 sf 0 0 m (Signal efficiency) show NC gr  0 0 0.933333 c 9 lw 286 1497 m 190 X s black
 gsave  2268 1682 0 0 C 517.039 1373.03 t 0 r /Times-Italic findfont 57.0734 sf 0 0 m (Background efficiency) show NC gr  1 0 0 c 286 1396 m 190 X s 0.490196 0.545098 0.615686 c 3 lw 0.95 0.95 0.95 c 0.490196 0.545098 0.615686 c 889 202 1152 1345 bl
 1152 1345 m 889 X s 2041 1345 m 202 Y s 2041 1547 m -889 X s 1152 1547 m -202 Y s black
 gsave  2268 1682 0 0 C 1418.68 1490.76 t 0 r /Times-Italic findfont 57.0734 sf 0 0 m (Signal purity) show NC gr  0 0 0.933333 c[  52 12 ] 0 sd 6 lw 1192 1514 m 187 X s black
 gsave  2268 1682 0 0 C 1418.68 1423.49 t 0 r /Times-Italic findfont 57.0734 sf 0 0 m (Signal efficiency*purity) show NC gr  0 0 0.933333 c[  22 12 ] 0 sd 1192 1446 m 187 X s black
 gsave  2268 1682 0 0 C 1418.68 1356.22 t 0 r /Times-Italic findfont 57.0734 sf 0 0 m (S/#sqrt{S+B}) show NC gr  0 0.666667 0 c[  ] 0 sd 9 lw 1192 1379 m 187 X s black 3 lw 245 1241 m 1796 X s
 gsave  2268 1682 0 0 C 338.636 388.099 t 0 r /Helvetica-Bold findfont 53.2685 sf 0 0 m (For 1000 signal and 1000 background) show NC gr 
 gsave  2268 1682 0 0 C 1061.57 319.611 t 0 r /Helvetica-Bold findfont 53.2685 sf 0 0 m ( is) show NC gr 
 gsave  2268 1682 0 0 C 958.833 319.611 t 0 r /Helvetica-Bold findfont 53.2685 sf 0 0 m (S+B) show NC gr  6 lw 936 361 m 8 -45 d s 0 lw 944 316 m 7 61 d s 951 377 m 111 X s
 gsave  2268 1682 0 0 C 338.636 319.611 t 0 r /Helvetica-Bold findfont 53.2685 sf 0 0 m (events the maximum S/) show NC gr 
 gsave  2268 1682 0 0 C 338.636 254.928 t 0 r /Helvetica-Bold findfont 53.2685 sf 0 0 m (23.43 when cutting at  0.30) show NC gr  0.490196 0.545098 0.615686 c 3 lw 0.364706 0.419608 0.490196 c 1476 96 23 1577 bf 0.490196 0.545098 0.615686 c 23 1577 m
 1476 X s 1499 1577 m 96 Y s 1499 1673 m -1476 X s 23 1673 m -96 Y s 1 1 1 c black 1 1 1 c
 gsave  2268 1682 0 0 C 76.0979 1605.67 t 0 r /Helvetica-Bold findfont 76.0979 sf 0 0 m (Cut efficiencies and optimal cut value) show NC gr  0 0.666667 0 c 2041 202 m 1143 Y s black 0 0.666667 0 c
 gsave  2268 1682 0 0 C 2203.03 966.443 t 90 r /Helvetica-Bold findfont 64.6832 sf 0 0 m (Significance) show NC gr  1995 202 m 46 X s 2018 246 m 23 X s 2018 291 m 23 X s 2018 335 m 23 X s 2018 379 m 23 X s 1995 424 m 46 X s 2018 468 m 23 X s 2018 512
 m 23 X s 2018 557 m 23 X s 2018 601 m 23 X s 1995 646 m 46 X s 2018 690 m 23 X s 2018 734 m 23 X s 2018 779 m 23 X s 2018 823 m 23 X s 1995 868 m 46 X s 2018 912 m 23 X s 2018 956 m 23 X s 2018 1001 m 23 X s 2018 1045 m 23 X s 1995 1089 m 46 X s
 2018 1134 m 23 X s 2018 1178 m 23 X s 2018 1223 m 23 X s 2018 1267 m 23 X s 1995 1311 m 46 X s 1995 1311 m 46 X s black 0 0.666667 0 c
 gsave  2268 1682 0 0 C 2050.84 178.83 t 0 r /Helvetica-Bold findfont 64.6832 sf 0 0 m (0) show NC gr  black 0 0.666667 0 c
 gsave  2268 1682 0 0 C 2050.84 399.514 t 0 r /Helvetica-Bold findfont 64.6832 sf 0 0 m (5) show NC gr  black 0 0.666667 0 c
 gsave  2268 1682 0 0 C 2050.84 620.198 t 0 r /Helvetica-Bold findfont 64.6832 sf 0 0 m (10) show NC gr  black 0 0.666667 0 c
 gsave  2268 1682 0 0 C 2050.84 840.881 t 0 r /Helvetica-Bold findfont 64.6832 sf 0 0 m (15) show NC gr  black 0 0.666667 0 c
 gsave  2268 1682 0 0 C 2050.84 1065.37 t 0 r /Helvetica-Bold findfont 64.6832 sf 0 0 m (20) show NC gr  black 0 0.666667 0 c
 gsave  2268 1682 0 0 C 2050.84 1286.05 t 0 r /Helvetica-Bold findfont 64.6832 sf 0 0 m (25) show NC gr 
 gr  gr showpage
end
%%EOF
