%!PS-Adobe-2.0 EPSF-2.0
%%BoundingBox:  0 0 567 420
%%Title: plots/mvaeffs_BDTD.eps: Cut efficiencies for BDTD classifier
%%Creator: ROOT Version 5.34/09
%%CreationDate: Thu Jan  2 18:35:58 2014
%%EndComments
%%BeginProlog
80 dict begin
/s {stroke} def /l {lineto} def /m {moveto} def /t {translate} def
/r {rotate} def /rl {roll}  def /R {repeat} def
/d {rlineto} def /rm {rmoveto} def /gr {grestore} def /f {eofill} def
/c {setrgbcolor} def /black {0 setgray} def /sd {setdash} def
/cl {closepath} def /sf {scalefont setfont} def /lw {setlinewidth} def
/box {m dup 0 exch d exch 0 d 0 exch neg d cl} def
/NC{systemdict begin initclip end}def/C{NC box clip newpath}def
/bl {box s} def /bf {box f} def /Y { 0 exch d} def /X { 0 d} def 
/K {{pop pop 0 moveto} exch kshow} bind def
/ita {/ang 15 def gsave [1 0 ang dup sin exch cos div 1 0 0] concat} def 
/mp {newpath /y exch def /x exch def} def
/side {[w .77 mul w .23 mul] .385 w mul sd w 0 l currentpoint t -144 r} def
/mr {mp x y w2 0 360 arc} def /m24 {mr s} def /m20 {mr f} def
/mb {mp x y w2 add m w2 neg 0 d 0 w neg d w 0 d 0 w d cl} def
/mt {mp x y w2 add m w2 neg w neg d w 0 d cl} def
/m21 {mb f} def /m25 {mb s} def /m22 {mt f} def /m26{mt s} def
/m23 {mp x y w2 sub m w2 w d w neg 0 d cl f} def
/m27 {mp x y w2 add m w3 neg w2 neg d w3 w2 neg d w3 w2 d cl s} def
/m28 {mp x w2 sub y w2 sub w3 add m w3 0 d  0 w3 neg d w3 0 d 0 w3 d w3 0 d  0 w3 d w3 neg 0 d 0 w3 d w3 neg 0 d 0 w3 neg d w3 neg 0 d cl s } def
/m29 {mp gsave x w2 sub y w2 add w3 sub m currentpoint t 4 {side} repeat cl fill gr} def
/m30 {mp gsave x w2 sub y w2 add w3 sub m currentpoint t 4 {side} repeat cl s gr} def
/m31 {mp x y w2 sub m 0 w d x w2 sub y m w 0 d x w2 sub y w2 add m w w neg d x w2 sub y w2 sub m w w d s} def
/m32 {mp x y w2 sub m w2 w d w neg 0 d cl s} def
/m33 {mp x y w2 add m w3 neg w2 neg d w3 w2 neg d w3 w2 d cl f} def
/m34 {mp x w2 sub y w2 sub w3 add m w3 0 d  0 w3 neg d w3 0 d 0 w3 d w3 0 d  0 w3 d w3 neg 0 d 0 w3 d w3 neg 0 d 0 w3 neg d w3 neg 0 d cl f } def
/m2 {mp x y w2 sub m 0 w d x w2 sub y m w 0 d s} def
/m5 {mp x w2 sub y w2 sub m w w d x w2 sub y w2 add m w w neg d s} def
/reEncode {exch findfont dup length dict begin {1 index /FID eq  {pop pop} {def} ifelse } forall /Encoding exch def currentdict end dup /FontName get exch definefont pop } def [/Times-Bold /Times-Italic /Times-BoldItalic /Helvetica /Helvetica-Oblique
 /Helvetica-Bold /Helvetica-BoldOblique /Courier /Courier-Oblique /Courier-Bold /Courier-BoldOblique /Times-Roman /AvantGarde-Book /AvantGarde-BookOblique /AvantGarde-Demi /AvantGarde-DemiOblique /Bookman-Demi /Bookman-DemiItalic /Bookman-Light
 /Bookman-LightItalic /Helvetica-Narrow /Helvetica-Narrow-Bold /Helvetica-Narrow-BoldOblique /Helvetica-Narrow-Oblique /NewCenturySchlbk-Roman /NewCenturySchlbk-Bold /NewCenturySchlbk-BoldItalic /NewCenturySchlbk-Italic /Palatino-Bold
 /Palatino-BoldItalic /Palatino-Italic /Palatino-Roman ] {ISOLatin1Encoding reEncode } forall
%%EndProlog
%%BeginSetup
%%EndSetup
newpath  gsave  .25 .25 scale  gsave  0 0 t 0.490196 0.545098 0.615686 c[  ] 0 sd 3 lw 0.941176 0.941176 0.941176 c 2268 1682 0 0 bf black 1 1 0.992157 c 1796 1143 245 202 bf black 1796 1143 245 202 bl 1 1 0.992157 c 1796 1143 245 202 bf black 1796
 1143 245 202 bl 245 202 m 1796 X s[ 4 8] 0 sd 303 1345 m -1143 Y s 604 1345 m -1143 Y s 904 1345 m -1143 Y s 1205 1345 m -1143 Y s 1505 1345 m -1143 Y s 1806 1345 m -1143 Y s 303 1345 m -1143 Y s 1806 1345 m -1143 Y s[  ] 0 sd 245 202 m 1143 Y s[ 4
 8] 0 sd 2041 202 m -1796 X s 2041 410 m -1796 X s 2041 618 m -1796 X s 2041 826 m -1796 X s 2041 1034 m -1796 X s 2041 1241 m -1796 X s 2041 1241 m -1796 X s 0 0 0.933333 c[  22 12 ] 0 sd 6 lw 0.49 0.6 0.82 c black 0 0 0.933333 c 245 723 m cl s 248
 723 m cl s 252 723 m cl s 256 723 m cl s 260 723 m cl s 264 723 m cl s 267 723 m cl s 271 723 m cl s 275 723 m cl s 279 723 m cl s 283 723 m cl s 287 723 m cl s 290 723 m cl s 294 723 m cl s 298 723 m cl s 302 723 m cl s 306 723 m cl s 309 723 m cl
 s 313 723 m cl s 317 723 m cl s 321 723 m cl s 325 723 m cl s 328 723 m cl s 332 723 m cl s 336 723 m cl s 340 723 m cl s 344 723 m cl s 347 727 m -4 Y s 351 727 m cl s 355 727 m cl s 359 727 m cl s 363 727 m cl s 366 727 m cl s 370 727 m cl s 374
 727 m cl s 378 727 m cl s 382 727 m cl s 385 727 m cl s 389 727 m cl s 393 727 m cl s 397 727 m cl s 401 727 m cl s 404 727 m cl s 408 727 m cl s 412 727 m cl s 416 727 m cl s 420 727 m cl s 423 727 m cl s 427 727 m cl s 431 727 m cl s 435 727 m cl
 s 439 727 m cl s 443 727 m cl s 446 727 m cl s 450 727 m cl s 454 731 m -4 Y s 458 731 m cl s 462 731 m cl s 465 731 m cl s 469 731 m cl s 473 731 m cl s 477 731 m cl s 481 731 m cl s 484 731 m cl s 488 731 m cl s 492 734 m -3 Y s 496 734 m cl s 500
 734 m cl s 503 734 m cl s 507 734 m cl s 511 734 m cl s 515 734 m cl s 519 738 m -4 Y s 522 738 m cl s 526 738 m cl s 530 738 m cl s 534 738 m cl s 538 738 m cl s 541 738 m cl s 545 742 m -4 Y s 549 742 m cl s 553 742 m cl s 557 742 m cl s 560 742 m
 cl s 564 746 m -4 Y s 568 746 m cl s 572 746 m cl s 576 746 m cl s 579 750 m -4 Y s 583 750 m cl s 587 750 m cl s 591 753 m -3 Y s 595 753 m cl s 599 753 m cl s 602 753 m cl s 606 753 m cl s 610 757 m -4 Y s 614 757 m cl s 618 757 m cl s 621 757 m
 cl s 625 761 m -4 Y s 629 761 m cl s 633 761 m cl s 637 765 m -4 Y s 640 765 m cl s 644 765 m cl s 648 769 m -4 Y s 652 769 m cl s 656 769 m cl s 659 772 m -3 Y s 663 772 m cl s 667 776 m -4 Y s 671 780 m -4 Y s 675 780 m cl s 678 780 m cl s 682 784
 m -4 Y s 686 788 m -4 Y s 690 788 m cl s 694 791 m -3 Y s 697 795 m -4 Y s 701 795 m cl s 705 799 m -4 Y s 709 799 m cl s 713 803 m -4 Y s 716 803 m cl s 720 807 m -4 Y s 724 810 m cl s 728 814 m -4 Y s 732 818 m -4 Y s 735 822 m -4 Y s 739 826 m -4
 Y s 743 829 m -3 Y s 747 829 m cl s 751 833 m -4 Y s 755 837 m -4 Y s 758 845 m -8 Y s 762 848 m -3 Y s 766 852 m -4 Y s 770 856 m -4 Y s 774 864 m -8 Y s 777 868 m -4 Y s 781 871 m -3 Y s 785 879 m -8 Y s 789 883 m -4 Y s 793 887 m -4 Y s 796 890 m
 -3 Y s 800 894 m -4 Y s 804 898 m -4 Y s 808 902 m -4 Y s 812 902 m cl s 815 906 m -4 Y s 819 909 m -3 Y s 823 913 m -4 Y s 827 917 m -8 Y s 831 925 m -8 Y s 834 928 m -3 Y s 838 936 m -8 Y s 842 944 m -8 Y s 846 947 m -3 Y s 850 951 m -4 Y s 853
 955 m -4 Y s 857 959 m -8 Y s 861 959 m cl s 865 963 m -4 Y s 869 970 m -7 Y s 872 966 m cl s 876 966 m -3 Y s 880 966 m -3 Y s 884 966 m -3 Y s 888 970 m -4 Y s 891 970 m -4 Y s 895 970 m -4 Y s 899 970 m -4 Y s 903 970 m -4 Y s 907 970 m -4 Y s
 911 974 m -8 Y s 914 974 m -4 Y s 918 970 m -4 Y s 922 970 m -7 Y s 926 970 m -7 Y s 930 963 m -4 Y s 933 959 m -4 Y s 937 955 m -8 Y s 941 947 m -3 Y s 945 944 m -8 Y s 949 940 m -8 Y s 952 932 m -11 Y s 956 921 m -8 Y s 960 913 m -7 Y s 964 906 m
 -4 Y s 968 898 m -8 Y s 971 887 m -4 Y s 975 883 m -8 Y s 979 875 m -11 Y s 983 864 m -8 Y s 987 856 m -8 Y s 990 848 m -7 Y s 994 841 m -4 Y s 998 833 m -7 Y s 1002 822 m -4 Y s 1006 818 m -4 Y s 1009 814 m -15 Y s 1013 799 m -4 Y s 1017 791 m -11
 Y s 1021 780 m -8 Y s 1025 769 m -16 Y s 1028 753 m -7 Y s 1032 746 m -12 Y s 1036 734 m -11 Y s 1040 723 m -8 Y s 1044 715 m -7 Y s 1047 708 m -12 Y s 1051 696 m -7 Y s 1055 689 m -12 Y s 1059 677 m -7 Y s 1063 670 m -8 Y s 1067 662 m cl s 1070 662
 m -11 Y s 1074 651 m -12 Y s 1078 639 m -4 Y s 1082 635 m -7 Y s 1086 628 m -12 Y s 1089 616 m -11 Y s 1093 605 m -8 Y s 1097 597 m -11 Y s 1101 586 m -4 Y s 1105 582 m -7 Y s 1108 575 m -8 Y s 1112 567 m -4 Y s 1116 559 m cl s 1120 559 m -3 Y s
 1124 556 m -8 Y s 1127 544 m -4 Y s 1131 540 m -7 Y s 1135 533 m -4 Y s 1139 529 m -8 Y s 1143 521 m -4 Y s 1146 517 m -3 Y s 1150 514 m -4 Y s 1154 510 m -8 Y s 1158 502 m -11 Y s 1162 491 m -4 Y s 1165 487 m -4 Y s 1169 483 m -7 Y s 1173 476 m -12
 Y s 1177 464 m -4 Y s 1181 460 m -3 Y s 1184 457 m -4 Y s 1188 453 m -8 Y s 1192 445 m -7 Y s 1196 438 m -4 Y s 1200 434 m -4 Y s 1203 430 m -4 Y s 1207 426 m -7 Y s 1211 419 m -4 Y s 1215 415 m -4 Y s 1219 411 m -8 Y s 1223 403 m -3 Y s 1226 400 m
 -4 Y s 1230 396 m -4 Y s 1234 392 m cl s 1238 388 m -4 Y s 1242 384 m -7 Y s 1245 377 m -4 Y s 1249 373 m -4 Y s 1253 369 m -4 Y s 1257 365 m -4 Y s 1261 361 m cl s 1264 361 m -3 Y s 1268 358 m -4 Y s 1272 354 m -8 Y s 1276 346 m cl s 1280 346 m -7
 Y s 1283 339 m cl s 1287 339 m -4 Y s 1291 335 m -4 Y s 1295 331 m -4 Y s 1299 327 m cl s 1302 327 m -4 Y s 1306 323 m cl s 1310 320 m cl s 1314 320 m -4 Y s 1318 316 m -4 Y s 1321 312 m cl s 1325 312 m cl s 1329 312 m -4 Y s 1333 308 m -4 Y s 1337
 304 m cl s 1340 304 m -3 Y s 1344 301 m cl s 1348 301 m -4 Y s 1352 297 m cl s 1356 297 m -4 Y s 1359 293 m cl s 1363 293 m cl s 1367 293 m -4 Y s 1371 289 m cl s 1375 289 m -4 Y s 1379 285 m cl s 1382 285 m cl s 1386 285 m cl s 1390 285 m -3 Y s
 1394 282 m cl s 1398 282 m -4 Y s 1401 278 m cl s 1405 278 m -4 Y s 1409 274 m cl s 1413 274 m cl s 1417 274 m cl s 1420 270 m cl s 1424 270 m -4 Y s 1428 266 m cl s 1432 266 m cl s 1436 266 m -3 Y s 1439 263 m cl s 1443 263 m -4 Y s 1447 259 m -4 Y
 s 1451 255 m cl s 1455 255 m cl s 1458 255 m -4 Y s 1462 251 m cl s 1466 251 m cl s 1470 251 m cl s 1474 251 m cl s 1477 251 m cl s 1481 251 m -4 Y s 1485 247 m cl s 1489 247 m cl s 1493 247 m -3 Y s 1496 244 m cl s 1500 244 m cl s 1504 244 m cl s
 1508 244 m -4 Y s 1512 240 m cl s 1515 240 m cl s 1519 240 m -4 Y s 1523 236 m cl s 1527 236 m cl s 1531 236 m cl s 1535 236 m cl s 1538 232 m cl s 1542 232 m cl s 1546 232 m cl s 1550 232 m cl s 1554 232 m -4 Y s 1557 228 m cl s 1561 228 m cl s
 1565 228 m cl s 1569 228 m cl s 1573 228 m cl s 1576 228 m -4 Y s 1580 224 m cl s 1584 224 m cl s 1588 224 m cl s 1592 224 m cl s 1595 224 m cl s 1599 224 m cl s 1603 224 m -3 Y s 1607 221 m cl s 1611 221 m cl s 1614 221 m cl s 1618 221 m cl s 1622
 221 m cl s 1626 221 m cl s 1630 221 m cl s 1633 221 m cl s 1637 221 m cl s 1641 221 m cl s 1645 221 m cl s 1649 221 m -4 Y s 1652 217 m cl s 1656 217 m cl s 1660 217 m cl s 1664 217 m cl s 1668 217 m cl s 1671 217 m cl s 1675 217 m cl s 1679 217 m
 cl s 1683 217 m -4 Y s 1687 213 m cl s 1691 213 m cl s 1694 213 m cl s 1698 213 m cl s 1702 213 m cl s 1706 213 m cl s 1710 213 m cl s 1713 213 m cl s 1717 213 m cl s 1721 213 m cl s 1725 213 m cl s 1729 213 m cl s 1732 213 m cl s 1736 213 m cl s
 1740 213 m cl s 1744 213 m cl s 1748 213 m cl s 1751 213 m cl s 1755 213 m cl s 1759 213 m cl s 1763 213 m cl s 1767 213 m -4 Y s 1770 209 m cl s 1774 209 m cl s 1778 209 m cl s 1782 209 m cl s 1786 209 m cl s 1789 209 m cl s 1793 209 m cl s 1797
 209 m cl s 1801 209 m cl s 1805 209 m cl s 1808 209 m cl s 1812 209 m cl s 1816 209 m cl s 1820 209 m cl s 1824 209 m cl s 1827 209 m cl s 1831 209 m cl s 1835 209 m cl s 1839 209 m cl s 1843 209 m cl s 1847 209 m cl s 1850 209 m cl s 1854 209 m cl
 s 1858 209 m cl s 1862 209 m cl s 1866 209 m cl s 1869 209 m cl s 1873 209 m cl s 245 723 m 99 X 3 4 d 103 X 4 4 d 34 X 4 3 d 23 X 4 4 d 22 X 4 4 d 15 X 4 4 d 12 X 3 4 d 8 X 4 3 d 15 X 4 4 d 11 X 4 4 d 8 X 4 4 d 7 X 4 4 d 8 X 3 3 d 4 X 4 4 d 4 4 d 7
 X 4 4 d 4 4 d 4 X 4 3 d 3 4 d 4 X 4 4 d 4 X 4 4 d 3 X 4 4 d 4 3 d 4 4 d 4 4 d 3 4 d 4 4 d 4 3 d 4 X 4 4 d 4 4 d 3 4 d 4 7 d 4 4 d 4 4 d 4 4 d 3 8 d 4 3 d 4 4 d 4 8 d 4 4 d 3 3 d 4 4 d 4 4 d 4 4 d 4 X 3 4 d 4 3 d 4 4 d 4 X 4 8 d 3 7 d 4 4 d 4 8 d 4 7
 d 4 4 d 3 4 d 4 X 4 4 d 4 4 d 4 3 d 15 X 4 4 d 23 X 3 4 d 4 -4 d 4 -4 d 4 X 4 -3 d 3 -4 d 4 -8 d 4 -4 d 4 -7 d 4 -4 d 3 -8 d 4 -11 d 4 -8 d 4 -3 d 4 -12 d 3 -7 d 4 -8 d 4 -8 d 4 -11 d 4 -8 d 3 -7 d 4 -4 d 4 -12 d 4 -7 d 4 -4 d 3 -11 d 4 -8 d 4 -11 d
 4 -12 d 4 -15 d 3 -11 d 4 -8 d 4 -11 d 4 -12 d 4 -7 d 3 -8 d 4 -12 d 4 -7 d 4 -12 d 4 -7 d 4 -4 d 3 -4 d 4 -11 d 4 -8 d 4 -7 d 4 -8 d 3 -11 d 4 -12 d 4 -7 d 4 -8 d 4 -8 d 3 -7 d 4 -4 d 4 -8 d 4 X 4 -7 d 3 -8 d 4 -8 d 4 -3 d 4 -8 d 4 -4 d 3 -4 d 4 -3
 d 4 -8 d 4 -8 d 4 -7 d 3 -4 d 4 -8 d 4 -7 d 4 -8 d 4 -4 d 3 -3 d 4 -8 d 4 -8 d 4 -3 d 4 -4 d 3 -4 d 4 -8 d 4 -3 d 4 -4 d 4 -8 d 4 -4 d 3 -3 d 4 -4 d 4 -4 d 4 -4 d 4 -8 d 3 -3 d 4 -4 d 4 -4 d 4 -4 d 4 -4 d 3 X 4 -3 d 4 -8 d 4 -4 d 4 -4 d 3 -3 d 4 X 4
 -4 d 4 -4 d 4 -4 d 3 X 4 -4 d 4 -3 d 4 X 4 -4 d 3 -4 d 8 X 4 -4 d 4 -4 d 3 X 4 -3 d 4 X 4 -4 d 4 X 3 -4 d 8 X 4 -4 d 4 X 4 -4 d 11 X 4 -3 d 4 X 3 -4 d 4 X 4 -4 d 8 X 3 -4 d 4 X 4 -4 d 8 X 3 -3 d 4 X 4 -4 d 4 -4 d 7 X 4 -4 d 19 X 4 -4 d 8 X 3 -3 d 12
 X 4 -4 d 7 X 4 -4 d 12 X 3 -4 d 16 X 3 -4 d 19 X 4 -4 d 23 X 4 -3 d 42 X 3 -4 d 31 X 4 -4 d 80 X 3 -4 d 103 X s black[  ] 0 sd 3 lw 245 202 m 1796 X s
 gsave  2268 1682 0 0 C 867.516 30.4391 t 0 r /Helvetica-Bold findfont 72.293 sf 0 0 m (Cut value applied on BDTD output) show NC gr  303 242 m -40 Y s 363 222 m -20 Y s 423 222 m -20 Y s 483 222 m -20 Y s 544 222 m -20 Y s 604 242 m -40 Y s 664 222
 m -20 Y s 724 222 m -20 Y s 784 222 m -20 Y s 844 222 m -20 Y s 904 242 m -40 Y s 964 222 m -20 Y s 1024 222 m -20 Y s 1085 222 m -20 Y s 1145 222 m -20 Y s 1205 242 m -40 Y s 1265 222 m -20 Y s 1325 222 m -20 Y s 1385 222 m -20 Y s 1445 222 m -20 Y
 s 1505 242 m -40 Y s 1565 222 m -20 Y s 1626 222 m -20 Y s 1686 222 m -20 Y s 1746 222 m -20 Y s 1806 242 m -40 Y s 303 242 m -40 Y s 1806 242 m -40 Y s 1866 222 m -20 Y s 1926 222 m -20 Y s 1986 222 m -20 Y s
 gsave  2268 1682 0 0 C 243.513 129.366 t 0 r /Helvetica-Bold findfont 64.6832 sf 0 0 m (\2550.2) show NC gr 
 gsave  2268 1682 0 0 C 547.905 129.366 t 0 r /Helvetica-Bold findfont 64.6832 sf 0 0 m (\2550.1) show NC gr 
 gsave  2268 1682 0 0 C 882.735 129.366 t 0 r /Helvetica-Bold findfont 64.6832 sf 0 0 m (0) show NC gr 
 gsave  2268 1682 0 0 C 1160.49 129.366 t 0 r /Helvetica-Bold findfont 64.6832 sf 0 0 m (0.1) show NC gr 
 gsave  2268 1682 0 0 C 1457.27 129.366 t 0 r /Helvetica-Bold findfont 64.6832 sf 0 0 m (0.2) show NC gr 
 gsave  2268 1682 0 0 C 1757.86 129.366 t 0 r /Helvetica-Bold findfont 64.6832 sf 0 0 m (0.3) show NC gr  245 202 m 1143 Y s
 gsave  2268 1682 0 0 C 64.6832 734.344 t 90 r /Helvetica-Bold findfont 72.293 sf 0 0 m (Efficiency \(Purity\)) show NC gr  291 202 m -46 X s 268 254 m -23 X s 268 306 m -23 X s 268 358 m -23 X s 291 410 m -46 X s 268 462 m -23 X s 268 514 m -23 X s
 268 566 m -23 X s 291 618 m -46 X s 268 670 m -23 X s 268 722 m -23 X s 268 774 m -23 X s 291 826 m -46 X s 268 878 m -23 X s 268 930 m -23 X s 268 982 m -23 X s 291 1034 m -46 X s 268 1086 m -23 X s 268 1137 m -23 X s 268 1189 m -23 X s 291 1241 m
 -46 X s 291 1241 m -46 X s 268 1293 m -23 X s 268 1345 m -23 X s
 gsave  2268 1682 0 0 C 182.635 178.83 t 0 r /Helvetica-Bold findfont 64.6832 sf 0 0 m (0) show NC gr 
 gsave  2268 1682 0 0 C 129.366 384.294 t 0 r /Helvetica-Bold findfont 64.6832 sf 0 0 m (0.2) show NC gr 
 gsave  2268 1682 0 0 C 125.561 593.563 t 0 r /Helvetica-Bold findfont 64.6832 sf 0 0 m (0.4) show NC gr 
 gsave  2268 1682 0 0 C 129.366 799.028 t 0 r /Helvetica-Bold findfont 64.6832 sf 0 0 m (0.6) show NC gr 
 gsave  2268 1682 0 0 C 125.561 1008.3 t 0 r /Helvetica-Bold findfont 64.6832 sf 0 0 m (0.8) show NC gr 
 gsave  2268 1682 0 0 C 190.245 1217.57 t 0 r /Helvetica-Bold findfont 64.6832 sf 0 0 m (1) show NC gr  0 0 0.933333 c[  52 12 ] 0 sd 6 lw 0.49 0.6 0.82 c black 0 0 0.933333 c 248 723 m cl s 252 723 m cl s 256 723 m cl s 260 723 m cl s 264 723 m cl s
 267 723 m cl s 271 723 m cl s 275 723 m cl s 279 723 m cl s 283 723 m cl s 287 723 m cl s 290 723 m cl s 294 723 m cl s 298 723 m cl s 302 723 m cl s 306 723 m cl s 309 723 m cl s 313 723 m cl s 317 723 m cl s 321 723 m cl s 325 723 m cl s 328 723 m
 cl s 332 723 m cl s 336 723 m cl s 340 723 m cl s 344 723 m cl s 347 727 m -4 Y s 351 727 m cl s 355 727 m cl s 359 727 m cl s 363 727 m cl s 366 727 m cl s 370 727 m cl s 374 727 m cl s 378 727 m cl s 382 727 m cl s 385 727 m cl s 389 727 m cl s
 393 727 m cl s 397 727 m cl s 401 727 m cl s 404 727 m cl s 408 727 m cl s 412 727 m cl s 416 727 m cl s 420 727 m cl s 423 727 m cl s 427 727 m cl s 431 727 m cl s 435 727 m cl s 439 727 m cl s 443 727 m cl s 446 727 m cl s 450 727 m cl s 454 731 m
 -4 Y s 458 731 m cl s 462 731 m cl s 465 731 m cl s 469 731 m cl s 473 731 m cl s 477 731 m cl s 481 731 m cl s 484 731 m cl s 488 731 m cl s 492 734 m -3 Y s 496 734 m cl s 500 734 m cl s 503 734 m cl s 507 734 m cl s 511 734 m cl s 515 734 m cl s
 519 738 m -4 Y s 522 738 m cl s 526 738 m cl s 530 738 m cl s 534 738 m cl s 538 738 m cl s 541 738 m cl s 545 742 m -4 Y s 549 742 m cl s 553 742 m cl s 557 742 m cl s 560 742 m cl s 564 746 m -4 Y s 568 746 m cl s 572 746 m cl s 576 746 m cl s 579
 750 m -4 Y s 583 750 m cl s 587 750 m cl s 591 753 m -3 Y s 595 753 m cl s 599 753 m cl s 602 753 m cl s 606 753 m cl s 610 757 m -4 Y s 614 757 m cl s 618 757 m cl s 621 757 m cl s 625 761 m -4 Y s 629 761 m cl s 633 761 m cl s 637 765 m -4 Y s 640
 765 m cl s 644 765 m cl s 648 769 m -4 Y s 652 769 m cl s 656 769 m cl s 659 772 m -3 Y s 663 772 m cl s 667 776 m -4 Y s 671 780 m -4 Y s 675 780 m cl s 678 780 m cl s 682 784 m -4 Y s 686 788 m -4 Y s 690 788 m cl s 694 791 m -3 Y s 697 795 m -4 Y
 s 701 795 m cl s 705 799 m -4 Y s 709 803 m -4 Y s 713 803 m cl s 716 807 m -4 Y s 720 810 m -3 Y s 724 814 m -4 Y s 728 818 m -4 Y s 732 822 m -4 Y s 735 826 m -4 Y s 739 829 m -3 Y s 743 829 m cl s 747 833 m -4 Y s 751 837 m -4 Y s 755 841 m -4 Y
 s 758 845 m -4 Y s 762 852 m -7 Y s 766 856 m -4 Y s 770 860 m -4 Y s 774 868 m -8 Y s 777 875 m -7 Y s 781 879 m -4 Y s 785 883 m -4 Y s 789 887 m -4 Y s 793 894 m -7 Y s 796 898 m -4 Y s 800 906 m -8 Y s 804 909 m -3 Y s 808 913 m -4 Y s 812 921 m
 -8 Y s 815 925 m -4 Y s 819 932 m -7 Y s 823 936 m -4 Y s 827 944 m -8 Y s 831 951 m -7 Y s 834 959 m -8 Y s 838 970 m -11 Y s 842 978 m -8 Y s 846 985 m -7 Y s 850 989 m -4 Y s 853 997 m -8 Y s 857 1004 m -7 Y s 861 1008 m -4 Y s 865 1016 m -8 Y s
 869 1024 m -8 Y s 872 1027 m -3 Y s 876 1031 m -4 Y s 880 1039 m -4 Y s 884 1046 m -7 Y s 888 1054 m -8 Y s 891 1062 m -8 Y s 895 1069 m -4 Y s 899 1081 m -12 Y s 903 1088 m -7 Y s 907 1092 m -4 Y s 911 1103 m -11 Y s 914 1111 m -8 Y s 918 1115 m -4
 Y s 922 1122 m -7 Y s 926 1130 m -8 Y s 930 1134 m -4 Y s 933 1138 m -4 Y s 937 1141 m -3 Y s 941 1145 m -4 Y s 945 1149 m -4 Y s 949 1157 m -8 Y s 952 1160 m -3 Y s 956 1164 m -4 Y s 960 1168 m -4 Y s 964 1176 m -8 Y s 968 1176 m cl s 971 1180 m -4
 Y s 975 1183 m -3 Y s 979 1183 m cl s 983 1187 m -4 Y s 987 1191 m -4 Y s 990 1195 m -4 Y s 994 1199 m cl s 998 1199 m cl s 1002 1202 m -3 Y s 1006 1210 m -8 Y s 1009 1210 m cl s 1013 1210 m cl s 1017 1214 m -4 Y s 1021 1214 m cl s 1025 1214 m cl s
 1028 1218 m -4 Y s 1032 1221 m -3 Y s 1036 1225 m -4 Y s 1040 1225 m cl s 1044 1225 m cl s 1047 1229 m -4 Y s 1051 1229 m cl s 1055 1229 m cl s 1059 1229 m cl s 1063 1229 m cl s 1067 1229 m cl s 1070 1233 m -4 Y s 1074 1233 m cl s 1078 1237 m -4 Y s
 1082 1237 m cl s 1086 1237 m cl s 1089 1237 m cl s 1093 1237 m cl s 1097 1237 m -4 Y s 1101 1233 m cl s 1105 1233 m cl s 1108 1233 m cl s 1112 1233 m cl s 1116 1237 m -4 Y s 1120 1237 m cl s 1124 1237 m cl s 1127 1237 m cl s 1131 1237 m cl s 1135
 1237 m cl s 1139 1237 m cl s 1143 1240 m -3 Y s 1146 1240 m cl s 1150 1240 m cl s 1154 1240 m cl s 1158 1240 m cl s 1162 1240 m cl s 1165 1240 m cl s 1169 1240 m cl s 1173 1240 m cl s 1177 1240 m cl s 1181 1240 m cl s 1184 1240 m cl s 1188 1240 m cl
 s 1192 1240 m cl s 1196 1240 m cl s 1200 1240 m cl s 1203 1240 m cl s 1207 1240 m cl s 1211 1240 m cl s 1215 1240 m cl s 1219 1240 m cl s 1223 1240 m cl s 1226 1240 m cl s 1230 1244 m -4 Y s 1234 1244 m cl s 1238 1244 m cl s 1242 1244 m cl s 1245
 1244 m cl s 1249 1244 m cl s 1253 1244 m cl s 1257 1244 m cl s 1261 1244 m cl s 1264 1244 m cl s 1268 1244 m cl s 1272 1244 m cl s 1276 1244 m cl s 1280 1244 m cl s 1283 1244 m cl s 1287 1244 m cl s 1291 1244 m cl s 1295 1244 m cl s 1299 1244 m cl s
 1302 1244 m cl s 1306 1244 m cl s 1310 1244 m cl s 1314 1244 m cl s 1318 1244 m cl s 1321 1244 m cl s 1325 1244 m cl s 1329 1244 m cl s 1333 1244 m cl s 1337 1244 m cl s 1340 1244 m cl s 1344 1244 m cl s 1348 1244 m cl s 1352 1244 m cl s 1356 1244 m
 cl s 1359 1244 m cl s 1363 1244 m cl s 1367 1244 m cl s 1371 1244 m cl s 1375 1244 m cl s 1379 1244 m cl s 1382 1244 m cl s 1386 1244 m cl s 1390 1244 m cl s 1394 1244 m cl s 1398 1244 m cl s 1401 1244 m cl s 1405 1244 m cl s 1409 1244 m cl s 1413
 1244 m cl s 1417 1244 m cl s 1420 1244 m cl s 1424 1244 m cl s 1428 1244 m cl s 1432 1244 m cl s 1436 1244 m cl s 1439 1244 m cl s 1443 1244 m cl s 1447 1244 m cl s 1451 1244 m cl s 1455 1244 m cl s 1458 1244 m cl s 1462 1244 m cl s 1466 1244 m cl s
 1470 1244 m cl s 1474 1244 m cl s 1477 1244 m cl s 1481 1244 m cl s 1485 1244 m cl s 1489 1244 m cl s 1493 1244 m cl s 1496 1244 m cl s 1500 1244 m cl s 1504 1244 m cl s 1508 1244 m cl s 1512 1244 m cl s 1515 1244 m cl s 1519 1244 m cl s 1523 1244 m
 cl s 1527 1244 m cl s 1531 1244 m cl s 1535 1244 m cl s 1538 1244 m cl s 1542 1244 m cl s 1546 1244 m cl s 1550 1244 m cl s 1554 1244 m cl s 1557 1244 m cl s 1561 1244 m cl s 1565 1244 m cl s 1569 1244 m cl s 1573 1244 m cl s 1576 1244 m cl s 1580
 1244 m cl s 1584 1244 m cl s 1588 1244 m cl s 1592 1244 m cl s 1595 1244 m cl s 1599 1244 m cl s 1603 1244 m cl s 1607 1244 m cl s 1611 1244 m cl s 1614 1244 m cl s 1618 1244 m cl s 1622 1244 m cl s 1626 1244 m cl s 1630 1244 m cl s 1633 1244 m cl s
 1637 1244 m cl s 1641 1244 m cl s 1645 1244 m cl s 1649 1244 m cl s 1652 1244 m cl s 1656 1244 m cl s 1660 1244 m cl s 1664 1244 m cl s 1668 1244 m cl s 1671 1244 m cl s 1675 1244 m cl s 1679 1244 m cl s 1683 1244 m cl s 1687 1244 m cl s 1691 1244 m
 cl s 1694 1244 m cl s 1698 1244 m cl s 1702 1244 m cl s 1706 1244 m cl s 1710 1244 m cl s 1713 1244 m cl s 1717 1244 m cl s 1721 1244 m cl s 1725 1244 m cl s 1729 1244 m cl s 1732 1244 m cl s 1736 1244 m cl s 1740 1244 m cl s 1744 1244 m cl s 1748
 1244 m cl s 1751 1244 m cl s 1755 1244 m cl s 1759 1244 m cl s 1763 1244 m cl s 1767 1244 m cl s 1770 1244 m cl s 1774 1244 m cl s 1778 1244 m cl s 1782 1244 m cl s 1786 1244 m cl s 1789 1244 m cl s 1793 1244 m cl s 1797 1244 m cl s 1801 1244 m cl s
 1805 1244 m cl s 1808 1244 m cl s 1812 1244 m cl s 1816 1244 m cl s 1820 1244 m cl s 1824 1244 m cl s 1827 1244 m cl s 1831 1244 m cl s 1835 1244 m cl s 1839 1244 m cl s 1843 1244 m cl s 1847 1244 m cl s 1850 1244 m cl s 1854 1244 m cl s 1858 1244 m
 cl s 1862 1244 m cl s 1866 1244 m cl s 1869 1244 m cl s 1873 1244 m cl s 1877 1244 m cl s 1881 1244 m cl s 1885 1244 m cl s 1888 1244 m cl s 1892 1244 m cl s 1896 1244 m cl s 1900 1244 m cl s 1904 1244 m cl s 1907 1244 m cl s 1911 1244 m cl s 1915
 1244 m cl s 1919 1244 m cl s 1923 1244 m cl s 1926 1244 m cl s 1930 1244 m cl s 1934 1244 m cl s 1938 1244 m cl s 1942 1244 m cl s 1945 1244 m cl s 1949 1244 m cl s 1953 1244 m cl s 1957 1244 m cl s 1961 1244 m cl s 1964 1244 m cl s 1968 1244 m cl s
 1972 1244 m cl s 1976 1244 m cl s 1980 1244 m cl s 1983 1244 m cl s 1987 1244 m cl s 1991 1244 m cl s 1995 1244 m cl s 1999 1244 m cl s 2003 1244 m cl s 2006 1244 m cl s 2010 1244 m cl s 2014 1244 m cl s 2018 1244 m cl s 2022 1244 m cl s 2025 1244 m
 cl s 2029 1244 m cl s 2033 1244 m cl s 2037 1244 m cl s 2041 1244 m cl s 245 723 m 3 X s 248 723 m 96 X 3 4 d 103 X 4 4 d 34 X 4 3 d 23 X 4 4 d 22 X 4 4 d 15 X 4 4 d 12 X 3 4 d 8 X 4 3 d 15 X 4 4 d 11 X 4 4 d 8 X 4 4 d 7 X 4 4 d 8 X 3 3 d 4 X 4 4 d
 4 4 d 7 X 4 4 d 4 4 d 4 X 4 3 d 3 4 d 4 X 4 4 d 4 4 d 4 X 3 4 d 4 3 d 4 4 d 4 4 d 4 4 d 3 4 d 4 3 d 4 X 4 4 d 4 4 d 4 4 d 3 4 d 4 3 d 4 8 d 4 4 d 4 4 d 3 7 d 4 8 d 4 4 d 4 4 d 4 3 d 3 8 d 4 4 d 4 7 d 4 4 d 4 4 d 3 8 d 4 3 d 4 8 d 4 4 d 4 7 d 3 8 d 4
 11 d 4 8 d 4 8 d 4 7 d 3 4 d 4 8 d 4 7 d 4 4 d 4 8 d 3 7 d 4 4 d 4 8 d 4 4 d 4 7 d 3 8 d 4 11 d 4 8 d 4 7 d 4 8 d 4 8 d 3 7 d 4 8 d 4 4 d 4 7 d 4 8 d 3 4 d 4 3 d 4 4 d 4 4 d 4 4 d 3 7 d 4 4 d 4 4 d 4 4 d 4 4 d 3 4 d 4 3 d 4 X 4 4 d 4 4 d 3 4 d 4 4 d
 4 X 4 3 d 4 4 d 3 4 d 4 X 4 4 d 8 X 3 4 d 4 3 d 4 4 d 8 X 3 4 d 20 X 3 4 d 4 X 4 4 d 19 X 4 -4 d 11 X 4 4 d 23 X 4 3 d 83 X 4 4 d 811 X s[  ] 0 sd 9 lw 0.49 0.6 0.82 c black 0 0 0.933333 c 248 1244 m cl s 252 1244 m cl s 256 1244 m cl s 260 1244 m
 cl s 264 1244 m cl s 267 1244 m cl s 271 1244 m cl s 275 1244 m cl s 279 1244 m cl s 283 1244 m cl s 287 1244 m cl s 290 1244 m cl s 294 1244 m cl s 298 1244 m cl s 302 1244 m cl s 306 1244 m cl s 309 1244 m cl s 313 1244 m cl s 317 1244 m cl s 321
 1244 m cl s 325 1244 m cl s 328 1244 m cl s 332 1244 m cl s 336 1244 m cl s 340 1244 m cl s 344 1244 m cl s 347 1244 m cl s 351 1244 m cl s 355 1244 m cl s 359 1244 m cl s 363 1244 m cl s 366 1244 m cl s 370 1244 m cl s 374 1244 m cl s 378 1244 m cl
 s 382 1244 m cl s 385 1244 m cl s 389 1244 m cl s 393 1244 m cl s 397 1244 m cl s 401 1244 m cl s 404 1244 m cl s 408 1244 m cl s 412 1244 m cl s 416 1244 m cl s 420 1244 m cl s 423 1244 m cl s 427 1244 m cl s 431 1244 m cl s 435 1244 m cl s 439
 1244 m cl s 443 1244 m cl s 446 1244 m cl s 450 1244 m cl s 454 1244 m cl s 458 1244 m cl s 462 1244 m cl s 465 1244 m cl s 469 1244 m cl s 473 1244 m cl s 477 1244 m cl s 481 1244 m cl s 484 1244 m cl s 488 1244 m cl s 492 1244 m cl s 496 1244 m cl
 s 500 1244 m cl s 503 1244 m cl s 507 1244 m cl s 511 1244 m cl s 515 1244 m cl s 519 1244 m cl s 522 1244 m cl s 526 1244 m cl s 530 1244 m cl s 534 1244 m cl s 538 1244 m cl s 541 1244 m cl s 545 1244 m cl s 549 1244 m cl s 553 1244 m cl s 557
 1244 m cl s 560 1244 m cl s 564 1244 m cl s 568 1244 m cl s 572 1244 m cl s 576 1244 m cl s 579 1244 m cl s 583 1244 m cl s 587 1244 m cl s 591 1244 m cl s 595 1244 m cl s 599 1244 m cl s 602 1244 m cl s 606 1244 m cl s 610 1244 m cl s 614 1244 m cl
 s 618 1244 m cl s 621 1244 m cl s 625 1244 m cl s 629 1244 m cl s 633 1244 m cl s 637 1244 m cl s 640 1244 m cl s 644 1244 m cl s 648 1244 m cl s 652 1244 m cl s 656 1244 m cl s 659 1244 m cl s 663 1244 m cl s 667 1244 m cl s 671 1244 m cl s 675
 1244 m cl s 678 1244 m cl s 682 1244 m cl s 686 1244 m cl s 690 1244 m cl s 694 1244 m cl s 697 1244 m cl s 701 1244 m cl s 705 1244 m -4 Y s 709 1240 m cl s 713 1240 m cl s 716 1240 m cl s 720 1240 m cl s 724 1240 m cl s 728 1240 m cl s 732 1240 m
 cl s 735 1240 m cl s 739 1240 m cl s 743 1240 m cl s 747 1240 m cl s 751 1240 m cl s 755 1240 m -3 Y s 758 1237 m cl s 762 1237 m cl s 766 1237 m cl s 770 1237 m cl s 774 1237 m cl s 777 1237 m cl s 781 1237 m cl s 785 1237 m -4 Y s 789 1233 m cl s
 793 1233 m -4 Y s 796 1229 m cl s 800 1229 m -4 Y s 804 1225 m cl s 808 1225 m cl s 812 1225 m -7 Y s 815 1218 m -4 Y s 819 1214 m -4 Y s 823 1210 m -4 Y s 827 1206 m cl s 831 1206 m cl s 834 1206 m -4 Y s 838 1202 m -3 Y s 842 1199 m cl s 846 1199
 m -4 Y s 850 1195 m cl s 853 1195 m -8 Y s 857 1187 m -4 Y s 861 1183 m -3 Y s 865 1180 m -4 Y s 869 1176 m -4 Y s 872 1172 m -8 Y s 876 1164 m -7 Y s 880 1157 m -4 Y s 884 1153 m -8 Y s 888 1145 m -7 Y s 891 1138 m -8 Y s 895 1130 m -11 Y s 899
 1119 m -8 Y s 903 1111 m -8 Y s 907 1103 m -7 Y s 911 1096 m -4 Y s 914 1092 m -11 Y s 918 1081 m -8 Y s 922 1073 m -8 Y s 926 1065 m -7 Y s 930 1058 m -12 Y s 933 1046 m -7 Y s 937 1039 m -8 Y s 941 1027 m -7 Y s 945 1020 m -8 Y s 949 1012 m -15 Y
 s 952 997 m -12 Y s 956 985 m -11 Y s 960 974 m -11 Y s 964 959 m -8 Y s 968 947 m -11 Y s 971 936 m -8 Y s 975 928 m -11 Y s 979 917 m -11 Y s 983 902 m -8 Y s 987 894 m -11 Y s 990 883 m -12 Y s 994 871 m -7 Y s 998 864 m -12 Y s 1002 852 m -11 Y
 s 1006 841 m -8 Y s 1009 833 m -11 Y s 1013 822 m -8 Y s 1017 810 m -11 Y s 1021 799 m -11 Y s 1025 788 m -16 Y s 1028 769 m -8 Y s 1032 761 m -11 Y s 1036 746 m -12 Y s 1040 734 m -7 Y s 1044 727 m -12 Y s 1047 715 m -11 Y s 1051 704 m -8 Y s 1055
 696 m -11 Y s 1059 685 m -8 Y s 1063 677 m -7 Y s 1067 670 m -4 Y s 1070 666 m -12 Y s 1074 654 m -11 Y s 1078 643 m -4 Y s 1082 639 m -7 Y s 1086 632 m -12 Y s 1089 620 m -11 Y s 1093 609 m -8 Y s 1097 601 m -11 Y s 1101 590 m -4 Y s 1105 586 m -8
 Y s 1108 578 m -7 Y s 1112 571 m -8 Y s 1116 563 m -4 Y s 1120 559 m -3 Y s 1124 556 m -8 Y s 1127 548 m -4 Y s 1131 540 m -4 Y s 1135 536 m -7 Y s 1139 529 m -4 Y s 1143 525 m -8 Y s 1146 517 m -3 Y s 1150 514 m -4 Y s 1154 510 m -8 Y s 1158 502 m
 -11 Y s 1162 491 m -4 Y s 1165 487 m -4 Y s 1169 483 m -7 Y s 1173 476 m -12 Y s 1177 464 m -4 Y s 1181 460 m -3 Y s 1184 457 m -4 Y s 1188 453 m -8 Y s 1192 445 m -7 Y s 1196 438 m -4 Y s 1200 434 m -4 Y s 1203 430 m -4 Y s 1207 426 m -7 Y s 1211
 419 m -4 Y s 1215 415 m -4 Y s 1219 411 m -8 Y s 1223 403 m -3 Y s 1226 400 m -4 Y s 1230 396 m -4 Y s 1234 392 m cl s 1238 388 m -4 Y s 1242 384 m -7 Y s 1245 377 m -4 Y s 1249 373 m -4 Y s 1253 369 m -4 Y s 1257 365 m -4 Y s 1261 361 m cl s 1264
 361 m -3 Y s 1268 358 m -4 Y s 1272 354 m -8 Y s 1276 346 m cl s 1280 346 m -7 Y s 1283 339 m cl s 1287 339 m -4 Y s 1291 335 m -4 Y s 1295 331 m -4 Y s 1299 327 m cl s 1302 327 m -4 Y s 1306 323 m cl s 1310 320 m cl s 1314 320 m -4 Y s 1318 316 m
 -4 Y s 1321 312 m cl s 1325 312 m cl s 1329 312 m -4 Y s 1333 308 m -4 Y s 1337 304 m cl s 1340 304 m -3 Y s 1344 301 m cl s 1348 301 m -4 Y s 1352 297 m cl s 1356 297 m -4 Y s 1359 293 m cl s 1363 293 m cl s 1367 293 m -4 Y s 1371 289 m cl s 1375
 289 m -4 Y s 1379 285 m cl s 1382 285 m cl s 1386 285 m cl s 1390 285 m -3 Y s 1394 282 m cl s 1398 282 m -4 Y s 1401 278 m cl s 1405 278 m -4 Y s 1409 274 m cl s 1413 274 m cl s 1417 274 m cl s 1420 270 m cl s 1424 270 m -4 Y s 1428 266 m cl s 1432
 266 m cl s 1436 266 m -3 Y s 1439 263 m cl s 1443 263 m -4 Y s 1447 259 m -4 Y s 1451 255 m cl s 1455 255 m cl s 1458 255 m -4 Y s 1462 251 m cl s 1466 251 m cl s 1470 251 m cl s 1474 251 m cl s 1477 251 m cl s 1481 251 m -4 Y s 1485 247 m cl s 1489
 247 m cl s 1493 247 m -3 Y s 1496 244 m cl s 1500 244 m cl s 1504 244 m cl s 1508 244 m -4 Y s 1512 240 m cl s 1515 240 m cl s 1519 240 m -4 Y s 1523 236 m cl s 1527 236 m cl s 1531 236 m cl s 1535 236 m cl s 1538 232 m cl s 1542 232 m cl s 1546 232
 m cl s 1550 232 m cl s 1554 232 m -4 Y s 1557 228 m cl s 1561 228 m cl s 1565 228 m cl s 1569 228 m cl s 1573 228 m cl s 1576 228 m -4 Y s 1580 224 m cl s 1584 224 m cl s 1588 224 m cl s 1592 224 m cl s 1595 224 m cl s 1599 224 m cl s 1603 224 m -3
 Y s 1607 221 m cl s 1611 221 m cl s 1614 221 m cl s 1618 221 m cl s 1622 221 m cl s 1626 221 m cl s 1630 221 m cl s 1633 221 m cl s 1637 221 m cl s 1641 221 m cl s 1645 221 m cl s 1649 221 m -4 Y s 1652 217 m cl s 1656 217 m cl s 1660 217 m cl s
 1664 217 m cl s 1668 217 m cl s 1671 217 m cl s 1675 217 m cl s 1679 217 m cl s 1683 217 m -4 Y s 1687 213 m cl s 1691 213 m cl s 1694 213 m cl s 1698 213 m cl s 1702 213 m cl s 1706 213 m cl s 1710 213 m cl s 1713 213 m cl s 1717 213 m cl s 1721
 213 m cl s 1725 213 m cl s 1729 213 m cl s 1732 213 m cl s 1736 213 m cl s 1740 213 m cl s 1744 213 m cl s 1748 213 m cl s 1751 213 m cl s 1755 213 m cl s 1759 213 m cl s 1763 213 m cl s 1767 213 m -4 Y s 1770 209 m cl s 1774 209 m cl s 1778 209 m
 cl s 1782 209 m cl s 1786 209 m cl s 1789 209 m cl s 1793 209 m cl s 1797 209 m cl s 1801 209 m cl s 1805 209 m cl s 1808 209 m cl s 1812 209 m cl s 1816 209 m cl s 1820 209 m cl s 1824 209 m cl s 1827 209 m cl s 1831 209 m cl s 1835 209 m cl s 1839
 209 m cl s 1843 209 m cl s 1847 209 m cl s 1850 209 m cl s 1854 209 m cl s 1858 209 m cl s 1862 209 m cl s 1866 209 m cl s 1869 209 m cl s 1873 209 m cl s 245 1244 m 3 X s 248 1244 m 457 X 4 -4 d 46 X 3 -3 d 27 X 4 -4 d 4 X 3 -4 d 4 X 4 -4 d 4 X 4
 -4 d 3 -3 d 4 -4 d 4 -4 d 4 -4 d 7 X 4 -4 d 4 -3 d 4 X 4 -4 d 3 -4 d 4 -4 d 4 -4 d 4 -3 d 4 -4 d 3 -8 d 4 -8 d 4 -3 d 4 -8 d 4 -8 d 3 -7 d 4 -8 d 4 -11 d 4 -8 d 4 -7 d 4 -4 d 3 -8 d 4 -11 d 4 -8 d 4 -7 d 4 -8 d 3 -11 d 4 -8 d 4 -11 d 4 -8 d 4 -12 d
 3 -11 d 4 -11 d 4 -12 d 4 -15 d 4 -11 d 3 -12 d 4 -7 d 4 -12 d 4 -15 d 4 -8 d 3 -11 d 4 -11 d 4 -8 d 4 -12 d 4 -11 d 3 -8 d 4 -11 d 4 -11 d 4 -12 d 4 -15 d 3 -15 d 4 -8 d 4 -15 d 4 -11 d 4 -8 d 3 -11 d 4 -12 d 4 -8 d 4 -11 d 4 -8 d 4 -3 d 3 -8 d 4
 -11 d 4 -8 d 4 -8 d 4 -7 d 3 -12 d 4 -11 d 4 -8 d 4 -7 d 4 -8 d 3 -7 d 4 -8 d 4 -4 d 4 -4 d 4 -7 d 3 -4 d 4 -8 d 4 -7 d 4 -4 d 4 -8 d 3 -4 d 4 -3 d 4 -8 d 4 -8 d 4 -7 d 3 -4 d 4 -8 d 4 -7 d 4 -8 d 4 -4 d 3 -3 d 4 -8 d 4 -8 d 4 -3 d 4 -4 d 3 -4 d 4
 -8 d 4 -3 d 4 -4 d 4 -8 d 4 -4 d 3 -3 d 4 -4 d 4 -4 d 4 -4 d 4 -8 d 3 -3 d 4 -4 d 4 -4 d 4 -4 d 4 -4 d 3 X 4 -3 d 4 -8 d 4 -4 d 4 -4 d 3 -3 d 4 X 4 -4 d 4 -4 d 4 -4 d 3 X 4 -4 d 4 -3 d 4 X 4 -4 d 3 -4 d 8 X 4 -4 d 4 -4 d 3 X 4 -3 d 4 X 4 -4 d 4 X 3
 -4 d 8 X 4 -4 d 4 X 4 -4 d 11 X 4 -3 d 4 X 3 -4 d 4 X 4 -4 d 8 X 3 -4 d 4 X 4 -4 d 8 X 3 -3 d 4 X 4 -4 d 4 -4 d 7 X 4 -4 d 19 X 4 -4 d 8 X 3 -3 d 12 X 4 -4 d 7 X 4 -4 d 12 X 3 -4 d 16 X 3 -4 d 19 X 4 -4 d 23 X 4 -3 d 42 X 3 -4 d 31 X 4 -4 d 80 X 3
 -4 d 103 X s 1 0 0 c black 1 0 0 c 248 1240 m cl s 252 1240 m cl s 256 1240 m cl s 260 1240 m cl s 264 1240 m cl s 267 1240 m cl s 271 1240 m cl s 275 1240 m cl s 279 1240 m cl s 283 1240 m cl s 287 1240 m cl s 290 1240 m cl s 294 1240 m cl s 298
 1240 m cl s 302 1240 m cl s 306 1240 m cl s 309 1240 m cl s 313 1240 m cl s 317 1240 m cl s 321 1240 m cl s 325 1240 m cl s 328 1240 m cl s 332 1240 m cl s 336 1240 m cl s 340 1240 m cl s 344 1240 m cl s 347 1240 m -3 Y s 351 1237 m cl s 355 1237 m
 cl s 359 1237 m cl s 363 1237 m cl s 366 1237 m cl s 370 1237 m cl s 374 1237 m cl s 378 1237 m cl s 382 1237 m cl s 385 1237 m cl s 389 1237 m cl s 393 1237 m cl s 397 1237 m cl s 401 1237 m cl s 404 1237 m -4 Y s 408 1233 m cl s 412 1233 m cl s
 416 1233 m cl s 420 1233 m -4 Y s 423 1229 m cl s 427 1229 m cl s 431 1229 m cl s 435 1229 m cl s 439 1229 m cl s 443 1229 m -4 Y s 446 1225 m cl s 450 1225 m -4 Y s 454 1221 m cl s 458 1221 m cl s 462 1221 m cl s 465 1221 m -3 Y s 469 1218 m cl s
 473 1218 m cl s 477 1218 m -4 Y s 481 1214 m cl s 484 1214 m -4 Y s 488 1210 m cl s 492 1210 m -4 Y s 496 1206 m cl s 500 1206 m -4 Y s 503 1202 m -3 Y s 507 1199 m cl s 511 1199 m -4 Y s 515 1195 m cl s 519 1195 m -4 Y s 522 1191 m cl s 526 1191 m
 cl s 530 1191 m -8 Y s 534 1183 m cl s 538 1183 m -3 Y s 541 1180 m cl s 545 1180 m -4 Y s 549 1176 m cl s 553 1176 m -4 Y s 557 1172 m cl s 560 1172 m -4 Y s 564 1168 m -4 Y s 568 1164 m cl s 572 1164 m -4 Y s 576 1160 m -3 Y s 579 1157 m -8 Y s
 583 1149 m -4 Y s 587 1145 m -4 Y s 591 1141 m -3 Y s 595 1138 m -4 Y s 599 1134 m -4 Y s 602 1130 m -4 Y s 606 1126 m cl s 610 1126 m -4 Y s 614 1122 m -3 Y s 618 1119 m -4 Y s 621 1115 m -4 Y s 625 1111 m cl s 629 1111 m -4 Y s 633 1107 m -4 Y s
 637 1103 m -7 Y s 640 1096 m -4 Y s 644 1088 m cl s 648 1088 m -7 Y s 652 1081 m -4 Y s 656 1077 m -8 Y s 659 1069 m -4 Y s 663 1065 m -7 Y s 667 1058 m -4 Y s 671 1054 m -8 Y s 675 1046 m -7 Y s 678 1039 m -4 Y s 682 1035 m -8 Y s 686 1027 m -7 Y s
 690 1020 m -8 Y s 694 1012 m -8 Y s 697 1004 m -7 Y s 701 997 m -12 Y s 705 985 m -7 Y s 709 978 m -8 Y s 713 970 m -4 Y s 716 966 m -7 Y s 720 959 m -12 Y s 724 944 m -8 Y s 728 936 m -11 Y s 732 925 m -12 Y s 735 913 m -7 Y s 739 902 m -12 Y s 743
 890 m -3 Y s 747 887 m -8 Y s 751 879 m -8 Y s 755 868 m -12 Y s 758 856 m -11 Y s 762 841 m -12 Y s 766 829 m -11 Y s 770 818 m -11 Y s 774 803 m -12 Y s 777 791 m -19 Y s 781 772 m -11 Y s 785 761 m -11 Y s 789 750 m -12 Y s 793 738 m -15 Y s 796
 723 m -8 Y s 800 715 m -15 Y s 804 700 m -11 Y s 808 689 m -12 Y s 812 677 m -11 Y s 815 662 m -11 Y s 819 651 m -12 Y s 823 635 m -11 Y s 827 624 m -15 Y s 831 609 m -15 Y s 834 594 m -16 Y s 838 578 m -19 Y s 842 559 m -11 Y s 846 544 m -11 Y s
 850 533 m -8 Y s 853 525 m -11 Y s 857 514 m -16 Y s 861 498 m -11 Y s 865 487 m -11 Y s 869 476 m -16 Y s 872 460 m -3 Y s 876 453 m -8 Y s 880 445 m -7 Y s 884 434 m -8 Y s 888 426 m -15 Y s 891 411 m -11 Y s 895 396 m -12 Y s 899 384 m -11 Y s
 903 373 m -12 Y s 907 361 m -7 Y s 911 354 m -12 Y s 914 339 m -8 Y s 918 331 m -4 Y s 922 327 m -7 Y s 926 320 m -12 Y s 930 308 m -7 Y s 933 301 m -4 Y s 937 297 m -4 Y s 941 293 m -4 Y s 945 289 m -4 Y s 949 285 m -7 Y s 952 278 m -4 Y s 956 270
 m -4 Y s 960 266 m -3 Y s 964 263 m -8 Y s 968 255 m cl s 971 255 m -4 Y s 975 251 m -4 Y s 979 247 m cl s 983 247 m -3 Y s 987 244 m -4 Y s 990 240 m -4 Y s 994 236 m -4 Y s 998 232 m cl s 1002 232 m cl s 1006 232 m -8 Y s 1009 224 m cl s 1013 224
 m cl s 1017 224 m -3 Y s 1021 221 m cl s 1025 221 m cl s 1028 221 m -4 Y s 1032 217 m cl s 1036 217 m -4 Y s 1040 213 m cl s 1044 213 m cl s 1047 213 m -4 Y s 1051 209 m cl s 1055 209 m cl s 1059 209 m cl s 1063 209 m cl s 1067 209 m cl s 1070 209 m
 cl s 1074 209 m cl s 1078 209 m cl s 245 1244 m 3 -4 d s 248 1240 m 99 X 4 -3 d 53 X 4 -4 d 12 X 3 -4 d 20 X 3 -4 d 4 X 4 -4 d 11 X 4 -3 d 8 X 4 -4 d 3 X 4 -4 d 4 X 4 -4 d 4 X 3 -4 d 4 -3 d 4 X 4 -4 d 4 X 3 -4 d 4 X 4 -4 d 4 -4 d 4 X 3 -3 d 4 X 4 -4
 d 4 X 4 -4 d 3 X 4 -4 d 4 -4 d 4 X 4 -4 d 3 -7 d 4 -4 d 4 -4 d 4 -4 d 4 -3 d 4 -4 d 3 -4 d 4 -4 d 4 X 4 -4 d 4 -3 d 3 -4 d 4 -4 d 4 X 4 -4 d 4 -7 d 3 -4 d 4 -8 d 4 -4 d 4 -3 d 4 -8 d 3 -4 d 4 -7 d 4 -4 d 4 -8 d 4 -7 d 3 -4 d 4 -8 d 4 -7 d 4 -8 d 4
 -8 d 3 -7 d 4 -8 d 4 -11 d 4 -8 d 4 -4 d 3 -7 d 4 -8 d 4 -15 d 4 -8 d 4 -11 d 3 -12 d 4 -11 d 4 -8 d 4 -7 d 4 -8 d 4 -11 d 3 -12 d 4 -15 d 4 -11 d 4 -12 d 4 -15 d 3 -15 d 4 -15 d 4 -12 d 4 -11 d 4 -15 d 3 -12 d 4 -11 d 4 -12 d 4 -11 d 4 -12 d 3 -15
 d 4 -11 d 4 -15 d 4 -16 d 4 -15 d 3 -15 d 4 -15 d 4 -15 d 4 -16 d 4 -11 d 3 -8 d 4 -15 d 4 -11 d 4 -12 d 4 -15 d 3 -8 d 4 -11 d 4 -8 d 4 -11 d 4 -11 d 3 -12 d 4 -15 d 4 -12 d 4 -11 d 4 -11 d 4 -8 d 3 -15 d 4 -4 d 4 -8 d 4 -7 d 4 -12 d 3 -3 d 4 -4 d
 4 -4 d 4 -4 d 4 -7 d 3 -4 d 4 -8 d 4 -4 d 4 -7 d 4 -4 d 3 X 4 -4 d 4 -4 d 4 X 4 -3 d 3 -4 d 4 -4 d 4 -4 d 4 X 4 -4 d 3 -4 d 8 X 4 -3 d 7 X 4 -4 d 4 X 4 -4 d 7 X 4 -4 d 27 X s 0 0.666667 0 c 1 1 1 c black 0 0.666667 0 c 248 1058 m cl s 252 1058 m cl
 s 256 1058 m cl s 260 1058 m cl s 264 1058 m cl s 267 1058 m cl s 271 1058 m cl s 275 1058 m cl s 279 1058 m cl s 283 1058 m cl s 287 1058 m cl s 290 1058 m cl s 294 1058 m cl s 298 1058 m cl s 302 1058 m cl s 306 1058 m cl s 309 1058 m cl s 313
 1058 m cl s 317 1058 m cl s 321 1058 m cl s 325 1058 m cl s 328 1058 m cl s 332 1058 m cl s 336 1058 m cl s 340 1058 m cl s 344 1058 m cl s 347 1058 m cl s 351 1058 m cl s 355 1058 m cl s 359 1058 m cl s 363 1058 m cl s 366 1058 m cl s 370 1058 m cl
 s 374 1058 m cl s 378 1058 m cl s 382 1058 m cl s 385 1058 m cl s 389 1058 m cl s 393 1058 m cl s 397 1058 m cl s 401 1058 m cl s 404 1058 m cl s 408 1062 m -4 Y s 412 1062 m cl s 416 1062 m cl s 420 1062 m cl s 423 1062 m cl s 427 1062 m cl s 431
 1062 m cl s 435 1062 m cl s 439 1062 m cl s 443 1062 m cl s 446 1062 m cl s 450 1062 m cl s 454 1062 m cl s 458 1062 m cl s 462 1062 m cl s 465 1062 m cl s 469 1062 m cl s 473 1062 m cl s 477 1065 m -3 Y s 481 1065 m cl s 484 1065 m cl s 488 1065 m
 cl s 492 1065 m cl s 496 1065 m cl s 500 1065 m cl s 503 1065 m cl s 507 1065 m cl s 511 1069 m -4 Y s 515 1069 m cl s 519 1069 m cl s 522 1069 m cl s 526 1069 m cl s 530 1069 m cl s 534 1069 m cl s 538 1069 m cl s 541 1069 m cl s 545 1073 m -4 Y s
 549 1073 m cl s 553 1073 m cl s 557 1073 m cl s 560 1073 m cl s 564 1073 m cl s 568 1073 m cl s 572 1077 m -4 Y s 576 1077 m cl s 579 1077 m cl s 583 1077 m cl s 587 1081 m cl s 591 1081 m cl s 595 1081 m cl s 599 1081 m cl s 602 1084 m -3 Y s 606
 1084 m cl s 610 1084 m cl s 614 1084 m cl s 618 1084 m cl s 621 1084 m cl s 625 1088 m -4 Y s 629 1088 m cl s 633 1088 m cl s 637 1088 m cl s 640 1092 m -4 Y s 644 1092 m cl s 648 1092 m cl s 652 1096 m -4 Y s 656 1096 m cl s 659 1096 m cl s 663
 1100 m -4 Y s 667 1100 m cl s 671 1100 m cl s 675 1103 m -3 Y s 678 1103 m cl s 682 1107 m -4 Y s 686 1107 m cl s 690 1111 m -4 Y s 694 1111 m cl s 697 1115 m -4 Y s 701 1115 m cl s 705 1119 m -4 Y s 709 1119 m cl s 713 1119 m cl s 716 1122 m -3 Y s
 720 1126 m -4 Y s 724 1126 m cl s 728 1130 m -4 Y s 732 1134 m -4 Y s 735 1134 m cl s 739 1138 m -4 Y s 743 1141 m -3 Y s 747 1141 m cl s 751 1145 m -4 Y s 755 1149 m -4 Y s 758 1149 m cl s 762 1153 m cl s 766 1157 m -4 Y s 770 1160 m -3 Y s 774
 1164 m -4 Y s 777 1168 m -4 Y s 781 1172 m -4 Y s 785 1176 m -4 Y s 789 1180 m -4 Y s 793 1183 m -3 Y s 796 1183 m cl s 800 1187 m -4 Y s 804 1191 m -4 Y s 808 1191 m cl s 812 1195 m -4 Y s 815 1195 m cl s 819 1199 m -4 Y s 823 1202 m -3 Y s 827
 1206 m -7 Y s 831 1210 m -4 Y s 834 1214 m -4 Y s 838 1218 m -4 Y s 842 1221 m -3 Y s 846 1225 m -4 Y s 850 1229 m -4 Y s 853 1229 m cl s 857 1233 m -4 Y s 861 1233 m cl s 865 1237 m -4 Y s 869 1240 m -3 Y s 872 1240 m -3 Y s 876 1240 m -3 Y s 880
 1237 m cl s 884 1237 m cl s 888 1240 m -3 Y s 891 1240 m cl s 895 1240 m -3 Y s 899 1240 m -3 Y s 903 1240 m -3 Y s 907 1240 m -3 Y s 911 1240 m cl s 914 1244 m -4 Y s 918 1240 m cl s 922 1240 m -3 Y s 926 1240 m -3 Y s 930 1237 m -4 Y s 933 1233 m
 -4 Y s 937 1229 m -4 Y s 941 1225 m -4 Y s 945 1221 m -3 Y s 949 1221 m -7 Y s 952 1214 m -8 Y s 956 1206 m -4 Y s 960 1202 m -7 Y s 964 1195 m -4 Y s 968 1191 m -8 Y s 971 1183 m -3 Y s 975 1180 m -8 Y s 979 1176 m -8 Y s 983 1164 m -4 Y s 987 1160
 m -3 Y s 990 1153 m -4 Y s 994 1149 m -4 Y s 998 1145 m -7 Y s 1002 1138 m -8 Y s 1006 1134 m -4 Y s 1009 1130 m -11 Y s 1013 1119 m -4 Y s 1017 1111 m -8 Y s 1021 1103 m -7 Y s 1025 1096 m -12 Y s 1028 1081 m -4 Y s 1032 1077 m -8 Y s 1036 1069 m
 -11 Y s 1040 1058 m -8 Y s 1044 1050 m -7 Y s 1047 1046 m -11 Y s 1051 1035 m -8 Y s 1055 1027 m -7 Y s 1059 1020 m -8 Y s 1063 1012 m -4 Y s 1067 1008 m -4 Y s 1070 1004 m -7 Y s 1074 997 m -12 Y s 1078 985 m -3 Y s 1082 982 m -8 Y s 1086 974 m -11
 Y s 1089 963 m -8 Y s 1093 955 m -8 Y s 1097 947 m -11 Y s 1101 936 m -4 Y s 1105 932 m -7 Y s 1108 925 m -8 Y s 1112 917 m -4 Y s 1116 913 m -4 Y s 1120 909 m -3 Y s 1124 906 m -8 Y s 1127 898 m -8 Y s 1131 890 m -7 Y s 1135 883 m -4 Y s 1139 879 m
 -8 Y s 1143 871 m -7 Y s 1146 864 m cl s 1150 864 m -4 Y s 1154 856 m -8 Y s 1158 848 m -7 Y s 1162 841 m -8 Y s 1165 833 m -4 Y s 1169 829 m -7 Y s 1173 822 m -12 Y s 1177 810 m -3 Y s 1181 803 m -4 Y s 1184 799 m -8 Y s 1188 791 m -7 Y s 1192 784
 m -8 Y s 1196 776 m -4 Y s 1200 772 m -3 Y s 1203 769 m -8 Y s 1207 761 m -8 Y s 1211 750 m cl s 1215 750 m -8 Y s 1219 742 m -8 Y s 1223 734 m -7 Y s 1226 727 m -4 Y s 1230 723 m -4 Y s 1234 719 m -4 Y s 1238 715 m -7 Y s 1242 708 m -12 Y s 1245
 696 m -7 Y s 1249 689 m -4 Y s 1253 681 m cl s 1257 681 m -8 Y s 1261 673 m -3 Y s 1264 670 m -4 Y s 1268 666 m -8 Y s 1272 658 m -7 Y s 1276 651 m -4 Y s 1280 647 m -8 Y s 1283 639 m -4 Y s 1287 635 m -3 Y s 1291 632 m -4 Y s 1295 628 m -8 Y s 1299
 620 m -4 Y s 1302 616 m cl s 1306 616 m -3 Y s 1310 609 m -4 Y s 1314 605 m cl s 1318 601 m -7 Y s 1321 594 m cl s 1325 594 m -4 Y s 1329 590 m -4 Y s 1333 586 m -4 Y s 1337 582 m -4 Y s 1340 578 m -3 Y s 1344 575 m -4 Y s 1348 571 m -8 Y s 1352 563
 m cl s 1356 563 m -4 Y s 1359 559 m cl s 1363 559 m -3 Y s 1367 556 m -4 Y s 1371 552 m cl s 1375 552 m -8 Y s 1379 544 m -4 Y s 1382 540 m cl s 1386 540 m cl s 1390 540 m -4 Y s 1394 536 m -3 Y s 1398 533 m -4 Y s 1401 529 m cl s 1405 529 m -8 Y s
 1409 521 m cl s 1413 521 m cl s 1417 521 m -4 Y s 1420 514 m -8 Y s 1424 506 m -4 Y s 1428 502 m cl s 1432 502 m -4 Y s 1436 498 m -3 Y s 1439 495 m cl s 1443 495 m -12 Y s 1447 483 m -7 Y s 1451 476 m cl s 1455 476 m -8 Y s 1458 468 m -4 Y s 1462
 464 m cl s 1466 464 m cl s 1470 464 m -4 Y s 1474 460 m cl s 1477 460 m cl s 1481 460 m -7 Y s 1485 453 m -4 Y s 1489 449 m -4 Y s 1493 445 m cl s 1496 445 m cl s 1500 445 m cl s 1504 445 m -7 Y s 1508 438 m -4 Y s 1512 434 m cl s 1515 434 m -4 Y s
 1519 426 m -4 Y s 1523 422 m cl s 1527 422 m -3 Y s 1531 419 m -4 Y s 1535 415 m -4 Y s 1538 407 m cl s 1542 403 m cl s 1546 403 m -3 Y s 1550 400 m -4 Y s 1554 396 m -4 Y s 1557 392 m -4 Y s 1561 388 m cl s 1565 388 m cl s 1569 388 m -4 Y s 1573
 384 m cl s 1576 384 m -4 Y s 1580 380 m -3 Y s 1584 377 m cl s 1588 377 m cl s 1592 377 m cl s 1595 377 m -4 Y s 1599 373 m -4 Y s 1603 369 m -4 Y s 1607 365 m cl s 1611 365 m cl s 1614 365 m cl s 1618 365 m cl s 1622 365 m -7 Y s 1626 358 m cl s
 1630 358 m cl s 1633 358 m cl s 1637 358 m -4 Y s 1641 354 m cl s 1645 354 m -4 Y s 1649 350 m -4 Y s 1652 346 m cl s 1656 346 m cl s 1660 346 m cl s 1664 346 m -4 Y s 1668 342 m cl s 1671 342 m cl s 1675 342 m -3 Y s 1679 339 m -8 Y s 1683 331 m -4
 Y s 1687 327 m cl s 1691 327 m -4 Y s 1694 323 m cl s 1698 323 m cl s 1702 323 m cl s 1706 323 m cl s 1710 323 m cl s 1713 323 m cl s 1717 323 m cl s 1721 323 m cl s 1725 323 m cl s 1729 323 m cl s 1732 323 m cl s 1736 323 m -7 Y s 1740 316 m cl s
 1744 316 m -4 Y s 1748 312 m cl s 1751 312 m cl s 1755 312 m -4 Y s 1759 308 m cl s 1763 308 m cl s 1767 308 m -4 Y s 1770 304 m cl s 1774 304 m cl s 1778 304 m cl s 1782 304 m cl s 1786 304 m cl s 1789 304 m -3 Y s 1793 301 m cl s 1797 301 m cl s
 1801 301 m cl s 1805 301 m cl s 1808 301 m cl s 1812 301 m cl s 1816 301 m cl s 1820 301 m cl s 1824 301 m cl s 1827 301 m cl s 1831 301 m cl s 1835 301 m -4 Y s 1839 297 m cl s 1843 297 m -4 Y s 1847 293 m -4 Y s 1850 289 m cl s 1854 289 m -4 Y s
 1858 285 m cl s 1862 285 m cl s 1866 282 m cl s 1869 282 m -4 Y s 1873 278 m -4 Y s 1877 274 m cl s 1881 274 m cl s 1885 274 m -4 Y s 1888 270 m cl s 1892 270 m cl s 1896 270 m cl s 1900 270 m cl s 1904 270 m -7 Y s 1907 263 m cl s 1911 263 m -4 Y s
 1915 259 m cl s 1919 259 m cl s 1923 259 m -4 Y s 1926 255 m cl s 1930 255 m cl s 1934 255 m cl s 1938 255 m cl s 1942 255 m -15 Y s 1945 240 m cl s 1949 240 m cl s 1953 240 m -4 Y s 1957 236 m cl s 1961 236 m cl s 1964 236 m cl s 1968 236 m cl s
 1972 236 m -8 Y s 1976 228 m cl s 1980 228 m cl s 1983 228 m cl s 1987 228 m cl s 1991 228 m cl s 1995 228 m cl s 1999 228 m cl s 2003 228 m cl s 2006 228 m cl s 2010 228 m cl s 2014 228 m cl s 2018 228 m cl s 2022 228 m cl s 2025 228 m cl s 2029
 228 m cl s 2033 228 m -7 Y s 2037 221 m cl s 2041 221 m cl s 245 1058 m 3 X s 248 1058 m 156 X 4 4 d 65 X 4 3 d 30 X 4 4 d 30 X 4 4 d 23 X 4 4 d 11 X 4 4 d 12 X 3 3 d 19 X 4 4 d 12 X 3 4 d 8 X 4 4 d 7 X 4 4 d 8 X 4 3 d 3 X 4 4 d 4 X 4 4 d 4 X 3 4 d
 4 X 4 4 d 8 X 3 3 d 4 4 d 4 X 4 4 d 4 4 d 3 X 4 4 d 4 3 d 4 X 4 4 d 4 4 d 3 X 4 4 d 4 4 d 4 3 d 4 4 d 3 4 d 4 4 d 4 4 d 4 4 d 4 3 d 3 X 4 4 d 4 4 d 4 X 4 4 d 3 X 4 4 d 4 3 d 4 X 4 8 d 3 4 d 4 4 d 4 3 d 4 4 d 4 4 d 3 X 4 4 d 4 X 4 4 d 4 3 d 7 X 4 -3
 d 4 X 4 3 d 23 X 3 4 d 4 -4 d 8 X 4 -3 d 3 -4 d 4 -4 d 4 -4 d 4 -4 d 4 -3 d 3 -8 d 4 -4 d 4 -7 d 4 -4 d 4 -8 d 3 -4 d 4 -7 d 4 -4 d 4 -8 d 4 -4 d 3 -7 d 4 -4 d 4 -8 d 4 -7 d 4 X 3 -8 d 4 -7 d 4 -12 d 4 -7 d 4 -8 d 3 -11 d 4 -8 d 4 -8 d 4 -11 d 4 -8
 d 3 -3 d 4 -12 d 4 -7 d 4 -8 d 4 -4 d 4 -4 d 3 -7 d 4 -8 d 4 -8 d 4 -7 d 4 -8 d 3 -11 d 4 -8 d 4 -7 d 4 -8 d 4 -8 d 3 -7 d 4 -4 d 4 -4 d 4 -4 d 4 -7 d 3 -8 d 4 -7 d 4 -4 d 4 -8 d 4 -7 d 3 -4 d 4 X 4 -12 d 4 -7 d 4 -8 d 3 -4 d 4 -7 d 4 -8 d 4 -8 d 4
 -7 d 3 -8 d 4 -7 d 4 -8 d 4 -4 d 4 -4 d 3 -7 d 4 -8 d 4 -7 d 4 -4 d 4 -8 d 4 -7 d 3 -4 d 4 -4 d 4 -4 d 4 -7 d 4 -8 d 3 -12 d 4 -3 d 4 -8 d 4 -4 d 4 -4 d 3 -3 d 4 -8 d 4 -8 d 4 -3 d 4 -8 d 3 -4 d 4 -4 d 4 -3 d 4 -8 d 4 -4 d 3 -4 d 4 X 4 -7 d 4 -4 d 4
 -8 d 3 -3 d 4 X 4 -4 d 4 -4 d 4 -4 d 3 -4 d 4 -3 d 4 -8 d 4 -4 d 4 X 3 -4 d 4 X 4 -3 d 4 -4 d 4 -4 d 4 -4 d 3 -4 d 8 X 4 -4 d 4 -3 d 3 -4 d 4 -4 d 4 -4 d 8 X 3 -11 d 4 -4 d 4 -4 d 4 X 4 -4 d 3 -3 d 4 -4 d 4 -12 d 4 -3 d 4 -4 d 3 -4 d 4 -4 d 8 X 4 -4
 d 3 X 4 -3 d 4 -4 d 4 -4 d 4 -4 d 7 X 4 -4 d 4 -3 d 4 -4 d 3 X 4 -8 d 4 -4 d 4 X 4 -3 d 4 -4 d 3 -8 d 4 -4 d 4 X 4 -3 d 4 -4 d 3 -4 d 4 -4 d 8 X 4 -4 d 3 X 4 -4 d 4 -3 d 11 X 4 -4 d 4 -4 d 4 -4 d 11 X 4 -4 d 4 -3 d 11 X 4 -4 d 4 X 4 -4 d 3 -4 d 12 X
 4 -4 d 7 X 4 -7 d 4 -4 d 4 -4 d 4 X 3 -4 d 38 X 4 -3 d 4 -4 d 4 X 4 -4 d 7 X 4 -4 d 8 X 3 -4 d 19 X 4 -3 d 42 X 4 -4 d 4 X 4 -4 d 3 -4 d 4 X 4 -4 d 4 X 4 -3 d 3 X 4 -4 d 4 -4 d 8 X 3 -4 d 12 X 4 -4 d 3 -3 d 4 X 4 -4 d 8 X 3 -4 d 12 X 4 -8 d 3 -7 d 8
 X 4 -4 d 11 X 4 -4 d 4 -4 d 53 X 4 -4 d 4 -3 d 4 X s black 3 lw 245 202 m 1796 X s 303 242 m -40 Y s 363 222 m -20 Y s 423 222 m -20 Y s 483 222 m -20 Y s 544 222 m -20 Y s 604 242 m -40 Y s 664 222 m -20 Y s 724 222 m -20 Y s 784 222 m -20 Y s 844
 222 m -20 Y s 904 242 m -40 Y s 964 222 m -20 Y s 1024 222 m -20 Y s 1085 222 m -20 Y s 1145 222 m -20 Y s 1205 242 m -40 Y s 1265 222 m -20 Y s 1325 222 m -20 Y s 1385 222 m -20 Y s 1445 222 m -20 Y s 1505 242 m -40 Y s 1565 222 m -20 Y s 1626 222
 m -20 Y s 1686 222 m -20 Y s 1746 222 m -20 Y s 1806 242 m -40 Y s 303 242 m -40 Y s 1806 242 m -40 Y s 1866 222 m -20 Y s 1926 222 m -20 Y s 1986 222 m -20 Y s 245 202 m 1143 Y s 291 202 m -46 X s 268 254 m -23 X s 268 306 m -23 X s 268 358 m -23 X
 s 291 410 m -46 X s 268 462 m -23 X s 268 514 m -23 X s 268 566 m -23 X s 291 618 m -46 X s 268 670 m -23 X s 268 722 m -23 X s 268 774 m -23 X s 291 826 m -46 X s 268 878 m -23 X s 268 930 m -23 X s 268 982 m -23 X s 291 1034 m -46 X s 268 1086 m
 -23 X s 268 1137 m -23 X s 268 1189 m -23 X s 291 1241 m -46 X s 291 1241 m -46 X s 268 1293 m -23 X s 268 1345 m -23 X s 0.490196 0.545098 0.615686 c 0.95 0.95 0.95 c 0.490196 0.545098 0.615686 c 907 202 245 1345 bl 245 1345 m 907 X s 1152 1345 m
 202 Y s 1152 1547 m -907 X s 245 1547 m -202 Y s black
 gsave  2268 1682 0 0 C 517.039 1473.94 t 0 r /Times-Italic findfont 57.0734 sf 0 0 m (Signal efficiency) show NC gr  0 0 0.933333 c 9 lw 286 1497 m 190 X s black
 gsave  2268 1682 0 0 C 517.039 1373.03 t 0 r /Times-Italic findfont 57.0734 sf 0 0 m (Background efficiency) show NC gr  1 0 0 c 286 1396 m 190 X s 0.490196 0.545098 0.615686 c 3 lw 0.95 0.95 0.95 c 0.490196 0.545098 0.615686 c 889 202 1152 1345 bl
 1152 1345 m 889 X s 2041 1345 m 202 Y s 2041 1547 m -889 X s 1152 1547 m -202 Y s black
 gsave  2268 1682 0 0 C 1418.68 1490.76 t 0 r /Times-Italic findfont 57.0734 sf 0 0 m (Signal purity) show NC gr  0 0 0.933333 c[  52 12 ] 0 sd 6 lw 1192 1514 m 187 X s black
 gsave  2268 1682 0 0 C 1418.68 1423.49 t 0 r /Times-Italic findfont 57.0734 sf 0 0 m (Signal efficiency*purity) show NC gr  0 0 0.933333 c[  22 12 ] 0 sd 1192 1446 m 187 X s black
 gsave  2268 1682 0 0 C 1418.68 1356.22 t 0 r /Times-Italic findfont 57.0734 sf 0 0 m (S/#sqrt{S+B}) show NC gr  0 0.666667 0 c[  ] 0 sd 9 lw 1192 1379 m 187 X s black 3 lw 245 1241 m 1796 X s
 gsave  2268 1682 0 0 C 338.636 388.099 t 0 r /Helvetica-Bold findfont 53.2685 sf 0 0 m (For 1000 signal and 1000 background) show NC gr 
 gsave  2268 1682 0 0 C 1061.57 319.611 t 0 r /Helvetica-Bold findfont 53.2685 sf 0 0 m ( is) show NC gr 
 gsave  2268 1682 0 0 C 958.833 319.611 t 0 r /Helvetica-Bold findfont 53.2685 sf 0 0 m (S+B) show NC gr  6 lw 936 361 m 8 -45 d s 0 lw 944 316 m 7 61 d s 951 377 m 111 X s
 gsave  2268 1682 0 0 C 338.636 319.611 t 0 r /Helvetica-Bold findfont 53.2685 sf 0 0 m (events the maximum S/) show NC gr 
 gsave  2268 1682 0 0 C 338.636 254.928 t 0 r /Helvetica-Bold findfont 53.2685 sf 0 0 m (27.22 when cutting at  0.00) show NC gr  0.490196 0.545098 0.615686 c 3 lw 0.364706 0.419608 0.490196 c 1476 96 23 1577 bf 0.490196 0.545098 0.615686 c 23 1577 m
 1476 X s 1499 1577 m 96 Y s 1499 1673 m -1476 X s 23 1673 m -96 Y s 1 1 1 c black 1 1 1 c
 gsave  2268 1682 0 0 C 76.0979 1605.67 t 0 r /Helvetica-Bold findfont 76.0979 sf 0 0 m (Cut efficiencies and optimal cut value) show NC gr  0 0.666667 0 c 2041 202 m 1143 Y s black 0 0.666667 0 c
 gsave  2268 1682 0 0 C 2203.03 966.443 t 90 r /Helvetica-Bold findfont 64.6832 sf 0 0 m (Significance) show NC gr  1995 202 m 46 X s 2018 240 m 23 X s 2018 278 m 23 X s 2018 316 m 23 X s 2018 355 m 23 X s 1995 393 m 46 X s 2018 431 m 23 X s 2018 469
 m 23 X s 2018 507 m 23 X s 2018 546 m 23 X s 1995 584 m 46 X s 2018 622 m 23 X s 2018 660 m 23 X s 2018 698 m 23 X s 2018 737 m 23 X s 1995 775 m 46 X s 2018 813 m 23 X s 2018 851 m 23 X s 2018 889 m 23 X s 2018 927 m 23 X s 1995 966 m 46 X s 2018
 1004 m 23 X s 2018 1042 m 23 X s 2018 1080 m 23 X s 2018 1118 m 23 X s 1995 1157 m 46 X s 1995 1157 m 46 X s 2018 1195 m 23 X s 2018 1233 m 23 X s 2018 1271 m 23 X s 2018 1309 m 23 X s black 0 0.666667 0 c
 gsave  2268 1682 0 0 C 2050.84 178.83 t 0 r /Helvetica-Bold findfont 64.6832 sf 0 0 m (0) show NC gr  black 0 0.666667 0 c
 gsave  2268 1682 0 0 C 2050.84 369.075 t 0 r /Helvetica-Bold findfont 64.6832 sf 0 0 m (5) show NC gr  black 0 0.666667 0 c
 gsave  2268 1682 0 0 C 2050.84 559.319 t 0 r /Helvetica-Bold findfont 64.6832 sf 0 0 m (10) show NC gr  black 0 0.666667 0 c
 gsave  2268 1682 0 0 C 2050.84 749.564 t 0 r /Helvetica-Bold findfont 64.6832 sf 0 0 m (15) show NC gr  black 0 0.666667 0 c
 gsave  2268 1682 0 0 C 2050.84 939.809 t 0 r /Helvetica-Bold findfont 64.6832 sf 0 0 m (20) show NC gr  black 0 0.666667 0 c
 gsave  2268 1682 0 0 C 2050.84 1130.05 t 0 r /Helvetica-Bold findfont 64.6832 sf 0 0 m (25) show NC gr 
 gr  gr showpage
end
%%EOF
