%!PS-Adobe-2.0 EPSF-2.0
%%BoundingBox:  0 0 567 420
%%Title: plots/overtrain_TMlpANN.eps: TMVA comparison TMlpANN
%%Creator: ROOT Version 5.34/09
%%CreationDate: Thu Jan  2 18:34:06 2014
%%EndComments
%%BeginProlog
80 dict begin
/s {stroke} def /l {lineto} def /m {moveto} def /t {translate} def
/r {rotate} def /rl {roll}  def /R {repeat} def
/d {rlineto} def /rm {rmoveto} def /gr {grestore} def /f {eofill} def
/c {setrgbcolor} def /black {0 setgray} def /sd {setdash} def
/cl {closepath} def /sf {scalefont setfont} def /lw {setlinewidth} def
/box {m dup 0 exch d exch 0 d 0 exch neg d cl} def
/NC{systemdict begin initclip end}def/C{NC box clip newpath}def
/bl {box s} def /bf {box f} def /Y { 0 exch d} def /X { 0 d} def 
/K {{pop pop 0 moveto} exch kshow} bind def
/ita {/ang 15 def gsave [1 0 ang dup sin exch cos div 1 0 0] concat} def 
/mp {newpath /y exch def /x exch def} def
/side {[w .77 mul w .23 mul] .385 w mul sd w 0 l currentpoint t -144 r} def
/mr {mp x y w2 0 360 arc} def /m24 {mr s} def /m20 {mr f} def
/mb {mp x y w2 add m w2 neg 0 d 0 w neg d w 0 d 0 w d cl} def
/mt {mp x y w2 add m w2 neg w neg d w 0 d cl} def
/m21 {mb f} def /m25 {mb s} def /m22 {mt f} def /m26{mt s} def
/m23 {mp x y w2 sub m w2 w d w neg 0 d cl f} def
/m27 {mp x y w2 add m w3 neg w2 neg d w3 w2 neg d w3 w2 d cl s} def
/m28 {mp x w2 sub y w2 sub w3 add m w3 0 d  0 w3 neg d w3 0 d 0 w3 d w3 0 d  0 w3 d w3 neg 0 d 0 w3 d w3 neg 0 d 0 w3 neg d w3 neg 0 d cl s } def
/m29 {mp gsave x w2 sub y w2 add w3 sub m currentpoint t 4 {side} repeat cl fill gr} def
/m30 {mp gsave x w2 sub y w2 add w3 sub m currentpoint t 4 {side} repeat cl s gr} def
/m31 {mp x y w2 sub m 0 w d x w2 sub y m w 0 d x w2 sub y w2 add m w w neg d x w2 sub y w2 sub m w w d s} def
/m32 {mp x y w2 sub m w2 w d w neg 0 d cl s} def
/m33 {mp x y w2 add m w3 neg w2 neg d w3 w2 neg d w3 w2 d cl f} def
/m34 {mp x w2 sub y w2 sub w3 add m w3 0 d  0 w3 neg d w3 0 d 0 w3 d w3 0 d  0 w3 d w3 neg 0 d 0 w3 d w3 neg 0 d 0 w3 neg d w3 neg 0 d cl f } def
/m2 {mp x y w2 sub m 0 w d x w2 sub y m w 0 d s} def
/m5 {mp x w2 sub y w2 sub m w w d x w2 sub y w2 add m w w neg d s} def
/reEncode {exch findfont dup length dict begin {1 index /FID eq  {pop pop} {def} ifelse } forall /Encoding exch def currentdict end dup /FontName get exch definefont pop } def [/Times-Bold /Times-Italic /Times-BoldItalic /Helvetica /Helvetica-Oblique
 /Helvetica-Bold /Helvetica-BoldOblique /Courier /Courier-Oblique /Courier-Bold /Courier-BoldOblique /Times-Roman /AvantGarde-Book /AvantGarde-BookOblique /AvantGarde-Demi /AvantGarde-DemiOblique /Bookman-Demi /Bookman-DemiItalic /Bookman-Light
 /Bookman-LightItalic /Helvetica-Narrow /Helvetica-Narrow-Bold /Helvetica-Narrow-BoldOblique /Helvetica-Narrow-Oblique /NewCenturySchlbk-Roman /NewCenturySchlbk-Bold /NewCenturySchlbk-BoldItalic /NewCenturySchlbk-Italic /Palatino-Bold
 /Palatino-BoldItalic /Palatino-Italic /Palatino-Roman ] {ISOLatin1Encoding reEncode } forall
%%EndProlog
%%BeginSetup
%%EndSetup
newpath  gsave  .25 .25 scale  gsave  0 0 t 0.490196 0.545098 0.615686 c[  ] 0 sd 3 lw 0.941176 0.941176 0.941176 c 2268 1682 0 0 bf black 1 1 0.992157 c 1916 1312 238 202 bf black 1916 1312 238 202 bl 1 1 0.992157 c 1916 1312 238 202 bf black 1916
 1312 238 202 bl 238 202 m 1916 X s
 gsave  2268 1682 0 0 C 1487.71 34.244 t 0 r /Helvetica-Bold findfont 72.293 sf 0 0 m (TMlpANN response) show NC gr  289 244 m -42 Y s 358 223 m -21 Y s 428 223 m -21 Y s 498 223 m -21 Y s 567 244 m -42 Y s 637 223 m -21 Y s 706 223 m -21 Y s 776 223
 m -21 Y s 846 244 m -42 Y s 915 223 m -21 Y s 985 223 m -21 Y s 1054 223 m -21 Y s 1124 244 m -42 Y s 1194 223 m -21 Y s 1263 223 m -21 Y s 1333 223 m -21 Y s 1402 244 m -42 Y s 1472 223 m -21 Y s 1542 223 m -21 Y s 1611 223 m -21 Y s 1681 244 m -42
 Y s 1750 223 m -21 Y s 1820 223 m -21 Y s 1890 223 m -21 Y s 1959 244 m -42 Y s 289 244 m -42 Y s 1959 244 m -42 Y s 2029 223 m -21 Y s 2098 223 m -21 Y s
 gsave  2268 1682 0 0 C 228.294 129.366 t 0 r /Helvetica-Bold findfont 64.6832 sf 0 0 m (\2550.2) show NC gr 
 gsave  2268 1682 0 0 C 547.905 129.366 t 0 r /Helvetica-Bold findfont 64.6832 sf 0 0 m (0) show NC gr 
 gsave  2268 1682 0 0 C 799.028 129.366 t 0 r /Helvetica-Bold findfont 64.6832 sf 0 0 m (0.2) show NC gr 
 gsave  2268 1682 0 0 C 1076.78 129.366 t 0 r /Helvetica-Bold findfont 64.6832 sf 0 0 m (0.4) show NC gr 
 gsave  2268 1682 0 0 C 1354.54 129.366 t 0 r /Helvetica-Bold findfont 64.6832 sf 0 0 m (0.6) show NC gr 
 gsave  2268 1682 0 0 C 1632.3 129.366 t 0 r /Helvetica-Bold findfont 64.6832 sf 0 0 m (0.8) show NC gr 
 gsave  2268 1682 0 0 C 1940.5 129.366 t 0 r /Helvetica-Bold findfont 64.6832 sf 0 0 m (1) show NC gr  238 1514 m 1916 X s 289 1471 m 43 Y s 358 1492 m 22 Y s 428 1492 m 22 Y s 498 1492 m 22 Y s 567 1471 m 43 Y s 637 1492 m 22 Y s 706 1492 m 22 Y s
 776 1492 m 22 Y s 846 1471 m 43 Y s 915 1492 m 22 Y s 985 1492 m 22 Y s 1054 1492 m 22 Y s 1124 1471 m 43 Y s 1194 1492 m 22 Y s 1263 1492 m 22 Y s 1333 1492 m 22 Y s 1402 1471 m 43 Y s 1472 1492 m 22 Y s 1542 1492 m 22 Y s 1611 1492 m 22 Y s 1681
 1471 m 43 Y s 1750 1492 m 22 Y s 1820 1492 m 22 Y s 1890 1492 m 22 Y s 1959 1471 m 43 Y s 289 1471 m 43 Y s 1959 1471 m 43 Y s 2029 1492 m 22 Y s 2098 1492 m 22 Y s 238 202 m 1312 Y s
 gsave  2268 1682 0 0 C 64.6832 1430.64 t 90 r /Helvetica-Bold findfont 72.293 sf 0 0 m (dx) show NC gr 
 gsave  2268 1682 0 0 C 30.4391 1411.62 t 90 r /Helvetica-Bold findfont 45.6587 sf 0 0 m ( ) show NC gr 
 gsave  2268 1682 0 0 C 64.6832 1388.79 t 90 r /Helvetica-Bold findfont 72.293 sf 0 0 m (/) show NC gr 
 gsave  2268 1682 0 0 C 30.4391 1369.76 t 90 r /Helvetica-Bold findfont 45.6587 sf 0 0 m ( ) show NC gr 
 gsave  2268 1682 0 0 C 60.8783 1095.81 t 90 r /Helvetica-Bold findfont 72.293 sf 0 0 m (\(1/N\) dN) show NC gr  291 202 m -53 X s 265 244 m -27 X s 265 286 m -27 X s 265 327 m -27 X s 265 369 m -27 X s 291 411 m -53 X s 265 453 m -27 X s 265 495 m
 -27 X s 265 537 m -27 X s 265 579 m -27 X s 291 621 m -53 X s 265 663 m -27 X s 265 704 m -27 X s 265 746 m -27 X s 265 788 m -27 X s 291 830 m -53 X s 265 872 m -27 X s 265 914 m -27 X s 265 956 m -27 X s 265 998 m -27 X s 291 1040 m -53 X s 265
 1081 m -27 X s 265 1123 m -27 X s 265 1165 m -27 X s 265 1207 m -27 X s 291 1249 m -53 X s 265 1291 m -27 X s 265 1333 m -27 X s 265 1375 m -27 X s 265 1417 m -27 X s 291 1458 m -53 X s 291 1458 m -53 X s 265 1500 m -27 X s
 gsave  2268 1682 0 0 C 175.025 178.83 t 0 r /Helvetica-Bold findfont 64.6832 sf 0 0 m (0) show NC gr 
 gsave  2268 1682 0 0 C 121.757 388.099 t 0 r /Helvetica-Bold findfont 64.6832 sf 0 0 m (0.5) show NC gr 
 gsave  2268 1682 0 0 C 182.635 597.368 t 0 r /Helvetica-Bold findfont 64.6832 sf 0 0 m (1) show NC gr 
 gsave  2268 1682 0 0 C 121.757 806.637 t 0 r /Helvetica-Bold findfont 64.6832 sf 0 0 m (1.5) show NC gr 
 gsave  2268 1682 0 0 C 175.025 1015.91 t 0 r /Helvetica-Bold findfont 64.6832 sf 0 0 m (2) show NC gr 
 gsave  2268 1682 0 0 C 121.757 1225.18 t 0 r /Helvetica-Bold findfont 64.6832 sf 0 0 m (2.5) show NC gr 
 gsave  2268 1682 0 0 C 175.025 1434.44 t 0 r /Helvetica-Bold findfont 64.6832 sf 0 0 m (3) show NC gr  2154 202 m 1312 Y s 2101 202 m 53 X s 2128 244 m 26 X s 2128 286 m 26 X s 2128 327 m 26 X s 2128 369 m 26 X s 2101 411 m 53 X s 2128 453 m 26 X s
 2128 495 m 26 X s 2128 537 m 26 X s 2128 579 m 26 X s 2101 621 m 53 X s 2128 663 m 26 X s 2128 704 m 26 X s 2128 746 m 26 X s 2128 788 m 26 X s 2101 830 m 53 X s 2128 872 m 26 X s 2128 914 m 26 X s 2128 956 m 26 X s 2128 998 m 26 X s 2101 1040 m 53
 X s 2128 1081 m 26 X s 2128 1123 m 26 X s 2128 1165 m 26 X s 2128 1207 m 26 X s 2101 1249 m 53 X s 2128 1291 m 26 X s 2128 1333 m 26 X s 2128 1375 m 26 X s 2128 1417 m 26 X s 2101 1458 m 53 X s 2101 1458 m 53 X s 2128 1500 m 26 X s 0.490196 0.545098
 0.615686 c 0.95 0.95 0.95 c 0.490196 0.545098 0.615686 c 907 202 238 1312 bl 238 1312 m 907 X s 1145 1312 m 202 Y s 1145 1514 m -907 X s 238 1514 m -202 Y s black
 gsave  2268 1682 0 0 C 418.538 1445.86 t 0 r /Times-Italic findfont 57.0734 sf 0 0 m (Signal \(test sample\)) show NC gr  0.49 0.6 0.82 c 265 1428 m 127 X 70 Y -127 X f 0 0 0.933333 c 265 1498 m 127 X s 265 1428 m 127 X s 392 1428 m 70 Y s 265 1428
 m 70 Y s black
 gsave  2268 1682 0 0 C 418.538 1350.74 t 0 r /Times-Italic findfont 57.0734 sf 0 0 m (Background \(test sample\)) show NC gr  1 0 0 c 392 1354 m -27 -27 d s 387 1398 m -70 -71 d s 339 1398 m -70 -71 d s 291 1398 m -26 -26 d s 0 lw 0 0 0.933333 c 1 0
 0 c 3 lw 265 1398 m 127 X s 265 1327 m 127 X s 392 1327 m 71 Y s 265 1327 m 71 Y s 0 0 0.933333 c 0.49 0.6 0.82 c black 0.49 0.6 0.82 c 238 202 m 144 X 5 Y 144 X -2 Y 47 X 35 Y 48 X -11 Y 48 X 2 Y 96 X 22 Y 48 X 51 Y 48 X 116 Y 48 X 70 Y 48 X -62 Y
 48 X 43 Y 48 X 8 Y 47 X 68 Y 48 X 245 Y 48 X 11 Y 48 X 57 Y 48 X -76 Y 48 X 32 Y 48 X 46 Y 48 X -108 Y 48 X 92 Y 48 X -35 Y 47 X -5 Y 48 X -19 Y 48 X 377 Y 48 X -100 Y 48 X -355 Y 48 X -151 Y 48 X -62 Y 48 X -84 Y 48 X -19 Y 48 X -113 Y 48 X -11 Y
 47 X -48 Y 48 X -19 Y f 0 0 0.933333 c 0.49 0.6 0.82 c 0 0 0.933333 c 238 202 m 144 X 5 Y 144 X -2 Y 47 X 35 Y 48 X -11 Y 48 X 2 Y 96 X 22 Y 48 X 51 Y 48 X 116 Y 48 X 70 Y 48 X -62 Y 48 X 43 Y 48 X 8 Y 47 X 68 Y 48 X 245 Y 48 X 11 Y 48 X 57 Y 48 X
 -76 Y 48 X 32 Y 48 X 46 Y 48 X -108 Y 48 X 92 Y 48 X -35 Y 47 X -5 Y 48 X -19 Y 48 X 377 Y 48 X -100 Y 48 X -355 Y 48 X -151 Y 48 X -62 Y 48 X -84 Y 48 X -19 Y 48 X -113 Y 48 X -11 Y 47 X -48 Y 48 X -19 Y s 1 0 0 c black 1 0 0 c 2144 220 m -18 -18 d
 s 2081 205 m -3 -3 d s 2033 205 m -3 -3 d s 2009 229 m -27 -27 d s 1943 211 m -9 -9 d s 1912 229 m -26 -27 d s 1867 231 m -30 -29 d s 1867 279 m -78 -77 d s 1843 304 m -24 -24 d s 1816 277 m -75 -75 d s 1771 280 m -78 -78 d s 1771 328 m -126 -126 d
 s 1732 337 m -135 -135 d s 1723 376 m -174 -174 d s 1689 390 m -188 -188 d s 1675 425 m -222 -223 d s 1668 465 m -41 -40 d s 1626 423 m -222 -221 d s 1579 425 m -223 -223 d s 1579 473 m -271 -271 d s 1563 504 m -303 -302 d s 1532 521 m -320 -319 d s
 1496 534 m -332 -332 d s 1484 570 m -368 -368 d s 1478 612 m -42 -42 d s 1412 546 m -344 -344 d s 1388 570 m -368 -368 d s 1388 618 m -416 -416 d s 1388 666 m -465 -464 d s 1342 669 m -467 -467 d s 1340 715 m -48 -48 d s 1249 624 m -422 -422 d s
 1300 723 m -8 -8 d s 1244 667 m -465 -465 d s 1244 715 m -513 -513 d s 1244 763 m -561 -561 d s 1204 771 m -569 -569 d s 1196 811 m -479 -479 d s 712 328 m -125 -126 d s 1196 859 m -479 -479 d s 649 313 m -110 -111 d s 1179 890 m -462 -461 d s 592
 304 m -102 -102 d s 1131 890 m -414 -413 d s 573 333 m -131 -131 d s 1100 908 m -335 -335 d s 757 564 m -40 -39 d s 562 369 m -36 -36 d s 478 286 m -84 -84 d s 1100 956 m -335 -335 d s 430 286 m -1 Y s 400 256 m -18 -18 d s 346 202 m cl s 1100 1004
 m -191 -191 d s 879 783 m -114 -114 d s 313 217 m -15 -15 d s 1055 1007 m -146 -146 d s 861 813 m -48 -48 d s 265 217 m -15 -15 d s 1028 1028 m -119 -119 d s 861 861 m -48 -48 d s 1005 1053 m -96 -96 d s 815 864 m -2 -3 d s 977 1073 m -68 -68 d s
 957 1101 m -48 -48 d s 957 1149 m -48 -48 d s 934 1175 m -25 -26 d s 0 lw 3 lw 238 217 m 96 X -15 Y 48 X 54 Y 48 X 30 Y 96 X 83 Y 47 X -65 Y 48 X 9 Y 48 X 15 Y 48 X 236 Y 48 X 153 Y 48 X 147 Y 48 X -81 Y 48 X 392 Y 48 X -102 Y 48 X -45 Y 48 X -21 Y
 47 X -117 Y 96 X -119 Y 48 X -147 Y 48 X 99 Y 48 X -54 Y 48 X -123 Y 48 X 66 Y 48 X -78 Y 48 X -30 Y 47 X -81 Y 48 X 42 Y 48 X -75 Y 48 X -53 Y 48 X -60 Y 48 X 27 Y 48 X -75 Y 48 X -18 Y 48 X 18 Y 48 X -24 Y 95 X 15 Y 48 X -18 Y s 0.490196 0.545098
 0.615686 c 0.95 0.95 0.95 c 0.490196 0.545098 0.615686 c 952 202 1202 1312 bl 1202 1312 m 952 X s 2154 1312 m 202 Y s 2154 1514 m -952 X s 1202 1514 m -202 Y s black
 gsave  2268 1682 0 0 C 1293.66 1445.86 t 0 r /Times-Italic findfont 57.0734 sf 0 0 m (Signal \(training sample\)) show NC gr  0 0 0.933333 c /w 21 def /w2 {w 2 div} def /w3 {w 3 div} def 1250 1463 m20 black
 gsave  2268 1682 0 0 C 1293.66 1350.74 t 0 r /Times-Italic findfont 57.0734 sf 0 0 m (Background \(training sample\)) show NC gr  1 0 0 c 1250 1362 m20 0 0 0.933333 c 1 1 1 c 0 0 0.933333 c 382 210 m 16 X s 413 210 m 17 X s 382 202 m 16 Y s 430 202
 m 16 Y s 406 210 m20 430 207 m 16 X s 461 207 m 17 X s 430 200 m 15 Y s 478 200 m 15 Y s 454 207 m20 478 205 m 16 X s 509 205 m 17 X s 478 197 m 15 Y s 526 197 m 15 Y s 502 205 m20 526 205 m 16 X s 557 205 m 16 X s 526 197 m 15 Y s 573 197 m 15 Y s
 549 205 m20 597 225 m 2 Y s 597 242 m 2 Y s 573 234 m 17 X s 605 234 m 16 X s 590 225 m 15 X s 590 244 m 15 X s 573 227 m 15 Y s 621 227 m 15 Y s 597 234 m20 645 218 m s 645 234 m s 621 226 m 17 X s 653 226 m 16 X s 638 218 m 15 X s 638 234 m 15 X s
 621 218 m 16 Y s 669 218 m 16 Y s 645 226 m20 693 220 m 1 Y s 693 236 m 1 Y s 669 229 m 17 X s 701 229 m 16 X s 686 220 m 15 X s 686 237 m 15 X s 669 221 m 15 Y s 717 221 m 15 Y s 693 229 m20 741 223 m 1 Y s 741 239 m 1 Y s 717 231 m 17 X s 749 231
 m 16 X s 734 223 m 15 X s 734 240 m 15 X s 717 224 m 15 Y s 765 224 m 15 Y s 741 231 m20 789 256 m 6 Y s 789 277 m 6 Y s 765 269 m 16 X s 797 269 m 16 X s 781 256 m 16 X s 781 283 m 16 X s 765 262 m 15 Y s 813 262 m 15 Y s 789 269 m20 837 325 m 12 Y
 s 837 352 m 12 Y s 813 345 m 16 X s 845 345 m 16 X s 829 325 m 16 X s 829 364 m 16 X s 813 337 m 15 Y s 861 337 m 15 Y s 837 345 m20 885 388 m 17 Y s 885 420 m 16 Y s 861 412 m 16 X s 892 412 m 17 X s 877 388 m 15 X s 877 436 m 15 X s 861 405 m 15 Y
 s 909 405 m 15 Y s 885 412 m20 933 439 m 19 Y s 933 474 m 19 Y s 909 466 m 16 X s 940 466 m 17 X s 925 439 m 15 X s 925 493 m 15 X s 909 458 m 16 Y s 957 458 m 16 Y s 933 466 m20 981 432 m 18 Y s 981 466 m 18 Y s 957 458 m 16 X s 988 458 m 17 X s
 973 432 m 15 X s 973 484 m 15 X s 957 450 m 16 Y s 1005 450 m 16 Y s 981 458 m20 1029 416 m 18 Y s 1029 449 m 18 Y s 1005 442 m 16 X s 1036 442 m 17 X s 1021 416 m 15 X s 1021 467 m 15 X s 1005 434 m 15 Y s 1053 434 m 15 Y s 1029 442 m20 1076 483 m
 21 Y s 1076 520 m 21 Y s 1053 512 m 16 X s 1084 512 m 16 X s 1069 483 m 15 X s 1069 541 m 15 X s 1053 504 m 16 Y s 1100 504 m 16 Y s 1076 512 m20 1124 560 m 25 Y s 1124 600 m 25 Y s 1100 593 m 17 X s 1132 593 m 16 X s 1117 560 m 15 X s 1117 625 m 15
 X s 1100 585 m 15 Y s 1148 585 m 15 Y s 1124 593 m20 1172 659 m 29 Y s 1172 703 m 29 Y s 1148 695 m 17 X s 1180 695 m 16 X s 1165 659 m 15 X s 1165 732 m 15 X s 1148 688 m 15 Y s 1196 688 m 15 Y s 1172 695 m20 1220 682 m 30 Y s 1220 727 m 30 Y s
 1196 720 m 17 X s 1228 720 m 16 X s 1213 682 m 15 X s 1213 757 m 15 X s 1196 712 m 15 Y s 1244 712 m 15 Y s 1220 720 m20 1268 760 m 33 Y s 1268 808 m 33 Y s 1244 800 m 16 X s 1276 800 m 16 X s 1260 760 m 16 X s 1260 841 m 16 X s 1244 793 m 15 Y s
 1292 793 m 15 Y s 1268 800 m20 1316 698 m 30 Y s 1316 743 m 31 Y s 1292 736 m 16 X s 1324 736 m 16 X s 1308 698 m 16 X s 1308 774 m 16 X s 1292 728 m 15 Y s 1340 728 m 15 Y s 1316 736 m20 1364 852 m 35 Y s 1364 902 m 36 Y s 1340 895 m 16 X s 1371
 895 m 17 X s 1356 852 m 15 X s 1356 938 m 15 X s 1340 887 m 15 Y s 1388 887 m 15 Y s 1364 895 m20 1412 755 m 32 Y s 1412 803 m 32 Y s 1388 795 m 16 X s 1419 795 m 17 X s 1404 755 m 15 X s 1404 835 m 15 X s 1388 787 m 16 Y s 1436 787 m 16 Y s 1412
 795 m20 1460 823 m 35 Y s 1460 873 m 34 Y s 1436 865 m 16 X s 1467 865 m 17 X s 1452 823 m 15 X s 1452 907 m 15 X s 1436 858 m 15 Y s 1484 858 m 15 Y s 1460 865 m20 1508 862 m 36 Y s 1508 913 m 36 Y s 1484 906 m 16 X s 1515 906 m 17 X s 1500 862 m
 15 X s 1500 949 m 15 X s 1484 898 m 15 Y s 1532 898 m 15 Y s 1508 906 m20 1556 739 m 32 Y s 1556 786 m 32 Y s 1532 779 m 16 X s 1563 779 m 16 X s 1548 739 m 15 X s 1548 818 m 15 X s 1532 771 m 15 Y s 1579 771 m 15 Y s 1556 779 m20 1603 776 m 33 Y s
 1603 824 m 33 Y s 1579 817 m 17 X s 1611 817 m 16 X s 1596 776 m 15 X s 1596 857 m 15 X s 1579 809 m 15 Y s 1627 809 m 15 Y s 1603 817 m20 1651 765 m 33 Y s 1651 813 m 33 Y s 1627 806 m 17 X s 1659 806 m 16 X s 1644 765 m 15 X s 1644 846 m 15 X s
 1627 798 m 15 Y s 1675 798 m 15 Y s 1651 806 m20 1699 1111 m 43 Y s 1699 1169 m 44 Y s 1675 1162 m 17 X s 1707 1162 m 16 X s 1692 1111 m 15 X s 1692 1213 m 15 X s 1675 1154 m 15 Y s 1723 1154 m 15 Y s 1699 1162 m20 1747 1077 m 42 Y s 1747 1134 m 43
 Y s 1723 1127 m 17 X s 1755 1127 m 16 X s 1740 1077 m 15 X s 1740 1177 m 15 X s 1723 1119 m 15 Y s 1771 1119 m 15 Y s 1747 1127 m20 1795 680 m 29 Y s 1795 724 m 30 Y s 1771 717 m 16 X s 1803 717 m 16 X s 1787 680 m 16 X s 1787 754 m 16 X s 1771 709
 m 15 Y s 1819 709 m 15 Y s 1795 717 m20 1843 457 m 20 Y s 1843 493 m 20 Y s 1819 485 m 16 X s 1851 485 m 16 X s 1835 457 m 16 X s 1835 513 m 16 X s 1819 477 m 16 Y s 1867 477 m 16 Y s 1843 485 m20 1891 480 m 22 Y s 1891 517 m 21 Y s 1867 509 m 16 X
 s 1898 509 m 17 X s 1883 480 m 15 X s 1883 538 m 15 X s 1867 502 m 15 Y s 1915 502 m 15 Y s 1891 509 m20 1939 411 m 18 Y s 1939 444 m 18 Y s 1915 436 m 16 X s 1946 436 m 17 X s 1931 411 m 15 X s 1931 462 m 15 X s 1915 429 m 15 Y s 1963 429 m 15 Y s
 1939 436 m20 1987 353 m 14 Y s 1987 382 m 14 Y s 1963 374 m 16 X s 1994 374 m 17 X s 1979 353 m 15 X s 1979 396 m 15 X s 1963 367 m 15 Y s 2011 367 m 15 Y s 1987 374 m20 2035 263 m 7 Y s 2035 285 m 7 Y s 2011 277 m 16 X s 2042 277 m 17 X s 2027 263
 m 15 X s 2027 292 m 15 X s 2011 270 m 15 Y s 2059 270 m 15 Y s 2035 277 m20 2082 253 m 6 Y s 2082 274 m 6 Y s 2059 267 m 16 X s 2090 267 m 16 X s 2075 253 m 15 X s 2075 280 m 15 X s 2059 259 m 15 Y s 2106 259 m 15 Y s 2082 267 m20 2130 220 m 1 Y s
 2130 236 m 1 Y s 2106 229 m 17 X s 2138 229 m 16 X s 2123 220 m 15 X s 2123 237 m 15 X s 2106 221 m 15 Y s 2154 221 m 15 Y s 2130 229 m20 1 0 0 c 1 1 1 c 1 0 0 c 238 208 m 16 X s 270 208 m 16 X s 238 200 m 15 Y s 286 200 m 15 Y s 262 208 m20 286 205
 m 16 X s 318 205 m 16 X s 286 197 m 15 Y s 334 197 m 15 Y s 310 205 m20 334 208 m 16 X s 365 208 m 17 X s 334 200 m 15 Y s 382 200 m 15 Y s 358 208 m20 406 238 m 4 Y s 406 257 m 5 Y s 382 250 m 16 X s 413 250 m 17 X s 398 238 m 15 X s 398 262 m 15 X
 s 382 242 m 15 Y s 430 242 m 15 Y s 406 250 m20 454 281 m 9 Y s 454 305 m 10 Y s 430 298 m 16 X s 461 298 m 17 X s 446 281 m 15 X s 446 315 m 15 X s 430 290 m 15 Y s 478 290 m 15 Y s 454 298 m20 502 275 m 9 Y s 502 299 m 9 Y s 478 292 m 16 X s 509
 292 m 17 X s 494 275 m 15 X s 494 308 m 15 X s 478 284 m 15 Y s 526 284 m 15 Y s 502 292 m20 549 344 m 15 Y s 549 374 m 15 Y s 526 366 m 16 X s 557 366 m 16 X s 542 344 m 15 X s 542 389 m 15 X s 526 359 m 15 Y s 573 359 m 15 Y s 549 366 m20 597 316
 m 13 Y s 597 344 m 13 Y s 573 337 m 17 X s 605 337 m 16 X s 590 316 m 15 X s 590 357 m 15 X s 573 329 m 15 Y s 621 329 m 15 Y s 597 337 m20 645 289 m 10 Y s 645 314 m 10 Y s 621 307 m 17 X s 653 307 m 16 X s 638 289 m 15 X s 638 324 m 15 X s 621 299
 m 15 Y s 669 299 m 15 Y s 645 307 m20 693 353 m 15 Y s 693 383 m 15 Y s 669 375 m 17 X s 701 375 m 16 X s 686 353 m 15 X s 686 398 m 15 X s 669 368 m 15 Y s 717 368 m 15 Y s 693 375 m20 741 514 m 25 Y s 741 554 m 24 Y s 717 546 m 17 X s 749 546 m 16
 X s 734 514 m 15 X s 734 578 m 15 X s 717 539 m 15 Y s 765 539 m 15 Y s 741 546 m20 789 678 m 31 Y s 789 724 m 32 Y s 765 717 m 16 X s 797 717 m 16 X s 781 678 m 16 X s 781 756 m 16 X s 765 709 m 15 Y s 813 709 m 15 Y s 789 717 m20 837 796 m 36 Y s
 837 847 m 36 Y s 813 840 m 16 X s 845 840 m 16 X s 829 796 m 16 X s 829 883 m 16 X s 813 832 m 15 Y s 861 832 m 15 Y s 837 840 m20 885 883 m 39 Y s 885 937 m 39 Y s 861 929 m 16 X s 892 929 m 17 X s 877 883 m 15 X s 877 976 m 15 X s 861 922 m 15 Y s
 909 922 m 15 Y s 885 929 m20 933 1156 m 47 Y s 933 1218 m 48 Y s 909 1211 m 16 X s 940 1211 m 17 X s 925 1156 m 15 X s 925 1266 m 15 X s 909 1203 m 15 Y s 957 1203 m 15 Y s 933 1211 m20 981 981 m 43 Y s 981 1039 m 42 Y s 957 1031 m 16 X s 988 1031 m
 17 X s 973 981 m 15 X s 973 1081 m 15 X s 957 1024 m 15 Y s 1005 1024 m 15 Y s 981 1031 m20 1029 984 m 43 Y s 1029 1042 m 42 Y s 1005 1034 m 16 X s 1036 1034 m 17 X s 1021 984 m 15 X s 1021 1084 m 15 X s 1005 1027 m 15 Y s 1053 1027 m 15 Y s 1029
 1034 m20 1076 886 m 39 Y s 1076 940 m 39 Y s 1053 932 m 16 X s 1084 932 m 16 X s 1069 886 m 15 X s 1069 979 m 15 X s 1053 925 m 15 Y s 1100 925 m 15 Y s 1076 932 m20 1124 779 m 35 Y s 1124 829 m 36 Y s 1100 822 m 17 X s 1132 822 m 16 X s 1117 779 m
 15 X s 1117 865 m 15 X s 1100 814 m 15 Y s 1148 814 m 15 Y s 1124 822 m20 1172 865 m 39 Y s 1172 919 m 39 Y s 1148 911 m 17 X s 1180 911 m 16 X s 1165 865 m 15 X s 1165 958 m 15 X s 1148 904 m 15 Y s 1196 904 m 15 Y s 1172 911 m20 1220 776 m 35 Y s
 1220 826 m 36 Y s 1196 819 m 17 X s 1228 819 m 16 X s 1213 776 m 15 X s 1213 862 m 15 X s 1196 811 m 15 Y s 1244 811 m 15 Y s 1220 819 m20 1268 683 m 32 Y s 1268 730 m 32 Y s 1244 723 m 16 X s 1276 723 m 16 X s 1260 683 m 16 X s 1260 762 m 16 X s
 1244 715 m 15 Y s 1292 715 m 15 Y s 1268 723 m20 1316 660 m 31 Y s 1316 706 m 31 Y s 1292 699 m 16 X s 1324 699 m 16 X s 1308 660 m 16 X s 1308 737 m 16 X s 1292 691 m 15 Y s 1340 691 m 15 Y s 1316 699 m20 1364 703 m 33 Y s 1364 751 m 33 Y s 1340
 744 m 16 X s 1371 744 m 17 X s 1356 703 m 15 X s 1356 784 m 15 X s 1340 736 m 15 Y s 1388 736 m 15 Y s 1364 744 m20 1412 463 m 22 Y s 1412 500 m 22 Y s 1388 492 m 16 X s 1419 492 m 17 X s 1404 463 m 15 X s 1404 522 m 15 X s 1388 485 m 15 Y s 1436
 485 m 15 Y s 1412 492 m20 1460 503 m 24 Y s 1460 542 m 24 Y s 1436 534 m 16 X s 1467 534 m 17 X s 1452 503 m 15 X s 1452 566 m 15 X s 1436 527 m 15 Y s 1484 527 m 15 Y s 1460 534 m20 1508 523 m 25 Y s 1508 563 m 25 Y s 1484 555 m 16 X s 1515 555 m
 17 X s 1500 523 m 15 X s 1500 588 m 15 X s 1484 548 m 15 Y s 1532 548 m 15 Y s 1508 555 m20 1556 460 m 22 Y s 1556 497 m 22 Y s 1532 489 m 16 X s 1563 489 m 16 X s 1548 460 m 15 X s 1548 519 m 15 X s 1532 482 m 15 Y s 1579 482 m 15 Y s 1556 489 m20
 1603 381 m 17 Y s 1603 413 m 17 Y s 1579 405 m 17 X s 1611 405 m 16 X s 1596 381 m 15 X s 1596 430 m 15 X s 1579 398 m 15 Y s 1627 398 m 15 Y s 1603 405 m20 1651 386 m 18 Y s 1651 419 m 17 Y s 1627 411 m 17 X s 1659 411 m 16 X s 1644 386 m 15 X s
 1644 436 m 15 X s 1627 404 m 15 Y s 1675 404 m 15 Y s 1651 411 m20 1699 386 m 18 Y s 1699 419 m 17 Y s 1675 411 m 17 X s 1707 411 m 16 X s 1692 386 m 15 X s 1692 436 m 15 X s 1675 404 m 15 Y s 1723 404 m 15 Y s 1699 411 m20 1747 316 m 13 Y s 1747
 344 m 13 Y s 1723 337 m 17 X s 1755 337 m 16 X s 1740 316 m 15 X s 1740 357 m 15 X s 1723 329 m 15 Y s 1771 329 m 15 Y s 1747 337 m20 1795 233 m 3 Y s 1795 251 m 4 Y s 1771 244 m 16 X s 1803 244 m 16 X s 1787 233 m 16 X s 1787 255 m 16 X s 1771 236
 m 15 Y s 1819 236 m 15 Y s 1795 244 m20 1843 246 m 5 Y s 1843 266 m 6 Y s 1819 259 m 16 X s 1851 259 m 16 X s 1835 246 m 16 X s 1835 272 m 16 X s 1819 251 m 15 Y s 1867 251 m 15 Y s 1843 259 m20 1891 225 m 2 Y s 1891 242 m 3 Y s 1867 235 m 16 X s
 1898 235 m 17 X s 1883 225 m 15 X s 1883 245 m 15 X s 1867 227 m 15 Y s 1915 227 m 15 Y s 1891 235 m20 1939 217 m 1 Y s 1939 233 m 1 Y s 1915 226 m 16 X s 1946 226 m 17 X s 1931 217 m 15 X s 1931 234 m 15 X s 1915 218 m 15 Y s 1963 218 m 15 Y s 1939
 226 m20 1963 214 m 16 X s 1994 214 m 17 X s 1963 206 m 15 Y s 2011 206 m 15 Y s 1987 214 m20 2011 205 m 16 X s 2042 205 m 17 X s 2011 197 m 15 Y s 2059 197 m 15 Y s 2035 205 m20 2059 211 m 16 X s 2090 211 m 16 X s 2059 203 m 15 Y s 2106 203 m 15 Y s
 2082 211 m20 2106 214 m 17 X s 2138 214 m 16 X s 2106 206 m 15 Y s 2154 206 m 15 Y s 2130 214 m20 black
 gsave  2268 1682 0 0 C 272.126 1244.5 t 0 r /Helvetica-Bold findfont 49.4636 sf 0 0 m (Kolmogorov\255Smirnov test: signal \(background\) probability = 0.603 \(0.365\)) show NC gr  238 202 m 1916 X s 289 244 m -42 Y s 358 223 m -21 Y s 428 223 m -21
 Y s 498 223 m -21 Y s 567 244 m -42 Y s 637 223 m -21 Y s 706 223 m -21 Y s 776 223 m -21 Y s 846 244 m -42 Y s 915 223 m -21 Y s 985 223 m -21 Y s 1054 223 m -21 Y s 1124 244 m -42 Y s 1194 223 m -21 Y s 1263 223 m -21 Y s 1333 223 m -21 Y s 1402
 244 m -42 Y s 1472 223 m -21 Y s 1542 223 m -21 Y s 1611 223 m -21 Y s 1681 244 m -42 Y s 1750 223 m -21 Y s 1820 223 m -21 Y s 1890 223 m -21 Y s 1959 244 m -42 Y s 289 244 m -42 Y s 1959 244 m -42 Y s 2029 223 m -21 Y s 2098 223 m -21 Y s 238 1514
 m 1916 X s 289 1471 m 43 Y s 358 1492 m 22 Y s 428 1492 m 22 Y s 498 1492 m 22 Y s 567 1471 m 43 Y s 637 1492 m 22 Y s 706 1492 m 22 Y s 776 1492 m 22 Y s 846 1471 m 43 Y s 915 1492 m 22 Y s 985 1492 m 22 Y s 1054 1492 m 22 Y s 1124 1471 m 43 Y s
 1194 1492 m 22 Y s 1263 1492 m 22 Y s 1333 1492 m 22 Y s 1402 1471 m 43 Y s 1472 1492 m 22 Y s 1542 1492 m 22 Y s 1611 1492 m 22 Y s 1681 1471 m 43 Y s 1750 1492 m 22 Y s 1820 1492 m 22 Y s 1890 1492 m 22 Y s 1959 1471 m 43 Y s 289 1471 m 43 Y s
 1959 1471 m 43 Y s 2029 1492 m 22 Y s 2098 1492 m 22 Y s 238 202 m 1312 Y s 291 202 m -53 X s 265 244 m -27 X s 265 286 m -27 X s 265 327 m -27 X s 265 369 m -27 X s 291 411 m -53 X s 265 453 m -27 X s 265 495 m -27 X s 265 537 m -27 X s 265 579 m
 -27 X s 291 621 m -53 X s 265 663 m -27 X s 265 704 m -27 X s 265 746 m -27 X s 265 788 m -27 X s 291 830 m -53 X s 265 872 m -27 X s 265 914 m -27 X s 265 956 m -27 X s 265 998 m -27 X s 291 1040 m -53 X s 265 1081 m -27 X s 265 1123 m -27 X s 265
 1165 m -27 X s 265 1207 m -27 X s 291 1249 m -53 X s 265 1291 m -27 X s 265 1333 m -27 X s 265 1375 m -27 X s 265 1417 m -27 X s 291 1458 m -53 X s 291 1458 m -53 X s 265 1500 m -27 X s 2154 202 m 1312 Y s 2101 202 m 53 X s 2128 244 m 26 X s 2128
 286 m 26 X s 2128 327 m 26 X s 2128 369 m 26 X s 2101 411 m 53 X s 2128 453 m 26 X s 2128 495 m 26 X s 2128 537 m 26 X s 2128 579 m 26 X s 2101 621 m 53 X s 2128 663 m 26 X s 2128 704 m 26 X s 2128 746 m 26 X s 2128 788 m 26 X s 2101 830 m 53 X s
 2128 872 m 26 X s 2128 914 m 26 X s 2128 956 m 26 X s 2128 998 m 26 X s 2101 1040 m 53 X s 2128 1081 m 26 X s 2128 1123 m 26 X s 2128 1165 m 26 X s 2128 1207 m 26 X s 2101 1249 m 53 X s 2128 1291 m 26 X s 2128 1333 m 26 X s 2128 1375 m 26 X s 2128
 1417 m 26 X s 2101 1458 m 53 X s 2101 1458 m 53 X s 2128 1500 m 26 X s
 gsave  2268 1682 0 0 C 2211.02 193.403 t 90 r /Helvetica-Bold findfont 45.6587 sf 0 0 m (U/O\255flow \(S,B\): \(0.0, 0.0\)% / \(0.0, 0.0\)%) show NC gr  0.490196 0.545098 0.615686 c 0.364706 0.419608 0.490196 c 1587 96 23 1577 bf 0.490196 0.545098
 0.615686 c 23 1577 m 1587 X s 1610 1577 m 96 Y s 1610 1673 m -1587 X s 23 1673 m -96 Y s 1 1 1 c black 1 1 1 c
 gsave  2268 1682 0 0 C 102.732 1609.47 t 0 r /Helvetica-Bold findfont 60.8783 sf 0 0 m (TMVA overtraining check for classifier: TMlpANN) show NC gr 
 gr  gr showpage
end
%%EOF
