%!PS-Adobe-2.0 EPSF-2.0
%%BoundingBox:  0 0 567 420
%%Title: plots/overtrain_MLP.eps: TMVA comparison MLP
%%Creator: ROOT Version 5.34/09
%%CreationDate: Thu Jan  2 18:34:05 2014
%%EndComments
%%BeginProlog
80 dict begin
/s {stroke} def /l {lineto} def /m {moveto} def /t {translate} def
/r {rotate} def /rl {roll}  def /R {repeat} def
/d {rlineto} def /rm {rmoveto} def /gr {grestore} def /f {eofill} def
/c {setrgbcolor} def /black {0 setgray} def /sd {setdash} def
/cl {closepath} def /sf {scalefont setfont} def /lw {setlinewidth} def
/box {m dup 0 exch d exch 0 d 0 exch neg d cl} def
/NC{systemdict begin initclip end}def/C{NC box clip newpath}def
/bl {box s} def /bf {box f} def /Y { 0 exch d} def /X { 0 d} def 
/K {{pop pop 0 moveto} exch kshow} bind def
/ita {/ang 15 def gsave [1 0 ang dup sin exch cos div 1 0 0] concat} def 
/mp {newpath /y exch def /x exch def} def
/side {[w .77 mul w .23 mul] .385 w mul sd w 0 l currentpoint t -144 r} def
/mr {mp x y w2 0 360 arc} def /m24 {mr s} def /m20 {mr f} def
/mb {mp x y w2 add m w2 neg 0 d 0 w neg d w 0 d 0 w d cl} def
/mt {mp x y w2 add m w2 neg w neg d w 0 d cl} def
/m21 {mb f} def /m25 {mb s} def /m22 {mt f} def /m26{mt s} def
/m23 {mp x y w2 sub m w2 w d w neg 0 d cl f} def
/m27 {mp x y w2 add m w3 neg w2 neg d w3 w2 neg d w3 w2 d cl s} def
/m28 {mp x w2 sub y w2 sub w3 add m w3 0 d  0 w3 neg d w3 0 d 0 w3 d w3 0 d  0 w3 d w3 neg 0 d 0 w3 d w3 neg 0 d 0 w3 neg d w3 neg 0 d cl s } def
/m29 {mp gsave x w2 sub y w2 add w3 sub m currentpoint t 4 {side} repeat cl fill gr} def
/m30 {mp gsave x w2 sub y w2 add w3 sub m currentpoint t 4 {side} repeat cl s gr} def
/m31 {mp x y w2 sub m 0 w d x w2 sub y m w 0 d x w2 sub y w2 add m w w neg d x w2 sub y w2 sub m w w d s} def
/m32 {mp x y w2 sub m w2 w d w neg 0 d cl s} def
/m33 {mp x y w2 add m w3 neg w2 neg d w3 w2 neg d w3 w2 d cl f} def
/m34 {mp x w2 sub y w2 sub w3 add m w3 0 d  0 w3 neg d w3 0 d 0 w3 d w3 0 d  0 w3 d w3 neg 0 d 0 w3 d w3 neg 0 d 0 w3 neg d w3 neg 0 d cl f } def
/m2 {mp x y w2 sub m 0 w d x w2 sub y m w 0 d s} def
/m5 {mp x w2 sub y w2 sub m w w d x w2 sub y w2 add m w w neg d s} def
/reEncode {exch findfont dup length dict begin {1 index /FID eq  {pop pop} {def} ifelse } forall /Encoding exch def currentdict end dup /FontName get exch definefont pop } def [/Times-Bold /Times-Italic /Times-BoldItalic /Helvetica /Helvetica-Oblique
 /Helvetica-Bold /Helvetica-BoldOblique /Courier /Courier-Oblique /Courier-Bold /Courier-BoldOblique /Times-Roman /AvantGarde-Book /AvantGarde-BookOblique /AvantGarde-Demi /AvantGarde-DemiOblique /Bookman-Demi /Bookman-DemiItalic /Bookman-Light
 /Bookman-LightItalic /Helvetica-Narrow /Helvetica-Narrow-Bold /Helvetica-Narrow-BoldOblique /Helvetica-Narrow-Oblique /NewCenturySchlbk-Roman /NewCenturySchlbk-Bold /NewCenturySchlbk-BoldItalic /NewCenturySchlbk-Italic /Palatino-Bold
 /Palatino-BoldItalic /Palatino-Italic /Palatino-Roman ] {ISOLatin1Encoding reEncode } forall
%%EndProlog
%%BeginSetup
%%EndSetup
newpath  gsave  .25 .25 scale  gsave  0 0 t 0.490196 0.545098 0.615686 c[  ] 0 sd 3 lw 0.941176 0.941176 0.941176 c 2268 1682 0 0 bf black 1 1 0.992157 c 1916 1312 238 202 bf black 1916 1312 238 202 bl 1 1 0.992157 c 1916 1312 238 202 bf black 1916
 1312 238 202 bl 238 202 m 1916 X s
 gsave  2268 1682 0 0 C 1658.93 34.244 t 0 r /Helvetica-Bold findfont 72.293 sf 0 0 m (MLP response) show NC gr  286 244 m -42 Y s 327 223 m -21 Y s 369 223 m -21 Y s 410 223 m -21 Y s 452 244 m -42 Y s 494 223 m -21 Y s 535 223 m -21 Y s 577 223 m
 -21 Y s 619 244 m -42 Y s 660 223 m -21 Y s 702 223 m -21 Y s 744 223 m -21 Y s 785 244 m -42 Y s 827 223 m -21 Y s 869 223 m -21 Y s 910 223 m -21 Y s 952 244 m -42 Y s 994 223 m -21 Y s 1035 223 m -21 Y s 1077 223 m -21 Y s 1118 244 m -42 Y s 1160
 223 m -21 Y s 1202 223 m -21 Y s 1243 223 m -21 Y s 1285 244 m -42 Y s 1327 223 m -21 Y s 1368 223 m -21 Y s 1410 223 m -21 Y s 1452 244 m -42 Y s 1493 223 m -21 Y s 1535 223 m -21 Y s 1577 223 m -21 Y s 1618 244 m -42 Y s 1660 223 m -21 Y s 1701
 223 m -21 Y s 1743 223 m -21 Y s 1785 244 m -42 Y s 1826 223 m -21 Y s 1868 223 m -21 Y s 1910 223 m -21 Y s 1951 244 m -42 Y s 1993 223 m -21 Y s 2035 223 m -21 Y s 2076 223 m -21 Y s 2118 244 m -42 Y s 286 244 m -42 Y s 244 223 m -21 Y s 2118 244
 m -42 Y s
 gsave  2268 1682 0 0 C 228.294 129.366 t 0 r /Helvetica-Bold findfont 64.6832 sf 0 0 m (\2550.4) show NC gr 
 gsave  2268 1682 0 0 C 391.904 129.366 t 0 r /Helvetica-Bold findfont 64.6832 sf 0 0 m (\2550.2) show NC gr 
 gsave  2268 1682 0 0 C 597.368 129.366 t 0 r /Helvetica-Bold findfont 64.6832 sf 0 0 m (0) show NC gr 
 gsave  2268 1682 0 0 C 738.149 129.366 t 0 r /Helvetica-Bold findfont 64.6832 sf 0 0 m (0.2) show NC gr 
 gsave  2268 1682 0 0 C 905.565 129.366 t 0 r /Helvetica-Bold findfont 64.6832 sf 0 0 m (0.4) show NC gr 
 gsave  2268 1682 0 0 C 1069.18 129.366 t 0 r /Helvetica-Bold findfont 64.6832 sf 0 0 m (0.6) show NC gr 
 gsave  2268 1682 0 0 C 1236.59 129.366 t 0 r /Helvetica-Bold findfont 64.6832 sf 0 0 m (0.8) show NC gr 
 gsave  2268 1682 0 0 C 1434.44 129.366 t 0 r /Helvetica-Bold findfont 64.6832 sf 0 0 m (1) show NC gr 
 gsave  2268 1682 0 0 C 1571.42 129.366 t 0 r /Helvetica-Bold findfont 64.6832 sf 0 0 m (1.2) show NC gr 
 gsave  2268 1682 0 0 C 1738.84 129.366 t 0 r /Helvetica-Bold findfont 64.6832 sf 0 0 m (1.4) show NC gr 
 gsave  2268 1682 0 0 C 1902.45 129.366 t 0 r /Helvetica-Bold findfont 64.6832 sf 0 0 m (1.6) show NC gr 
 gsave  2268 1682 0 0 C 2069.86 129.366 t 0 r /Helvetica-Bold findfont 64.6832 sf 0 0 m (1.8) show NC gr  238 1514 m 1916 X s 286 1471 m 43 Y s 327 1492 m 22 Y s 369 1492 m 22 Y s 410 1492 m 22 Y s 452 1471 m 43 Y s 494 1492 m 22 Y s 535 1492 m 22 Y
 s 577 1492 m 22 Y s 619 1471 m 43 Y s 660 1492 m 22 Y s 702 1492 m 22 Y s 744 1492 m 22 Y s 785 1471 m 43 Y s 827 1492 m 22 Y s 869 1492 m 22 Y s 910 1492 m 22 Y s 952 1471 m 43 Y s 994 1492 m 22 Y s 1035 1492 m 22 Y s 1077 1492 m 22 Y s 1118 1471 m
 43 Y s 1160 1492 m 22 Y s 1202 1492 m 22 Y s 1243 1492 m 22 Y s 1285 1471 m 43 Y s 1327 1492 m 22 Y s 1368 1492 m 22 Y s 1410 1492 m 22 Y s 1452 1471 m 43 Y s 1493 1492 m 22 Y s 1535 1492 m 22 Y s 1577 1492 m 22 Y s 1618 1471 m 43 Y s 1660 1492 m 22
 Y s 1701 1492 m 22 Y s 1743 1492 m 22 Y s 1785 1471 m 43 Y s 1826 1492 m 22 Y s 1868 1492 m 22 Y s 1910 1492 m 22 Y s 1951 1471 m 43 Y s 1993 1492 m 22 Y s 2035 1492 m 22 Y s 2076 1492 m 22 Y s 2118 1471 m 43 Y s 286 1471 m 43 Y s 244 1492 m 22 Y s
 2118 1471 m 43 Y s 238 202 m 1312 Y s
 gsave  2268 1682 0 0 C 64.6832 1430.64 t 90 r /Helvetica-Bold findfont 72.293 sf 0 0 m (dx) show NC gr 
 gsave  2268 1682 0 0 C 30.4391 1411.62 t 90 r /Helvetica-Bold findfont 45.6587 sf 0 0 m ( ) show NC gr 
 gsave  2268 1682 0 0 C 64.6832 1388.79 t 90 r /Helvetica-Bold findfont 72.293 sf 0 0 m (/) show NC gr 
 gsave  2268 1682 0 0 C 30.4391 1369.76 t 90 r /Helvetica-Bold findfont 45.6587 sf 0 0 m ( ) show NC gr 
 gsave  2268 1682 0 0 C 60.8783 1095.81 t 90 r /Helvetica-Bold findfont 72.293 sf 0 0 m (\(1/N\) dN) show NC gr  291 202 m -53 X s 265 251 m -27 X s 265 301 m -27 X s 265 350 m -27 X s 265 399 m -27 X s 291 449 m -53 X s 265 498 m -27 X s 265 547 m
 -27 X s 265 597 m -27 X s 265 646 m -27 X s 291 695 m -53 X s 265 745 m -27 X s 265 794 m -27 X s 265 843 m -27 X s 265 893 m -27 X s 291 942 m -53 X s 265 991 m -27 X s 265 1041 m -27 X s 265 1090 m -27 X s 265 1140 m -27 X s 291 1189 m -53 X s 265
 1238 m -27 X s 265 1288 m -27 X s 265 1337 m -27 X s 265 1386 m -27 X s 291 1436 m -53 X s 291 1436 m -53 X s 265 1485 m -27 X s
 gsave  2268 1682 0 0 C 175.025 178.83 t 0 r /Helvetica-Bold findfont 64.6832 sf 0 0 m (0) show NC gr 
 gsave  2268 1682 0 0 C 121.757 422.343 t 0 r /Helvetica-Bold findfont 64.6832 sf 0 0 m (0.5) show NC gr 
 gsave  2268 1682 0 0 C 182.635 669.661 t 0 r /Helvetica-Bold findfont 64.6832 sf 0 0 m (1) show NC gr 
 gsave  2268 1682 0 0 C 121.757 916.979 t 0 r /Helvetica-Bold findfont 64.6832 sf 0 0 m (1.5) show NC gr 
 gsave  2268 1682 0 0 C 175.025 1164.3 t 0 r /Helvetica-Bold findfont 64.6832 sf 0 0 m (2) show NC gr 
 gsave  2268 1682 0 0 C 121.757 1411.62 t 0 r /Helvetica-Bold findfont 64.6832 sf 0 0 m (2.5) show NC gr  2154 202 m 1312 Y s 2101 202 m 53 X s 2128 251 m 26 X s 2128 301 m 26 X s 2128 350 m 26 X s 2128 399 m 26 X s 2101 449 m 53 X s 2128 498 m 26 X
 s 2128 547 m 26 X s 2128 597 m 26 X s 2128 646 m 26 X s 2101 695 m 53 X s 2128 745 m 26 X s 2128 794 m 26 X s 2128 843 m 26 X s 2128 893 m 26 X s 2101 942 m 53 X s 2128 991 m 26 X s 2128 1041 m 26 X s 2128 1090 m 26 X s 2128 1140 m 26 X s 2101 1189
 m 53 X s 2128 1238 m 26 X s 2128 1288 m 26 X s 2128 1337 m 26 X s 2128 1386 m 26 X s 2101 1436 m 53 X s 2101 1436 m 53 X s 2128 1485 m 26 X s 0.490196 0.545098 0.615686 c 0.95 0.95 0.95 c 0.490196 0.545098 0.615686 c 907 202 238 1312 bl 238 1312 m
 907 X s 1145 1312 m 202 Y s 1145 1514 m -907 X s 238 1514 m -202 Y s black
 gsave  2268 1682 0 0 C 418.538 1445.86 t 0 r /Times-Italic findfont 57.0734 sf 0 0 m (Signal \(test sample\)) show NC gr  0.49 0.6 0.82 c 265 1428 m 127 X 70 Y -127 X f 0 0 0.933333 c 265 1498 m 127 X s 265 1428 m 127 X s 392 1428 m 70 Y s 265 1428
 m 70 Y s black
 gsave  2268 1682 0 0 C 418.538 1350.74 t 0 r /Times-Italic findfont 57.0734 sf 0 0 m (Background \(test sample\)) show NC gr  1 0 0 c 392 1354 m -27 -27 d s 387 1398 m -70 -71 d s 339 1398 m -70 -71 d s 291 1398 m -26 -26 d s 0 lw 0 0 0.933333 c 1 0
 0 c 3 lw 265 1398 m 127 X s 265 1327 m 127 X s 392 1327 m 71 Y s 265 1327 m 71 Y s 0 0 0.933333 c 0.49 0.6 0.82 c black 0.49 0.6 0.82 c 238 202 m 240 X 4 Y 48 X -2 Y 47 X 5 Y 48 X 14 Y 48 X 13 Y 48 X 4 Y 48 X 59 Y 48 X 57 Y 48 X 133 Y 48 X 239 Y 48
 X 124 Y 48 X 197 Y 48 X 56 Y 47 X 30 Y 48 X -59 Y 48 X -125 Y 48 X -128 Y 48 X -188 Y 48 X -129 Y 48 X -17 Y 48 X -57 Y 48 X -23 Y 48 X -135 Y 47 X 48 Y 48 X -21 Y 48 X -63 Y 48 X -29 Y 96 X 6 Y 48 X -13 Y 144 X 2 Y 48 X 4 Y 47 X 1 Y 48 X -7 Y f 0 0
 0.933333 c 0.49 0.6 0.82 c 0 0 0.933333 c 238 202 m 240 X 4 Y 48 X -2 Y 47 X 5 Y 48 X 14 Y 48 X 13 Y 48 X 4 Y 48 X 59 Y 48 X 57 Y 48 X 133 Y 48 X 239 Y 48 X 124 Y 48 X 197 Y 48 X 56 Y 47 X 30 Y 48 X -59 Y 48 X -125 Y 48 X -128 Y 48 X -188 Y 48 X
 -129 Y 48 X -17 Y 48 X -57 Y 48 X -23 Y 48 X -135 Y 47 X 48 Y 48 X -21 Y 48 X -63 Y 48 X -29 Y 96 X 6 Y 48 X -13 Y 144 X 2 Y 48 X 4 Y 47 X 1 Y 48 X -7 Y s 1 0 0 c black 1 0 0 c 2126 202 m s 2078 202 m s 2030 202 m s 1982 202 m s 1934 202 m s 1886
 202 m s 1837 202 m s 1789 202 m s 1741 202 m s 1693 202 m s 1645 202 m s 1597 202 m s 1564 217 m -15 -15 d s 1509 210 m -8 -8 d s 1453 202 m cl s 1409 206 m -5 -4 d s 1388 233 m -32 -31 d s 1344 238 m -4 -4 d s 1340 233 m -32 -31 d s 1292 234 m -32
 -32 d s 1292 282 m -80 -80 d s 1292 330 m -128 -128 d s 1276 362 m -160 -160 d s 1244 378 m -176 -176 d s 1244 426 m -224 -224 d s 1244 474 m -272 -272 d s 1221 499 m -298 -297 d s 1196 523 m -321 -321 d s 1196 571 m -369 -369 d s 1196 619 m -417
 -417 d s 1151 622 m -420 -420 d s 1148 667 m -465 -465 d s 1148 715 m -513 -513 d s 1148 763 m -561 -561 d s 1109 772 m -570 -570 d s 1100 812 m -479 -479 d s 577 288 m -51 -51 d s 503 214 m -13 -12 d s 1100 860 m -479 -479 d s 550 309 m -24 -24 d s
 457 217 m -15 -15 d s 1066 873 m -349 -348 d s 675 483 m -54 -54 d s 394 202 m s 1053 908 m -336 -335 d s 642 497 m -21 -20 d s 346 202 m s 1053 956 m -288 -287 d s 737 641 m -20 -20 d s 298 202 m s 1053 1004 m -240 -239 d s 776 727 m -11 -10 d s
 252 204 m -2 -2 d s 1053 1053 m -240 -240 d s 1053 1101 m -240 -240 d s 1030 1126 m -217 -217 d s 1005 1149 m -96 -96 d s 900 1044 m -87 -87 d s 1004 1196 m -95 -95 d s 841 1034 m -28 -29 d s 957 1197 m -48 -48 d s 922 1211 m -13 -14 d s 0 lw 3 lw
 238 204 m 48 X -2 Y 144 X 15 Y 48 X -3 Y 48 X 95 Y 47 X -21 Y 48 X 209 Y 48 X -14 Y 48 X 158 Y 48 X 86 Y 48 X 307 Y 48 X 10 Y 48 X 167 Y 48 X -15 Y 48 X -70 Y 48 X -253 Y 47 X -101 Y 48 X -150 Y 48 X -123 Y 48 X -137 Y 48 X -129 Y 48 X 5 Y 48 X -32
 Y 48 X -4 Y 48 X 8 Y 48 X 7 Y 47 X -15 Y 575 X s 0.490196 0.545098 0.615686 c 0.95 0.95 0.95 c 0.490196 0.545098 0.615686 c 952 202 1202 1312 bl 1202 1312 m 952 X s 2154 1312 m 202 Y s 2154 1514 m -952 X s 1202 1514 m -202 Y s black
 gsave  2268 1682 0 0 C 1293.66 1445.86 t 0 r /Times-Italic findfont 57.0734 sf 0 0 m (Signal \(training sample\)) show NC gr  0 0 0.933333 c /w 21 def /w2 {w 2 div} def /w3 {w 3 div} def 1250 1463 m20 black
 gsave  2268 1682 0 0 C 1293.66 1350.74 t 0 r /Times-Italic findfont 57.0734 sf 0 0 m (Background \(training sample\)) show NC gr  1 0 0 c 1250 1362 m20 0 0 0.933333 c 1 1 1 c 0 0 0.933333 c 478 204 m 16 X s 509 204 m 17 X s 478 196 m 15 Y s 526 196
 m 15 Y s 502 204 m20 526 206 m 16 X s 557 206 m 16 X s 526 198 m 15 Y s 573 198 m 15 Y s 549 206 m20 573 206 m 17 X s 605 206 m 16 X s 573 198 m 15 Y s 621 198 m 15 Y s 597 206 m20 621 221 m 17 X s 653 221 m 16 X s 621 213 m 15 Y s 669 213 m 15 Y s
 645 221 m20 693 230 m s 693 246 m s 669 238 m 17 X s 701 238 m 16 X s 686 230 m 15 X s 686 246 m 15 X s 669 230 m 16 Y s 717 230 m 16 Y s 693 238 m20 717 227 m 17 X s 749 227 m 16 X s 717 219 m 15 Y s 765 219 m 15 Y s 741 227 m20 789 287 m 6 Y s 789
 308 m 6 Y s 765 301 m 16 X s 797 301 m 16 X s 781 287 m 16 X s 781 314 m 16 X s 765 293 m 15 Y s 813 293 m 15 Y s 789 301 m20 837 290 m 7 Y s 837 312 m 6 Y s 813 304 m 16 X s 845 304 m 16 X s 829 290 m 16 X s 829 318 m 16 X s 813 297 m 15 Y s 861
 297 m 15 Y s 837 304 m20 885 498 m 17 Y s 885 531 m 17 Y s 861 523 m 16 X s 892 523 m 17 X s 877 498 m 15 X s 877 548 m 15 X s 861 515 m 16 Y s 909 515 m 16 Y s 885 523 m20 933 748 m 26 Y s 933 789 m 26 Y s 909 781 m 16 X s 940 781 m 17 X s 925 748
 m 15 X s 925 815 m 15 X s 909 774 m 15 Y s 957 774 m 15 Y s 933 781 m20 981 794 m 27 Y s 981 837 m 27 Y s 957 829 m 16 X s 988 829 m 17 X s 973 794 m 15 X s 973 864 m 15 X s 957 821 m 16 Y s 1005 821 m 16 Y s 981 829 m20 1029 876 m 29 Y s 1029 920 m
 29 Y s 1005 913 m 16 X s 1036 913 m 17 X s 1021 876 m 15 X s 1021 949 m 15 X s 1005 905 m 15 Y s 1053 905 m 15 Y s 1029 913 m20 1076 1011 m 33 Y s 1076 1059 m 33 Y s 1053 1051 m 16 X s 1084 1051 m 16 X s 1069 1011 m 15 X s 1069 1092 m 15 X s 1053
 1044 m 15 Y s 1100 1044 m 15 Y s 1076 1051 m20 1124 1134 m 35 Y s 1124 1184 m 36 Y s 1100 1177 m 17 X s 1132 1177 m 16 X s 1117 1134 m 15 X s 1117 1220 m 15 X s 1100 1169 m 15 Y s 1148 1169 m 15 Y s 1124 1177 m20 1172 1072 m 34 Y s 1172 1122 m 34 Y
 s 1148 1114 m 17 X s 1180 1114 m 16 X s 1165 1072 m 15 X s 1165 1156 m 15 X s 1148 1106 m 16 Y s 1196 1106 m 16 Y s 1172 1114 m20 1220 931 m 31 Y s 1220 977 m 31 Y s 1196 970 m 17 X s 1228 970 m 16 X s 1213 931 m 15 X s 1213 1008 m 15 X s 1196 962 m
 15 Y s 1244 962 m 15 Y s 1220 970 m20 1268 819 m 27 Y s 1268 861 m 28 Y s 1244 854 m 16 X s 1276 854 m 16 X s 1260 819 m 16 X s 1260 889 m 16 X s 1244 846 m 15 Y s 1292 846 m 15 Y s 1268 854 m20 1316 645 m 22 Y s 1316 683 m 22 Y s 1292 675 m 16 X s
 1324 675 m 16 X s 1308 645 m 16 X s 1308 705 m 16 X s 1292 667 m 16 Y s 1340 667 m 16 Y s 1316 675 m20 1364 438 m 15 Y s 1364 468 m 14 Y s 1340 460 m 16 X s 1371 460 m 17 X s 1356 438 m 15 X s 1356 482 m 15 X s 1340 453 m 15 Y s 1388 453 m 15 Y s
 1364 460 m20 1412 496 m 18 Y s 1412 529 m 17 Y s 1388 521 m 16 X s 1419 521 m 17 X s 1404 496 m 15 X s 1404 546 m 15 X s 1388 514 m 15 Y s 1436 514 m 15 Y s 1412 521 m20 1460 425 m 14 Y s 1460 455 m 14 Y s 1436 447 m 16 X s 1467 447 m 17 X s 1452
 425 m 15 X s 1452 469 m 15 X s 1436 439 m 16 Y s 1484 439 m 16 Y s 1460 447 m20 1508 375 m 11 Y s 1508 401 m 12 Y s 1484 394 m 16 X s 1515 394 m 17 X s 1500 375 m 15 X s 1500 413 m 15 X s 1484 386 m 15 Y s 1532 386 m 15 Y s 1508 394 m20 1556 324 m 9
 Y s 1556 348 m 9 Y s 1532 341 m 16 X s 1563 341 m 16 X s 1548 324 m 15 X s 1548 357 m 15 X s 1532 333 m 15 Y s 1579 333 m 15 Y s 1556 341 m20 1603 306 m 8 Y s 1603 329 m 8 Y s 1579 322 m 17 X s 1611 322 m 16 X s 1596 306 m 15 X s 1596 337 m 15 X s
 1579 314 m 15 Y s 1627 314 m 15 Y s 1603 322 m20 1651 257 m 4 Y s 1651 276 m 4 Y s 1627 268 m 17 X s 1659 268 m 16 X s 1644 257 m 15 X s 1644 280 m 15 X s 1627 261 m 15 Y s 1675 261 m 15 Y s 1651 268 m20 1699 226 m 1 Y s 1699 242 m s 1675 234 m 17 X
 s 1707 234 m 16 X s 1692 226 m 15 X s 1692 242 m 15 X s 1675 227 m 15 Y s 1723 227 m 15 Y s 1699 234 m20 1723 211 m 17 X s 1755 211 m 16 X s 1723 204 m 15 Y s 1771 204 m 15 Y s 1747 211 m20 1771 217 m 16 X s 1803 217 m 16 X s 1771 209 m 16 Y s 1819
 209 m 16 Y s 1795 217 m20 1819 213 m 16 X s 1851 213 m 16 X s 1819 206 m 15 Y s 1867 206 m 15 Y s 1843 213 m20 2059 215 m 16 X s 2090 215 m 16 X s 2059 208 m 15 Y s 2106 208 m 15 Y s 2082 215 m20 1 0 0 c 1 1 1 c 1 0 0 c 430 219 m 16 X s 461 219 m 17
 X s 430 211 m 15 Y s 478 211 m 15 Y s 454 219 m20 478 212 m 16 X s 509 212 m 17 X s 478 205 m 15 Y s 526 205 m 15 Y s 502 212 m20 549 279 m 6 Y s 549 300 m 6 Y s 526 293 m 16 X s 557 293 m 16 X s 542 279 m 15 X s 542 306 m 15 X s 526 285 m 15 Y s
 573 285 m 15 Y s 549 293 m20 597 294 m 8 Y s 597 317 m 8 Y s 573 309 m 17 X s 605 309 m 16 X s 590 294 m 15 X s 590 325 m 15 X s 573 302 m 15 Y s 621 302 m 15 Y s 597 309 m20 645 515 m 19 Y s 645 549 m 19 Y s 621 542 m 17 X s 653 542 m 16 X s 638
 515 m 15 X s 638 568 m 15 X s 621 534 m 15 Y s 669 534 m 15 Y s 645 542 m20 693 497 m 18 Y s 693 530 m 19 Y s 669 523 m 17 X s 701 523 m 16 X s 686 497 m 15 X s 686 549 m 15 X s 669 515 m 15 Y s 717 515 m 15 Y s 693 523 m20 741 637 m 24 Y s 741 676
 m 24 Y s 717 668 m 17 X s 749 668 m 16 X s 734 637 m 15 X s 734 700 m 15 X s 717 661 m 15 Y s 765 661 m 15 Y s 741 668 m20 789 694 m 26 Y s 789 735 m 26 Y s 765 727 m 16 X s 797 727 m 16 X s 781 694 m 16 X s 781 761 m 16 X s 765 720 m 15 Y s 813 720
 m 15 Y s 789 727 m20 837 922 m 32 Y s 837 969 m 33 Y s 813 962 m 16 X s 845 962 m 16 X s 829 922 m 16 X s 829 1002 m 16 X s 813 954 m 15 Y s 861 954 m 15 Y s 837 962 m20 885 1055 m 36 Y s 885 1107 m 36 Y s 861 1099 m 16 X s 892 1099 m 17 X s 877
 1055 m 15 X s 877 1143 m 15 X s 861 1091 m 16 Y s 909 1091 m 16 Y s 885 1099 m20 933 1148 m 38 Y s 933 1202 m 38 Y s 909 1194 m 16 X s 940 1194 m 17 X s 925 1148 m 15 X s 925 1240 m 15 X s 909 1186 m 16 Y s 957 1186 m 16 Y s 933 1194 m20 981 1154 m
 39 Y s 981 1208 m 38 Y s 957 1200 m 16 X s 988 1200 m 17 X s 973 1154 m 15 X s 973 1246 m 15 X s 957 1193 m 15 Y s 1005 1193 m 15 Y s 981 1200 m20 1029 1020 m 35 Y s 1029 1071 m 35 Y s 1005 1063 m 16 X s 1036 1063 m 17 X s 1021 1020 m 15 X s 1021
 1106 m 15 X s 1005 1055 m 16 Y s 1053 1055 m 16 Y s 1029 1063 m20 1076 864 m 31 Y s 1076 910 m 31 Y s 1053 903 m 16 X s 1084 903 m 16 X s 1069 864 m 15 X s 1069 941 m 15 X s 1053 895 m 15 Y s 1100 895 m 15 Y s 1076 903 m20 1124 796 m 29 Y s 1124 841
 m 29 Y s 1100 833 m 17 X s 1132 833 m 16 X s 1117 796 m 15 X s 1117 870 m 15 X s 1100 825 m 16 Y s 1148 825 m 16 Y s 1124 833 m20 1172 537 m 20 Y s 1172 573 m 20 Y s 1148 565 m 17 X s 1180 565 m 16 X s 1165 537 m 15 X s 1165 593 m 15 X s 1148 557 m
 16 Y s 1196 557 m 16 Y s 1172 565 m20 1220 458 m 17 Y s 1220 490 m 17 Y s 1196 483 m 17 X s 1228 483 m 16 X s 1213 458 m 15 X s 1213 507 m 15 X s 1196 475 m 15 Y s 1244 475 m 15 Y s 1220 483 m20 1268 328 m 10 Y s 1268 353 m 10 Y s 1244 345 m 16 X s
 1276 345 m 16 X s 1260 328 m 16 X s 1260 363 m 16 X s 1244 338 m 15 Y s 1292 338 m 15 Y s 1268 345 m20 1292 221 m 16 X s 1324 221 m 16 X s 1292 213 m 15 Y s 1340 213 m 15 Y s 1316 221 m20 1364 231 m 1 Y s 1364 247 m 2 Y s 1340 240 m 16 X s 1371 240
 m 17 X s 1356 231 m 15 X s 1356 249 m 15 X s 1340 232 m 15 Y s 1388 232 m 15 Y s 1364 240 m20 1436 206 m 16 X s 1467 206 m 17 X s 1436 198 m 16 Y s 1484 198 m 16 Y s 1460 206 m20 1484 204 m 16 X s 1515 204 m 17 X s 1484 196 m 16 Y s 1532 196 m 16 Y
 s 1508 204 m20 1532 212 m 16 X s 1563 212 m 16 X s 1532 205 m 15 Y s 1579 205 m 15 Y s 1556 212 m20 black
 gsave  2268 1682 0 0 C 272.126 1244.5 t 0 r /Helvetica-Bold findfont 49.4636 sf 0 0 m (Kolmogorov\255Smirnov test: signal \(background\) probability = 0.209 \(0.866\)) show NC gr  238 202 m 1916 X s 286 244 m -42 Y s 327 223 m -21 Y s 369 223 m -21
 Y s 410 223 m -21 Y s 452 244 m -42 Y s 494 223 m -21 Y s 535 223 m -21 Y s 577 223 m -21 Y s 619 244 m -42 Y s 660 223 m -21 Y s 702 223 m -21 Y s 744 223 m -21 Y s 785 244 m -42 Y s 827 223 m -21 Y s 869 223 m -21 Y s 910 223 m -21 Y s 952 244 m
 -42 Y s 994 223 m -21 Y s 1035 223 m -21 Y s 1077 223 m -21 Y s 1118 244 m -42 Y s 1160 223 m -21 Y s 1202 223 m -21 Y s 1243 223 m -21 Y s 1285 244 m -42 Y s 1327 223 m -21 Y s 1368 223 m -21 Y s 1410 223 m -21 Y s 1452 244 m -42 Y s 1493 223 m -21
 Y s 1535 223 m -21 Y s 1577 223 m -21 Y s 1618 244 m -42 Y s 1660 223 m -21 Y s 1701 223 m -21 Y s 1743 223 m -21 Y s 1785 244 m -42 Y s 1826 223 m -21 Y s 1868 223 m -21 Y s 1910 223 m -21 Y s 1951 244 m -42 Y s 1993 223 m -21 Y s 2035 223 m -21 Y
 s 2076 223 m -21 Y s 2118 244 m -42 Y s 286 244 m -42 Y s 244 223 m -21 Y s 2118 244 m -42 Y s 238 1514 m 1916 X s 286 1471 m 43 Y s 327 1492 m 22 Y s 369 1492 m 22 Y s 410 1492 m 22 Y s 452 1471 m 43 Y s 494 1492 m 22 Y s 535 1492 m 22 Y s 577 1492
 m 22 Y s 619 1471 m 43 Y s 660 1492 m 22 Y s 702 1492 m 22 Y s 744 1492 m 22 Y s 785 1471 m 43 Y s 827 1492 m 22 Y s 869 1492 m 22 Y s 910 1492 m 22 Y s 952 1471 m 43 Y s 994 1492 m 22 Y s 1035 1492 m 22 Y s 1077 1492 m 22 Y s 1118 1471 m 43 Y s
 1160 1492 m 22 Y s 1202 1492 m 22 Y s 1243 1492 m 22 Y s 1285 1471 m 43 Y s 1327 1492 m 22 Y s 1368 1492 m 22 Y s 1410 1492 m 22 Y s 1452 1471 m 43 Y s 1493 1492 m 22 Y s 1535 1492 m 22 Y s 1577 1492 m 22 Y s 1618 1471 m 43 Y s 1660 1492 m 22 Y s
 1701 1492 m 22 Y s 1743 1492 m 22 Y s 1785 1471 m 43 Y s 1826 1492 m 22 Y s 1868 1492 m 22 Y s 1910 1492 m 22 Y s 1951 1471 m 43 Y s 1993 1492 m 22 Y s 2035 1492 m 22 Y s 2076 1492 m 22 Y s 2118 1471 m 43 Y s 286 1471 m 43 Y s 244 1492 m 22 Y s 2118
 1471 m 43 Y s 238 202 m 1312 Y s 291 202 m -53 X s 265 251 m -27 X s 265 301 m -27 X s 265 350 m -27 X s 265 399 m -27 X s 291 449 m -53 X s 265 498 m -27 X s 265 547 m -27 X s 265 597 m -27 X s 265 646 m -27 X s 291 695 m -53 X s 265 745 m -27 X s
 265 794 m -27 X s 265 843 m -27 X s 265 893 m -27 X s 291 942 m -53 X s 265 991 m -27 X s 265 1041 m -27 X s 265 1090 m -27 X s 265 1140 m -27 X s 291 1189 m -53 X s 265 1238 m -27 X s 265 1288 m -27 X s 265 1337 m -27 X s 265 1386 m -27 X s 291
 1436 m -53 X s 291 1436 m -53 X s 265 1485 m -27 X s 2154 202 m 1312 Y s 2101 202 m 53 X s 2128 251 m 26 X s 2128 301 m 26 X s 2128 350 m 26 X s 2128 399 m 26 X s 2101 449 m 53 X s 2128 498 m 26 X s 2128 547 m 26 X s 2128 597 m 26 X s 2128 646 m 26
 X s 2101 695 m 53 X s 2128 745 m 26 X s 2128 794 m 26 X s 2128 843 m 26 X s 2128 893 m 26 X s 2101 942 m 53 X s 2128 991 m 26 X s 2128 1041 m 26 X s 2128 1090 m 26 X s 2128 1140 m 26 X s 2101 1189 m 53 X s 2128 1238 m 26 X s 2128 1288 m 26 X s 2128
 1337 m 26 X s 2128 1386 m 26 X s 2101 1436 m 53 X s 2101 1436 m 53 X s 2128 1485 m 26 X s
 gsave  2268 1682 0 0 C 2211.02 193.403 t 90 r /Helvetica-Bold findfont 45.6587 sf 0 0 m (U/O\255flow \(S,B\): \(0.0, 0.0\)% / \(0.0, 0.0\)%) show NC gr  0.490196 0.545098 0.615686 c 0.364706 0.419608 0.490196 c 1587 96 23 1577 bf 0.490196 0.545098
 0.615686 c 23 1577 m 1587 X s 1610 1577 m 96 Y s 1610 1673 m -1587 X s 23 1673 m -96 Y s 1 1 1 c black 1 1 1 c
 gsave  2268 1682 0 0 C 95.1223 1605.67 t 0 r /Helvetica-Bold findfont 68.4881 sf 0 0 m (TMVA overtraining check for classifier: MLP) show NC gr 
 gr  gr showpage
end
%%EOF
