%!PS-Adobe-2.0 EPSF-2.0
%%BoundingBox:  0 0 567 420
%%Title: plots/overtrain_LikelihoodKDE.eps: TMVA comparison LikelihoodKDE
%%Creator: ROOT Version 5.34/09
%%CreationDate: Thu Jan  2 18:34:05 2014
%%EndComments
%%BeginProlog
80 dict begin
/s {stroke} def /l {lineto} def /m {moveto} def /t {translate} def
/r {rotate} def /rl {roll}  def /R {repeat} def
/d {rlineto} def /rm {rmoveto} def /gr {grestore} def /f {eofill} def
/c {setrgbcolor} def /black {0 setgray} def /sd {setdash} def
/cl {closepath} def /sf {scalefont setfont} def /lw {setlinewidth} def
/box {m dup 0 exch d exch 0 d 0 exch neg d cl} def
/NC{systemdict begin initclip end}def/C{NC box clip newpath}def
/bl {box s} def /bf {box f} def /Y { 0 exch d} def /X { 0 d} def 
/K {{pop pop 0 moveto} exch kshow} bind def
/ita {/ang 15 def gsave [1 0 ang dup sin exch cos div 1 0 0] concat} def 
/mp {newpath /y exch def /x exch def} def
/side {[w .77 mul w .23 mul] .385 w mul sd w 0 l currentpoint t -144 r} def
/mr {mp x y w2 0 360 arc} def /m24 {mr s} def /m20 {mr f} def
/mb {mp x y w2 add m w2 neg 0 d 0 w neg d w 0 d 0 w d cl} def
/mt {mp x y w2 add m w2 neg w neg d w 0 d cl} def
/m21 {mb f} def /m25 {mb s} def /m22 {mt f} def /m26{mt s} def
/m23 {mp x y w2 sub m w2 w d w neg 0 d cl f} def
/m27 {mp x y w2 add m w3 neg w2 neg d w3 w2 neg d w3 w2 d cl s} def
/m28 {mp x w2 sub y w2 sub w3 add m w3 0 d  0 w3 neg d w3 0 d 0 w3 d w3 0 d  0 w3 d w3 neg 0 d 0 w3 d w3 neg 0 d 0 w3 neg d w3 neg 0 d cl s } def
/m29 {mp gsave x w2 sub y w2 add w3 sub m currentpoint t 4 {side} repeat cl fill gr} def
/m30 {mp gsave x w2 sub y w2 add w3 sub m currentpoint t 4 {side} repeat cl s gr} def
/m31 {mp x y w2 sub m 0 w d x w2 sub y m w 0 d x w2 sub y w2 add m w w neg d x w2 sub y w2 sub m w w d s} def
/m32 {mp x y w2 sub m w2 w d w neg 0 d cl s} def
/m33 {mp x y w2 add m w3 neg w2 neg d w3 w2 neg d w3 w2 d cl f} def
/m34 {mp x w2 sub y w2 sub w3 add m w3 0 d  0 w3 neg d w3 0 d 0 w3 d w3 0 d  0 w3 d w3 neg 0 d 0 w3 d w3 neg 0 d 0 w3 neg d w3 neg 0 d cl f } def
/m2 {mp x y w2 sub m 0 w d x w2 sub y m w 0 d s} def
/m5 {mp x w2 sub y w2 sub m w w d x w2 sub y w2 add m w w neg d s} def
/reEncode {exch findfont dup length dict begin {1 index /FID eq  {pop pop} {def} ifelse } forall /Encoding exch def currentdict end dup /FontName get exch definefont pop } def [/Times-Bold /Times-Italic /Times-BoldItalic /Helvetica /Helvetica-Oblique
 /Helvetica-Bold /Helvetica-BoldOblique /Courier /Courier-Oblique /Courier-Bold /Courier-BoldOblique /Times-Roman /AvantGarde-Book /AvantGarde-BookOblique /AvantGarde-Demi /AvantGarde-DemiOblique /Bookman-Demi /Bookman-DemiItalic /Bookman-Light
 /Bookman-LightItalic /Helvetica-Narrow /Helvetica-Narrow-Bold /Helvetica-Narrow-BoldOblique /Helvetica-Narrow-Oblique /NewCenturySchlbk-Roman /NewCenturySchlbk-Bold /NewCenturySchlbk-BoldItalic /NewCenturySchlbk-Italic /Palatino-Bold
 /Palatino-BoldItalic /Palatino-Italic /Palatino-Roman ] {ISOLatin1Encoding reEncode } forall
%%EndProlog
%%BeginSetup
%%EndSetup
newpath  gsave  .25 .25 scale  gsave  0 0 t 0.490196 0.545098 0.615686 c[  ] 0 sd 3 lw 0.941176 0.941176 0.941176 c 2268 1682 0 0 bf black 1 1 0.992157 c 1916 1312 238 202 bf black 1916 1312 238 202 bl 1 1 0.992157 c 1916 1312 238 202 bf black 1916
 1312 238 202 bl 238 202 m 1916 X s
 gsave  2268 1682 0 0 C 1297.47 34.244 t 0 r /Helvetica-Bold findfont 72.293 sf 0 0 m (LikelihoodKDE response) show NC gr  264 244 m -42 Y s 315 223 m -21 Y s 367 223 m -21 Y s 418 223 m -21 Y s 469 223 m -21 Y s 521 244 m -42 Y s 572 223 m -21 Y s
 623 223 m -21 Y s 675 223 m -21 Y s 726 223 m -21 Y s 777 244 m -42 Y s 828 223 m -21 Y s 880 223 m -21 Y s 931 223 m -21 Y s 982 223 m -21 Y s 1034 244 m -42 Y s 1085 223 m -21 Y s 1136 223 m -21 Y s 1188 223 m -21 Y s 1239 223 m -21 Y s 1290 244 m
 -42 Y s 1342 223 m -21 Y s 1393 223 m -21 Y s 1444 223 m -21 Y s 1496 223 m -21 Y s 1547 244 m -42 Y s 1598 223 m -21 Y s 1649 223 m -21 Y s 1701 223 m -21 Y s 1752 223 m -21 Y s 1803 244 m -42 Y s 1855 223 m -21 Y s 1906 223 m -21 Y s 1957 223 m
 -21 Y s 2009 223 m -21 Y s 2060 244 m -42 Y s 264 244 m -42 Y s 2060 244 m -42 Y s 2111 223 m -21 Y s
 gsave  2268 1682 0 0 C 216.879 129.366 t 0 r /Helvetica-Bold findfont 64.6832 sf 0 0 m (0.2) show NC gr 
 gsave  2268 1682 0 0 C 471.807 129.366 t 0 r /Helvetica-Bold findfont 64.6832 sf 0 0 m (0.3) show NC gr 
 gsave  2268 1682 0 0 C 730.54 129.366 t 0 r /Helvetica-Bold findfont 64.6832 sf 0 0 m (0.4) show NC gr 
 gsave  2268 1682 0 0 C 985.467 129.366 t 0 r /Helvetica-Bold findfont 64.6832 sf 0 0 m (0.5) show NC gr 
 gsave  2268 1682 0 0 C 1244.2 129.366 t 0 r /Helvetica-Bold findfont 64.6832 sf 0 0 m (0.6) show NC gr 
 gsave  2268 1682 0 0 C 1499.13 129.366 t 0 r /Helvetica-Bold findfont 64.6832 sf 0 0 m (0.7) show NC gr 
 gsave  2268 1682 0 0 C 1754.06 129.366 t 0 r /Helvetica-Bold findfont 64.6832 sf 0 0 m (0.8) show NC gr 
 gsave  2268 1682 0 0 C 2012.79 129.366 t 0 r /Helvetica-Bold findfont 64.6832 sf 0 0 m (0.9) show NC gr  238 1514 m 1916 X s 264 1471 m 43 Y s 315 1492 m 22 Y s 367 1492 m 22 Y s 418 1492 m 22 Y s 469 1492 m 22 Y s 521 1471 m 43 Y s 572 1492 m 22 Y
 s 623 1492 m 22 Y s 675 1492 m 22 Y s 726 1492 m 22 Y s 777 1471 m 43 Y s 828 1492 m 22 Y s 880 1492 m 22 Y s 931 1492 m 22 Y s 982 1492 m 22 Y s 1034 1471 m 43 Y s 1085 1492 m 22 Y s 1136 1492 m 22 Y s 1188 1492 m 22 Y s 1239 1492 m 22 Y s 1290
 1471 m 43 Y s 1342 1492 m 22 Y s 1393 1492 m 22 Y s 1444 1492 m 22 Y s 1496 1492 m 22 Y s 1547 1471 m 43 Y s 1598 1492 m 22 Y s 1649 1492 m 22 Y s 1701 1492 m 22 Y s 1752 1492 m 22 Y s 1803 1471 m 43 Y s 1855 1492 m 22 Y s 1906 1492 m 22 Y s 1957
 1492 m 22 Y s 2009 1492 m 22 Y s 2060 1471 m 43 Y s 264 1471 m 43 Y s 2060 1471 m 43 Y s 2111 1492 m 22 Y s 238 202 m 1312 Y s
 gsave  2268 1682 0 0 C 64.6832 1430.64 t 90 r /Helvetica-Bold findfont 72.293 sf 0 0 m (dx) show NC gr 
 gsave  2268 1682 0 0 C 30.4391 1411.62 t 90 r /Helvetica-Bold findfont 45.6587 sf 0 0 m ( ) show NC gr 
 gsave  2268 1682 0 0 C 64.6832 1388.79 t 90 r /Helvetica-Bold findfont 72.293 sf 0 0 m (/) show NC gr 
 gsave  2268 1682 0 0 C 30.4391 1369.76 t 90 r /Helvetica-Bold findfont 45.6587 sf 0 0 m ( ) show NC gr 
 gsave  2268 1682 0 0 C 60.8783 1095.81 t 90 r /Helvetica-Bold findfont 72.293 sf 0 0 m (\(1/N\) dN) show NC gr  291 202 m -53 X s 265 252 m -27 X s 265 303 m -27 X s 265 354 m -27 X s 265 404 m -27 X s 291 455 m -53 X s 265 506 m -27 X s 265 556 m
 -27 X s 265 607 m -27 X s 265 658 m -27 X s 291 708 m -53 X s 265 759 m -27 X s 265 809 m -27 X s 265 860 m -27 X s 265 911 m -27 X s 291 961 m -53 X s 265 1012 m -27 X s 265 1063 m -27 X s 265 1113 m -27 X s 265 1164 m -27 X s 291 1215 m -53 X s
 265 1265 m -27 X s 265 1316 m -27 X s 265 1366 m -27 X s 265 1417 m -27 X s 291 1468 m -53 X s 291 1468 m -53 X s
 gsave  2268 1682 0 0 C 175.025 178.83 t 0 r /Helvetica-Bold findfont 64.6832 sf 0 0 m (0) show NC gr 
 gsave  2268 1682 0 0 C 182.635 429.953 t 0 r /Helvetica-Bold findfont 64.6832 sf 0 0 m (1) show NC gr 
 gsave  2268 1682 0 0 C 175.025 684.881 t 0 r /Helvetica-Bold findfont 64.6832 sf 0 0 m (2) show NC gr 
 gsave  2268 1682 0 0 C 175.025 936.004 t 0 r /Helvetica-Bold findfont 64.6832 sf 0 0 m (3) show NC gr 
 gsave  2268 1682 0 0 C 175.025 1190.93 t 0 r /Helvetica-Bold findfont 64.6832 sf 0 0 m (4) show NC gr 
 gsave  2268 1682 0 0 C 175.025 1442.05 t 0 r /Helvetica-Bold findfont 64.6832 sf 0 0 m (5) show NC gr  2154 202 m 1312 Y s 2101 202 m 53 X s 2128 252 m 26 X s 2128 303 m 26 X s 2128 354 m 26 X s 2128 404 m 26 X s 2101 455 m 53 X s 2128 506 m 26 X s
 2128 556 m 26 X s 2128 607 m 26 X s 2128 658 m 26 X s 2101 708 m 53 X s 2128 759 m 26 X s 2128 809 m 26 X s 2128 860 m 26 X s 2128 911 m 26 X s 2101 961 m 53 X s 2128 1012 m 26 X s 2128 1063 m 26 X s 2128 1113 m 26 X s 2128 1164 m 26 X s 2101 1215 m
 53 X s 2128 1265 m 26 X s 2128 1316 m 26 X s 2128 1366 m 26 X s 2128 1417 m 26 X s 2101 1468 m 53 X s 2101 1468 m 53 X s 0.490196 0.545098 0.615686 c 0.95 0.95 0.95 c 0.490196 0.545098 0.615686 c 907 202 238 1312 bl 238 1312 m 907 X s 1145 1312 m
 202 Y s 1145 1514 m -907 X s 238 1514 m -202 Y s black
 gsave  2268 1682 0 0 C 418.538 1445.86 t 0 r /Times-Italic findfont 57.0734 sf 0 0 m (Signal \(test sample\)) show NC gr  0.49 0.6 0.82 c 265 1428 m 127 X 70 Y -127 X f 0 0 0.933333 c 265 1498 m 127 X s 265 1428 m 127 X s 392 1428 m 70 Y s 265 1428
 m 70 Y s black
 gsave  2268 1682 0 0 C 418.538 1350.74 t 0 r /Times-Italic findfont 57.0734 sf 0 0 m (Background \(test sample\)) show NC gr  1 0 0 c 392 1354 m -27 -27 d s 387 1398 m -70 -71 d s 339 1398 m -70 -71 d s 291 1398 m -26 -26 d s 0 lw 0 0 0.933333 c 1 0
 0 c 3 lw 265 1398 m 127 X s 265 1327 m 127 X s 392 1327 m 71 Y s 265 1327 m 71 Y s 0 0 0.933333 c 0.49 0.6 0.82 c black 0.49 0.6 0.82 c 238 202 m 12 Y 48 X 33 Y 48 X 27 Y 48 X 120 Y 48 X 45 Y 48 X -9 Y 48 X 48 Y 47 X 129 Y 48 X 30 Y 48 X 87 Y 48 X
 -141 Y 48 X 30 Y 48 X 21 Y 48 X 66 Y 48 X -222 Y 48 X 210 Y 48 X 523 Y 48 X -367 Y 47 X 49 Y 48 X 123 Y 48 X -316 Y 48 X 301 Y 48 X 93 Y 48 X -147 Y 48 X -51 Y 48 X -91 Y 48 X -258 Y 48 X -108 Y 47 X -99 Y 48 X -66 Y 48 X 15 Y 48 X -3 Y 48 X -57 Y
 48 X 12 Y 48 X -21 Y 48 X 6 Y 48 X 48 Y 48 X -36 Y 48 X 9 Y 47 X -12 Y 48 X -33 Y f 0 0 0.933333 c 0.49 0.6 0.82 c 0 0 0.933333 c 238 214 m 48 X 33 Y 48 X 27 Y 48 X 120 Y 48 X 45 Y 48 X -9 Y 48 X 48 Y 47 X 129 Y 48 X 30 Y 48 X 87 Y 48 X -141 Y 48 X
 30 Y 48 X 21 Y 48 X 66 Y 48 X -222 Y 48 X 210 Y 48 X 523 Y 48 X -367 Y 47 X 49 Y 48 X 123 Y 48 X -316 Y 48 X 301 Y 48 X 93 Y 48 X -147 Y 48 X -51 Y 48 X -91 Y 48 X -258 Y 48 X -108 Y 47 X -99 Y 48 X -66 Y 48 X 15 Y 48 X -3 Y 48 X -57 Y 48 X 12 Y 48
 X -21 Y 48 X 6 Y 48 X 48 Y 48 X -36 Y 48 X 9 Y 47 X -12 Y 48 X -33 Y s 1 0 0 c black 1 0 0 c 2126 202 m s 2081 205 m -3 -3 d s 2033 205 m -3 -3 d s 1982 202 m s 1954 222 m -20 -20 d s 1912 228 m -26 -26 d s 1837 202 m s 1819 232 m -30 -30 d s 1771
 232 m -30 -30 d s 1723 232 m -30 -30 d s 1692 249 m -17 -17 d s 1675 232 m -30 -30 d s 1627 232 m -30 -30 d s 1627 280 m -78 -78 d s 1594 295 m -93 -93 d s 1573 322 m -120 -120 d s 1532 329 m -128 -127 d s 1532 377 m -176 -175 d s 1498 392 m -190
 -190 d s 1484 425 m -224 -223 d s 1472 462 m -260 -260 d s 1436 474 m -272 -272 d s 1436 522 m -320 -320 d s 1436 570 m -368 -368 d s 1390 572 m -370 -370 d s 1388 618 m -416 -416 d s 1388 666 m -465 -464 d s 1386 712 m -511 -510 d s 1340 715 m -513
 -513 d s 1323 746 m -544 -544 d s 1285 756 m -554 -554 d s 1244 763 m -561 -561 d s 1198 766 m -563 -564 d s 1196 811 m -609 -609 d s 1196 859 m -96 -95 d s 1099 762 m -560 -560 d s 1196 908 m -48 -48 d s 1138 849 m -38 -37 d s 1053 764 m -563 -562
 d s 1159 919 m -11 -11 d s 1053 812 m -611 -610 d s 1053 860 m -659 -658 d s 1053 908 m -48 -48 d s 923 779 m -14 -15 d s 907 762 m -238 -237 d s 650 505 m -304 -303 d s 1053 956 m -48 -48 d s 861 765 m -192 -192 d s 621 525 m -323 -323 d s 1053
 1004 m -48 -48 d s 844 796 m -31 -31 d s 810 762 m -141 -141 d s 621 573 m -335 -335 d s 270 222 m -20 -20 d s 1012 1012 m -7 -7 d s 752 752 m -83 -83 d s 621 621 m -335 -335 d s 717 765 m -48 -48 d s 621 669 m -239 -239 d s 374 422 m -88 -88 d s
 709 806 m -40 -41 d s 621 718 m -239 -240 d s 329 425 m -43 -43 d s 621 766 m -48 -48 d s 528 672 m -146 -146 d s 621 814 m -48 -48 d s 526 718 m -48 -48 d s 446 639 m -16 -17 d s 410 602 m -28 -28 d s 621 862 m -48 -48 d s 526 766 m -48 -48 d s 621
 910 m -48 -48 d s 500 789 m -22 -23 d s 576 912 m -3 -2 d s 0 lw 3 lw 238 222 m 48 X 203 Y 48 X -3 Y 48 X 180 Y 48 X 37 Y 48 X 150 Y 48 X -117 Y 47 X 240 Y 48 X -407 Y 48 X 301 Y 48 X -54 Y 48 X 10 Y 48 X 34 Y 48 X -34 Y 48 X 17 Y 48 X 33 Y 48 X 200
 Y 48 X -250 Y 47 X 87 Y 48 X 70 Y 48 X -153 Y 48 X -10 Y 48 X -10 Y 48 X -34 Y 48 X -140 Y 48 X -110 Y 48 X -70 Y 48 X -70 Y 47 X -27 Y 48 X -63 Y 48 X 17 Y 48 X -17 Y 96 X -30 Y 48 X 26 Y 48 X -6 Y 48 X -20 Y 48 X 3 Y 95 X -3 Y 48 X s 0.490196
 0.545098 0.615686 c 0.95 0.95 0.95 c 0.490196 0.545098 0.615686 c 952 202 1202 1312 bl 1202 1312 m 952 X s 2154 1312 m 202 Y s 2154 1514 m -952 X s 1202 1514 m -202 Y s black
 gsave  2268 1682 0 0 C 1293.66 1445.86 t 0 r /Times-Italic findfont 57.0734 sf 0 0 m (Signal \(training sample\)) show NC gr  0 0 0.933333 c /w 21 def /w2 {w 2 div} def /w3 {w 3 div} def 1250 1463 m20 black
 gsave  2268 1682 0 0 C 1293.66 1350.74 t 0 r /Times-Italic findfont 57.0734 sf 0 0 m (Background \(training sample\)) show NC gr  1 0 0 c 1250 1362 m20 0 0 0.933333 c 1 1 1 c 0 0 0.933333 c 310 233 m 3 Y s 310 251 m 4 Y s 286 244 m 16 X s 318 244 m
 16 X s 302 233 m 16 X s 302 255 m 16 X s 286 236 m 15 Y s 334 236 m 15 Y s 310 244 m20 358 295 m 10 Y s 358 321 m 10 Y s 334 313 m 16 X s 365 313 m 17 X s 350 295 m 15 X s 350 331 m 15 X s 334 305 m 16 Y s 382 305 m 16 Y s 358 313 m20 406 390 m 17 Y
 s 406 423 m 17 Y s 382 415 m 16 X s 413 415 m 17 X s 398 390 m 15 X s 398 440 m 15 X s 382 407 m 16 Y s 430 407 m 16 Y s 406 415 m20 454 398 m 18 Y s 454 432 m 18 Y s 430 424 m 16 X s 461 424 m 17 X s 446 398 m 15 X s 446 450 m 15 X s 430 416 m 16 Y
 s 478 416 m 16 Y s 454 424 m20 502 373 m 16 Y s 502 405 m 16 Y s 478 397 m 16 X s 509 397 m 17 X s 494 373 m 15 X s 494 421 m 15 X s 478 389 m 16 Y s 526 389 m 16 Y s 502 397 m20 549 481 m 23 Y s 549 519 m 23 Y s 526 511 m 16 X s 557 511 m 16 X s
 542 481 m 15 X s 542 542 m 15 X s 526 504 m 15 Y s 573 504 m 15 Y s 549 511 m20 597 524 m 25 Y s 597 564 m 25 Y s 573 556 m 17 X s 605 556 m 16 X s 590 524 m 15 X s 590 589 m 15 X s 573 549 m 15 Y s 621 549 m 15 Y s 597 556 m20 645 552 m 27 Y s 645
 594 m 26 Y s 621 586 m 17 X s 653 586 m 16 X s 638 552 m 15 X s 638 620 m 15 X s 621 579 m 15 Y s 669 579 m 15 Y s 645 586 m20 693 714 m 33 Y s 693 762 m 33 Y s 669 754 m 17 X s 701 754 m 16 X s 686 714 m 15 X s 686 795 m 15 X s 669 747 m 15 Y s 717
 747 m 15 Y s 693 754 m20 741 624 m 30 Y s 741 669 m 29 Y s 717 661 m 17 X s 749 661 m 16 X s 734 624 m 15 X s 734 698 m 15 X s 717 654 m 15 Y s 765 654 m 15 Y s 741 661 m20 789 595 m 29 Y s 789 639 m 28 Y s 765 631 m 16 X s 797 631 m 16 X s 781 595
 m 16 X s 781 667 m 16 X s 765 624 m 15 Y s 813 624 m 15 Y s 789 631 m20 837 624 m 30 Y s 837 669 m 29 Y s 813 661 m 16 X s 845 661 m 16 X s 829 624 m 16 X s 829 698 m 16 X s 813 654 m 15 Y s 861 654 m 15 Y s 837 661 m20 885 653 m 31 Y s 885 699 m 31
 Y s 861 691 m 16 X s 892 691 m 17 X s 877 653 m 15 X s 877 730 m 15 X s 861 684 m 15 Y s 909 684 m 15 Y s 885 691 m20 933 452 m 21 Y s 933 489 m 21 Y s 909 481 m 16 X s 940 481 m 17 X s 925 452 m 15 X s 925 510 m 15 X s 909 473 m 16 Y s 957 473 m 16
 Y s 933 481 m20 981 535 m 26 Y s 981 576 m 25 Y s 957 568 m 16 X s 988 568 m 17 X s 973 535 m 15 X s 973 601 m 15 X s 957 561 m 15 Y s 1005 561 m 15 Y s 981 568 m20 1029 1086 m 45 Y s 1029 1146 m 46 Y s 1005 1139 m 16 X s 1036 1139 m 17 X s 1021
 1086 m 15 X s 1021 1192 m 15 X s 1005 1131 m 15 Y s 1053 1131 m 15 Y s 1029 1139 m20 1076 888 m 39 Y s 1076 942 m 39 Y s 1053 935 m 16 X s 1084 935 m 16 X s 1069 888 m 15 X s 1069 981 m 15 X s 1053 927 m 15 Y s 1100 927 m 15 Y s 1076 935 m20 1124
 893 m 40 Y s 1124 948 m 40 Y s 1100 941 m 17 X s 1132 941 m 16 X s 1117 893 m 15 X s 1117 988 m 15 X s 1100 933 m 15 Y s 1148 933 m 15 Y s 1124 941 m20 1172 998 m 43 Y s 1172 1056 m 43 Y s 1148 1049 m 17 X s 1180 1049 m 16 X s 1165 998 m 15 X s 1165
 1099 m 15 X s 1148 1041 m 15 Y s 1196 1041 m 15 Y s 1172 1049 m20 1220 751 m 35 Y s 1220 801 m 35 Y s 1196 793 m 17 X s 1228 793 m 16 X s 1213 751 m 15 X s 1213 836 m 15 X s 1196 786 m 15 Y s 1244 786 m 15 Y s 1220 793 m20 1268 899 m 40 Y s 1268 954
 m 40 Y s 1244 947 m 16 X s 1276 947 m 16 X s 1260 899 m 16 X s 1260 994 m 16 X s 1244 939 m 15 Y s 1292 939 m 15 Y s 1268 947 m20 1316 1019 m 43 Y s 1316 1077 m 44 Y s 1292 1070 m 16 X s 1324 1070 m 16 X s 1308 1019 m 16 X s 1308 1121 m 16 X s 1292
 1062 m 15 Y s 1340 1062 m 15 Y s 1316 1070 m20 1364 876 m 39 Y s 1364 930 m 39 Y s 1340 923 m 16 X s 1371 923 m 17 X s 1356 876 m 15 X s 1356 969 m 15 X s 1340 915 m 15 Y s 1388 915 m 15 Y s 1364 923 m20 1412 923 m 40 Y s 1412 978 m 41 Y s 1388 971
 m 16 X s 1419 971 m 17 X s 1404 923 m 15 X s 1404 1019 m 15 X s 1388 963 m 15 Y s 1436 963 m 15 Y s 1412 971 m20 1460 676 m 32 Y s 1460 723 m 32 Y s 1436 715 m 16 X s 1467 715 m 17 X s 1452 676 m 15 X s 1452 755 m 15 X s 1436 708 m 15 Y s 1484 708 m
 15 Y s 1460 715 m20 1508 506 m 25 Y s 1508 546 m 24 Y s 1484 538 m 16 X s 1515 538 m 17 X s 1500 506 m 15 X s 1500 570 m 15 X s 1484 531 m 15 Y s 1532 531 m 15 Y s 1508 538 m20 1556 384 m 17 Y s 1556 417 m 17 Y s 1532 409 m 16 X s 1563 409 m 16 X s
 1548 384 m 15 X s 1548 434 m 15 X s 1532 401 m 16 Y s 1579 401 m 16 Y s 1556 409 m20 1603 284 m 9 Y s 1603 309 m 9 Y s 1579 301 m 17 X s 1611 301 m 16 X s 1596 284 m 15 X s 1596 318 m 15 X s 1579 293 m 16 Y s 1627 293 m 16 Y s 1603 301 m20 1651 262
 m 7 Y s 1651 285 m 7 Y s 1627 277 m 17 X s 1659 277 m 16 X s 1644 262 m 15 X s 1644 292 m 15 X s 1627 269 m 16 Y s 1675 269 m 16 Y s 1651 277 m20 1699 267 m 8 Y s 1699 291 m 8 Y s 1675 283 m 17 X s 1707 283 m 16 X s 1692 267 m 15 X s 1692 299 m 15 X
 s 1675 275 m 16 Y s 1723 275 m 16 Y s 1699 283 m20 1747 259 m 7 Y s 1747 281 m 8 Y s 1723 274 m 17 X s 1755 274 m 16 X s 1740 259 m 15 X s 1740 289 m 15 X s 1723 266 m 15 Y s 1771 266 m 15 Y s 1747 274 m20 1795 238 m 4 Y s 1795 257 m 5 Y s 1771 250
 m 16 X s 1803 250 m 16 X s 1787 238 m 16 X s 1787 262 m 16 X s 1771 242 m 15 Y s 1819 242 m 15 Y s 1795 250 m20 1843 233 m 3 Y s 1843 251 m 4 Y s 1819 244 m 16 X s 1851 244 m 16 X s 1835 233 m 16 X s 1835 255 m 16 X s 1819 236 m 15 Y s 1867 236 m 15
 Y s 1843 244 m20 1891 215 m s 1891 230 m 1 Y s 1867 223 m 16 X s 1898 223 m 17 X s 1883 215 m 15 X s 1883 231 m 15 X s 1867 215 m 15 Y s 1915 215 m 15 Y s 1891 223 m20 1939 251 m 6 Y s 1939 272 m 7 Y s 1915 265 m 16 X s 1946 265 m 17 X s 1931 251 m
 15 X s 1931 279 m 15 X s 1915 257 m 15 Y s 1963 257 m 15 Y s 1939 265 m20 1987 233 m 3 Y s 1987 251 m 4 Y s 1963 244 m 16 X s 1994 244 m 17 X s 1979 233 m 15 X s 1979 255 m 15 X s 1963 236 m 15 Y s 2011 236 m 15 Y s 1987 244 m20 2035 254 m 6 Y s
 2035 275 m 7 Y s 2011 268 m 16 X s 2042 268 m 17 X s 2027 254 m 15 X s 2027 282 m 15 X s 2011 260 m 15 Y s 2059 260 m 15 Y s 2035 268 m20 2082 227 m 3 Y s 2082 245 m 3 Y s 2059 238 m 16 X s 2090 238 m 16 X s 2075 227 m 15 X s 2075 248 m 15 X s 2059
 230 m 15 Y s 2106 230 m 15 Y s 2082 238 m20 2130 230 m 3 Y s 2130 248 m 4 Y s 2106 241 m 17 X s 2138 241 m 16 X s 2123 230 m 15 X s 2123 252 m 15 X s 2106 233 m 15 Y s 2154 233 m 15 Y s 2130 241 m20 1 0 0 c 1 1 1 c 1 0 0 c 238 218 m 16 X s 270 218 m
 16 X s 238 211 m 15 Y s 286 211 m 15 Y s 262 218 m20 310 395 m 19 Y s 310 430 m 19 Y s 286 422 m 16 X s 318 422 m 16 X s 302 395 m 16 X s 302 449 m 16 X s 286 414 m 16 Y s 334 414 m 16 Y s 310 422 m20 358 429 m 22 Y s 358 466 m 22 Y s 334 459 m 16 X
 s 365 459 m 17 X s 350 429 m 15 X s 350 488 m 15 X s 334 451 m 15 Y s 382 451 m 15 Y s 358 459 m20 406 531 m 27 Y s 406 573 m 27 Y s 382 565 m 16 X s 413 565 m 17 X s 398 531 m 15 X s 398 600 m 15 X s 382 558 m 15 Y s 430 558 m 15 Y s 406 565 m20
 454 642 m 33 Y s 454 690 m 32 Y s 430 682 m 16 X s 461 682 m 17 X s 446 642 m 15 X s 446 722 m 15 X s 430 675 m 15 Y s 478 675 m 15 Y s 454 682 m20 502 591 m 30 Y s 502 636 m 31 Y s 478 629 m 16 X s 509 629 m 17 X s 494 591 m 15 X s 494 667 m 15 X s
 478 621 m 15 Y s 526 621 m 15 Y s 502 629 m20 549 687 m 34 Y s 549 736 m 35 Y s 526 729 m 16 X s 557 729 m 16 X s 542 687 m 15 X s 542 771 m 15 X s 526 721 m 15 Y s 573 721 m 15 Y s 549 729 m20 597 925 m 43 Y s 597 983 m 43 Y s 573 976 m 17 X s 605
 976 m 16 X s 590 925 m 15 X s 590 1026 m 15 X s 573 968 m 15 Y s 621 968 m 15 Y s 597 976 m20 645 461 m 23 Y s 645 500 m 23 Y s 621 492 m 17 X s 653 492 m 16 X s 638 461 m 15 X s 638 523 m 15 X s 621 484 m 16 Y s 669 484 m 16 Y s 645 492 m20 693 732
 m 36 Y s 693 783 m 36 Y s 669 776 m 17 X s 701 776 m 16 X s 686 732 m 15 X s 686 819 m 15 X s 669 768 m 15 Y s 717 768 m 15 Y s 693 776 m20 741 767 m 38 Y s 741 820 m 37 Y s 717 812 m 17 X s 749 812 m 16 X s 734 767 m 15 X s 734 857 m 15 X s 717 805
 m 15 Y s 765 805 m 15 Y s 741 812 m20 789 674 m 34 Y s 789 723 m 34 Y s 765 715 m 16 X s 797 715 m 16 X s 781 674 m 16 X s 781 757 m 16 X s 765 708 m 15 Y s 813 708 m 15 Y s 789 715 m20 837 822 m 39 Y s 837 877 m 39 Y s 813 869 m 16 X s 845 869 m 16
 X s 829 822 m 16 X s 829 916 m 16 X s 813 861 m 16 Y s 861 861 m 16 Y s 837 869 m20 885 690 m 35 Y s 885 740 m 34 Y s 861 732 m 16 X s 892 732 m 17 X s 877 690 m 15 X s 877 774 m 15 X s 861 725 m 15 Y s 909 725 m 15 Y s 885 732 m20 933 822 m 39 Y s
 933 877 m 39 Y s 909 869 m 16 X s 940 869 m 17 X s 925 822 m 15 X s 925 916 m 15 X s 909 861 m 16 Y s 957 861 m 16 Y s 933 869 m20 981 783 m 38 Y s 981 837 m 38 Y s 957 829 m 16 X s 988 829 m 17 X s 973 783 m 15 X s 973 875 m 15 X s 957 821 m 16 Y s
 1005 821 m 16 Y s 981 829 m20 1029 1006 m 45 Y s 1029 1067 m 46 Y s 1005 1059 m 16 X s 1036 1059 m 17 X s 1021 1006 m 15 X s 1021 1113 m 15 X s 1005 1051 m 16 Y s 1053 1051 m 16 Y s 1029 1059 m20 1076 751 m 37 Y s 1076 803 m 37 Y s 1053 796 m 16 X s
 1084 796 m 16 X s 1069 751 m 15 X s 1069 840 m 15 X s 1053 788 m 15 Y s 1100 788 m 15 Y s 1076 796 m20 1124 777 m 38 Y s 1124 830 m 38 Y s 1100 822 m 17 X s 1132 822 m 16 X s 1117 777 m 15 X s 1117 868 m 15 X s 1100 815 m 15 Y s 1148 815 m 15 Y s
 1124 822 m20 1172 848 m 40 Y s 1172 903 m 41 Y s 1148 896 m 17 X s 1180 896 m 16 X s 1165 848 m 15 X s 1165 944 m 15 X s 1148 888 m 15 Y s 1196 888 m 15 Y s 1172 896 m20 1220 597 m 31 Y s 1220 643 m 30 Y s 1196 635 m 17 X s 1228 635 m 16 X s 1213
 597 m 15 X s 1213 673 m 15 X s 1196 628 m 15 Y s 1244 628 m 15 Y s 1220 635 m20 1268 783 m 38 Y s 1268 837 m 38 Y s 1244 829 m 16 X s 1276 829 m 16 X s 1260 783 m 16 X s 1260 875 m 16 X s 1244 821 m 16 Y s 1292 821 m 16 Y s 1268 829 m20 1316 655 m
 33 Y s 1316 703 m 33 Y s 1292 695 m 16 X s 1324 695 m 16 X s 1308 655 m 16 X s 1308 736 m 16 X s 1292 688 m 15 Y s 1340 688 m 15 Y s 1316 695 m20 1364 645 m 33 Y s 1364 693 m 33 Y s 1340 685 m 16 X s 1371 685 m 17 X s 1356 645 m 15 X s 1356 726 m 15
 X s 1340 678 m 15 Y s 1388 678 m 15 Y s 1364 685 m20 1412 546 m 28 Y s 1412 590 m 28 Y s 1388 582 m 16 X s 1419 582 m 17 X s 1404 546 m 15 X s 1404 618 m 15 X s 1388 574 m 16 Y s 1436 574 m 16 Y s 1412 582 m20 1460 426 m 22 Y s 1460 463 m 21 Y s
 1436 455 m 16 X s 1467 455 m 17 X s 1452 426 m 15 X s 1452 484 m 15 X s 1436 448 m 15 Y s 1484 448 m 15 Y s 1460 455 m20 1508 364 m 17 Y s 1508 396 m 18 Y s 1484 389 m 16 X s 1515 389 m 17 X s 1500 364 m 15 X s 1500 414 m 15 X s 1484 381 m 15 Y s
 1532 381 m 15 Y s 1508 389 m20 1556 296 m 12 Y s 1556 323 m 12 Y s 1532 315 m 16 X s 1563 315 m 16 X s 1548 296 m 15 X s 1548 335 m 15 X s 1532 308 m 15 Y s 1579 308 m 15 Y s 1556 315 m20 1603 269 m 9 Y s 1603 293 m 9 Y s 1579 285 m 17 X s 1611 285
 m 16 X s 1596 269 m 15 X s 1596 302 m 15 X s 1579 278 m 15 Y s 1627 278 m 15 Y s 1603 285 m20 1651 236 m 5 Y s 1651 256 m 5 Y s 1627 249 m 17 X s 1659 249 m 16 X s 1644 236 m 15 X s 1644 261 m 15 X s 1627 241 m 15 Y s 1675 241 m 15 Y s 1651 249 m20
 1699 222 m 2 Y s 1699 239 m 3 Y s 1675 232 m 17 X s 1707 232 m 16 X s 1692 222 m 15 X s 1692 242 m 15 X s 1675 224 m 15 Y s 1723 224 m 15 Y s 1699 232 m20 1747 233 m 5 Y s 1747 253 m 4 Y s 1723 245 m 17 X s 1755 245 m 16 X s 1740 233 m 15 X s 1740
 257 m 15 X s 1723 238 m 15 Y s 1771 238 m 15 Y s 1747 245 m20 1795 216 m 2 Y s 1795 233 m 1 Y s 1771 225 m 16 X s 1803 225 m 16 X s 1787 216 m 16 X s 1787 234 m 16 X s 1771 218 m 15 Y s 1819 218 m 15 Y s 1795 225 m20 1819 208 m 16 X s 1851 208 m 16
 X s 1819 201 m 15 Y s 1867 201 m 15 Y s 1843 208 m20 1867 215 m 16 X s 1898 215 m 17 X s 1867 208 m 15 Y s 1915 208 m 15 Y s 1891 215 m20 1939 219 m 2 Y s 1939 236 m 2 Y s 1915 228 m 16 X s 1946 228 m 17 X s 1931 219 m 15 X s 1931 238 m 15 X s 1915
 221 m 15 Y s 1963 221 m 15 Y s 1939 228 m20 1963 205 m 16 X s 1994 205 m 17 X s 1963 198 m 15 Y s 2011 198 m 15 Y s 1987 205 m20 black
 gsave  2268 1682 0 0 C 272.126 1244.5 t 0 r /Helvetica-Bold findfont 49.4636 sf 0 0 m (Kolmogorov\255Smirnov test: signal \(background\) probability = 0.953 \(0.785\)) show NC gr  238 202 m 1916 X s 264 244 m -42 Y s 315 223 m -21 Y s 367 223 m -21
 Y s 418 223 m -21 Y s 469 223 m -21 Y s 521 244 m -42 Y s 572 223 m -21 Y s 623 223 m -21 Y s 675 223 m -21 Y s 726 223 m -21 Y s 777 244 m -42 Y s 828 223 m -21 Y s 880 223 m -21 Y s 931 223 m -21 Y s 982 223 m -21 Y s 1034 244 m -42 Y s 1085 223 m
 -21 Y s 1136 223 m -21 Y s 1188 223 m -21 Y s 1239 223 m -21 Y s 1290 244 m -42 Y s 1342 223 m -21 Y s 1393 223 m -21 Y s 1444 223 m -21 Y s 1496 223 m -21 Y s 1547 244 m -42 Y s 1598 223 m -21 Y s 1649 223 m -21 Y s 1701 223 m -21 Y s 1752 223 m
 -21 Y s 1803 244 m -42 Y s 1855 223 m -21 Y s 1906 223 m -21 Y s 1957 223 m -21 Y s 2009 223 m -21 Y s 2060 244 m -42 Y s 264 244 m -42 Y s 2060 244 m -42 Y s 2111 223 m -21 Y s 238 1514 m 1916 X s 264 1471 m 43 Y s 315 1492 m 22 Y s 367 1492 m 22 Y
 s 418 1492 m 22 Y s 469 1492 m 22 Y s 521 1471 m 43 Y s 572 1492 m 22 Y s 623 1492 m 22 Y s 675 1492 m 22 Y s 726 1492 m 22 Y s 777 1471 m 43 Y s 828 1492 m 22 Y s 880 1492 m 22 Y s 931 1492 m 22 Y s 982 1492 m 22 Y s 1034 1471 m 43 Y s 1085 1492 m
 22 Y s 1136 1492 m 22 Y s 1188 1492 m 22 Y s 1239 1492 m 22 Y s 1290 1471 m 43 Y s 1342 1492 m 22 Y s 1393 1492 m 22 Y s 1444 1492 m 22 Y s 1496 1492 m 22 Y s 1547 1471 m 43 Y s 1598 1492 m 22 Y s 1649 1492 m 22 Y s 1701 1492 m 22 Y s 1752 1492 m 22
 Y s 1803 1471 m 43 Y s 1855 1492 m 22 Y s 1906 1492 m 22 Y s 1957 1492 m 22 Y s 2009 1492 m 22 Y s 2060 1471 m 43 Y s 264 1471 m 43 Y s 2060 1471 m 43 Y s 2111 1492 m 22 Y s 238 202 m 1312 Y s 291 202 m -53 X s 265 252 m -27 X s 265 303 m -27 X s
 265 354 m -27 X s 265 404 m -27 X s 291 455 m -53 X s 265 506 m -27 X s 265 556 m -27 X s 265 607 m -27 X s 265 658 m -27 X s 291 708 m -53 X s 265 759 m -27 X s 265 809 m -27 X s 265 860 m -27 X s 265 911 m -27 X s 291 961 m -53 X s 265 1012 m -27
 X s 265 1063 m -27 X s 265 1113 m -27 X s 265 1164 m -27 X s 291 1215 m -53 X s 265 1265 m -27 X s 265 1316 m -27 X s 265 1366 m -27 X s 265 1417 m -27 X s 291 1468 m -53 X s 291 1468 m -53 X s 2154 202 m 1312 Y s 2101 202 m 53 X s 2128 252 m 26 X s
 2128 303 m 26 X s 2128 354 m 26 X s 2128 404 m 26 X s 2101 455 m 53 X s 2128 506 m 26 X s 2128 556 m 26 X s 2128 607 m 26 X s 2128 658 m 26 X s 2101 708 m 53 X s 2128 759 m 26 X s 2128 809 m 26 X s 2128 860 m 26 X s 2128 911 m 26 X s 2101 961 m 53 X
 s 2128 1012 m 26 X s 2128 1063 m 26 X s 2128 1113 m 26 X s 2128 1164 m 26 X s 2101 1215 m 53 X s 2128 1265 m 26 X s 2128 1316 m 26 X s 2128 1366 m 26 X s 2128 1417 m 26 X s 2101 1468 m 53 X s 2101 1468 m 53 X s
 gsave  2268 1682 0 0 C 2211.02 193.403 t 90 r /Helvetica-Bold findfont 45.6587 sf 0 0 m (U/O\255flow \(S,B\): \(0.0, 0.0\)% / \(0.0, 0.0\)%) show NC gr  0.490196 0.545098 0.615686 c 0.364706 0.419608 0.490196 c 1587 96 23 1577 bf 0.490196 0.545098
 0.615686 c 23 1577 m 1587 X s 1610 1577 m 96 Y s 1610 1673 m -1587 X s 23 1673 m -96 Y s 1 1 1 c black 1 1 1 c
 gsave  2268 1682 0 0 C 72.293 1613.27 t 0 r /Helvetica-Bold findfont 57.0734 sf 0 0 m (TMVA overtraining check for classifier: LikelihoodKDE) show NC gr 
 gr  gr showpage
end
%%EOF
