%!PS-Adobe-2.0 EPSF-2.0
%%BoundingBox:  0 0 567 420
%%Title: plots/overtrain_MLPBNN.eps: TMVA comparison MLPBNN
%%Creator: ROOT Version 5.34/09
%%CreationDate: Thu Jan  2 18:34:05 2014
%%EndComments
%%BeginProlog
80 dict begin
/s {stroke} def /l {lineto} def /m {moveto} def /t {translate} def
/r {rotate} def /rl {roll}  def /R {repeat} def
/d {rlineto} def /rm {rmoveto} def /gr {grestore} def /f {eofill} def
/c {setrgbcolor} def /black {0 setgray} def /sd {setdash} def
/cl {closepath} def /sf {scalefont setfont} def /lw {setlinewidth} def
/box {m dup 0 exch d exch 0 d 0 exch neg d cl} def
/NC{systemdict begin initclip end}def/C{NC box clip newpath}def
/bl {box s} def /bf {box f} def /Y { 0 exch d} def /X { 0 d} def 
/K {{pop pop 0 moveto} exch kshow} bind def
/ita {/ang 15 def gsave [1 0 ang dup sin exch cos div 1 0 0] concat} def 
/mp {newpath /y exch def /x exch def} def
/side {[w .77 mul w .23 mul] .385 w mul sd w 0 l currentpoint t -144 r} def
/mr {mp x y w2 0 360 arc} def /m24 {mr s} def /m20 {mr f} def
/mb {mp x y w2 add m w2 neg 0 d 0 w neg d w 0 d 0 w d cl} def
/mt {mp x y w2 add m w2 neg w neg d w 0 d cl} def
/m21 {mb f} def /m25 {mb s} def /m22 {mt f} def /m26{mt s} def
/m23 {mp x y w2 sub m w2 w d w neg 0 d cl f} def
/m27 {mp x y w2 add m w3 neg w2 neg d w3 w2 neg d w3 w2 d cl s} def
/m28 {mp x w2 sub y w2 sub w3 add m w3 0 d  0 w3 neg d w3 0 d 0 w3 d w3 0 d  0 w3 d w3 neg 0 d 0 w3 d w3 neg 0 d 0 w3 neg d w3 neg 0 d cl s } def
/m29 {mp gsave x w2 sub y w2 add w3 sub m currentpoint t 4 {side} repeat cl fill gr} def
/m30 {mp gsave x w2 sub y w2 add w3 sub m currentpoint t 4 {side} repeat cl s gr} def
/m31 {mp x y w2 sub m 0 w d x w2 sub y m w 0 d x w2 sub y w2 add m w w neg d x w2 sub y w2 sub m w w d s} def
/m32 {mp x y w2 sub m w2 w d w neg 0 d cl s} def
/m33 {mp x y w2 add m w3 neg w2 neg d w3 w2 neg d w3 w2 d cl f} def
/m34 {mp x w2 sub y w2 sub w3 add m w3 0 d  0 w3 neg d w3 0 d 0 w3 d w3 0 d  0 w3 d w3 neg 0 d 0 w3 d w3 neg 0 d 0 w3 neg d w3 neg 0 d cl f } def
/m2 {mp x y w2 sub m 0 w d x w2 sub y m w 0 d s} def
/m5 {mp x w2 sub y w2 sub m w w d x w2 sub y w2 add m w w neg d s} def
/reEncode {exch findfont dup length dict begin {1 index /FID eq  {pop pop} {def} ifelse } forall /Encoding exch def currentdict end dup /FontName get exch definefont pop } def [/Times-Bold /Times-Italic /Times-BoldItalic /Helvetica /Helvetica-Oblique
 /Helvetica-Bold /Helvetica-BoldOblique /Courier /Courier-Oblique /Courier-Bold /Courier-BoldOblique /Times-Roman /AvantGarde-Book /AvantGarde-BookOblique /AvantGarde-Demi /AvantGarde-DemiOblique /Bookman-Demi /Bookman-DemiItalic /Bookman-Light
 /Bookman-LightItalic /Helvetica-Narrow /Helvetica-Narrow-Bold /Helvetica-Narrow-BoldOblique /Helvetica-Narrow-Oblique /NewCenturySchlbk-Roman /NewCenturySchlbk-Bold /NewCenturySchlbk-BoldItalic /NewCenturySchlbk-Italic /Palatino-Bold
 /Palatino-BoldItalic /Palatino-Italic /Palatino-Roman ] {ISOLatin1Encoding reEncode } forall
%%EndProlog
%%BeginSetup
%%EndSetup
newpath  gsave  .25 .25 scale  gsave  0 0 t 0.490196 0.545098 0.615686 c[  ] 0 sd 3 lw 0.941176 0.941176 0.941176 c 2268 1682 0 0 bf black 1 1 0.992157 c 1916 1312 238 202 bf black 1916 1312 238 202 bl 1 1 0.992157 c 1916 1312 238 202 bf black 1916
 1312 238 202 bl 238 202 m 1916 X s
 gsave  2268 1682 0 0 C 1502.93 34.244 t 0 r /Helvetica-Bold findfont 72.293 sf 0 0 m (MLPBNN response) show NC gr  275 244 m -42 Y s 332 223 m -21 Y s 388 223 m -21 Y s 445 223 m -21 Y s 501 244 m -42 Y s 558 223 m -21 Y s 615 223 m -21 Y s 671 223
 m -21 Y s 728 244 m -42 Y s 784 223 m -21 Y s 841 223 m -21 Y s 897 223 m -21 Y s 954 244 m -42 Y s 1010 223 m -21 Y s 1067 223 m -21 Y s 1123 223 m -21 Y s 1180 244 m -42 Y s 1237 223 m -21 Y s 1293 223 m -21 Y s 1350 223 m -21 Y s 1406 244 m -42 Y
 s 1463 223 m -21 Y s 1519 223 m -21 Y s 1576 223 m -21 Y s 1632 244 m -42 Y s 1689 223 m -21 Y s 1745 223 m -21 Y s 1802 223 m -21 Y s 1858 244 m -42 Y s 1915 223 m -21 Y s 1972 223 m -21 Y s 2028 223 m -21 Y s 2085 244 m -42 Y s 275 244 m -42 Y s
 2085 244 m -42 Y s 2141 223 m -21 Y s
 gsave  2268 1682 0 0 C 216.879 129.366 t 0 r /Helvetica-Bold findfont 64.6832 sf 0 0 m (\2550.2) show NC gr 
 gsave  2268 1682 0 0 C 479.417 129.366 t 0 r /Helvetica-Bold findfont 64.6832 sf 0 0 m (0) show NC gr 
 gsave  2268 1682 0 0 C 681.076 129.366 t 0 r /Helvetica-Bold findfont 64.6832 sf 0 0 m (0.2) show NC gr 
 gsave  2268 1682 0 0 C 905.565 129.366 t 0 r /Helvetica-Bold findfont 64.6832 sf 0 0 m (0.4) show NC gr 
 gsave  2268 1682 0 0 C 1133.86 129.366 t 0 r /Helvetica-Bold findfont 64.6832 sf 0 0 m (0.6) show NC gr 
 gsave  2268 1682 0 0 C 1358.35 129.366 t 0 r /Helvetica-Bold findfont 64.6832 sf 0 0 m (0.8) show NC gr 
 gsave  2268 1682 0 0 C 1613.27 129.366 t 0 r /Helvetica-Bold findfont 64.6832 sf 0 0 m (1) show NC gr 
 gsave  2268 1682 0 0 C 1811.13 129.366 t 0 r /Helvetica-Bold findfont 64.6832 sf 0 0 m (1.2) show NC gr 
 gsave  2268 1682 0 0 C 2035.62 129.366 t 0 r /Helvetica-Bold findfont 64.6832 sf 0 0 m (1.4) show NC gr  238 1514 m 1916 X s 275 1471 m 43 Y s 332 1492 m 22 Y s 388 1492 m 22 Y s 445 1492 m 22 Y s 501 1471 m 43 Y s 558 1492 m 22 Y s 615 1492 m 22 Y
 s 671 1492 m 22 Y s 728 1471 m 43 Y s 784 1492 m 22 Y s 841 1492 m 22 Y s 897 1492 m 22 Y s 954 1471 m 43 Y s 1010 1492 m 22 Y s 1067 1492 m 22 Y s 1123 1492 m 22 Y s 1180 1471 m 43 Y s 1237 1492 m 22 Y s 1293 1492 m 22 Y s 1350 1492 m 22 Y s 1406
 1471 m 43 Y s 1463 1492 m 22 Y s 1519 1492 m 22 Y s 1576 1492 m 22 Y s 1632 1471 m 43 Y s 1689 1492 m 22 Y s 1745 1492 m 22 Y s 1802 1492 m 22 Y s 1858 1471 m 43 Y s 1915 1492 m 22 Y s 1972 1492 m 22 Y s 2028 1492 m 22 Y s 2085 1471 m 43 Y s 275
 1471 m 43 Y s 2085 1471 m 43 Y s 2141 1492 m 22 Y s 238 202 m 1312 Y s
 gsave  2268 1682 0 0 C 64.6832 1430.64 t 90 r /Helvetica-Bold findfont 72.293 sf 0 0 m (dx) show NC gr 
 gsave  2268 1682 0 0 C 30.4391 1411.62 t 90 r /Helvetica-Bold findfont 45.6587 sf 0 0 m ( ) show NC gr 
 gsave  2268 1682 0 0 C 64.6832 1388.79 t 90 r /Helvetica-Bold findfont 72.293 sf 0 0 m (/) show NC gr 
 gsave  2268 1682 0 0 C 30.4391 1369.76 t 90 r /Helvetica-Bold findfont 45.6587 sf 0 0 m ( ) show NC gr 
 gsave  2268 1682 0 0 C 60.8783 1095.81 t 90 r /Helvetica-Bold findfont 72.293 sf 0 0 m (\(1/N\) dN) show NC gr  291 202 m -53 X s 265 243 m -27 X s 265 284 m -27 X s 265 324 m -27 X s 265 365 m -27 X s 291 406 m -53 X s 265 447 m -27 X s 265 488 m
 -27 X s 265 529 m -27 X s 265 570 m -27 X s 291 611 m -53 X s 265 652 m -27 X s 265 692 m -27 X s 265 733 m -27 X s 265 774 m -27 X s 291 815 m -53 X s 265 856 m -27 X s 265 897 m -27 X s 265 938 m -27 X s 265 979 m -27 X s 291 1020 m -53 X s 265
 1060 m -27 X s 265 1101 m -27 X s 265 1142 m -27 X s 265 1183 m -27 X s 291 1224 m -53 X s 265 1265 m -27 X s 265 1306 m -27 X s 265 1347 m -27 X s 265 1388 m -27 X s 291 1428 m -53 X s 291 1428 m -53 X s 265 1469 m -27 X s 265 1510 m -27 X s
 gsave  2268 1682 0 0 C 175.025 178.83 t 0 r /Helvetica-Bold findfont 64.6832 sf 0 0 m (0) show NC gr 
 gsave  2268 1682 0 0 C 121.757 380.489 t 0 r /Helvetica-Bold findfont 64.6832 sf 0 0 m (0.5) show NC gr 
 gsave  2268 1682 0 0 C 182.635 585.954 t 0 r /Helvetica-Bold findfont 64.6832 sf 0 0 m (1) show NC gr 
 gsave  2268 1682 0 0 C 121.757 791.418 t 0 r /Helvetica-Bold findfont 64.6832 sf 0 0 m (1.5) show NC gr 
 gsave  2268 1682 0 0 C 175.025 993.077 t 0 r /Helvetica-Bold findfont 64.6832 sf 0 0 m (2) show NC gr 
 gsave  2268 1682 0 0 C 121.757 1198.54 t 0 r /Helvetica-Bold findfont 64.6832 sf 0 0 m (2.5) show NC gr 
 gsave  2268 1682 0 0 C 175.025 1404.01 t 0 r /Helvetica-Bold findfont 64.6832 sf 0 0 m (3) show NC gr  2154 202 m 1312 Y s 2101 202 m 53 X s 2128 243 m 26 X s 2128 284 m 26 X s 2128 324 m 26 X s 2128 365 m 26 X s 2101 406 m 53 X s 2128 447 m 26 X s
 2128 488 m 26 X s 2128 529 m 26 X s 2128 570 m 26 X s 2101 611 m 53 X s 2128 652 m 26 X s 2128 692 m 26 X s 2128 733 m 26 X s 2128 774 m 26 X s 2101 815 m 53 X s 2128 856 m 26 X s 2128 897 m 26 X s 2128 938 m 26 X s 2128 979 m 26 X s 2101 1020 m 53
 X s 2128 1060 m 26 X s 2128 1101 m 26 X s 2128 1142 m 26 X s 2128 1183 m 26 X s 2101 1224 m 53 X s 2128 1265 m 26 X s 2128 1306 m 26 X s 2128 1347 m 26 X s 2128 1388 m 26 X s 2101 1428 m 53 X s 2101 1428 m 53 X s 2128 1469 m 26 X s 2128 1510 m 26 X
 s 0.490196 0.545098 0.615686 c 0.95 0.95 0.95 c 0.490196 0.545098 0.615686 c 907 202 238 1312 bl 238 1312 m 907 X s 1145 1312 m 202 Y s 1145 1514 m -907 X s 238 1514 m -202 Y s black
 gsave  2268 1682 0 0 C 418.538 1445.86 t 0 r /Times-Italic findfont 57.0734 sf 0 0 m (Signal \(test sample\)) show NC gr  0.49 0.6 0.82 c 265 1428 m 127 X 70 Y -127 X f 0 0 0.933333 c 265 1498 m 127 X s 265 1428 m 127 X s 392 1428 m 70 Y s 265 1428
 m 70 Y s black
 gsave  2268 1682 0 0 C 418.538 1350.74 t 0 r /Times-Italic findfont 57.0734 sf 0 0 m (Background \(test sample\)) show NC gr  1 0 0 c 392 1354 m -27 -27 d s 387 1398 m -70 -71 d s 339 1398 m -70 -71 d s 291 1398 m -26 -26 d s 0 lw 0 0 0.933333 c 1 0
 0 c 3 lw 265 1398 m 127 X s 265 1327 m 127 X s 392 1327 m 71 Y s 265 1327 m 71 Y s 0 0 0.933333 c 0.49 0.6 0.82 c black 0.49 0.6 0.82 c 238 202 m 48 X 23 Y 48 X -19 Y 48 X -4 Y 48 X 2 Y 48 X 6 Y 48 X -6 Y 47 X 8 Y 48 X 11 Y 48 X 60 Y 48 X 64 Y 96 X
 81 Y 48 X 116 Y 96 X 353 Y 48 X -26 Y 48 X 128 Y 47 X 11 Y 48 X -120 Y 48 X 75 Y 48 X -71 Y 48 X -192 Y 48 X -32 Y 48 X -154 Y 48 X -6 Y 48 X -30 Y 48 X 49 Y 47 X -66 Y 48 X -5 Y 48 X -141 Y 48 X -19 Y 48 X -9 Y 48 X -40 Y 48 X -28 Y 48 X 13 Y 48 X
 -9 Y 48 X 17 Y 48 X -34 Y 47 X -4 Y 48 X -2 Y f 0 0 0.933333 c 0.49 0.6 0.82 c 0 0 0.933333 c 238 202 m 48 X 23 Y 48 X -19 Y 48 X -4 Y 48 X 2 Y 48 X 6 Y 48 X -6 Y 47 X 8 Y 48 X 11 Y 48 X 60 Y 48 X 64 Y 96 X 81 Y 48 X 116 Y 96 X 353 Y 48 X -26 Y 48 X
 128 Y 47 X 11 Y 48 X -120 Y 48 X 75 Y 48 X -71 Y 48 X -192 Y 48 X -32 Y 48 X -154 Y 48 X -6 Y 48 X -30 Y 48 X 49 Y 47 X -66 Y 48 X -5 Y 48 X -141 Y 48 X -19 Y 48 X -9 Y 48 X -40 Y 48 X -28 Y 48 X 13 Y 48 X -9 Y 48 X 17 Y 48 X -34 Y 47 X -4 Y 48 X -2
 Y s 1 0 0 c black 1 0 0 c 2126 202 m s 2078 202 m s 2030 202 m s 1982 202 m s 1936 204 m -2 -2 d s 1900 216 m -14 -14 d s 1842 207 m -5 -5 d s 1792 204 m -3 -2 d s 1746 207 m -5 -5 d s 1693 202 m cl s 1645 202 m s 1604 209 m -7 -7 d s 1551 204 m -2
 -2 d s 1532 233 m -31 -31 d s 1491 240 m -38 -38 d s 1442 240 m -38 -38 d s 1430 275 m -74 -73 d s 1388 281 m -80 -79 d s 1388 330 m -128 -128 d s 1366 356 m -154 -154 d s 1340 378 m -176 -176 d s 1313 399 m -197 -197 d s 1292 426 m -224 -224 d s
 1292 474 m -272 -272 d s 1292 522 m -320 -320 d s 1289 567 m -45 -44 d s 1239 518 m -316 -316 d s 1196 523 m -321 -321 d s 1196 571 m -369 -369 d s 1196 619 m -417 -417 d s 1196 667 m -465 -465 d s 1167 686 m -484 -484 d s 1148 715 m -513 -513 d s
 1148 763 m -561 -561 d s 1148 812 m -609 -610 d s 1148 860 m -658 -658 d s 1121 881 m -452 -452 d s 635 394 m -193 -192 d s 1100 908 m -431 -431 d s 594 401 m -21 -20 d s 537 344 m -11 -11 d s 487 294 m -9 -9 d s 439 247 m -9 -10 d s 423 230 m -29
 -28 d s 1058 914 m -341 -341 d s 674 529 m -5 -4 d s 370 226 m -24 -24 d s 1053 956 m -336 -335 d s 308 211 m -10 -9 d s 1053 1004 m -336 -335 d s 252 204 m -2 -2 d s 1053 1053 m -288 -288 d s 1053 1101 m -96 -96 d s 951 1000 m -42 -43 d s 894 943 m
 -129 -130 d s 1053 1149 m -96 -96 d s 861 957 m -96 -96 d s 1053 1197 m -48 -48 d s 995 1140 m -38 -39 d s 839 983 m -26 -26 d s 767 912 m -2 -3 d s 1018 1211 m -13 -14 d s 0 lw 3 lw 238 204 m 48 X 7 Y 48 X 15 Y 48 X 4 Y 48 X 17 Y 48 X 47 Y 48 X 50
 Y 47 X 57 Y 48 X -7 Y 48 X 135 Y 48 X 188 Y 48 X 195 Y 48 X 71 Y 48 X -40 Y 48 X 57 Y 48 X 140 Y 48 X 71 Y 48 X -297 Y 47 X -33 Y 48 X -195 Y 48 X -168 Y 48 X 49 Y 48 X -168 Y 48 X -43 Y 48 X -81 Y 48 X -35 Y 96 X -36 Y 47 X 5 Y 48 X -7 Y 96 X 5 Y
 48 X -3 Y 48 X 3 Y 48 X 9 Y 48 X -12 Y 48 X -2 Y 191 X s 0.490196 0.545098 0.615686 c 0.95 0.95 0.95 c 0.490196 0.545098 0.615686 c 952 202 1202 1312 bl 1202 1312 m 952 X s 2154 1312 m 202 Y s 2154 1514 m -952 X s 1202 1514 m -202 Y s black
 gsave  2268 1682 0 0 C 1293.66 1445.86 t 0 r /Times-Italic findfont 57.0734 sf 0 0 m (Signal \(training sample\)) show NC gr  0 0 0.933333 c /w 21 def /w2 {w 2 div} def /w3 {w 3 div} def 1250 1463 m20 black
 gsave  2268 1682 0 0 C 1293.66 1350.74 t 0 r /Times-Italic findfont 57.0734 sf 0 0 m (Background \(training sample\)) show NC gr  1 0 0 c 1250 1362 m20 0 0 0.933333 c 1 1 1 c 0 0 0.933333 c 286 208 m 16 X s 318 208 m 16 X s 286 201 m 15 Y s 334 201
 m 15 Y s 310 208 m20 334 204 m 16 X s 365 204 m 17 X s 334 196 m 16 Y s 382 196 m 16 Y s 358 204 m20 430 208 m 16 X s 461 208 m 17 X s 430 201 m 15 Y s 478 201 m 15 Y s 454 208 m20 478 206 m 16 X s 509 206 m 17 X s 478 198 m 16 Y s 526 198 m 16 Y s
 502 206 m20 526 208 m 16 X s 557 208 m 16 X s 526 201 m 15 Y s 573 201 m 15 Y s 549 208 m20 573 210 m 17 X s 605 210 m 16 X s 573 203 m 15 Y s 621 203 m 15 Y s 597 210 m20 621 215 m 17 X s 653 215 m 16 X s 621 207 m 15 Y s 669 207 m 15 Y s 645 215
 m20 693 278 m 6 Y s 693 299 m 7 Y s 669 292 m 17 X s 701 292 m 16 X s 686 278 m 15 X s 686 306 m 15 X s 669 284 m 15 Y s 717 284 m 15 Y s 693 292 m20 741 288 m 7 Y s 741 310 m 7 Y s 717 302 m 17 X s 749 302 m 16 X s 734 288 m 15 X s 734 317 m 15 X s
 717 295 m 15 Y s 765 295 m 15 Y s 741 302 m20 789 318 m 9 Y s 789 342 m 9 Y s 765 334 m 16 X s 797 334 m 16 X s 781 318 m 16 X s 781 351 m 16 X s 765 327 m 15 Y s 813 327 m 15 Y s 789 334 m20 837 396 m 14 Y s 837 426 m 13 Y s 813 418 m 16 X s 845
 418 m 16 X s 829 396 m 16 X s 829 439 m 16 X s 813 410 m 16 Y s 861 410 m 16 Y s 837 418 m20 885 486 m 18 Y s 885 520 m 18 Y s 861 512 m 16 X s 892 512 m 17 X s 877 486 m 15 X s 877 538 m 15 X s 861 504 m 16 Y s 909 504 m 16 Y s 885 512 m20 933 624
 m 24 Y s 933 663 m 24 Y s 909 655 m 16 X s 940 655 m 17 X s 925 624 m 15 X s 925 687 m 15 X s 909 648 m 15 Y s 957 648 m 15 Y s 933 655 m20 981 827 m 30 Y s 981 873 m 30 Y s 957 865 m 16 X s 988 865 m 17 X s 973 827 m 15 X s 973 903 m 15 X s 957 857
 m 16 Y s 1005 857 m 16 Y s 981 865 m20 1029 821 m 30 Y s 1029 866 m 30 Y s 1005 859 m 16 X s 1036 859 m 17 X s 1021 821 m 15 X s 1021 896 m 15 X s 1005 851 m 15 Y s 1053 851 m 15 Y s 1029 859 m20 1076 850 m 31 Y s 1076 896 m 31 Y s 1053 889 m 16 X s
 1084 889 m 16 X s 1069 850 m 15 X s 1069 927 m 15 X s 1053 881 m 15 Y s 1100 881 m 15 Y s 1076 889 m20 1124 894 m 32 Y s 1124 941 m 32 Y s 1100 934 m 17 X s 1132 934 m 16 X s 1117 894 m 15 X s 1117 973 m 15 X s 1100 926 m 15 Y s 1148 926 m 15 Y s
 1124 934 m20 1172 842 m 30 Y s 1172 888 m 30 Y s 1148 880 m 17 X s 1180 880 m 16 X s 1165 842 m 15 X s 1165 918 m 15 X s 1148 872 m 16 Y s 1196 872 m 16 Y s 1172 880 m20 1220 944 m 33 Y s 1220 992 m 34 Y s 1196 985 m 17 X s 1228 985 m 16 X s 1213
 944 m 15 X s 1213 1026 m 15 X s 1196 977 m 15 Y s 1244 977 m 15 Y s 1220 985 m20 1268 852 m 31 Y s 1268 898 m 31 Y s 1244 891 m 16 X s 1276 891 m 16 X s 1260 852 m 16 X s 1260 929 m 16 X s 1244 883 m 15 Y s 1292 883 m 15 Y s 1268 891 m20 1316 736 m
 27 Y s 1316 779 m 27 Y s 1292 771 m 16 X s 1324 771 m 16 X s 1308 736 m 16 X s 1308 806 m 16 X s 1292 763 m 16 Y s 1340 763 m 16 Y s 1316 771 m20 1364 628 m 24 Y s 1364 667 m 24 Y s 1340 660 m 16 X s 1371 660 m 17 X s 1356 628 m 15 X s 1356 691 m 15
 X s 1340 652 m 15 Y s 1388 652 m 15 Y s 1364 660 m20 1412 511 m 19 Y s 1412 545 m 20 Y s 1388 538 m 16 X s 1419 538 m 17 X s 1404 511 m 15 X s 1404 565 m 15 X s 1388 530 m 15 Y s 1436 530 m 15 Y s 1412 538 m20 1460 478 m 18 Y s 1460 511 m 18 Y s
 1436 503 m 16 X s 1467 503 m 17 X s 1452 478 m 15 X s 1452 529 m 15 X s 1436 496 m 15 Y s 1484 496 m 15 Y s 1460 503 m20 1508 538 m 20 Y s 1508 573 m 20 Y s 1484 566 m 16 X s 1515 566 m 17 X s 1500 538 m 15 X s 1500 593 m 15 X s 1484 558 m 15 Y s
 1532 558 m 15 Y s 1508 566 m20 1556 525 m 20 Y s 1556 560 m 20 Y s 1532 553 m 16 X s 1563 553 m 16 X s 1548 525 m 15 X s 1548 580 m 15 X s 1532 545 m 15 Y s 1579 545 m 15 Y s 1556 553 m20 1603 396 m 14 Y s 1603 426 m 13 Y s 1579 418 m 17 X s 1611
 418 m 16 X s 1596 396 m 15 X s 1596 439 m 15 X s 1579 410 m 16 Y s 1627 410 m 16 Y s 1603 418 m20 1651 435 m 16 Y s 1651 466 m 16 Y s 1627 459 m 17 X s 1659 459 m 16 X s 1644 435 m 15 X s 1644 482 m 15 X s 1627 451 m 15 Y s 1675 451 m 15 Y s 1651
 459 m20 1699 342 m 11 Y s 1699 368 m 11 Y s 1675 360 m 17 X s 1707 360 m 16 X s 1692 342 m 15 X s 1692 379 m 15 X s 1675 353 m 15 Y s 1723 353 m 15 Y s 1699 360 m20 1747 304 m 8 Y s 1747 327 m 8 Y s 1723 319 m 17 X s 1755 319 m 16 X s 1740 304 m 15
 X s 1740 335 m 15 X s 1723 312 m 15 Y s 1771 312 m 15 Y s 1747 319 m20 1795 298 m 7 Y s 1795 321 m 7 Y s 1771 313 m 16 X s 1803 313 m 16 X s 1787 298 m 16 X s 1787 328 m 16 X s 1771 305 m 16 Y s 1819 305 m 16 Y s 1795 313 m20 1843 252 m 4 Y s 1843
 271 m 4 Y s 1819 264 m 16 X s 1851 264 m 16 X s 1835 252 m 16 X s 1835 275 m 16 X s 1819 256 m 15 Y s 1867 256 m 15 Y s 1843 264 m20 1867 223 m 16 X s 1898 223 m 17 X s 1867 216 m 15 Y s 1915 216 m 15 Y s 1891 223 m20 1939 245 m 3 Y s 1939 263 m 3 Y
 s 1915 255 m 16 X s 1946 255 m 17 X s 1931 245 m 15 X s 1931 266 m 15 X s 1915 248 m 15 Y s 1963 248 m 15 Y s 1939 255 m20 1963 210 m 16 X s 1994 210 m 17 X s 1963 203 m 15 Y s 2011 203 m 15 Y s 1987 210 m20 2011 223 m 16 X s 2042 223 m 17 X s 2011
 216 m 15 Y s 2059 216 m 15 Y s 2035 223 m20 2106 208 m 17 X s 2138 208 m 16 X s 2106 201 m 15 Y s 2154 201 m 15 Y s 2130 208 m20 1 0 0 c 1 1 1 c 1 0 0 c 238 209 m 16 X s 270 209 m 16 X s 238 201 m 16 Y s 286 201 m 16 Y s 262 209 m20 286 209 m 16 X s
 318 209 m 16 X s 286 201 m 16 Y s 334 201 m 16 Y s 310 209 m20 334 226 m 16 X s 365 226 m 17 X s 334 218 m 15 Y s 382 218 m 15 Y s 358 226 m20 382 223 m 16 X s 413 223 m 17 X s 382 216 m 15 Y s 430 216 m 15 Y s 406 223 m20 454 239 m 3 Y s 454 257 m
 3 Y s 430 249 m 16 X s 461 249 m 17 X s 446 239 m 15 X s 446 260 m 15 X s 430 242 m 15 Y s 478 242 m 15 Y s 454 249 m20 502 249 m 5 Y s 502 269 m 4 Y s 478 261 m 16 X s 509 261 m 17 X s 494 249 m 15 X s 494 273 m 15 X s 478 254 m 15 Y s 526 254 m 15
 Y s 502 261 m20 549 350 m 13 Y s 549 378 m 12 Y s 526 370 m 16 X s 557 370 m 16 X s 542 350 m 15 X s 542 390 m 15 X s 526 363 m 15 Y s 573 363 m 15 Y s 549 370 m20 597 362 m 13 Y s 597 390 m 13 Y s 573 382 m 17 X s 605 382 m 16 X s 590 362 m 15 X s
 590 403 m 15 X s 573 375 m 15 Y s 621 375 m 15 Y s 597 382 m20 645 404 m 16 Y s 645 435 m 16 Y s 621 427 m 17 X s 653 427 m 16 X s 638 404 m 15 X s 638 451 m 15 X s 621 420 m 15 Y s 669 420 m 15 Y s 645 427 m20 693 502 m 20 Y s 693 537 m 20 Y s 669
 530 m 17 X s 701 530 m 16 X s 686 502 m 15 X s 686 557 m 15 X s 669 522 m 15 Y s 717 522 m 15 Y s 693 530 m20 741 767 m 30 Y s 741 813 m 30 Y s 717 805 m 17 X s 749 805 m 16 X s 734 767 m 15 X s 734 843 m 15 X s 717 797 m 16 Y s 765 797 m 16 Y s 741
 805 m20 789 970 m 36 Y s 789 1022 m 36 Y s 765 1014 m 16 X s 797 1014 m 16 X s 781 970 m 16 X s 781 1058 m 16 X s 765 1006 m 16 Y s 813 1006 m 16 Y s 789 1014 m20 837 938 m 35 Y s 837 988 m 36 Y s 813 981 m 16 X s 845 981 m 16 X s 829 938 m 16 X s
 829 1024 m 16 X s 813 973 m 15 Y s 861 973 m 15 Y s 837 981 m20 885 912 m 35 Y s 885 962 m 35 Y s 861 955 m 16 X s 892 955 m 17 X s 877 912 m 15 X s 877 997 m 15 X s 861 947 m 15 Y s 909 947 m 15 Y s 885 955 m20 933 1042 m 38 Y s 933 1095 m 38 Y s
 909 1088 m 16 X s 940 1088 m 17 X s 925 1042 m 15 X s 925 1133 m 15 X s 909 1080 m 15 Y s 957 1080 m 15 Y s 933 1088 m20 981 1093 m 39 Y s 981 1147 m 40 Y s 957 1140 m 16 X s 988 1140 m 17 X s 973 1093 m 15 X s 973 1187 m 15 X s 957 1132 m 15 Y s
 1005 1132 m 15 Y s 981 1140 m20 1029 1151 m 41 Y s 1029 1207 m 41 Y s 1005 1199 m 16 X s 1036 1199 m 17 X s 1021 1151 m 15 X s 1021 1248 m 15 X s 1005 1192 m 15 Y s 1053 1192 m 15 Y s 1029 1199 m20 1076 857 m 33 Y s 1076 905 m 33 Y s 1053 898 m 16 X
 s 1084 898 m 16 X s 1069 857 m 15 X s 1069 938 m 15 X s 1053 890 m 15 Y s 1100 890 m 15 Y s 1076 898 m20 1124 769 m 31 Y s 1124 815 m 30 Y s 1100 807 m 17 X s 1132 807 m 16 X s 1117 769 m 15 X s 1117 845 m 15 X s 1100 800 m 15 Y s 1148 800 m 15 Y s
 1124 807 m20 1172 636 m 26 Y s 1172 677 m 26 Y s 1148 670 m 17 X s 1180 670 m 16 X s 1165 636 m 15 X s 1165 703 m 15 X s 1148 662 m 15 Y s 1196 662 m 15 Y s 1172 670 m20 1220 481 m 20 Y s 1220 516 m 19 Y s 1196 508 m 17 X s 1228 508 m 16 X s 1213
 481 m 15 X s 1213 535 m 15 X s 1196 501 m 15 Y s 1244 501 m 15 Y s 1220 508 m20 1268 443 m 17 Y s 1268 475 m 18 Y s 1244 468 m 16 X s 1276 468 m 16 X s 1260 443 m 16 X s 1260 493 m 16 X s 1244 460 m 15 Y s 1292 460 m 15 Y s 1268 468 m20 1316 350 m
 13 Y s 1316 378 m 12 Y s 1292 370 m 16 X s 1324 370 m 16 X s 1308 350 m 16 X s 1308 390 m 16 X s 1292 363 m 15 Y s 1340 363 m 15 Y s 1316 370 m20 1364 288 m 8 Y s 1364 312 m 8 Y s 1340 304 m 16 X s 1371 304 m 17 X s 1356 288 m 15 X s 1356 320 m 15 X
 s 1340 296 m 16 Y s 1388 296 m 16 Y s 1364 304 m20 1412 245 m 4 Y s 1412 264 m 4 Y s 1388 256 m 16 X s 1419 256 m 17 X s 1404 245 m 15 X s 1404 268 m 15 X s 1388 249 m 15 Y s 1436 249 m 15 Y s 1412 256 m20 1460 241 m 3 Y s 1460 259 m 4 Y s 1436 252
 m 16 X s 1467 252 m 17 X s 1452 241 m 15 X s 1452 263 m 15 X s 1436 244 m 15 Y s 1484 244 m 15 Y s 1460 252 m20 1508 239 m 3 Y s 1508 257 m 3 Y s 1484 249 m 16 X s 1515 249 m 17 X s 1500 239 m 15 X s 1500 260 m 15 X s 1484 242 m 15 Y s 1532 242 m 15
 Y s 1508 249 m20 1532 209 m 16 X s 1563 209 m 16 X s 1532 201 m 16 Y s 1579 201 m 16 Y s 1556 209 m20 1579 207 m 17 X s 1611 207 m 16 X s 1579 199 m 15 Y s 1627 199 m 15 Y s 1603 207 m20 1627 204 m 17 X s 1659 204 m 16 X s 1627 197 m 15 Y s 1675 197
 m 15 Y s 1651 204 m20 1675 207 m 17 X s 1707 207 m 16 X s 1675 199 m 15 Y s 1723 199 m 15 Y s 1699 207 m20 1723 216 m 17 X s 1755 216 m 16 X s 1723 208 m 16 Y s 1771 208 m 16 Y s 1747 216 m20 1819 207 m 16 X s 1851 207 m 16 X s 1819 199 m 15 Y s
 1867 199 m 15 Y s 1843 207 m20 1867 209 m 16 X s 1898 209 m 17 X s 1867 201 m 16 Y s 1915 201 m 16 Y s 1891 209 m20 1915 207 m 16 X s 1946 207 m 17 X s 1915 199 m 15 Y s 1963 199 m 15 Y s 1939 207 m20 black
 gsave  2268 1682 0 0 C 272.126 1244.5 t 0 r /Helvetica-Bold findfont 49.4636 sf 0 0 m (Kolmogorov\255Smirnov test: signal \(background\) probability = 0.107 \(0.0467\)) show NC gr  238 202 m 1916 X s 275 244 m -42 Y s 332 223 m -21 Y s 388 223 m -21
 Y s 445 223 m -21 Y s 501 244 m -42 Y s 558 223 m -21 Y s 615 223 m -21 Y s 671 223 m -21 Y s 728 244 m -42 Y s 784 223 m -21 Y s 841 223 m -21 Y s 897 223 m -21 Y s 954 244 m -42 Y s 1010 223 m -21 Y s 1067 223 m -21 Y s 1123 223 m -21 Y s 1180 244
 m -42 Y s 1237 223 m -21 Y s 1293 223 m -21 Y s 1350 223 m -21 Y s 1406 244 m -42 Y s 1463 223 m -21 Y s 1519 223 m -21 Y s 1576 223 m -21 Y s 1632 244 m -42 Y s 1689 223 m -21 Y s 1745 223 m -21 Y s 1802 223 m -21 Y s 1858 244 m -42 Y s 1915 223 m
 -21 Y s 1972 223 m -21 Y s 2028 223 m -21 Y s 2085 244 m -42 Y s 275 244 m -42 Y s 2085 244 m -42 Y s 2141 223 m -21 Y s 238 1514 m 1916 X s 275 1471 m 43 Y s 332 1492 m 22 Y s 388 1492 m 22 Y s 445 1492 m 22 Y s 501 1471 m 43 Y s 558 1492 m 22 Y s
 615 1492 m 22 Y s 671 1492 m 22 Y s 728 1471 m 43 Y s 784 1492 m 22 Y s 841 1492 m 22 Y s 897 1492 m 22 Y s 954 1471 m 43 Y s 1010 1492 m 22 Y s 1067 1492 m 22 Y s 1123 1492 m 22 Y s 1180 1471 m 43 Y s 1237 1492 m 22 Y s 1293 1492 m 22 Y s 1350 1492
 m 22 Y s 1406 1471 m 43 Y s 1463 1492 m 22 Y s 1519 1492 m 22 Y s 1576 1492 m 22 Y s 1632 1471 m 43 Y s 1689 1492 m 22 Y s 1745 1492 m 22 Y s 1802 1492 m 22 Y s 1858 1471 m 43 Y s 1915 1492 m 22 Y s 1972 1492 m 22 Y s 2028 1492 m 22 Y s 2085 1471 m
 43 Y s 275 1471 m 43 Y s 2085 1471 m 43 Y s 2141 1492 m 22 Y s 238 202 m 1312 Y s 291 202 m -53 X s 265 243 m -27 X s 265 284 m -27 X s 265 324 m -27 X s 265 365 m -27 X s 291 406 m -53 X s 265 447 m -27 X s 265 488 m -27 X s 265 529 m -27 X s 265
 570 m -27 X s 291 611 m -53 X s 265 652 m -27 X s 265 692 m -27 X s 265 733 m -27 X s 265 774 m -27 X s 291 815 m -53 X s 265 856 m -27 X s 265 897 m -27 X s 265 938 m -27 X s 265 979 m -27 X s 291 1020 m -53 X s 265 1060 m -27 X s 265 1101 m -27 X
 s 265 1142 m -27 X s 265 1183 m -27 X s 291 1224 m -53 X s 265 1265 m -27 X s 265 1306 m -27 X s 265 1347 m -27 X s 265 1388 m -27 X s 291 1428 m -53 X s 291 1428 m -53 X s 265 1469 m -27 X s 265 1510 m -27 X s 2154 202 m 1312 Y s 2101 202 m 53 X s
 2128 243 m 26 X s 2128 284 m 26 X s 2128 324 m 26 X s 2128 365 m 26 X s 2101 406 m 53 X s 2128 447 m 26 X s 2128 488 m 26 X s 2128 529 m 26 X s 2128 570 m 26 X s 2101 611 m 53 X s 2128 652 m 26 X s 2128 692 m 26 X s 2128 733 m 26 X s 2128 774 m 26 X
 s 2101 815 m 53 X s 2128 856 m 26 X s 2128 897 m 26 X s 2128 938 m 26 X s 2128 979 m 26 X s 2101 1020 m 53 X s 2128 1060 m 26 X s 2128 1101 m 26 X s 2128 1142 m 26 X s 2128 1183 m 26 X s 2101 1224 m 53 X s 2128 1265 m 26 X s 2128 1306 m 26 X s 2128
 1347 m 26 X s 2128 1388 m 26 X s 2101 1428 m 53 X s 2101 1428 m 53 X s 2128 1469 m 26 X s 2128 1510 m 26 X s
 gsave  2268 1682 0 0 C 2211.02 193.403 t 90 r /Helvetica-Bold findfont 45.6587 sf 0 0 m (U/O\255flow \(S,B\): \(0.0, 0.0\)% / \(0.0, 0.0\)%) show NC gr  0.490196 0.545098 0.615686 c 0.364706 0.419608 0.490196 c 1587 96 23 1577 bf 0.490196 0.545098
 0.615686 c 23 1577 m 1587 X s 1610 1577 m 96 Y s 1610 1673 m -1587 X s 23 1673 m -96 Y s 1 1 1 c black 1 1 1 c
 gsave  2268 1682 0 0 C 68.4881 1609.47 t 0 r /Helvetica-Bold findfont 64.6832 sf 0 0 m (TMVA overtraining check for classifier: MLPBNN) show NC gr 
 gr  gr showpage
end
%%EOF
