%!PS-Adobe-2.0 EPSF-2.0
%%BoundingBox:  0 0 567 420
%%Title: plots/overtrain_BDTB.eps: TMVA comparison BDTB
%%Creator: ROOT Version 5.34/09
%%CreationDate: Thu Jan  2 18:34:06 2014
%%EndComments
%%BeginProlog
80 dict begin
/s {stroke} def /l {lineto} def /m {moveto} def /t {translate} def
/r {rotate} def /rl {roll}  def /R {repeat} def
/d {rlineto} def /rm {rmoveto} def /gr {grestore} def /f {eofill} def
/c {setrgbcolor} def /black {0 setgray} def /sd {setdash} def
/cl {closepath} def /sf {scalefont setfont} def /lw {setlinewidth} def
/box {m dup 0 exch d exch 0 d 0 exch neg d cl} def
/NC{systemdict begin initclip end}def/C{NC box clip newpath}def
/bl {box s} def /bf {box f} def /Y { 0 exch d} def /X { 0 d} def 
/K {{pop pop 0 moveto} exch kshow} bind def
/ita {/ang 15 def gsave [1 0 ang dup sin exch cos div 1 0 0] concat} def 
/mp {newpath /y exch def /x exch def} def
/side {[w .77 mul w .23 mul] .385 w mul sd w 0 l currentpoint t -144 r} def
/mr {mp x y w2 0 360 arc} def /m24 {mr s} def /m20 {mr f} def
/mb {mp x y w2 add m w2 neg 0 d 0 w neg d w 0 d 0 w d cl} def
/mt {mp x y w2 add m w2 neg w neg d w 0 d cl} def
/m21 {mb f} def /m25 {mb s} def /m22 {mt f} def /m26{mt s} def
/m23 {mp x y w2 sub m w2 w d w neg 0 d cl f} def
/m27 {mp x y w2 add m w3 neg w2 neg d w3 w2 neg d w3 w2 d cl s} def
/m28 {mp x w2 sub y w2 sub w3 add m w3 0 d  0 w3 neg d w3 0 d 0 w3 d w3 0 d  0 w3 d w3 neg 0 d 0 w3 d w3 neg 0 d 0 w3 neg d w3 neg 0 d cl s } def
/m29 {mp gsave x w2 sub y w2 add w3 sub m currentpoint t 4 {side} repeat cl fill gr} def
/m30 {mp gsave x w2 sub y w2 add w3 sub m currentpoint t 4 {side} repeat cl s gr} def
/m31 {mp x y w2 sub m 0 w d x w2 sub y m w 0 d x w2 sub y w2 add m w w neg d x w2 sub y w2 sub m w w d s} def
/m32 {mp x y w2 sub m w2 w d w neg 0 d cl s} def
/m33 {mp x y w2 add m w3 neg w2 neg d w3 w2 neg d w3 w2 d cl f} def
/m34 {mp x w2 sub y w2 sub w3 add m w3 0 d  0 w3 neg d w3 0 d 0 w3 d w3 0 d  0 w3 d w3 neg 0 d 0 w3 d w3 neg 0 d 0 w3 neg d w3 neg 0 d cl f } def
/m2 {mp x y w2 sub m 0 w d x w2 sub y m w 0 d s} def
/m5 {mp x w2 sub y w2 sub m w w d x w2 sub y w2 add m w w neg d s} def
/reEncode {exch findfont dup length dict begin {1 index /FID eq  {pop pop} {def} ifelse } forall /Encoding exch def currentdict end dup /FontName get exch definefont pop } def [/Times-Bold /Times-Italic /Times-BoldItalic /Helvetica /Helvetica-Oblique
 /Helvetica-Bold /Helvetica-BoldOblique /Courier /Courier-Oblique /Courier-Bold /Courier-BoldOblique /Times-Roman /AvantGarde-Book /AvantGarde-BookOblique /AvantGarde-Demi /AvantGarde-DemiOblique /Bookman-Demi /Bookman-DemiItalic /Bookman-Light
 /Bookman-LightItalic /Helvetica-Narrow /Helvetica-Narrow-Bold /Helvetica-Narrow-BoldOblique /Helvetica-Narrow-Oblique /NewCenturySchlbk-Roman /NewCenturySchlbk-Bold /NewCenturySchlbk-BoldItalic /NewCenturySchlbk-Italic /Palatino-Bold
 /Palatino-BoldItalic /Palatino-Italic /Palatino-Roman ] {ISOLatin1Encoding reEncode } forall
%%EndProlog
%%BeginSetup
%%EndSetup
newpath  gsave  .25 .25 scale  gsave  0 0 t 0.490196 0.545098 0.615686 c[  ] 0 sd 3 lw 0.941176 0.941176 0.941176 c 2268 1682 0 0 bf black 1 1 0.992157 c 1916 1312 238 202 bf black 1916 1312 238 202 bl 1 1 0.992157 c 1916 1312 238 202 bf black 1916
 1312 238 202 bl 238 202 m 1916 X s
 gsave  2268 1682 0 0 C 1609.47 34.244 t 0 r /Helvetica-Bold findfont 72.293 sf 0 0 m (BDTB response) show NC gr  238 244 m -42 Y s 334 223 m -21 Y s 430 223 m -21 Y s 526 223 m -21 Y s 621 223 m -21 Y s 717 244 m -42 Y s 813 223 m -21 Y s 909 223 m
 -21 Y s 1005 223 m -21 Y s 1100 223 m -21 Y s 1196 244 m -42 Y s 1292 223 m -21 Y s 1388 223 m -21 Y s 1484 223 m -21 Y s 1579 223 m -21 Y s 1675 244 m -42 Y s 1771 223 m -21 Y s 1867 223 m -21 Y s 1963 223 m -21 Y s 2059 223 m -21 Y s 2154 244 m
 -42 Y s 2154 244 m -42 Y s
 gsave  2268 1682 0 0 C 209.269 129.366 t 0 r /Helvetica-Bold findfont 64.6832 sf 0 0 m (\2551) show NC gr 
 gsave  2268 1682 0 0 C 658.247 129.366 t 0 r /Helvetica-Bold findfont 64.6832 sf 0 0 m (\2550.5) show NC gr 
 gsave  2268 1682 0 0 C 1175.71 129.366 t 0 r /Helvetica-Bold findfont 64.6832 sf 0 0 m (0) show NC gr 
 gsave  2268 1682 0 0 C 1628.49 129.366 t 0 r /Helvetica-Bold findfont 64.6832 sf 0 0 m (0.5) show NC gr 
 gsave  2268 1682 0 0 C 2138.35 129.366 t 0 r /Helvetica-Bold findfont 64.6832 sf 0 0 m (1) show NC gr  238 1514 m 1916 X s 238 1471 m 43 Y s 334 1492 m 22 Y s 430 1492 m 22 Y s 526 1492 m 22 Y s 621 1492 m 22 Y s 717 1471 m 43 Y s 813 1492 m 22 Y s
 909 1492 m 22 Y s 1005 1492 m 22 Y s 1100 1492 m 22 Y s 1196 1471 m 43 Y s 1292 1492 m 22 Y s 1388 1492 m 22 Y s 1484 1492 m 22 Y s 1579 1492 m 22 Y s 1675 1471 m 43 Y s 1771 1492 m 22 Y s 1867 1492 m 22 Y s 1963 1492 m 22 Y s 2059 1492 m 22 Y s
 2154 1471 m 43 Y s 2154 1471 m 43 Y s 238 202 m 1312 Y s
 gsave  2268 1682 0 0 C 64.6832 1430.64 t 90 r /Helvetica-Bold findfont 72.293 sf 0 0 m (dx) show NC gr 
 gsave  2268 1682 0 0 C 30.4391 1411.62 t 90 r /Helvetica-Bold findfont 45.6587 sf 0 0 m ( ) show NC gr 
 gsave  2268 1682 0 0 C 64.6832 1388.79 t 90 r /Helvetica-Bold findfont 72.293 sf 0 0 m (/) show NC gr 
 gsave  2268 1682 0 0 C 30.4391 1369.76 t 90 r /Helvetica-Bold findfont 45.6587 sf 0 0 m ( ) show NC gr 
 gsave  2268 1682 0 0 C 60.8783 1095.81 t 90 r /Helvetica-Bold findfont 72.293 sf 0 0 m (\(1/N\) dN) show NC gr  291 202 m -53 X s 265 229 m -27 X s 265 256 m -27 X s 265 283 m -27 X s 265 311 m -27 X s 291 338 m -53 X s 265 365 m -27 X s 265 392 m
 -27 X s 265 419 m -27 X s 265 447 m -27 X s 291 474 m -53 X s 265 501 m -27 X s 265 528 m -27 X s 265 555 m -27 X s 265 583 m -27 X s 291 610 m -53 X s 265 637 m -27 X s 265 664 m -27 X s 265 691 m -27 X s 265 719 m -27 X s 291 746 m -53 X s 265 773
 m -27 X s 265 800 m -27 X s 265 827 m -27 X s 265 855 m -27 X s 291 882 m -53 X s 265 909 m -27 X s 265 936 m -27 X s 265 963 m -27 X s 265 991 m -27 X s 291 1018 m -53 X s 265 1045 m -27 X s 265 1072 m -27 X s 265 1099 m -27 X s 265 1127 m -27 X s
 291 1154 m -53 X s 265 1181 m -27 X s 265 1208 m -27 X s 265 1235 m -27 X s 265 1263 m -27 X s 291 1290 m -53 X s 265 1317 m -27 X s 265 1344 m -27 X s 265 1371 m -27 X s 265 1399 m -27 X s 291 1426 m -53 X s 291 1426 m -53 X s 265 1453 m -27 X s
 265 1480 m -27 X s 265 1507 m -27 X s
 gsave  2268 1682 0 0 C 175.025 178.83 t 0 r /Helvetica-Bold findfont 64.6832 sf 0 0 m (0) show NC gr 
 gsave  2268 1682 0 0 C 182.635 312.001 t 0 r /Helvetica-Bold findfont 64.6832 sf 0 0 m (1) show NC gr 
 gsave  2268 1682 0 0 C 175.025 448.977 t 0 r /Helvetica-Bold findfont 64.6832 sf 0 0 m (2) show NC gr 
 gsave  2268 1682 0 0 C 175.025 585.954 t 0 r /Helvetica-Bold findfont 64.6832 sf 0 0 m (3) show NC gr 
 gsave  2268 1682 0 0 C 175.025 722.93 t 0 r /Helvetica-Bold findfont 64.6832 sf 0 0 m (4) show NC gr 
 gsave  2268 1682 0 0 C 175.025 856.101 t 0 r /Helvetica-Bold findfont 64.6832 sf 0 0 m (5) show NC gr 
 gsave  2268 1682 0 0 C 175.025 993.077 t 0 r /Helvetica-Bold findfont 64.6832 sf 0 0 m (6) show NC gr 
 gsave  2268 1682 0 0 C 175.025 1130.05 t 0 r /Helvetica-Bold findfont 64.6832 sf 0 0 m (7) show NC gr 
 gsave  2268 1682 0 0 C 175.025 1263.22 t 0 r /Helvetica-Bold findfont 64.6832 sf 0 0 m (8) show NC gr 
 gsave  2268 1682 0 0 C 175.025 1400.2 t 0 r /Helvetica-Bold findfont 64.6832 sf 0 0 m (9) show NC gr  2154 202 m 1312 Y s 2101 202 m 53 X s 2128 229 m 26 X s 2128 256 m 26 X s 2128 283 m 26 X s 2128 311 m 26 X s 2101 338 m 53 X s 2128 365 m 26 X s
 2128 392 m 26 X s 2128 419 m 26 X s 2128 447 m 26 X s 2101 474 m 53 X s 2128 501 m 26 X s 2128 528 m 26 X s 2128 555 m 26 X s 2128 583 m 26 X s 2101 610 m 53 X s 2128 637 m 26 X s 2128 664 m 26 X s 2128 691 m 26 X s 2128 719 m 26 X s 2101 746 m 53 X
 s 2128 773 m 26 X s 2128 800 m 26 X s 2128 827 m 26 X s 2128 855 m 26 X s 2101 882 m 53 X s 2128 909 m 26 X s 2128 936 m 26 X s 2128 963 m 26 X s 2128 991 m 26 X s 2101 1018 m 53 X s 2128 1045 m 26 X s 2128 1072 m 26 X s 2128 1099 m 26 X s 2128 1127
 m 26 X s 2101 1154 m 53 X s 2128 1181 m 26 X s 2128 1208 m 26 X s 2128 1235 m 26 X s 2128 1263 m 26 X s 2101 1290 m 53 X s 2128 1317 m 26 X s 2128 1344 m 26 X s 2128 1371 m 26 X s 2128 1399 m 26 X s 2101 1426 m 53 X s 2101 1426 m 53 X s 2128 1453 m
 26 X s 2128 1480 m 26 X s 2128 1507 m 26 X s 0.490196 0.545098 0.615686 c 0.95 0.95 0.95 c 0.490196 0.545098 0.615686 c 907 202 238 1312 bl 238 1312 m 907 X s 1145 1312 m 202 Y s 1145 1514 m -907 X s 238 1514 m -202 Y s black
 gsave  2268 1682 0 0 C 418.538 1445.86 t 0 r /Times-Italic findfont 57.0734 sf 0 0 m (Signal \(test sample\)) show NC gr  0.49 0.6 0.82 c 265 1428 m 127 X 70 Y -127 X f 0 0 0.933333 c 265 1498 m 127 X s 265 1428 m 127 X s 392 1428 m 70 Y s 265 1428
 m 70 Y s black
 gsave  2268 1682 0 0 C 418.538 1350.74 t 0 r /Times-Italic findfont 57.0734 sf 0 0 m (Background \(test sample\)) show NC gr  1 0 0 c 392 1354 m -27 -27 d s 387 1398 m -70 -71 d s 339 1398 m -70 -71 d s 291 1398 m -26 -26 d s 0 lw 0 0 0.933333 c 1 0
 0 c 3 lw 265 1398 m 127 X s 265 1327 m 127 X s 392 1327 m 71 Y s 265 1327 m 71 Y s 0 0 0.933333 c 0.49 0.6 0.82 c black 0.49 0.6 0.82 c 238 202 m 479 Y 48 X 109 Y 48 X -588 Y 48 X 18 Y 48 X 21 Y 48 X -39 Y 431 X 4 Y 48 X -2 Y 96 X -1 Y 47 X 7 Y 48 X
 -8 Y 240 X 13 Y 48 X 51 Y 48 X 17 Y 48 X -81 Y 47 X 9 Y 48 X 14 Y 48 X 378 Y 48 X -202 Y 48 X -199 Y 144 X 10 Y 48 X 13 Y 48 X -11 Y 48 X 21 Y 47 X 673 Y 48 X -706 Y f 0 0 0.933333 c 0.49 0.6 0.82 c 0 0 0.933333 c 238 681 m 48 X 109 Y 48 X -588 Y 48
 X 18 Y 48 X 21 Y 48 X -39 Y 431 X 4 Y 48 X -2 Y 96 X -1 Y 47 X 7 Y 48 X -8 Y 240 X 13 Y 48 X 51 Y 48 X 17 Y 48 X -81 Y 47 X 9 Y 48 X 14 Y 48 X 378 Y 48 X -202 Y 48 X -199 Y 144 X 10 Y 48 X 13 Y 48 X -11 Y 48 X 21 Y 47 X 673 Y 48 X -706 Y s 1 0 0 c
 black 1 0 0 c 2154 230 m -28 -28 d s 2154 278 m -48 -48 d s 2097 221 m -19 -19 d s 2154 326 m -48 -48 d s 2039 211 m -9 -9 d s 2118 338 m -12 -11 d s 1994 214 m -12 -12 d s 1945 213 m -11 -11 d s 1886 202 m s 1837 202 m s 1789 202 m s 1771 232 m -30
 -30 d s 1771 280 m -78 -78 d s 1768 325 m -93 -93 d s 1649 206 m -4 -4 d s 1723 328 m -48 -48 d s 1610 215 m -13 -13 d s 1723 376 m -48 -48 d s 1553 206 m -4 -4 d s 1723 424 m -48 -48 d s 1532 233 m -31 -31 d s 1723 472 m -48 -47 d s 1498 247 m -45
 -45 d s 1723 521 m -48 -48 d s 1466 263 m -30 -30 d s 1418 215 m -14 -13 d s 1723 569 m -48 -48 d s 1360 206 m -4 -4 d s 1723 617 m -48 -48 d s 1308 202 m s 1679 621 m -4 -4 d s 1260 202 m s 1212 202 m s 1164 202 m s 1118 204 m -2 -2 d s 1068 202 m
 s 1022 204 m -2 -2 d s 976 206 m -4 -4 d s 952 231 m -29 -29 d s 875 202 m s 827 202 m s 779 202 m s 731 202 m s 683 202 m s 635 202 m s 587 202 m s 539 202 m s 490 202 m cl s 448 207 m -6 -5 d s 399 206 m -5 -4 d s 346 202 m s 334 238 m -36 -36 d s
 334 286 m -84 -84 d s 334 334 m -96 -96 d s 334 382 m -96 -96 d s 334 430 m -96 -96 d s 334 478 m -96 -96 d s 334 526 m -96 -95 d s 334 574 m -96 -95 d s 334 623 m -96 -96 d s 334 671 m -96 -96 d s 334 719 m -96 -96 d s 334 767 m -96 -96 d s 334 815
 m -96 -96 d s 334 863 m -96 -96 d s 334 911 m -96 -96 d s 334 959 m -96 -96 d s 334 1007 m -96 -95 d s 305 1027 m -67 -67 d s 286 1056 m -48 -48 d s 286 1104 m -48 -48 d s 286 1152 m -48 -48 d s 259 1173 m -21 -21 d s 0 lw 3 lw 238 1173 m 48 X -146
 Y 48 X -825 Y 48 X 4 Y 48 X 1 Y 48 X -5 Y 431 X 29 Y 48 X -25 Y 48 X -2 Y 48 X -2 Y 47 X 2 Y 48 X -2 Y 192 X 4 Y 48 X 9 Y 48 X 48 Y 48 X -16 Y 48 X -41 Y 47 X 9 Y 48 X -9 Y 48 X 415 Y 48 X -296 Y 48 X -123 Y 144 X 11 Y 48 X 1 Y 48 X -3 Y 48 X 10 Y
 47 X 117 Y 48 X -136 Y s 0.490196 0.545098 0.615686 c 0.95 0.95 0.95 c 0.490196 0.545098 0.615686 c 952 202 1202 1312 bl 1202 1312 m 952 X s 2154 1312 m 202 Y s 2154 1514 m -952 X s 1202 1514 m -202 Y s black
 gsave  2268 1682 0 0 C 1293.66 1445.86 t 0 r /Times-Italic findfont 57.0734 sf 0 0 m (Signal \(training sample\)) show NC gr  0 0 0.933333 c /w 21 def /w2 {w 2 div} def /w3 {w 3 div} def 1250 1463 m20 black
 gsave  2268 1682 0 0 C 1293.66 1350.74 t 0 r /Times-Italic findfont 57.0734 sf 0 0 m (Background \(training sample\)) show NC gr  1 0 0 c 1250 1362 m20 0 0 0.933333 c 1 1 1 c 0 0 0.933333 c 262 654 m 9 Y s 262 678 m 9 Y s 238 671 m 16 X s 270 671 m
 16 X s 254 654 m 16 X s 254 687 m 16 X s 238 663 m 15 Y s 286 663 m 15 Y s 262 671 m20 310 767 m 11 Y s 310 793 m 11 Y s 286 786 m 16 X s 318 786 m 16 X s 302 767 m 16 X s 302 804 m 16 X s 286 778 m 15 Y s 334 778 m 15 Y s 310 786 m20 382 224 m 16 X
 s 413 224 m 17 X s 382 216 m 16 Y s 430 216 m 16 Y s 406 224 m20 430 234 m 16 X s 461 234 m 17 X s 430 227 m 15 Y s 478 227 m 15 Y s 454 234 m20 909 207 m 16 X s 940 207 m 17 X s 909 199 m 15 Y s 957 199 m 15 Y s 933 207 m20 957 206 m 16 X s 988 206
 m 17 X s 957 198 m 16 Y s 1005 198 m 16 Y s 981 206 m20 1005 204 m 16 X s 1036 204 m 17 X s 1005 196 m 15 Y s 1053 196 m 15 Y s 1029 204 m20 1053 207 m 16 X s 1084 207 m 16 X s 1053 200 m 15 Y s 1100 200 m 15 Y s 1076 207 m20 1100 208 m 17 X s 1132
 208 m 16 X s 1100 200 m 15 Y s 1148 200 m 15 Y s 1124 208 m20 1388 211 m 16 X s 1419 211 m 17 X s 1388 203 m 15 Y s 1436 203 m 15 Y s 1412 211 m20 1436 268 m 16 X s 1467 268 m 17 X s 1436 260 m 16 Y s 1484 260 m 16 Y s 1460 268 m20 1484 274 m 16 X s
 1515 274 m 17 X s 1484 266 m 16 Y s 1532 266 m 16 Y s 1508 274 m20 1532 202 m 16 X s 1563 202 m 16 X s 1532 195 m 15 Y s 1579 195 m 15 Y s 1556 202 m20 1579 209 m 17 X s 1611 209 m 16 X s 1579 201 m 16 Y s 1627 201 m 16 Y s 1603 209 m20 1627 226 m
 17 X s 1659 226 m 16 X s 1627 218 m 16 Y s 1675 218 m 16 Y s 1651 226 m20 1699 585 m 7 Y s 1699 608 m 8 Y s 1675 600 m 17 X s 1707 600 m 16 X s 1692 585 m 15 X s 1692 616 m 15 X s 1675 592 m 16 Y s 1723 592 m 16 Y s 1699 600 m20 1747 400 m 3 Y s
 1747 418 m 4 Y s 1723 411 m 17 X s 1755 411 m 16 X s 1740 400 m 15 X s 1740 422 m 15 X s 1723 403 m 15 Y s 1771 403 m 15 Y s 1747 411 m20 1771 204 m 16 X s 1803 204 m 16 X s 1771 196 m 15 Y s 1819 196 m 15 Y s 1795 204 m20 1915 216 m 16 X s 1946 216
 m 17 X s 1915 208 m 15 Y s 1963 208 m 15 Y s 1939 216 m20 1963 227 m 16 X s 1994 227 m 17 X s 1963 219 m 15 Y s 2011 219 m 15 Y s 1987 227 m20 2011 210 m 16 X s 2042 210 m 17 X s 2011 202 m 15 Y s 2059 202 m 15 Y s 2035 210 m20 2059 225 m 16 X s
 2090 225 m 16 X s 2059 218 m 15 Y s 2106 218 m 15 Y s 2082 225 m20 2130 913 m 13 Y s 2130 941 m 14 Y s 2106 934 m 17 X s 2138 934 m 16 X s 2123 913 m 15 X s 2123 955 m 15 X s 2106 926 m 15 Y s 2154 926 m 15 Y s 2130 934 m20 1 0 0 c 1 1 1 c 1 0 0 c
 262 1185 m 18 Y s 262 1218 m 19 Y s 238 1211 m 16 X s 270 1211 m 16 X s 254 1185 m 16 X s 254 1237 m 16 X s 238 1203 m 15 Y s 286 1203 m 15 Y s 262 1211 m20 310 971 m 15 Y s 310 1002 m 15 Y s 286 994 m 16 X s 318 994 m 16 X s 302 971 m 16 X s 302
 1017 m 16 X s 286 986 m 16 Y s 334 986 m 16 Y s 310 994 m20 382 207 m 16 X s 413 207 m 17 X s 382 200 m 15 Y s 430 200 m 15 Y s 406 207 m20 430 202 m 16 X s 461 202 m 17 X s 430 195 m 15 Y s 478 195 m 15 Y s 454 202 m20 909 228 m 16 X s 940 228 m 17
 X s 909 220 m 16 Y s 957 220 m 16 Y s 933 228 m20 957 205 m 16 X s 988 205 m 17 X s 957 198 m 15 Y s 1005 198 m 15 Y s 981 205 m20 1005 202 m 16 X s 1036 202 m 17 X s 1005 195 m 15 Y s 1053 195 m 15 Y s 1029 202 m20 1100 207 m 17 X s 1132 207 m 16 X
 s 1100 200 m 15 Y s 1148 200 m 15 Y s 1124 207 m20 1340 208 m 16 X s 1371 208 m 17 X s 1340 200 m 15 Y s 1388 200 m 15 Y s 1364 208 m20 1388 219 m 16 X s 1419 219 m 17 X s 1388 211 m 15 Y s 1436 211 m 15 Y s 1412 219 m20 1436 268 m 16 X s 1467 268 m
 17 X s 1436 260 m 16 Y s 1484 260 m 16 Y s 1460 268 m20 1484 257 m 16 X s 1515 257 m 17 X s 1484 250 m 15 Y s 1532 250 m 15 Y s 1508 257 m20 1532 205 m 16 X s 1563 205 m 16 X s 1532 198 m 15 Y s 1579 198 m 15 Y s 1556 205 m20 1579 213 m 17 X s 1611
 213 m 16 X s 1579 206 m 15 Y s 1627 206 m 15 Y s 1603 213 m20 1627 206 m 17 X s 1659 206 m 16 X s 1627 198 m 15 Y s 1675 198 m 15 Y s 1651 206 m20 1699 612 m 9 Y s 1699 636 m 10 Y s 1675 629 m 17 X s 1707 629 m 16 X s 1692 612 m 15 X s 1692 646 m 15
 X s 1675 621 m 15 Y s 1723 621 m 15 Y s 1699 629 m20 1747 300 m 1 Y s 1747 316 m 1 Y s 1723 309 m 17 X s 1755 309 m 16 X s 1740 300 m 15 X s 1740 317 m 15 X s 1723 301 m 15 Y s 1771 301 m 15 Y s 1747 309 m20 1915 210 m 16 X s 1946 210 m 17 X s 1915
 202 m 15 Y s 1963 202 m 15 Y s 1939 210 m20 1963 215 m 16 X s 1994 215 m 17 X s 1963 208 m 15 Y s 2011 208 m 15 Y s 1987 215 m20 2011 220 m 16 X s 2042 220 m 17 X s 2011 212 m 15 Y s 2059 212 m 15 Y s 2035 220 m20 2059 220 m 16 X s 2090 220 m 16 X s
 2059 212 m 15 Y s 2106 212 m 15 Y s 2082 220 m20 2130 315 m 2 Y s 2130 332 m 1 Y s 2106 324 m 17 X s 2138 324 m 16 X s 2123 315 m 15 X s 2123 333 m 15 X s 2106 317 m 15 Y s 2154 317 m 15 Y s 2130 324 m20 black
 gsave  2268 1682 0 0 C 272.126 1244.5 t 0 r /Helvetica-Bold findfont 49.4636 sf 0 0 m (Kolmogorov\255Smirnov test: signal \(background\) probability = 0.967 \(0.819\)) show NC gr  238 202 m 1916 X s 238 244 m -42 Y s 334 223 m -21 Y s 430 223 m -21
 Y s 526 223 m -21 Y s 621 223 m -21 Y s 717 244 m -42 Y s 813 223 m -21 Y s 909 223 m -21 Y s 1005 223 m -21 Y s 1100 223 m -21 Y s 1196 244 m -42 Y s 1292 223 m -21 Y s 1388 223 m -21 Y s 1484 223 m -21 Y s 1579 223 m -21 Y s 1675 244 m -42 Y s
 1771 223 m -21 Y s 1867 223 m -21 Y s 1963 223 m -21 Y s 2059 223 m -21 Y s 2154 244 m -42 Y s 2154 244 m -42 Y s 238 1514 m 1916 X s 238 1471 m 43 Y s 334 1492 m 22 Y s 430 1492 m 22 Y s 526 1492 m 22 Y s 621 1492 m 22 Y s 717 1471 m 43 Y s 813
 1492 m 22 Y s 909 1492 m 22 Y s 1005 1492 m 22 Y s 1100 1492 m 22 Y s 1196 1471 m 43 Y s 1292 1492 m 22 Y s 1388 1492 m 22 Y s 1484 1492 m 22 Y s 1579 1492 m 22 Y s 1675 1471 m 43 Y s 1771 1492 m 22 Y s 1867 1492 m 22 Y s 1963 1492 m 22 Y s 2059
 1492 m 22 Y s 2154 1471 m 43 Y s 2154 1471 m 43 Y s 238 202 m 1312 Y s 291 202 m -53 X s 265 229 m -27 X s 265 256 m -27 X s 265 283 m -27 X s 265 311 m -27 X s 291 338 m -53 X s 265 365 m -27 X s 265 392 m -27 X s 265 419 m -27 X s 265 447 m -27 X
 s 291 474 m -53 X s 265 501 m -27 X s 265 528 m -27 X s 265 555 m -27 X s 265 583 m -27 X s 291 610 m -53 X s 265 637 m -27 X s 265 664 m -27 X s 265 691 m -27 X s 265 719 m -27 X s 291 746 m -53 X s 265 773 m -27 X s 265 800 m -27 X s 265 827 m -27
 X s 265 855 m -27 X s 291 882 m -53 X s 265 909 m -27 X s 265 936 m -27 X s 265 963 m -27 X s 265 991 m -27 X s 291 1018 m -53 X s 265 1045 m -27 X s 265 1072 m -27 X s 265 1099 m -27 X s 265 1127 m -27 X s 291 1154 m -53 X s 265 1181 m -27 X s 265
 1208 m -27 X s 265 1235 m -27 X s 265 1263 m -27 X s 291 1290 m -53 X s 265 1317 m -27 X s 265 1344 m -27 X s 265 1371 m -27 X s 265 1399 m -27 X s 291 1426 m -53 X s 291 1426 m -53 X s 265 1453 m -27 X s 265 1480 m -27 X s 265 1507 m -27 X s 2154
 202 m 1312 Y s 2101 202 m 53 X s 2128 229 m 26 X s 2128 256 m 26 X s 2128 283 m 26 X s 2128 311 m 26 X s 2101 338 m 53 X s 2128 365 m 26 X s 2128 392 m 26 X s 2128 419 m 26 X s 2128 447 m 26 X s 2101 474 m 53 X s 2128 501 m 26 X s 2128 528 m 26 X s
 2128 555 m 26 X s 2128 583 m 26 X s 2101 610 m 53 X s 2128 637 m 26 X s 2128 664 m 26 X s 2128 691 m 26 X s 2128 719 m 26 X s 2101 746 m 53 X s 2128 773 m 26 X s 2128 800 m 26 X s 2128 827 m 26 X s 2128 855 m 26 X s 2101 882 m 53 X s 2128 909 m 26 X
 s 2128 936 m 26 X s 2128 963 m 26 X s 2128 991 m 26 X s 2101 1018 m 53 X s 2128 1045 m 26 X s 2128 1072 m 26 X s 2128 1099 m 26 X s 2128 1127 m 26 X s 2101 1154 m 53 X s 2128 1181 m 26 X s 2128 1208 m 26 X s 2128 1235 m 26 X s 2128 1263 m 26 X s
 2101 1290 m 53 X s 2128 1317 m 26 X s 2128 1344 m 26 X s 2128 1371 m 26 X s 2128 1399 m 26 X s 2101 1426 m 53 X s 2101 1426 m 53 X s 2128 1453 m 26 X s 2128 1480 m 26 X s 2128 1507 m 26 X s
 gsave  2268 1682 0 0 C 2211.02 193.403 t 90 r /Helvetica-Bold findfont 45.6587 sf 0 0 m (U/O\255flow \(S,B\): \(0.0, 0.0\)% / \(0.0, 0.0\)%) show NC gr  0.490196 0.545098 0.615686 c 0.364706 0.419608 0.490196 c 1587 96 23 1577 bf 0.490196 0.545098
 0.615686 c 23 1577 m 1587 X s 1610 1577 m 96 Y s 1610 1673 m -1587 X s 23 1673 m -96 Y s 1 1 1 c black 1 1 1 c
 gsave  2268 1682 0 0 C 72.293 1605.67 t 0 r /Helvetica-Bold findfont 68.4881 sf 0 0 m (TMVA overtraining check for classifier: BDTB) show NC gr 
 gr  gr showpage
end
%%EOF
