%!PS-Adobe-2.0 EPSF-2.0
%%BoundingBox:  0 0 567 420
%%Title: plots/overtrain_MLPBFGS.eps: TMVA comparison MLPBFGS
%%Creator: ROOT Version 5.34/09
%%CreationDate: Thu Jan  2 18:34:05 2014
%%EndComments
%%BeginProlog
80 dict begin
/s {stroke} def /l {lineto} def /m {moveto} def /t {translate} def
/r {rotate} def /rl {roll}  def /R {repeat} def
/d {rlineto} def /rm {rmoveto} def /gr {grestore} def /f {eofill} def
/c {setrgbcolor} def /black {0 setgray} def /sd {setdash} def
/cl {closepath} def /sf {scalefont setfont} def /lw {setlinewidth} def
/box {m dup 0 exch d exch 0 d 0 exch neg d cl} def
/NC{systemdict begin initclip end}def/C{NC box clip newpath}def
/bl {box s} def /bf {box f} def /Y { 0 exch d} def /X { 0 d} def 
/K {{pop pop 0 moveto} exch kshow} bind def
/ita {/ang 15 def gsave [1 0 ang dup sin exch cos div 1 0 0] concat} def 
/mp {newpath /y exch def /x exch def} def
/side {[w .77 mul w .23 mul] .385 w mul sd w 0 l currentpoint t -144 r} def
/mr {mp x y w2 0 360 arc} def /m24 {mr s} def /m20 {mr f} def
/mb {mp x y w2 add m w2 neg 0 d 0 w neg d w 0 d 0 w d cl} def
/mt {mp x y w2 add m w2 neg w neg d w 0 d cl} def
/m21 {mb f} def /m25 {mb s} def /m22 {mt f} def /m26{mt s} def
/m23 {mp x y w2 sub m w2 w d w neg 0 d cl f} def
/m27 {mp x y w2 add m w3 neg w2 neg d w3 w2 neg d w3 w2 d cl s} def
/m28 {mp x w2 sub y w2 sub w3 add m w3 0 d  0 w3 neg d w3 0 d 0 w3 d w3 0 d  0 w3 d w3 neg 0 d 0 w3 d w3 neg 0 d 0 w3 neg d w3 neg 0 d cl s } def
/m29 {mp gsave x w2 sub y w2 add w3 sub m currentpoint t 4 {side} repeat cl fill gr} def
/m30 {mp gsave x w2 sub y w2 add w3 sub m currentpoint t 4 {side} repeat cl s gr} def
/m31 {mp x y w2 sub m 0 w d x w2 sub y m w 0 d x w2 sub y w2 add m w w neg d x w2 sub y w2 sub m w w d s} def
/m32 {mp x y w2 sub m w2 w d w neg 0 d cl s} def
/m33 {mp x y w2 add m w3 neg w2 neg d w3 w2 neg d w3 w2 d cl f} def
/m34 {mp x w2 sub y w2 sub w3 add m w3 0 d  0 w3 neg d w3 0 d 0 w3 d w3 0 d  0 w3 d w3 neg 0 d 0 w3 d w3 neg 0 d 0 w3 neg d w3 neg 0 d cl f } def
/m2 {mp x y w2 sub m 0 w d x w2 sub y m w 0 d s} def
/m5 {mp x w2 sub y w2 sub m w w d x w2 sub y w2 add m w w neg d s} def
/reEncode {exch findfont dup length dict begin {1 index /FID eq  {pop pop} {def} ifelse } forall /Encoding exch def currentdict end dup /FontName get exch definefont pop } def [/Times-Bold /Times-Italic /Times-BoldItalic /Helvetica /Helvetica-Oblique
 /Helvetica-Bold /Helvetica-BoldOblique /Courier /Courier-Oblique /Courier-Bold /Courier-BoldOblique /Times-Roman /AvantGarde-Book /AvantGarde-BookOblique /AvantGarde-Demi /AvantGarde-DemiOblique /Bookman-Demi /Bookman-DemiItalic /Bookman-Light
 /Bookman-LightItalic /Helvetica-Narrow /Helvetica-Narrow-Bold /Helvetica-Narrow-BoldOblique /Helvetica-Narrow-Oblique /NewCenturySchlbk-Roman /NewCenturySchlbk-Bold /NewCenturySchlbk-BoldItalic /NewCenturySchlbk-Italic /Palatino-Bold
 /Palatino-BoldItalic /Palatino-Italic /Palatino-Roman ] {ISOLatin1Encoding reEncode } forall
%%EndProlog
%%BeginSetup
%%EndSetup
newpath  gsave  .25 .25 scale  gsave  0 0 t 0.490196 0.545098 0.615686 c[  ] 0 sd 3 lw 0.941176 0.941176 0.941176 c 2268 1682 0 0 bf black 1 1 0.992157 c 1916 1312 238 202 bf black 1916 1312 238 202 bl 1 1 0.992157 c 1916 1312 238 202 bf black 1916
 1312 238 202 bl 238 202 m 1916 X s
 gsave  2268 1682 0 0 C 1457.27 30.4391 t 0 r /Helvetica-Bold findfont 72.293 sf 0 0 m (MLPBFGS response) show NC gr  301 244 m -42 Y s 361 223 m -21 Y s 421 223 m -21 Y s 480 223 m -21 Y s 540 244 m -42 Y s 600 223 m -21 Y s 660 223 m -21 Y s 720
 223 m -21 Y s 780 244 m -42 Y s 840 223 m -21 Y s 900 223 m -21 Y s 960 223 m -21 Y s 1020 244 m -42 Y s 1080 223 m -21 Y s 1139 223 m -21 Y s 1199 223 m -21 Y s 1259 244 m -42 Y s 1319 223 m -21 Y s 1379 223 m -21 Y s 1439 223 m -21 Y s 1499 244 m
 -42 Y s 1559 223 m -21 Y s 1619 223 m -21 Y s 1679 223 m -21 Y s 1739 244 m -42 Y s 1799 223 m -21 Y s 1858 223 m -21 Y s 1918 223 m -21 Y s 1978 244 m -42 Y s 301 244 m -42 Y s 241 223 m -21 Y s 1978 244 m -42 Y s 2038 223 m -21 Y s 2098 223 m -21
 Y s
 gsave  2268 1682 0 0 C 243.513 129.366 t 0 r /Helvetica-Bold findfont 64.6832 sf 0 0 m (\2550.2) show NC gr 
 gsave  2268 1682 0 0 C 521.27 129.366 t 0 r /Helvetica-Bold findfont 64.6832 sf 0 0 m (0) show NC gr 
 gsave  2268 1682 0 0 C 734.344 129.366 t 0 r /Helvetica-Bold findfont 64.6832 sf 0 0 m (0.2) show NC gr 
 gsave  2268 1682 0 0 C 970.248 129.366 t 0 r /Helvetica-Bold findfont 64.6832 sf 0 0 m (0.4) show NC gr 
 gsave  2268 1682 0 0 C 1209.96 129.366 t 0 r /Helvetica-Bold findfont 64.6832 sf 0 0 m (0.6) show NC gr 
 gsave  2268 1682 0 0 C 1449.66 129.366 t 0 r /Helvetica-Bold findfont 64.6832 sf 0 0 m (0.8) show NC gr 
 gsave  2268 1682 0 0 C 1719.81 129.366 t 0 r /Helvetica-Bold findfont 64.6832 sf 0 0 m (1) show NC gr 
 gsave  2268 1682 0 0 C 1929.08 129.366 t 0 r /Helvetica-Bold findfont 64.6832 sf 0 0 m (1.2) show NC gr  238 1514 m 1916 X s 301 1471 m 43 Y s 361 1492 m 22 Y s 421 1492 m 22 Y s 480 1492 m 22 Y s 540 1471 m 43 Y s 600 1492 m 22 Y s 660 1492 m 22 Y
 s 720 1492 m 22 Y s 780 1471 m 43 Y s 840 1492 m 22 Y s 900 1492 m 22 Y s 960 1492 m 22 Y s 1020 1471 m 43 Y s 1080 1492 m 22 Y s 1139 1492 m 22 Y s 1199 1492 m 22 Y s 1259 1471 m 43 Y s 1319 1492 m 22 Y s 1379 1492 m 22 Y s 1439 1492 m 22 Y s 1499
 1471 m 43 Y s 1559 1492 m 22 Y s 1619 1492 m 22 Y s 1679 1492 m 22 Y s 1739 1471 m 43 Y s 1799 1492 m 22 Y s 1858 1492 m 22 Y s 1918 1492 m 22 Y s 1978 1471 m 43 Y s 301 1471 m 43 Y s 241 1492 m 22 Y s 1978 1471 m 43 Y s 2038 1492 m 22 Y s 2098 1492
 m 22 Y s 238 202 m 1312 Y s
 gsave  2268 1682 0 0 C 64.6832 1430.64 t 90 r /Helvetica-Bold findfont 72.293 sf 0 0 m (dx) show NC gr 
 gsave  2268 1682 0 0 C 30.4391 1411.62 t 90 r /Helvetica-Bold findfont 45.6587 sf 0 0 m ( ) show NC gr 
 gsave  2268 1682 0 0 C 64.6832 1388.79 t 90 r /Helvetica-Bold findfont 72.293 sf 0 0 m (/) show NC gr 
 gsave  2268 1682 0 0 C 30.4391 1369.76 t 90 r /Helvetica-Bold findfont 45.6587 sf 0 0 m ( ) show NC gr 
 gsave  2268 1682 0 0 C 60.8783 1095.81 t 90 r /Helvetica-Bold findfont 72.293 sf 0 0 m (\(1/N\) dN) show NC gr  291 202 m -53 X s 265 242 m -27 X s 265 283 m -27 X s 265 323 m -27 X s 265 363 m -27 X s 291 404 m -53 X s 265 444 m -27 X s 265 485 m
 -27 X s 265 525 m -27 X s 265 566 m -27 X s 291 606 m -53 X s 265 646 m -27 X s 265 687 m -27 X s 265 727 m -27 X s 265 768 m -27 X s 291 808 m -53 X s 265 848 m -27 X s 265 889 m -27 X s 265 929 m -27 X s 265 970 m -27 X s 291 1010 m -53 X s 265
 1051 m -27 X s 265 1091 m -27 X s 265 1131 m -27 X s 265 1172 m -27 X s 291 1212 m -53 X s 265 1253 m -27 X s 265 1293 m -27 X s 265 1333 m -27 X s 265 1374 m -27 X s 291 1414 m -53 X s 291 1414 m -53 X s 265 1455 m -27 X s 265 1495 m -27 X s
 gsave  2268 1682 0 0 C 175.025 178.83 t 0 r /Helvetica-Bold findfont 64.6832 sf 0 0 m (0) show NC gr 
 gsave  2268 1682 0 0 C 121.757 380.489 t 0 r /Helvetica-Bold findfont 64.6832 sf 0 0 m (0.5) show NC gr 
 gsave  2268 1682 0 0 C 182.635 582.149 t 0 r /Helvetica-Bold findfont 64.6832 sf 0 0 m (1) show NC gr 
 gsave  2268 1682 0 0 C 121.757 783.808 t 0 r /Helvetica-Bold findfont 64.6832 sf 0 0 m (1.5) show NC gr 
 gsave  2268 1682 0 0 C 175.025 985.467 t 0 r /Helvetica-Bold findfont 64.6832 sf 0 0 m (2) show NC gr 
 gsave  2268 1682 0 0 C 121.757 1187.13 t 0 r /Helvetica-Bold findfont 64.6832 sf 0 0 m (2.5) show NC gr 
 gsave  2268 1682 0 0 C 175.025 1388.79 t 0 r /Helvetica-Bold findfont 64.6832 sf 0 0 m (3) show NC gr  2154 202 m 1312 Y s 2101 202 m 53 X s 2128 242 m 26 X s 2128 283 m 26 X s 2128 323 m 26 X s 2128 363 m 26 X s 2101 404 m 53 X s 2128 444 m 26 X s
 2128 485 m 26 X s 2128 525 m 26 X s 2128 566 m 26 X s 2101 606 m 53 X s 2128 646 m 26 X s 2128 687 m 26 X s 2128 727 m 26 X s 2128 768 m 26 X s 2101 808 m 53 X s 2128 848 m 26 X s 2128 889 m 26 X s 2128 929 m 26 X s 2128 970 m 26 X s 2101 1010 m 53
 X s 2128 1051 m 26 X s 2128 1091 m 26 X s 2128 1131 m 26 X s 2128 1172 m 26 X s 2101 1212 m 53 X s 2128 1253 m 26 X s 2128 1293 m 26 X s 2128 1333 m 26 X s 2128 1374 m 26 X s 2101 1414 m 53 X s 2101 1414 m 53 X s 2128 1455 m 26 X s 2128 1495 m 26 X
 s 0.490196 0.545098 0.615686 c 0.95 0.95 0.95 c 0.490196 0.545098 0.615686 c 907 202 238 1312 bl 238 1312 m 907 X s 1145 1312 m 202 Y s 1145 1514 m -907 X s 238 1514 m -202 Y s black
 gsave  2268 1682 0 0 C 418.538 1445.86 t 0 r /Times-Italic findfont 57.0734 sf 0 0 m (Signal \(test sample\)) show NC gr  0.49 0.6 0.82 c 265 1428 m 127 X 70 Y -127 X f 0 0 0.933333 c 265 1498 m 127 X s 265 1428 m 127 X s 392 1428 m 70 Y s 265 1428
 m 70 Y s black
 gsave  2268 1682 0 0 C 418.538 1350.74 t 0 r /Times-Italic findfont 57.0734 sf 0 0 m (Background \(test sample\)) show NC gr  1 0 0 c 392 1354 m -27 -27 d s 387 1398 m -70 -71 d s 339 1398 m -70 -71 d s 291 1398 m -26 -26 d s 0 lw 0 0 0.933333 c 1 0
 0 c 3 lw 265 1398 m 127 X s 265 1327 m 127 X s 392 1327 m 71 Y s 265 1327 m 71 Y s 0 0 0.933333 c 0.49 0.6 0.82 c black 0.49 0.6 0.82 c 238 202 m 288 X 7 Y 47 X 2 Y 48 X 38 Y 48 X -34 Y 48 X 23 Y 48 X 35 Y 48 X 97 Y 48 X 45 Y 48 X 76 Y 48 X 125 Y 48
 X 72 Y 48 X 2 Y 47 X 148 Y 48 X -14 Y 48 X 246 Y 48 X -26 Y 48 X -56 Y 48 X -220 Y 48 X -31 Y 48 X -85 Y 48 X 69 Y 48 X -71 Y 47 X -164 Y 48 X 9 Y 48 X -31 Y 48 X -72 Y 96 X -92 Y 48 X -13 Y 48 X -20 Y 48 X -32 Y 48 X -18 Y 48 X 9 Y 47 X 27 Y 48 X
 -51 Y f 0 0 0.933333 c 0.49 0.6 0.82 c 0 0 0.933333 c 238 202 m 288 X 7 Y 47 X 2 Y 48 X 38 Y 48 X -34 Y 48 X 23 Y 48 X 35 Y 48 X 97 Y 48 X 45 Y 48 X 76 Y 48 X 125 Y 48 X 72 Y 48 X 2 Y 47 X 148 Y 48 X -14 Y 48 X 246 Y 48 X -26 Y 48 X -56 Y 48 X -220
 Y 48 X -31 Y 48 X -85 Y 48 X 69 Y 48 X -71 Y 47 X -164 Y 48 X 9 Y 48 X -31 Y 48 X -72 Y 96 X -92 Y 48 X -13 Y 48 X -20 Y 48 X -32 Y 48 X -18 Y 48 X 9 Y 47 X 27 Y 48 X -51 Y s 1 0 0 c black 1 0 0 c 2126 202 m s 2078 202 m s 2030 202 m s 1982 202 m s
 1936 204 m -2 -2 d s 1886 202 m s 1852 217 m -15 -15 d s 1797 209 m -8 -7 d s 1746 207 m -5 -5 d s 1715 224 m -22 -22 d s 1667 224 m -22 -22 d s 1627 232 m -30 -30 d s 1596 249 m -47 -47 d s 1579 281 m -78 -79 d s 1545 294 m -92 -92 d s 1509 306 m
 -105 -104 d s 1484 329 m -128 -127 d s 1457 351 m -149 -149 d s 1436 377 m -176 -175 d s 1436 426 m -224 -224 d s 1395 433 m -7 -7 d s 1355 393 m -191 -191 d s 1340 426 m -224 -224 d s 1340 474 m -272 -272 d s 1340 522 m -320 -320 d s 1340 570 m
 -368 -368 d s 1340 618 m -417 -416 d s 1328 654 m -453 -452 d s 1292 667 m -465 -465 d s 1259 682 m -480 -480 d s 1244 715 m -513 -513 d s 1244 763 m -561 -561 d s 1244 811 m -609 -609 d s 1244 859 m -657 -657 d s 1244 907 m -705 -705 d s 1214 925 m
 -18 -17 d s 1152 863 m -531 -530 d s 600 311 m -110 -109 d s 1139 898 m -326 -326 d s 810 570 m -189 -189 d s 557 316 m -115 -114 d s 1100 908 m -287 -287 d s 765 573 m -96 -96 d s 628 436 m -7 -7 d s 526 333 m -132 -131 d s 1100 956 m -191 -192 d s
 901 756 m -88 -87 d s 765 621 m -48 -48 d s 679 535 m -10 -10 d s 526 381 m -48 -48 d s 453 309 m -71 -71 d s 366 222 m -20 -20 d s 1099 1003 m -190 -190 d s 833 736 m -20 -19 d s 731 635 m -14 -14 d s 494 398 m -16 -17 d s 417 321 m -35 -35 d s 320
 224 m -22 -22 d s 1053 1004 m -48 -48 d s 974 925 m -17 -16 d s 926 878 m -17 -17 d s 267 219 m -17 -17 d s 1042 1042 m -37 -37 d s 0 lw 3 lw 238 219 m 48 X 5 Y 48 X -2 Y 48 X 99 Y 48 X -12 Y 48 X 89 Y 48 X -82 Y 47 X -5 Y 48 X 125 Y 48 X 99 Y 48 X
 100 Y 48 X -65 Y 48 X 166 Y 48 X 20 Y 48 X 122 Y 48 X 47 Y 48 X 117 Y 48 X -39 Y 47 X -105 Y 48 X -35 Y 48 X 62 Y 48 X -243 Y 48 X -28 Y 48 X -261 Y 48 X 40 Y 48 X -82 Y 48 X -45 Y 48 X -12 Y 47 X -45 Y 48 X -25 Y 96 X -17 Y 48 X 2 Y 48 X 8 Y 48 X
 -15 Y 48 X 2 Y 48 X -2 Y 191 X s 0.490196 0.545098 0.615686 c 0.95 0.95 0.95 c 0.490196 0.545098 0.615686 c 952 202 1202 1312 bl 1202 1312 m 952 X s 2154 1312 m 202 Y s 2154 1514 m -952 X s 1202 1514 m -202 Y s black
 gsave  2268 1682 0 0 C 1293.66 1445.86 t 0 r /Times-Italic findfont 57.0734 sf 0 0 m (Signal \(training sample\)) show NC gr  0 0 0.933333 c /w 21 def /w2 {w 2 div} def /w3 {w 3 div} def 1250 1463 m20 black
 gsave  2268 1682 0 0 C 1293.66 1350.74 t 0 r /Times-Italic findfont 57.0734 sf 0 0 m (Background \(training sample\)) show NC gr  1 0 0 c 1250 1362 m20 0 0 0.933333 c 1 1 1 c 0 0 0.933333 c 526 206 m 16 X s 557 206 m 16 X s 526 199 m 15 Y s 573 199
 m 15 Y s 549 206 m20 573 211 m 17 X s 605 211 m 16 X s 573 203 m 15 Y s 621 203 m 15 Y s 597 211 m20 645 235 m 2 Y s 645 252 m 2 Y s 621 244 m 17 X s 653 244 m 16 X s 638 235 m 15 X s 638 254 m 15 X s 621 237 m 15 Y s 669 237 m 15 Y s 645 244 m20
 669 222 m 17 X s 701 222 m 16 X s 669 214 m 16 Y s 717 214 m 16 Y s 693 222 m20 741 239 m 2 Y s 741 257 m 2 Y s 717 249 m 17 X s 749 249 m 16 X s 734 239 m 15 X s 734 259 m 15 X s 717 241 m 16 Y s 765 241 m 16 Y s 741 249 m20 789 257 m 4 Y s 789 277
 m 4 Y s 765 269 m 16 X s 797 269 m 16 X s 781 257 m 16 X s 781 281 m 16 X s 765 261 m 16 Y s 813 261 m 16 Y s 789 269 m20 837 332 m 10 Y s 837 357 m 11 Y s 813 350 m 16 X s 845 350 m 16 X s 829 332 m 16 X s 829 368 m 16 X s 813 342 m 15 Y s 861 342
 m 15 Y s 837 350 m20 885 370 m 13 Y s 885 398 m 13 Y s 861 390 m 16 X s 892 390 m 17 X s 877 370 m 15 X s 877 411 m 15 X s 861 383 m 15 Y s 909 383 m 15 Y s 885 390 m20 933 453 m 17 Y s 933 485 m 17 Y s 909 478 m 16 X s 940 478 m 17 X s 925 453 m 15
 X s 925 502 m 15 X s 909 470 m 15 Y s 957 470 m 15 Y s 933 478 m20 981 509 m 19 Y s 981 544 m 19 Y s 957 536 m 16 X s 988 536 m 17 X s 973 509 m 15 X s 973 563 m 15 X s 957 528 m 16 Y s 1005 528 m 16 Y s 981 536 m20 1029 571 m 22 Y s 1029 609 m 22 Y
 s 1005 601 m 16 X s 1036 601 m 17 X s 1021 571 m 15 X s 1021 631 m 15 X s 1005 593 m 16 Y s 1053 593 m 16 Y s 1029 601 m20 1076 662 m 26 Y s 1076 703 m 25 Y s 1053 695 m 16 X s 1084 695 m 16 X s 1069 662 m 15 X s 1069 728 m 15 X s 1053 688 m 15 Y s
 1100 688 m 15 Y s 1076 695 m20 1124 868 m 33 Y s 1124 916 m 32 Y s 1100 908 m 17 X s 1132 908 m 16 X s 1117 868 m 15 X s 1117 948 m 15 X s 1100 901 m 15 Y s 1148 901 m 15 Y s 1124 908 m20 1172 716 m 28 Y s 1172 759 m 27 Y s 1148 751 m 17 X s 1180
 751 m 16 X s 1165 716 m 15 X s 1165 786 m 15 X s 1148 744 m 15 Y s 1196 744 m 15 Y s 1172 751 m20 1220 1163 m 40 Y s 1220 1218 m 40 Y s 1196 1211 m 17 X s 1228 1211 m 16 X s 1213 1163 m 15 X s 1213 1258 m 15 X s 1196 1203 m 15 Y s 1244 1203 m 15 Y s
 1220 1211 m20 1268 973 m 35 Y s 1268 1023 m 36 Y s 1244 1016 m 16 X s 1276 1016 m 16 X s 1260 973 m 16 X s 1260 1059 m 16 X s 1244 1008 m 15 Y s 1292 1008 m 15 Y s 1268 1016 m20 1316 849 m 31 Y s 1316 896 m 31 Y s 1292 888 m 16 X s 1324 888 m 16 X s
 1308 849 m 16 X s 1308 927 m 16 X s 1292 880 m 16 Y s 1340 880 m 16 Y s 1316 888 m20 1364 731 m 28 Y s 1364 774 m 28 Y s 1340 767 m 16 X s 1371 767 m 17 X s 1356 731 m 15 X s 1356 802 m 15 X s 1340 759 m 15 Y s 1388 759 m 15 Y s 1364 767 m20 1412
 790 m 30 Y s 1412 835 m 30 Y s 1388 827 m 16 X s 1419 827 m 17 X s 1404 790 m 15 X s 1404 865 m 15 X s 1388 820 m 15 Y s 1436 820 m 15 Y s 1412 827 m20 1460 701 m 27 Y s 1460 743 m 27 Y s 1436 735 m 16 X s 1467 735 m 17 X s 1452 701 m 15 X s 1452
 770 m 15 X s 1436 728 m 15 Y s 1484 728 m 15 Y s 1460 735 m20 1508 675 m 26 Y s 1508 716 m 26 Y s 1484 709 m 16 X s 1515 709 m 17 X s 1500 675 m 15 X s 1500 742 m 15 X s 1484 701 m 15 Y s 1532 701 m 15 Y s 1508 709 m20 1556 616 m 24 Y s 1556 656 m
 24 Y s 1532 648 m 16 X s 1563 648 m 16 X s 1548 616 m 15 X s 1548 680 m 15 X s 1532 640 m 16 Y s 1579 640 m 16 Y s 1556 648 m20 1603 502 m 20 Y s 1603 537 m 19 Y s 1579 529 m 17 X s 1611 529 m 16 X s 1596 502 m 15 X s 1596 556 m 15 X s 1579 522 m 15
 Y s 1627 522 m 15 Y s 1603 529 m20 1651 436 m 16 Y s 1651 467 m 17 Y s 1627 460 m 17 X s 1659 460 m 16 X s 1644 436 m 15 X s 1644 484 m 15 X s 1627 452 m 15 Y s 1675 452 m 15 Y s 1651 460 m20 1699 423 m 16 Y s 1699 454 m 16 Y s 1675 446 m 17 X s
 1707 446 m 16 X s 1692 423 m 15 X s 1692 470 m 15 X s 1675 439 m 15 Y s 1723 439 m 15 Y s 1699 446 m20 1747 421 m 15 Y s 1747 452 m 15 Y s 1723 444 m 17 X s 1755 444 m 16 X s 1740 421 m 15 X s 1740 467 m 15 X s 1723 436 m 16 Y s 1771 436 m 16 Y s
 1747 444 m20 1795 359 m 12 Y s 1795 387 m 12 Y s 1771 379 m 16 X s 1803 379 m 16 X s 1787 359 m 16 X s 1787 399 m 16 X s 1771 371 m 16 Y s 1819 371 m 16 Y s 1795 379 m20 1843 298 m 8 Y s 1843 322 m 8 Y s 1819 314 m 16 X s 1851 314 m 16 X s 1835 298
 m 16 X s 1835 330 m 16 X s 1819 306 m 16 Y s 1867 306 m 16 Y s 1843 314 m20 1891 294 m 8 Y s 1891 317 m 8 Y s 1867 309 m 16 X s 1898 309 m 17 X s 1883 294 m 15 X s 1883 325 m 15 X s 1867 302 m 15 Y s 1915 302 m 15 Y s 1891 309 m20 1939 245 m 3 Y s
 1939 263 m 4 Y s 1915 256 m 16 X s 1946 256 m 17 X s 1931 245 m 15 X s 1931 267 m 15 X s 1915 248 m 15 Y s 1963 248 m 15 Y s 1939 256 m20 1987 229 m 1 Y s 1987 245 m 2 Y s 1963 238 m 16 X s 1994 238 m 17 X s 1979 229 m 15 X s 1979 247 m 15 X s 1963
 230 m 15 Y s 2011 230 m 15 Y s 1987 238 m20 2035 221 m s 2035 236 m s 2011 229 m 16 X s 2042 229 m 17 X s 2027 221 m 15 X s 2027 236 m 15 X s 2011 221 m 15 Y s 2059 221 m 15 Y s 2035 229 m20 2059 218 m 16 X s 2090 218 m 16 X s 2059 210 m 15 Y s 2106
 210 m 15 Y s 2082 218 m20 2130 229 m 1 Y s 2130 245 m 2 Y s 2106 238 m 17 X s 2138 238 m 16 X s 2123 229 m 15 X s 2123 247 m 15 X s 2106 230 m 15 Y s 2154 230 m 15 Y s 2130 238 m20 1 0 0 c 1 1 1 c 1 0 0 c 238 212 m 16 X s 270 212 m 16 X s 238 204 m
 15 Y s 286 204 m 15 Y s 262 212 m20 310 221 m 1 Y s 310 237 m s 286 229 m 16 X s 318 229 m 16 X s 302 221 m 16 X s 302 237 m 16 X s 286 222 m 15 Y s 334 222 m 15 Y s 310 229 m20 334 222 m 16 X s 365 222 m 17 X s 334 214 m 15 Y s 382 214 m 15 Y s 358
 222 m20 406 290 m 9 Y s 406 314 m 8 Y s 382 306 m 16 X s 413 306 m 17 X s 398 290 m 15 X s 398 322 m 15 X s 382 299 m 15 Y s 430 299 m 15 Y s 406 306 m20 454 302 m 9 Y s 454 326 m 10 Y s 430 319 m 16 X s 461 319 m 17 X s 446 302 m 15 X s 446 336 m
 15 X s 430 311 m 15 Y s 478 311 m 15 Y s 454 319 m20 502 316 m 10 Y s 502 341 m 11 Y s 478 334 m 16 X s 509 334 m 17 X s 494 316 m 15 X s 494 352 m 15 X s 478 326 m 15 Y s 526 326 m 15 Y s 502 334 m20 549 297 m 9 Y s 549 321 m 9 Y s 526 314 m 16 X s
 557 314 m 16 X s 542 297 m 15 X s 542 330 m 15 X s 526 306 m 15 Y s 573 306 m 15 Y s 549 314 m20 597 320 m 11 Y s 597 346 m 11 Y s 573 339 m 17 X s 605 339 m 16 X s 590 320 m 15 X s 590 357 m 15 X s 573 331 m 15 Y s 621 331 m 15 Y s 597 339 m20 645
 475 m 20 Y s 645 510 m 20 Y s 621 503 m 17 X s 653 503 m 16 X s 638 475 m 15 X s 638 530 m 15 X s 621 495 m 15 Y s 669 495 m 15 Y s 645 503 m20 693 542 m 23 Y s 693 580 m 23 Y s 669 572 m 17 X s 701 572 m 16 X s 686 542 m 15 X s 686 603 m 15 X s 669
 565 m 15 Y s 717 565 m 15 Y s 693 572 m20 741 604 m 25 Y s 741 645 m 25 Y s 717 637 m 17 X s 749 637 m 16 X s 734 604 m 15 X s 734 670 m 15 X s 717 629 m 16 Y s 765 629 m 16 Y s 741 637 m20 789 626 m 26 Y s 789 667 m 26 Y s 765 659 m 16 X s 797 659
 m 16 X s 781 626 m 16 X s 781 693 m 16 X s 765 652 m 15 Y s 813 652 m 15 Y s 789 659 m20 837 647 m 27 Y s 837 689 m 27 Y s 813 682 m 16 X s 845 682 m 16 X s 829 647 m 16 X s 829 716 m 16 X s 813 674 m 15 Y s 861 674 m 15 Y s 837 682 m20 885 760 m 31
 Y s 885 806 m 31 Y s 861 799 m 16 X s 892 799 m 17 X s 877 760 m 15 X s 877 837 m 15 X s 861 791 m 15 Y s 909 791 m 15 Y s 885 799 m20 933 888 m 35 Y s 933 938 m 35 Y s 909 931 m 16 X s 940 931 m 17 X s 925 888 m 15 X s 925 973 m 15 X s 909 923 m 15
 Y s 957 923 m 15 Y s 933 931 m20 981 900 m 35 Y s 981 951 m 35 Y s 957 943 m 16 X s 988 943 m 17 X s 973 900 m 15 X s 973 986 m 15 X s 957 935 m 16 Y s 1005 935 m 16 Y s 981 943 m20 1029 898 m 35 Y s 1029 948 m 35 Y s 1005 941 m 16 X s 1036 941 m 17
 X s 1021 898 m 15 X s 1021 983 m 15 X s 1005 933 m 15 Y s 1053 933 m 15 Y s 1029 941 m20 1076 961 m 37 Y s 1076 1013 m 37 Y s 1053 1005 m 16 X s 1084 1005 m 16 X s 1069 961 m 15 X s 1069 1050 m 15 X s 1053 998 m 15 Y s 1100 998 m 15 Y s 1076 1005
 m20 1124 833 m 33 Y s 1124 881 m 33 Y s 1100 873 m 17 X s 1132 873 m 16 X s 1117 833 m 15 X s 1117 914 m 15 X s 1100 866 m 15 Y s 1148 866 m 15 Y s 1124 873 m20 1172 927 m 36 Y s 1172 978 m 36 Y s 1148 970 m 17 X s 1180 970 m 16 X s 1165 927 m 15 X
 s 1165 1014 m 15 X s 1148 963 m 15 Y s 1196 963 m 15 Y s 1172 970 m20 1220 869 m 34 Y s 1220 918 m 35 Y s 1196 911 m 17 X s 1228 911 m 16 X s 1213 869 m 15 X s 1213 953 m 15 X s 1196 903 m 15 Y s 1244 903 m 15 Y s 1220 911 m20 1268 568 m 24 Y s 1268
 607 m 24 Y s 1244 600 m 16 X s 1276 600 m 16 X s 1260 568 m 16 X s 1260 631 m 16 X s 1244 592 m 15 Y s 1292 592 m 15 Y s 1268 600 m20 1316 575 m 25 Y s 1316 615 m 24 Y s 1292 607 m 16 X s 1324 607 m 16 X s 1308 575 m 16 X s 1308 639 m 16 X s 1292
 600 m 15 Y s 1340 600 m 15 Y s 1316 607 m20 1364 419 m 16 Y s 1364 451 m 17 Y s 1340 443 m 16 X s 1371 443 m 17 X s 1356 419 m 15 X s 1356 468 m 15 X s 1340 435 m 16 Y s 1388 435 m 16 Y s 1364 443 m20 1412 381 m 15 Y s 1412 411 m 15 Y s 1388 403 m
 16 X s 1419 403 m 17 X s 1404 381 m 15 X s 1404 426 m 15 X s 1388 396 m 15 Y s 1436 396 m 15 Y s 1412 403 m20 1460 320 m 11 Y s 1460 346 m 11 Y s 1436 339 m 16 X s 1467 339 m 17 X s 1452 320 m 15 X s 1452 357 m 15 X s 1436 331 m 15 Y s 1484 331 m 15
 Y s 1460 339 m20 1508 267 m 7 Y s 1508 289 m 6 Y s 1484 281 m 16 X s 1515 281 m 17 X s 1500 267 m 15 X s 1500 295 m 15 X s 1484 274 m 15 Y s 1532 274 m 15 Y s 1508 281 m20 1556 263 m 6 Y s 1556 284 m 6 Y s 1532 276 m 16 X s 1563 276 m 16 X s 1548
 263 m 15 X s 1548 290 m 15 X s 1532 269 m 15 Y s 1579 269 m 15 Y s 1556 276 m20 1603 245 m 4 Y s 1603 264 m 4 Y s 1579 257 m 17 X s 1611 257 m 16 X s 1596 245 m 15 X s 1596 268 m 15 X s 1579 249 m 15 Y s 1627 249 m 15 Y s 1603 257 m20 1651 225 m 2 Y
 s 1651 242 m 1 Y s 1627 234 m 17 X s 1659 234 m 16 X s 1644 225 m 15 X s 1644 243 m 15 X s 1627 227 m 15 Y s 1675 227 m 15 Y s 1651 234 m20 1675 209 m 17 X s 1707 209 m 16 X s 1675 202 m 15 Y s 1723 202 m 15 Y s 1699 209 m20 1723 204 m 17 X s 1755
 204 m 16 X s 1723 197 m 15 Y s 1771 197 m 15 Y s 1747 204 m20 1771 204 m 16 X s 1803 204 m 16 X s 1771 197 m 15 Y s 1819 197 m 15 Y s 1795 204 m20 1819 212 m 16 X s 1851 212 m 16 X s 1819 204 m 15 Y s 1867 204 m 15 Y s 1843 212 m20 black
 gsave  2268 1682 0 0 C 272.126 1244.5 t 0 r /Helvetica-Bold findfont 49.4636 sf 0 0 m (Kolmogorov\255Smirnov test: signal \(background\) probability = 0.249 \(0.358\)) show NC gr  238 202 m 1916 X s 301 244 m -42 Y s 361 223 m -21 Y s 421 223 m -21
 Y s 480 223 m -21 Y s 540 244 m -42 Y s 600 223 m -21 Y s 660 223 m -21 Y s 720 223 m -21 Y s 780 244 m -42 Y s 840 223 m -21 Y s 900 223 m -21 Y s 960 223 m -21 Y s 1020 244 m -42 Y s 1080 223 m -21 Y s 1139 223 m -21 Y s 1199 223 m -21 Y s 1259
 244 m -42 Y s 1319 223 m -21 Y s 1379 223 m -21 Y s 1439 223 m -21 Y s 1499 244 m -42 Y s 1559 223 m -21 Y s 1619 223 m -21 Y s 1679 223 m -21 Y s 1739 244 m -42 Y s 1799 223 m -21 Y s 1858 223 m -21 Y s 1918 223 m -21 Y s 1978 244 m -42 Y s 301 244
 m -42 Y s 241 223 m -21 Y s 1978 244 m -42 Y s 2038 223 m -21 Y s 2098 223 m -21 Y s 238 1514 m 1916 X s 301 1471 m 43 Y s 361 1492 m 22 Y s 421 1492 m 22 Y s 480 1492 m 22 Y s 540 1471 m 43 Y s 600 1492 m 22 Y s 660 1492 m 22 Y s 720 1492 m 22 Y s
 780 1471 m 43 Y s 840 1492 m 22 Y s 900 1492 m 22 Y s 960 1492 m 22 Y s 1020 1471 m 43 Y s 1080 1492 m 22 Y s 1139 1492 m 22 Y s 1199 1492 m 22 Y s 1259 1471 m 43 Y s 1319 1492 m 22 Y s 1379 1492 m 22 Y s 1439 1492 m 22 Y s 1499 1471 m 43 Y s 1559
 1492 m 22 Y s 1619 1492 m 22 Y s 1679 1492 m 22 Y s 1739 1471 m 43 Y s 1799 1492 m 22 Y s 1858 1492 m 22 Y s 1918 1492 m 22 Y s 1978 1471 m 43 Y s 301 1471 m 43 Y s 241 1492 m 22 Y s 1978 1471 m 43 Y s 2038 1492 m 22 Y s 2098 1492 m 22 Y s 238 202 m
 1312 Y s 291 202 m -53 X s 265 242 m -27 X s 265 283 m -27 X s 265 323 m -27 X s 265 363 m -27 X s 291 404 m -53 X s 265 444 m -27 X s 265 485 m -27 X s 265 525 m -27 X s 265 566 m -27 X s 291 606 m -53 X s 265 646 m -27 X s 265 687 m -27 X s 265
 727 m -27 X s 265 768 m -27 X s 291 808 m -53 X s 265 848 m -27 X s 265 889 m -27 X s 265 929 m -27 X s 265 970 m -27 X s 291 1010 m -53 X s 265 1051 m -27 X s 265 1091 m -27 X s 265 1131 m -27 X s 265 1172 m -27 X s 291 1212 m -53 X s 265 1253 m
 -27 X s 265 1293 m -27 X s 265 1333 m -27 X s 265 1374 m -27 X s 291 1414 m -53 X s 291 1414 m -53 X s 265 1455 m -27 X s 265 1495 m -27 X s 2154 202 m 1312 Y s 2101 202 m 53 X s 2128 242 m 26 X s 2128 283 m 26 X s 2128 323 m 26 X s 2128 363 m 26 X
 s 2101 404 m 53 X s 2128 444 m 26 X s 2128 485 m 26 X s 2128 525 m 26 X s 2128 566 m 26 X s 2101 606 m 53 X s 2128 646 m 26 X s 2128 687 m 26 X s 2128 727 m 26 X s 2128 768 m 26 X s 2101 808 m 53 X s 2128 848 m 26 X s 2128 889 m 26 X s 2128 929 m 26
 X s 2128 970 m 26 X s 2101 1010 m 53 X s 2128 1051 m 26 X s 2128 1091 m 26 X s 2128 1131 m 26 X s 2128 1172 m 26 X s 2101 1212 m 53 X s 2128 1253 m 26 X s 2128 1293 m 26 X s 2128 1333 m 26 X s 2128 1374 m 26 X s 2101 1414 m 53 X s 2101 1414 m 53 X s
 2128 1455 m 26 X s 2128 1495 m 26 X s
 gsave  2268 1682 0 0 C 2211.02 193.403 t 90 r /Helvetica-Bold findfont 45.6587 sf 0 0 m (U/O\255flow \(S,B\): \(0.0, 0.0\)% / \(0.0, 0.0\)%) show NC gr  0.490196 0.545098 0.615686 c 0.364706 0.419608 0.490196 c 1587 96 23 1577 bf 0.490196 0.545098
 0.615686 c 23 1577 m 1587 X s 1610 1577 m 96 Y s 1610 1673 m -1587 X s 23 1673 m -96 Y s 1 1 1 c black 1 1 1 c
 gsave  2268 1682 0 0 C 91.3174 1609.47 t 0 r /Helvetica-Bold findfont 60.8783 sf 0 0 m (TMVA overtraining check for classifier: MLPBFGS) show NC gr 
 gr  gr showpage
end
%%EOF
