%!PS-Adobe-2.0 EPSF-2.0
%%BoundingBox:  0 0 567 420
%%Title: plots/overtrain_BDTD.eps: TMVA comparison BDTD
%%Creator: ROOT Version 5.34/09
%%CreationDate: Thu Jan  2 18:34:06 2014
%%EndComments
%%BeginProlog
80 dict begin
/s {stroke} def /l {lineto} def /m {moveto} def /t {translate} def
/r {rotate} def /rl {roll}  def /R {repeat} def
/d {rlineto} def /rm {rmoveto} def /gr {grestore} def /f {eofill} def
/c {setrgbcolor} def /black {0 setgray} def /sd {setdash} def
/cl {closepath} def /sf {scalefont setfont} def /lw {setlinewidth} def
/box {m dup 0 exch d exch 0 d 0 exch neg d cl} def
/NC{systemdict begin initclip end}def/C{NC box clip newpath}def
/bl {box s} def /bf {box f} def /Y { 0 exch d} def /X { 0 d} def 
/K {{pop pop 0 moveto} exch kshow} bind def
/ita {/ang 15 def gsave [1 0 ang dup sin exch cos div 1 0 0] concat} def 
/mp {newpath /y exch def /x exch def} def
/side {[w .77 mul w .23 mul] .385 w mul sd w 0 l currentpoint t -144 r} def
/mr {mp x y w2 0 360 arc} def /m24 {mr s} def /m20 {mr f} def
/mb {mp x y w2 add m w2 neg 0 d 0 w neg d w 0 d 0 w d cl} def
/mt {mp x y w2 add m w2 neg w neg d w 0 d cl} def
/m21 {mb f} def /m25 {mb s} def /m22 {mt f} def /m26{mt s} def
/m23 {mp x y w2 sub m w2 w d w neg 0 d cl f} def
/m27 {mp x y w2 add m w3 neg w2 neg d w3 w2 neg d w3 w2 d cl s} def
/m28 {mp x w2 sub y w2 sub w3 add m w3 0 d  0 w3 neg d w3 0 d 0 w3 d w3 0 d  0 w3 d w3 neg 0 d 0 w3 d w3 neg 0 d 0 w3 neg d w3 neg 0 d cl s } def
/m29 {mp gsave x w2 sub y w2 add w3 sub m currentpoint t 4 {side} repeat cl fill gr} def
/m30 {mp gsave x w2 sub y w2 add w3 sub m currentpoint t 4 {side} repeat cl s gr} def
/m31 {mp x y w2 sub m 0 w d x w2 sub y m w 0 d x w2 sub y w2 add m w w neg d x w2 sub y w2 sub m w w d s} def
/m32 {mp x y w2 sub m w2 w d w neg 0 d cl s} def
/m33 {mp x y w2 add m w3 neg w2 neg d w3 w2 neg d w3 w2 d cl f} def
/m34 {mp x w2 sub y w2 sub w3 add m w3 0 d  0 w3 neg d w3 0 d 0 w3 d w3 0 d  0 w3 d w3 neg 0 d 0 w3 d w3 neg 0 d 0 w3 neg d w3 neg 0 d cl f } def
/m2 {mp x y w2 sub m 0 w d x w2 sub y m w 0 d s} def
/m5 {mp x w2 sub y w2 sub m w w d x w2 sub y w2 add m w w neg d s} def
/reEncode {exch findfont dup length dict begin {1 index /FID eq  {pop pop} {def} ifelse } forall /Encoding exch def currentdict end dup /FontName get exch definefont pop } def [/Times-Bold /Times-Italic /Times-BoldItalic /Helvetica /Helvetica-Oblique
 /Helvetica-Bold /Helvetica-BoldOblique /Courier /Courier-Oblique /Courier-Bold /Courier-BoldOblique /Times-Roman /AvantGarde-Book /AvantGarde-BookOblique /AvantGarde-Demi /AvantGarde-DemiOblique /Bookman-Demi /Bookman-DemiItalic /Bookman-Light
 /Bookman-LightItalic /Helvetica-Narrow /Helvetica-Narrow-Bold /Helvetica-Narrow-BoldOblique /Helvetica-Narrow-Oblique /NewCenturySchlbk-Roman /NewCenturySchlbk-Bold /NewCenturySchlbk-BoldItalic /NewCenturySchlbk-Italic /Palatino-Bold
 /Palatino-BoldItalic /Palatino-Italic /Palatino-Roman ] {ISOLatin1Encoding reEncode } forall
%%EndProlog
%%BeginSetup
%%EndSetup
newpath  gsave  .25 .25 scale  gsave  0 0 t 0.490196 0.545098 0.615686 c[  ] 0 sd 3 lw 0.941176 0.941176 0.941176 c 2268 1682 0 0 bf black 1 1 0.992157 c 1916 1312 238 202 bf black 1916 1312 238 202 bl 1 1 0.992157 c 1916 1312 238 202 bf black 1916
 1312 238 202 bl 238 202 m 1916 X s
 gsave  2268 1682 0 0 C 1609.47 34.244 t 0 r /Helvetica-Bold findfont 72.293 sf 0 0 m (BDTD response) show NC gr  300 244 m -42 Y s 364 223 m -21 Y s 428 223 m -21 Y s 493 223 m -21 Y s 557 223 m -21 Y s 621 244 m -42 Y s 685 223 m -21 Y s 749 223 m
 -21 Y s 813 223 m -21 Y s 877 223 m -21 Y s 942 244 m -42 Y s 1006 223 m -21 Y s 1070 223 m -21 Y s 1134 223 m -21 Y s 1198 223 m -21 Y s 1262 244 m -42 Y s 1326 223 m -21 Y s 1391 223 m -21 Y s 1455 223 m -21 Y s 1519 223 m -21 Y s 1583 244 m -42 Y
 s 1647 223 m -21 Y s 1711 223 m -21 Y s 1775 223 m -21 Y s 1839 223 m -21 Y s 1904 244 m -42 Y s 300 244 m -42 Y s 1904 244 m -42 Y s 1968 223 m -21 Y s 2032 223 m -21 Y s 2096 223 m -21 Y s
 gsave  2268 1682 0 0 C 239.708 129.366 t 0 r /Helvetica-Bold findfont 64.6832 sf 0 0 m (\2550.2) show NC gr 
 gsave  2268 1682 0 0 C 566.929 129.366 t 0 r /Helvetica-Bold findfont 64.6832 sf 0 0 m (\2550.1) show NC gr 
 gsave  2268 1682 0 0 C 920.784 129.366 t 0 r /Helvetica-Bold findfont 64.6832 sf 0 0 m (0) show NC gr 
 gsave  2268 1682 0 0 C 1217.57 129.366 t 0 r /Helvetica-Bold findfont 64.6832 sf 0 0 m (0.1) show NC gr 
 gsave  2268 1682 0 0 C 1537.18 129.366 t 0 r /Helvetica-Bold findfont 64.6832 sf 0 0 m (0.2) show NC gr 
 gsave  2268 1682 0 0 C 1856.79 129.366 t 0 r /Helvetica-Bold findfont 64.6832 sf 0 0 m (0.3) show NC gr  238 1514 m 1916 X s 300 1471 m 43 Y s 364 1492 m 22 Y s 428 1492 m 22 Y s 493 1492 m 22 Y s 557 1492 m 22 Y s 621 1471 m 43 Y s 685 1492 m 22 Y
 s 749 1492 m 22 Y s 813 1492 m 22 Y s 877 1492 m 22 Y s 942 1471 m 43 Y s 1006 1492 m 22 Y s 1070 1492 m 22 Y s 1134 1492 m 22 Y s 1198 1492 m 22 Y s 1262 1471 m 43 Y s 1326 1492 m 22 Y s 1391 1492 m 22 Y s 1455 1492 m 22 Y s 1519 1492 m 22 Y s 1583
 1471 m 43 Y s 1647 1492 m 22 Y s 1711 1492 m 22 Y s 1775 1492 m 22 Y s 1839 1492 m 22 Y s 1904 1471 m 43 Y s 300 1471 m 43 Y s 1904 1471 m 43 Y s 1968 1492 m 22 Y s 2032 1492 m 22 Y s 2096 1492 m 22 Y s 238 202 m 1312 Y s
 gsave  2268 1682 0 0 C 64.6832 1430.64 t 90 r /Helvetica-Bold findfont 72.293 sf 0 0 m (dx) show NC gr 
 gsave  2268 1682 0 0 C 30.4391 1411.62 t 90 r /Helvetica-Bold findfont 45.6587 sf 0 0 m ( ) show NC gr 
 gsave  2268 1682 0 0 C 64.6832 1388.79 t 90 r /Helvetica-Bold findfont 72.293 sf 0 0 m (/) show NC gr 
 gsave  2268 1682 0 0 C 30.4391 1369.76 t 90 r /Helvetica-Bold findfont 45.6587 sf 0 0 m ( ) show NC gr 
 gsave  2268 1682 0 0 C 60.8783 1095.81 t 90 r /Helvetica-Bold findfont 72.293 sf 0 0 m (\(1/N\) dN) show NC gr  291 202 m -53 X s 265 252 m -27 X s 265 303 m -27 X s 265 354 m -27 X s 291 404 m -53 X s 265 455 m -27 X s 265 506 m -27 X s 265 556 m
 -27 X s 291 607 m -53 X s 265 657 m -27 X s 265 708 m -27 X s 265 759 m -27 X s 291 809 m -53 X s 265 860 m -27 X s 265 910 m -27 X s 265 961 m -27 X s 291 1012 m -53 X s 265 1062 m -27 X s 265 1113 m -27 X s 265 1164 m -27 X s 291 1214 m -53 X s
 265 1265 m -27 X s 265 1315 m -27 X s 265 1366 m -27 X s 291 1417 m -53 X s 291 1417 m -53 X s 265 1467 m -27 X s
 gsave  2268 1682 0 0 C 175.025 178.83 t 0 r /Helvetica-Bold findfont 64.6832 sf 0 0 m (0) show NC gr 
 gsave  2268 1682 0 0 C 175.025 380.489 t 0 r /Helvetica-Bold findfont 64.6832 sf 0 0 m (2) show NC gr 
 gsave  2268 1682 0 0 C 175.025 582.149 t 0 r /Helvetica-Bold findfont 64.6832 sf 0 0 m (4) show NC gr 
 gsave  2268 1682 0 0 C 175.025 783.808 t 0 r /Helvetica-Bold findfont 64.6832 sf 0 0 m (6) show NC gr 
 gsave  2268 1682 0 0 C 175.025 985.467 t 0 r /Helvetica-Bold findfont 64.6832 sf 0 0 m (8) show NC gr 
 gsave  2268 1682 0 0 C 136.976 1190.93 t 0 r /Helvetica-Bold findfont 64.6832 sf 0 0 m (10) show NC gr 
 gsave  2268 1682 0 0 C 136.976 1392.59 t 0 r /Helvetica-Bold findfont 64.6832 sf 0 0 m (12) show NC gr  2154 202 m 1312 Y s 2101 202 m 53 X s 2128 252 m 26 X s 2128 303 m 26 X s 2128 354 m 26 X s 2101 404 m 53 X s 2128 455 m 26 X s 2128 506 m 26 X s
 2128 556 m 26 X s 2101 607 m 53 X s 2128 657 m 26 X s 2128 708 m 26 X s 2128 759 m 26 X s 2101 809 m 53 X s 2128 860 m 26 X s 2128 910 m 26 X s 2128 961 m 26 X s 2101 1012 m 53 X s 2128 1062 m 26 X s 2128 1113 m 26 X s 2128 1164 m 26 X s 2101 1214 m
 53 X s 2128 1265 m 26 X s 2128 1315 m 26 X s 2128 1366 m 26 X s 2101 1417 m 53 X s 2101 1417 m 53 X s 2128 1467 m 26 X s 0.490196 0.545098 0.615686 c 0.95 0.95 0.95 c 0.490196 0.545098 0.615686 c 907 202 238 1312 bl 238 1312 m 907 X s 1145 1312 m
 202 Y s 1145 1514 m -907 X s 238 1514 m -202 Y s black
 gsave  2268 1682 0 0 C 418.538 1445.86 t 0 r /Times-Italic findfont 57.0734 sf 0 0 m (Signal \(test sample\)) show NC gr  0.49 0.6 0.82 c 265 1428 m 127 X 70 Y -127 X f 0 0 0.933333 c 265 1498 m 127 X s 265 1428 m 127 X s 392 1428 m 70 Y s 265 1428
 m 70 Y s black
 gsave  2268 1682 0 0 C 418.538 1350.74 t 0 r /Times-Italic findfont 57.0734 sf 0 0 m (Background \(test sample\)) show NC gr  1 0 0 c 392 1354 m -27 -27 d s 387 1398 m -70 -71 d s 339 1398 m -70 -71 d s 291 1398 m -26 -26 d s 0 lw 0 0 0.933333 c 1 0
 0 c 3 lw 265 1398 m 127 X s 265 1327 m 127 X s 392 1327 m 71 Y s 265 1327 m 71 Y s 0 0 0.933333 c 0.49 0.6 0.82 c black 0.49 0.6 0.82 c 238 202 m 431 X 1 Y 48 X 23 Y 48 X 1 Y 48 X 162 Y 48 X 59 Y 48 X 341 Y 48 X 195 Y 48 X 28 Y 48 X 90 Y 47 X -252 Y
 48 X -153 Y 48 X -31 Y 48 X -86 Y 48 X -75 Y 48 X -84 Y 48 X -80 Y 48 X -42 Y 48 X 47 Y 48 X -89 Y 47 X 30 Y 48 X -42 Y 48 X -15 Y 48 X 5 Y 48 X -24 Y 48 X 10 Y 48 X -13 Y 48 X 4 Y 48 X 5 Y 48 X -5 Y 48 X -7 Y 95 X -3 Y f 0 0 0.933333 c 0.49 0.6
 0.82 c 0 0 0.933333 c 238 202 m 431 X 1 Y 48 X 23 Y 48 X 1 Y 48 X 162 Y 48 X 59 Y 48 X 341 Y 48 X 195 Y 48 X 28 Y 48 X 90 Y 47 X -252 Y 48 X -153 Y 48 X -31 Y 48 X -86 Y 48 X -75 Y 48 X -84 Y 48 X -80 Y 48 X -42 Y 48 X 47 Y 48 X -89 Y 47 X 30 Y 48 X
 -42 Y 48 X -15 Y 48 X 5 Y 48 X -24 Y 48 X 10 Y 48 X -13 Y 48 X 4 Y 48 X 5 Y 48 X -5 Y 48 X -7 Y 95 X -3 Y s 1 0 0 c black 1 0 0 c 2126 202 m s 2078 202 m s 2030 202 m s 1982 202 m s 1934 202 m s 1886 202 m s 1837 202 m s 1789 202 m s 1741 202 m s
 1693 202 m s 1645 202 m s 1597 202 m s 1549 202 m s 1501 202 m cl s 1453 202 m s 1404 202 m s 1356 202 m s 1308 202 m s 1263 205 m -3 -3 d s 1217 207 m -5 -5 d s 1177 215 m -13 -13 d s 1139 225 m -23 -23 d s 1100 235 m -32 -33 d s 1100 283 m -80 -81
 d s 1070 300 m -98 -98 d s 1053 331 m -130 -129 d s 1053 379 m -178 -177 d s 1053 427 m -226 -225 d s 1006 429 m -227 -227 d s 1005 475 m -274 -273 d s 1005 524 m -322 -322 d s 1005 572 m -370 -370 d s 1005 620 m -418 -418 d s 994 657 m -455 -455 d
 s 957 668 m -467 -466 d s 957 716 m -515 -514 d s 957 764 m -384 -383 d s 553 360 m -75 -75 d s 469 277 m -75 -75 d s 957 812 m -288 -287 d s 626 482 m -53 -53 d s 489 345 m -11 -12 d s 388 243 m -6 -5 d s 368 223 m -22 -21 d s 957 860 m -288 -287 d
 s 590 494 m -17 -17 d s 308 212 m -10 -10 d s 957 909 m -288 -288 d s 263 215 m -13 -13 d s 957 957 m -240 -240 d s 695 695 m -26 -26 d s 957 1005 m -240 -240 d s 939 1035 m -222 -222 d s 909 1053 m -144 -144 d s 753 897 m -36 -36 d s 909 1101 m
 -144 -144 d s 909 1149 m -144 -143 d s 909 1197 m -144 -143 d s 867 1204 m -6 -6 d s 849 1185 m -36 -35 d s 774 1110 m -9 -8 d s 0 lw 3 lw 238 215 m 48 X -3 Y 48 X 11 Y 48 X 20 Y 48 X 34 Y 48 X 68 Y 48 X 15 Y 47 X 134 Y 48 X -12 Y 48 X 213 Y 48 X
 202 Y 48 X 213 Y 48 X 75 Y 48 X 19 Y 48 X -169 Y 48 X -378 Y 48 X -228 Y 48 X -129 Y 47 X -75 Y 48 X -10 Y 48 X -8 Y 48 X -2 Y 48 X -3 Y 862 X s 0.490196 0.545098 0.615686 c 0.95 0.95 0.95 c 0.490196 0.545098 0.615686 c 952 202 1202 1312 bl 1202
 1312 m 952 X s 2154 1312 m 202 Y s 2154 1514 m -952 X s 1202 1514 m -202 Y s black
 gsave  2268 1682 0 0 C 1293.66 1445.86 t 0 r /Times-Italic findfont 57.0734 sf 0 0 m (Signal \(training sample\)) show NC gr  0 0 0.933333 c /w 21 def /w2 {w 2 div} def /w3 {w 3 div} def 1250 1463 m20 black
 gsave  2268 1682 0 0 C 1293.66 1350.74 t 0 r /Times-Italic findfont 57.0734 sf 0 0 m (Background \(training sample\)) show NC gr  1 0 0 c 1250 1362 m20 0 0 0.933333 c 1 1 1 c 0 0 0.933333 c 717 208 m 17 X s 749 208 m 16 X s 717 200 m 15 Y s 765 200
 m 15 Y s 741 208 m20 765 227 m 16 X s 797 227 m 16 X s 765 220 m 15 Y s 813 220 m 15 Y s 789 227 m20 837 318 m 7 Y s 837 340 m 6 Y s 813 332 m 16 X s 845 332 m 16 X s 829 318 m 16 X s 829 346 m 16 X s 813 325 m 15 Y s 861 325 m 15 Y s 837 332 m20
 885 407 m 11 Y s 885 433 m 11 Y s 861 425 m 16 X s 892 425 m 17 X s 877 407 m 15 X s 877 444 m 15 X s 861 418 m 15 Y s 909 418 m 15 Y s 885 425 m20 933 674 m 20 Y s 933 709 m 20 Y s 909 702 m 16 X s 940 702 m 17 X s 925 674 m 15 X s 925 729 m 15 X s
 909 694 m 15 Y s 957 694 m 15 Y s 933 702 m20 981 936 m 27 Y s 981 978 m 26 Y s 957 970 m 16 X s 988 970 m 17 X s 973 936 m 15 X s 973 1004 m 15 X s 957 963 m 15 Y s 1005 963 m 15 Y s 981 970 m20 1029 989 m 28 Y s 1029 1032 m 27 Y s 1005 1024 m 16 X
 s 1036 1024 m 17 X s 1021 989 m 15 X s 1021 1059 m 15 X s 1005 1017 m 15 Y s 1053 1017 m 15 Y s 1029 1024 m20 1076 1080 m 30 Y s 1076 1125 m 29 Y s 1053 1117 m 16 X s 1084 1117 m 16 X s 1069 1080 m 15 X s 1069 1154 m 15 X s 1053 1110 m 15 Y s 1100
 1110 m 15 Y s 1076 1117 m20 1124 863 m 25 Y s 1124 903 m 24 Y s 1100 895 m 17 X s 1132 895 m 16 X s 1117 863 m 15 X s 1117 927 m 15 X s 1100 888 m 15 Y s 1148 888 m 15 Y s 1124 895 m20 1172 664 m 19 Y s 1172 699 m 19 Y s 1148 691 m 17 X s 1180 691 m
 16 X s 1165 664 m 15 X s 1165 718 m 15 X s 1148 683 m 16 Y s 1196 683 m 16 Y s 1172 691 m20 1220 654 m 19 Y s 1220 688 m 19 Y s 1196 681 m 17 X s 1228 681 m 16 X s 1213 654 m 15 X s 1213 707 m 15 X s 1196 673 m 15 Y s 1244 673 m 15 Y s 1220 681 m20
 1268 565 m 16 Y s 1268 597 m 16 Y s 1244 589 m 16 X s 1276 589 m 16 X s 1260 565 m 16 X s 1260 613 m 16 X s 1244 581 m 16 Y s 1292 581 m 16 Y s 1268 589 m20 1316 536 m 15 Y s 1316 567 m 15 Y s 1292 559 m 16 X s 1324 559 m 16 X s 1308 536 m 16 X s
 1308 582 m 16 X s 1292 551 m 16 Y s 1340 551 m 16 Y s 1316 559 m20 1364 417 m 11 Y s 1364 444 m 11 Y s 1340 436 m 16 X s 1371 436 m 17 X s 1356 417 m 15 X s 1356 455 m 15 X s 1340 428 m 16 Y s 1388 428 m 16 Y s 1364 436 m20 1412 340 m 7 Y s 1412 363
 m 7 Y s 1388 355 m 16 X s 1419 355 m 17 X s 1404 340 m 15 X s 1404 370 m 15 X s 1388 347 m 16 Y s 1436 347 m 16 Y s 1412 355 m20 1460 300 m 5 Y s 1460 320 m 6 Y s 1436 313 m 16 X s 1467 313 m 17 X s 1452 300 m 15 X s 1452 326 m 15 X s 1436 305 m 15
 Y s 1484 305 m 15 Y s 1460 313 m20 1508 301 m 6 Y s 1508 322 m 5 Y s 1484 314 m 16 X s 1515 314 m 17 X s 1500 301 m 15 X s 1500 327 m 15 X s 1484 307 m 15 Y s 1532 307 m 15 Y s 1508 314 m20 1556 254 m 2 Y s 1556 271 m 2 Y s 1532 263 m 16 X s 1563
 263 m 16 X s 1548 254 m 15 X s 1548 273 m 15 X s 1532 256 m 15 Y s 1579 256 m 15 Y s 1556 263 m20 1603 276 m 4 Y s 1603 295 m 4 Y s 1579 287 m 17 X s 1611 287 m 16 X s 1596 276 m 15 X s 1596 299 m 15 X s 1579 280 m 15 Y s 1627 280 m 15 Y s 1603 287
 m20 1651 255 m 2 Y s 1651 272 m 3 Y s 1627 265 m 17 X s 1659 265 m 16 X s 1644 255 m 15 X s 1644 275 m 15 X s 1627 257 m 15 Y s 1675 257 m 15 Y s 1651 265 m20 1675 239 m 17 X s 1707 239 m 16 X s 1675 232 m 15 Y s 1723 232 m 15 Y s 1699 239 m20 1723
 221 m 17 X s 1755 221 m 16 X s 1723 214 m 15 Y s 1771 214 m 15 Y s 1747 221 m20 1771 217 m 16 X s 1803 217 m 16 X s 1771 209 m 15 Y s 1819 209 m 15 Y s 1795 217 m20 1819 224 m 16 X s 1851 224 m 16 X s 1819 217 m 15 Y s 1867 217 m 15 Y s 1843 224 m20
 1867 209 m 16 X s 1898 209 m 17 X s 1867 202 m 15 Y s 1915 202 m 15 Y s 1891 209 m20 1915 215 m 16 X s 1946 215 m 17 X s 1915 208 m 15 Y s 1963 208 m 15 Y s 1939 215 m20 1963 221 m 16 X s 1994 221 m 17 X s 1963 214 m 15 Y s 2011 214 m 15 Y s 1987
 221 m20 2011 211 m 16 X s 2042 211 m 17 X s 2011 203 m 15 Y s 2059 203 m 15 Y s 2035 211 m20 2059 211 m 16 X s 2090 211 m 16 X s 2059 203 m 15 Y s 2106 203 m 15 Y s 2082 211 m20 2106 206 m 17 X s 2138 206 m 16 X s 2106 199 m 15 Y s 2154 199 m 15 Y s
 2130 206 m20 1 0 0 c 1 1 1 c 1 0 0 c 238 212 m 16 X s 270 212 m 16 X s 238 204 m 15 Y s 286 204 m 15 Y s 262 212 m20 286 208 m 16 X s 318 208 m 16 X s 286 201 m 15 Y s 334 201 m 15 Y s 310 208 m20 334 228 m 16 X s 365 228 m 17 X s 334 221 m 15 Y s
 382 221 m 15 Y s 358 228 m20 406 253 m 3 Y s 406 271 m 3 Y s 382 264 m 16 X s 413 264 m 17 X s 398 253 m 15 X s 398 274 m 15 X s 382 256 m 15 Y s 430 256 m 15 Y s 406 264 m20 454 256 m 3 Y s 454 274 m 3 Y s 430 267 m 16 X s 461 267 m 17 X s 446 256
 m 15 X s 446 277 m 15 X s 430 259 m 15 Y s 478 259 m 15 Y s 454 267 m20 502 342 m 9 Y s 502 366 m 9 Y s 478 359 m 16 X s 509 359 m 17 X s 494 342 m 15 X s 494 375 m 15 X s 478 351 m 15 Y s 526 351 m 15 Y s 502 359 m20 549 355 m 9 Y s 549 380 m 9 Y s
 526 372 m 16 X s 557 372 m 16 X s 542 355 m 15 X s 542 389 m 15 X s 526 364 m 16 Y s 573 364 m 16 Y s 549 372 m20 597 484 m 15 Y s 597 515 m 15 Y s 573 507 m 17 X s 605 507 m 16 X s 590 484 m 15 X s 590 530 m 15 X s 573 499 m 16 Y s 621 499 m 16 Y s
 597 507 m20 645 549 m 17 Y s 645 581 m 18 Y s 621 574 m 17 X s 653 574 m 16 X s 638 549 m 15 X s 638 599 m 15 X s 621 566 m 15 Y s 669 566 m 15 Y s 645 574 m20 693 715 m 23 Y s 693 753 m 23 Y s 669 746 m 17 X s 701 746 m 16 X s 686 715 m 15 X s 686
 776 m 15 X s 669 738 m 15 Y s 717 738 m 15 Y s 693 746 m20 741 922 m 28 Y s 741 965 m 28 Y s 717 957 m 17 X s 749 957 m 16 X s 734 922 m 15 X s 734 993 m 15 X s 717 950 m 15 Y s 765 950 m 15 Y s 741 957 m20 789 1073 m 32 Y s 789 1120 m 31 Y s 765
 1112 m 16 X s 797 1112 m 16 X s 781 1073 m 16 X s 781 1151 m 16 X s 765 1105 m 15 Y s 813 1105 m 15 Y s 789 1112 m20 837 1170 m 33 Y s 837 1218 m 34 Y s 813 1211 m 16 X s 845 1211 m 16 X s 829 1170 m 16 X s 829 1252 m 16 X s 813 1203 m 15 Y s 861
 1203 m 15 Y s 837 1211 m20 885 1132 m 33 Y s 885 1180 m 33 Y s 861 1173 m 16 X s 892 1173 m 17 X s 877 1132 m 15 X s 877 1213 m 15 X s 861 1165 m 15 Y s 909 1165 m 15 Y s 885 1173 m20 933 925 m 28 Y s 933 968 m 28 Y s 909 961 m 16 X s 940 961 m 17 X
 s 925 925 m 15 X s 925 996 m 15 X s 909 953 m 15 Y s 957 953 m 15 Y s 933 961 m20 981 591 m 18 Y s 981 625 m 18 Y s 957 617 m 16 X s 988 617 m 17 X s 973 591 m 15 X s 973 643 m 15 X s 957 609 m 16 Y s 1005 609 m 16 Y s 981 617 m20 1029 354 m 9 Y s
 1029 378 m 9 Y s 1005 370 m 16 X s 1036 370 m 17 X s 1021 354 m 15 X s 1021 387 m 15 X s 1005 363 m 15 Y s 1053 363 m 15 Y s 1029 370 m20 1076 244 m 2 Y s 1076 261 m 2 Y s 1053 254 m 16 X s 1084 254 m 16 X s 1069 244 m 15 X s 1069 263 m 15 X s 1053
 246 m 15 Y s 1100 246 m 15 Y s 1076 254 m20 1100 213 m 17 X s 1132 213 m 16 X s 1100 206 m 15 Y s 1148 206 m 15 Y s 1124 213 m20 1148 207 m 17 X s 1180 207 m 16 X s 1148 199 m 15 Y s 1196 199 m 15 Y s 1172 207 m20 1244 203 m 16 X s 1276 203 m 16 X s
 1244 196 m 15 Y s 1292 196 m 15 Y s 1268 203 m20 black
 gsave  2268 1682 0 0 C 272.126 1244.5 t 0 r /Helvetica-Bold findfont 49.4636 sf 0 0 m (Kolmogorov\255Smirnov test: signal \(background\) probability = 0.0398 \(0.00222\)) show NC gr  238 202 m 1916 X s 300 244 m -42 Y s 364 223 m -21 Y s 428 223 m
 -21 Y s 493 223 m -21 Y s 557 223 m -21 Y s 621 244 m -42 Y s 685 223 m -21 Y s 749 223 m -21 Y s 813 223 m -21 Y s 877 223 m -21 Y s 942 244 m -42 Y s 1006 223 m -21 Y s 1070 223 m -21 Y s 1134 223 m -21 Y s 1198 223 m -21 Y s 1262 244 m -42 Y s
 1326 223 m -21 Y s 1391 223 m -21 Y s 1455 223 m -21 Y s 1519 223 m -21 Y s 1583 244 m -42 Y s 1647 223 m -21 Y s 1711 223 m -21 Y s 1775 223 m -21 Y s 1839 223 m -21 Y s 1904 244 m -42 Y s 300 244 m -42 Y s 1904 244 m -42 Y s 1968 223 m -21 Y s
 2032 223 m -21 Y s 2096 223 m -21 Y s 238 1514 m 1916 X s 300 1471 m 43 Y s 364 1492 m 22 Y s 428 1492 m 22 Y s 493 1492 m 22 Y s 557 1492 m 22 Y s 621 1471 m 43 Y s 685 1492 m 22 Y s 749 1492 m 22 Y s 813 1492 m 22 Y s 877 1492 m 22 Y s 942 1471 m
 43 Y s 1006 1492 m 22 Y s 1070 1492 m 22 Y s 1134 1492 m 22 Y s 1198 1492 m 22 Y s 1262 1471 m 43 Y s 1326 1492 m 22 Y s 1391 1492 m 22 Y s 1455 1492 m 22 Y s 1519 1492 m 22 Y s 1583 1471 m 43 Y s 1647 1492 m 22 Y s 1711 1492 m 22 Y s 1775 1492 m 22
 Y s 1839 1492 m 22 Y s 1904 1471 m 43 Y s 300 1471 m 43 Y s 1904 1471 m 43 Y s 1968 1492 m 22 Y s 2032 1492 m 22 Y s 2096 1492 m 22 Y s 238 202 m 1312 Y s 291 202 m -53 X s 265 252 m -27 X s 265 303 m -27 X s 265 354 m -27 X s 291 404 m -53 X s 265
 455 m -27 X s 265 506 m -27 X s 265 556 m -27 X s 291 607 m -53 X s 265 657 m -27 X s 265 708 m -27 X s 265 759 m -27 X s 291 809 m -53 X s 265 860 m -27 X s 265 910 m -27 X s 265 961 m -27 X s 291 1012 m -53 X s 265 1062 m -27 X s 265 1113 m -27 X
 s 265 1164 m -27 X s 291 1214 m -53 X s 265 1265 m -27 X s 265 1315 m -27 X s 265 1366 m -27 X s 291 1417 m -53 X s 291 1417 m -53 X s 265 1467 m -27 X s 2154 202 m 1312 Y s 2101 202 m 53 X s 2128 252 m 26 X s 2128 303 m 26 X s 2128 354 m 26 X s
 2101 404 m 53 X s 2128 455 m 26 X s 2128 506 m 26 X s 2128 556 m 26 X s 2101 607 m 53 X s 2128 657 m 26 X s 2128 708 m 26 X s 2128 759 m 26 X s 2101 809 m 53 X s 2128 860 m 26 X s 2128 910 m 26 X s 2128 961 m 26 X s 2101 1012 m 53 X s 2128 1062 m 26
 X s 2128 1113 m 26 X s 2128 1164 m 26 X s 2101 1214 m 53 X s 2128 1265 m 26 X s 2128 1315 m 26 X s 2128 1366 m 26 X s 2101 1417 m 53 X s 2101 1417 m 53 X s 2128 1467 m 26 X s
 gsave  2268 1682 0 0 C 2211.02 193.403 t 90 r /Helvetica-Bold findfont 45.6587 sf 0 0 m (U/O\255flow \(S,B\): \(0.0, 0.0\)% / \(0.0, 0.0\)%) show NC gr  0.490196 0.545098 0.615686 c 0.364706 0.419608 0.490196 c 1587 96 23 1577 bf 0.490196 0.545098
 0.615686 c 23 1577 m 1587 X s 1610 1577 m 96 Y s 1610 1673 m -1587 X s 23 1673 m -96 Y s 1 1 1 c black 1 1 1 c
 gsave  2268 1682 0 0 C 72.293 1605.67 t 0 r /Helvetica-Bold findfont 68.4881 sf 0 0 m (TMVA overtraining check for classifier: BDTD) show NC gr 
 gr  gr showpage
end
%%EOF
