%!PS-Adobe-2.0 EPSF-2.0
%%BoundingBox:  0 0 567 420
%%Title: plots/overtrain_PDERSPCA.eps: TMVA comparison PDERSPCA
%%Creator: ROOT Version 5.34/09
%%CreationDate: Thu Jan  2 18:34:06 2014
%%EndComments
%%BeginProlog
80 dict begin
/s {stroke} def /l {lineto} def /m {moveto} def /t {translate} def
/r {rotate} def /rl {roll}  def /R {repeat} def
/d {rlineto} def /rm {rmoveto} def /gr {grestore} def /f {eofill} def
/c {setrgbcolor} def /black {0 setgray} def /sd {setdash} def
/cl {closepath} def /sf {scalefont setfont} def /lw {setlinewidth} def
/box {m dup 0 exch d exch 0 d 0 exch neg d cl} def
/NC{systemdict begin initclip end}def/C{NC box clip newpath}def
/bl {box s} def /bf {box f} def /Y { 0 exch d} def /X { 0 d} def 
/K {{pop pop 0 moveto} exch kshow} bind def
/ita {/ang 15 def gsave [1 0 ang dup sin exch cos div 1 0 0] concat} def 
/mp {newpath /y exch def /x exch def} def
/side {[w .77 mul w .23 mul] .385 w mul sd w 0 l currentpoint t -144 r} def
/mr {mp x y w2 0 360 arc} def /m24 {mr s} def /m20 {mr f} def
/mb {mp x y w2 add m w2 neg 0 d 0 w neg d w 0 d 0 w d cl} def
/mt {mp x y w2 add m w2 neg w neg d w 0 d cl} def
/m21 {mb f} def /m25 {mb s} def /m22 {mt f} def /m26{mt s} def
/m23 {mp x y w2 sub m w2 w d w neg 0 d cl f} def
/m27 {mp x y w2 add m w3 neg w2 neg d w3 w2 neg d w3 w2 d cl s} def
/m28 {mp x w2 sub y w2 sub w3 add m w3 0 d  0 w3 neg d w3 0 d 0 w3 d w3 0 d  0 w3 d w3 neg 0 d 0 w3 d w3 neg 0 d 0 w3 neg d w3 neg 0 d cl s } def
/m29 {mp gsave x w2 sub y w2 add w3 sub m currentpoint t 4 {side} repeat cl fill gr} def
/m30 {mp gsave x w2 sub y w2 add w3 sub m currentpoint t 4 {side} repeat cl s gr} def
/m31 {mp x y w2 sub m 0 w d x w2 sub y m w 0 d x w2 sub y w2 add m w w neg d x w2 sub y w2 sub m w w d s} def
/m32 {mp x y w2 sub m w2 w d w neg 0 d cl s} def
/m33 {mp x y w2 add m w3 neg w2 neg d w3 w2 neg d w3 w2 d cl f} def
/m34 {mp x w2 sub y w2 sub w3 add m w3 0 d  0 w3 neg d w3 0 d 0 w3 d w3 0 d  0 w3 d w3 neg 0 d 0 w3 d w3 neg 0 d 0 w3 neg d w3 neg 0 d cl f } def
/m2 {mp x y w2 sub m 0 w d x w2 sub y m w 0 d s} def
/m5 {mp x w2 sub y w2 sub m w w d x w2 sub y w2 add m w w neg d s} def
/reEncode {exch findfont dup length dict begin {1 index /FID eq  {pop pop} {def} ifelse } forall /Encoding exch def currentdict end dup /FontName get exch definefont pop } def [/Times-Bold /Times-Italic /Times-BoldItalic /Helvetica /Helvetica-Oblique
 /Helvetica-Bold /Helvetica-BoldOblique /Courier /Courier-Oblique /Courier-Bold /Courier-BoldOblique /Times-Roman /AvantGarde-Book /AvantGarde-BookOblique /AvantGarde-Demi /AvantGarde-DemiOblique /Bookman-Demi /Bookman-DemiItalic /Bookman-Light
 /Bookman-LightItalic /Helvetica-Narrow /Helvetica-Narrow-Bold /Helvetica-Narrow-BoldOblique /Helvetica-Narrow-Oblique /NewCenturySchlbk-Roman /NewCenturySchlbk-Bold /NewCenturySchlbk-BoldItalic /NewCenturySchlbk-Italic /Palatino-Bold
 /Palatino-BoldItalic /Palatino-Italic /Palatino-Roman ] {ISOLatin1Encoding reEncode } forall
%%EndProlog
%%BeginSetup
%%EndSetup
newpath  gsave  .25 .25 scale  gsave  0 0 t 0.490196 0.545098 0.615686 c[  ] 0 sd 3 lw 0.941176 0.941176 0.941176 c 2268 1682 0 0 bf black 1 1 0.992157 c 1916 1312 238 202 bf black 1916 1312 238 202 bl 1 1 0.992157 c 1916 1312 238 202 bf black 1916
 1312 238 202 bl 238 202 m 1916 X s
 gsave  2268 1682 0 0 C 1411.62 30.4391 t 0 r /Helvetica-Bold findfont 72.293 sf 0 0 m (PDERSPCA response) show NC gr  266 244 m -42 Y s 324 223 m -21 Y s 381 223 m -21 Y s 439 223 m -21 Y s 496 223 m -21 Y s 553 244 m -42 Y s 611 223 m -21 Y s 668
 223 m -21 Y s 726 223 m -21 Y s 783 223 m -21 Y s 841 244 m -42 Y s 898 223 m -21 Y s 955 223 m -21 Y s 1013 223 m -21 Y s 1070 223 m -21 Y s 1128 244 m -42 Y s 1185 223 m -21 Y s 1242 223 m -21 Y s 1300 223 m -21 Y s 1357 223 m -21 Y s 1415 244 m
 -42 Y s 1472 223 m -21 Y s 1529 223 m -21 Y s 1587 223 m -21 Y s 1644 223 m -21 Y s 1702 244 m -42 Y s 1759 223 m -21 Y s 1817 223 m -21 Y s 1874 223 m -21 Y s 1931 223 m -21 Y s 1989 244 m -42 Y s 266 244 m -42 Y s 1989 244 m -42 Y s 2046 223 m -21
 Y s 2104 223 m -21 Y s
 gsave  2268 1682 0 0 C 220.684 129.366 t 0 r /Helvetica-Bold findfont 64.6832 sf 0 0 m (0.2) show NC gr 
 gsave  2268 1682 0 0 C 506.051 129.366 t 0 r /Helvetica-Bold findfont 64.6832 sf 0 0 m (0.3) show NC gr 
 gsave  2268 1682 0 0 C 791.418 129.366 t 0 r /Helvetica-Bold findfont 64.6832 sf 0 0 m (0.4) show NC gr 
 gsave  2268 1682 0 0 C 1080.59 129.366 t 0 r /Helvetica-Bold findfont 64.6832 sf 0 0 m (0.5) show NC gr 
 gsave  2268 1682 0 0 C 1365.96 129.366 t 0 r /Helvetica-Bold findfont 64.6832 sf 0 0 m (0.6) show NC gr 
 gsave  2268 1682 0 0 C 1655.13 129.366 t 0 r /Helvetica-Bold findfont 64.6832 sf 0 0 m (0.7) show NC gr 
 gsave  2268 1682 0 0 C 1940.5 129.366 t 0 r /Helvetica-Bold findfont 64.6832 sf 0 0 m (0.8) show NC gr  238 1514 m 1916 X s 266 1471 m 43 Y s 324 1492 m 22 Y s 381 1492 m 22 Y s 439 1492 m 22 Y s 496 1492 m 22 Y s 553 1471 m 43 Y s 611 1492 m 22 Y s
 668 1492 m 22 Y s 726 1492 m 22 Y s 783 1492 m 22 Y s 841 1471 m 43 Y s 898 1492 m 22 Y s 955 1492 m 22 Y s 1013 1492 m 22 Y s 1070 1492 m 22 Y s 1128 1471 m 43 Y s 1185 1492 m 22 Y s 1242 1492 m 22 Y s 1300 1492 m 22 Y s 1357 1492 m 22 Y s 1415
 1471 m 43 Y s 1472 1492 m 22 Y s 1529 1492 m 22 Y s 1587 1492 m 22 Y s 1644 1492 m 22 Y s 1702 1471 m 43 Y s 1759 1492 m 22 Y s 1817 1492 m 22 Y s 1874 1492 m 22 Y s 1931 1492 m 22 Y s 1989 1471 m 43 Y s 266 1471 m 43 Y s 1989 1471 m 43 Y s 2046
 1492 m 22 Y s 2104 1492 m 22 Y s 238 202 m 1312 Y s
 gsave  2268 1682 0 0 C 64.6832 1430.64 t 90 r /Helvetica-Bold findfont 72.293 sf 0 0 m (dx) show NC gr 
 gsave  2268 1682 0 0 C 30.4391 1411.62 t 90 r /Helvetica-Bold findfont 45.6587 sf 0 0 m ( ) show NC gr 
 gsave  2268 1682 0 0 C 64.6832 1388.79 t 90 r /Helvetica-Bold findfont 72.293 sf 0 0 m (/) show NC gr 
 gsave  2268 1682 0 0 C 30.4391 1369.76 t 90 r /Helvetica-Bold findfont 45.6587 sf 0 0 m ( ) show NC gr 
 gsave  2268 1682 0 0 C 60.8783 1095.81 t 90 r /Helvetica-Bold findfont 72.293 sf 0 0 m (\(1/N\) dN) show NC gr  291 202 m -53 X s 265 237 m -27 X s 265 272 m -27 X s 265 307 m -27 X s 265 343 m -27 X s 291 378 m -53 X s 265 413 m -27 X s 265 448 m
 -27 X s 265 483 m -27 X s 265 519 m -27 X s 291 554 m -53 X s 265 589 m -27 X s 265 624 m -27 X s 265 659 m -27 X s 265 695 m -27 X s 291 730 m -53 X s 265 765 m -27 X s 265 800 m -27 X s 265 835 m -27 X s 265 871 m -27 X s 291 906 m -53 X s 265 941
 m -27 X s 265 976 m -27 X s 265 1011 m -27 X s 265 1046 m -27 X s 291 1082 m -53 X s 265 1117 m -27 X s 265 1152 m -27 X s 265 1187 m -27 X s 265 1222 m -27 X s 291 1258 m -53 X s 265 1293 m -27 X s 265 1328 m -27 X s 265 1363 m -27 X s 265 1398 m
 -27 X s 291 1434 m -53 X s 291 1434 m -53 X s 265 1469 m -27 X s 265 1504 m -27 X s
 gsave  2268 1682 0 0 C 175.025 178.83 t 0 r /Helvetica-Bold findfont 64.6832 sf 0 0 m (0) show NC gr 
 gsave  2268 1682 0 0 C 182.635 353.855 t 0 r /Helvetica-Bold findfont 64.6832 sf 0 0 m (1) show NC gr 
 gsave  2268 1682 0 0 C 175.025 528.88 t 0 r /Helvetica-Bold findfont 64.6832 sf 0 0 m (2) show NC gr 
 gsave  2268 1682 0 0 C 175.025 703.905 t 0 r /Helvetica-Bold findfont 64.6832 sf 0 0 m (3) show NC gr 
 gsave  2268 1682 0 0 C 175.025 882.735 t 0 r /Helvetica-Bold findfont 64.6832 sf 0 0 m (4) show NC gr 
 gsave  2268 1682 0 0 C 175.025 1057.76 t 0 r /Helvetica-Bold findfont 64.6832 sf 0 0 m (5) show NC gr 
 gsave  2268 1682 0 0 C 175.025 1232.79 t 0 r /Helvetica-Bold findfont 64.6832 sf 0 0 m (6) show NC gr 
 gsave  2268 1682 0 0 C 175.025 1407.81 t 0 r /Helvetica-Bold findfont 64.6832 sf 0 0 m (7) show NC gr  2154 202 m 1312 Y s 2101 202 m 53 X s 2128 237 m 26 X s 2128 272 m 26 X s 2128 307 m 26 X s 2128 343 m 26 X s 2101 378 m 53 X s 2128 413 m 26 X s
 2128 448 m 26 X s 2128 483 m 26 X s 2128 519 m 26 X s 2101 554 m 53 X s 2128 589 m 26 X s 2128 624 m 26 X s 2128 659 m 26 X s 2128 695 m 26 X s 2101 730 m 53 X s 2128 765 m 26 X s 2128 800 m 26 X s 2128 835 m 26 X s 2128 871 m 26 X s 2101 906 m 53 X
 s 2128 941 m 26 X s 2128 976 m 26 X s 2128 1011 m 26 X s 2128 1046 m 26 X s 2101 1082 m 53 X s 2128 1117 m 26 X s 2128 1152 m 26 X s 2128 1187 m 26 X s 2128 1222 m 26 X s 2101 1258 m 53 X s 2128 1293 m 26 X s 2128 1328 m 26 X s 2128 1363 m 26 X s
 2128 1398 m 26 X s 2101 1434 m 53 X s 2101 1434 m 53 X s 2128 1469 m 26 X s 2128 1504 m 26 X s 0.490196 0.545098 0.615686 c 0.95 0.95 0.95 c 0.490196 0.545098 0.615686 c 907 202 238 1312 bl 238 1312 m 907 X s 1145 1312 m 202 Y s 1145 1514 m -907 X s
 238 1514 m -202 Y s black
 gsave  2268 1682 0 0 C 418.538 1445.86 t 0 r /Times-Italic findfont 57.0734 sf 0 0 m (Signal \(test sample\)) show NC gr  0.49 0.6 0.82 c 265 1428 m 127 X 70 Y -127 X f 0 0 0.933333 c 265 1498 m 127 X s 265 1428 m 127 X s 392 1428 m 70 Y s 265 1428
 m 70 Y s black
 gsave  2268 1682 0 0 C 418.538 1350.74 t 0 r /Times-Italic findfont 57.0734 sf 0 0 m (Background \(test sample\)) show NC gr  1 0 0 c 392 1354 m -27 -27 d s 387 1398 m -70 -71 d s 339 1398 m -70 -71 d s 291 1398 m -26 -26 d s 0 lw 0 0 0.933333 c 1 0
 0 c 3 lw 265 1398 m 127 X s 265 1327 m 127 X s 392 1327 m 71 Y s 265 1327 m 71 Y s 0 0 0.933333 c 0.49 0.6 0.82 c black 0.49 0.6 0.82 c 238 202 m 2 Y 48 X 7 Y 48 X -2 Y 48 X -3 Y 96 X 22 Y 48 X 16 Y 47 X 42 Y 48 X 26 Y 48 X 98 Y 48 X 21 Y 48 X -35 Y
 48 X 137 Y 48 X 92 Y 48 X 102 Y 48 X -53 Y 48 X 301 Y 48 X 182 Y 47 X -96 Y 48 X 35 Y 48 X -95 Y 48 X -199 Y 48 X -215 Y 48 X 7 Y 48 X -84 Y 48 X -103 Y 48 X -56 Y 48 X 17 Y 47 X 60 Y 48 X -42 Y 48 X -42 Y 48 X 112 Y 48 X -102 Y 48 X -112 Y 48 X 11
 Y 48 X 47 Y 48 X 30 Y 48 X -42 Y 48 X -68 Y 47 X -16 Y 48 X -2 Y f 0 0 0.933333 c 0.49 0.6 0.82 c 0 0 0.933333 c 238 204 m 48 X 7 Y 48 X -2 Y 48 X -3 Y 96 X 22 Y 48 X 16 Y 47 X 42 Y 48 X 26 Y 48 X 98 Y 48 X 21 Y 48 X -35 Y 48 X 137 Y 48 X 92 Y 48 X
 102 Y 48 X -53 Y 48 X 301 Y 48 X 182 Y 47 X -96 Y 48 X 35 Y 48 X -95 Y 48 X -199 Y 48 X -215 Y 48 X 7 Y 48 X -84 Y 48 X -103 Y 48 X -56 Y 48 X 17 Y 47 X 60 Y 48 X -42 Y 48 X -42 Y 48 X 112 Y 48 X -102 Y 48 X -112 Y 48 X 11 Y 48 X 47 Y 48 X 30 Y 48 X
 -42 Y 48 X -68 Y 47 X -16 Y 48 X -2 Y s 1 0 0 c black 1 0 0 c 2126 202 m s 2078 202 m s 2035 207 m -5 -5 d s 2000 220 m -18 -18 d s 1936 204 m -2 -2 d s 1911 228 m -25 -26 d s 1867 231 m -30 -29 d s 1831 243 m -42 -41 d s 1780 241 m -39 -39 d s 1761
 269 m -68 -67 d s 1715 272 m -70 -70 d s 1644 249 m -17 -17 d s 1623 228 m -26 -26 d s 1579 233 m -30 -31 d s 1579 281 m -78 -79 d s 1549 298 m -17 -17 d s 1515 264 m -62 -62 d s 1484 281 m -80 -79 d s 1484 329 m -128 -127 d s 1456 350 m -148 -148 d
 s 1395 337 m -135 -135 d s 1388 378 m -176 -176 d s 1361 399 m -197 -197 d s 1340 426 m -224 -224 d s 1319 453 m -251 -251 d s 1292 474 m -272 -272 d s 1292 522 m -320 -320 d s 1292 570 m -369 -368 d s 1262 588 m -387 -386 d s 1244 619 m -417 -417 d
 s 1244 667 m -465 -465 d s 1244 715 m -513 -513 d s 1225 744 m -542 -542 d s 1196 763 m -561 -561 d s 1196 811 m -609 -609 d s 1196 859 m -657 -657 d s 1191 902 m -701 -700 d s 1148 908 m -706 -706 d s 1148 956 m -335 -335 d s 796 604 m -127 -127 d
 s 651 459 m -30 -30 d s 610 417 m -84 -84 d s 511 319 m -33 -34 d s 462 269 m -68 -67 d s 1148 1004 m -335 -335 d s 765 621 m -48 -48 d s 676 531 m -7 -6 d s 528 383 m -2 -2 d s 429 285 m -47 -47 d s 351 207 m -5 -5 d s 1136 1040 m -323 -323 d s 765
 669 m -48 -48 d s 298 202 m cl s 1100 1052 m -287 -287 d s 727 679 m -10 -10 d s 263 215 m -13 -13 d s 1100 1100 m -47 -47 d s 1050 1050 m -45 -45 d s 1001 1001 m -44 -44 d s 954 954 m -45 -45 d s 887 887 m -26 -26 d s 837 837 m -24 -24 d s 1100
 1149 m -47 -48 d s 1084 1180 m -31 -31 d s 0 lw 3 lw 238 215 m 48 X -13 Y 48 X 5 Y 48 X 78 Y 48 X -16 Y 48 X 50 Y 48 X 64 Y 47 X 34 Y 48 X 42 Y 48 X 72 Y 48 X 148 Y 48 X -75 Y 48 X 233 Y 48 X 50 Y 48 X 67 Y 48 X 47 Y 48 X 49 Y 48 X 130 Y 47 X -140 Y
 48 X -138 Y 48 X -158 Y 48 X -156 Y 48 X -135 Y 48 X -54 Y 48 X -62 Y 48 X 13 Y 48 X -86 Y 48 X 34 Y 47 X -70 Y 48 X 21 Y 48 X 23 Y 48 X -3 Y 48 X -28 Y 48 X 2 Y 48 X -15 Y 48 X -24 Y 48 X 16 Y 48 X -13 Y 48 X -5 Y 95 X s 0.490196 0.545098 0.615686
 c 0.95 0.95 0.95 c 0.490196 0.545098 0.615686 c 952 202 1202 1312 bl 1202 1312 m 952 X s 2154 1312 m 202 Y s 2154 1514 m -952 X s 1202 1514 m -202 Y s black
 gsave  2268 1682 0 0 C 1293.66 1445.86 t 0 r /Times-Italic findfont 57.0734 sf 0 0 m (Signal \(training sample\)) show NC gr  0 0 0.933333 c /w 21 def /w2 {w 2 div} def /w3 {w 3 div} def 1250 1463 m20 black
 gsave  2268 1682 0 0 C 1293.66 1350.74 t 0 r /Times-Italic findfont 57.0734 sf 0 0 m (Background \(training sample\)) show NC gr  1 0 0 c 1250 1362 m20 0 0 0.933333 c 1 1 1 c 0 0 0.933333 c 238 206 m 16 X s 270 206 m 16 X s 238 199 m 15 Y s 286 199
 m 15 Y s 262 206 m20 286 204 m 16 X s 318 204 m 16 X s 286 197 m 15 Y s 334 197 m 15 Y s 310 204 m20 334 204 m 16 X s 365 204 m 17 X s 334 197 m 15 Y s 382 197 m 15 Y s 358 204 m20 382 220 m 16 X s 413 220 m 17 X s 382 213 m 15 Y s 430 213 m 15 Y s
 406 220 m20 430 211 m 16 X s 461 211 m 17 X s 430 204 m 15 Y s 478 204 m 15 Y s 454 211 m20 502 222 m s 502 237 m 1 Y s 478 230 m 16 X s 509 230 m 17 X s 494 222 m 15 X s 494 238 m 15 X s 478 222 m 15 Y s 526 222 m 15 Y s 502 230 m20 549 226 m 1 Y s
 549 242 m 1 Y s 526 235 m 16 X s 557 235 m 16 X s 542 226 m 15 X s 542 243 m 15 X s 526 227 m 15 Y s 573 227 m 15 Y s 549 235 m20 597 298 m 8 Y s 597 322 m 8 Y s 573 314 m 17 X s 605 314 m 16 X s 590 298 m 15 X s 590 330 m 15 X s 573 306 m 16 Y s
 621 306 m 16 Y s 597 314 m20 645 296 m 8 Y s 645 319 m 9 Y s 621 312 m 17 X s 653 312 m 16 X s 638 296 m 15 X s 638 328 m 15 X s 621 304 m 15 Y s 669 304 m 15 Y s 645 312 m20 693 339 m 12 Y s 693 366 m 11 Y s 669 358 m 17 X s 701 358 m 16 X s 686
 339 m 15 X s 686 377 m 15 X s 669 351 m 15 Y s 717 351 m 15 Y s 693 358 m20 741 383 m 14 Y s 741 413 m 14 Y s 717 405 m 17 X s 749 405 m 16 X s 734 383 m 15 X s 734 427 m 15 X s 717 397 m 16 Y s 765 397 m 16 Y s 741 405 m20 789 416 m 16 Y s 789 448
 m 16 Y s 765 440 m 16 X s 797 440 m 16 X s 781 416 m 16 X s 781 464 m 16 X s 765 432 m 16 Y s 813 432 m 16 Y s 789 440 m20 837 526 m 21 Y s 837 562 m 21 Y s 813 554 m 16 X s 845 554 m 16 X s 829 526 m 16 X s 829 583 m 16 X s 813 547 m 15 Y s 861 547
 m 15 Y s 837 554 m20 885 557 m 23 Y s 885 595 m 22 Y s 861 587 m 16 X s 892 587 m 17 X s 877 557 m 15 X s 877 617 m 15 X s 861 580 m 15 Y s 909 580 m 15 Y s 885 587 m20 933 665 m 27 Y s 933 707 m 26 Y s 909 699 m 16 X s 940 699 m 17 X s 925 665 m 15
 X s 925 733 m 15 X s 909 692 m 15 Y s 957 692 m 15 Y s 933 699 m20 981 676 m 27 Y s 981 719 m 26 Y s 957 711 m 16 X s 988 711 m 17 X s 973 676 m 15 X s 973 745 m 15 X s 957 703 m 16 Y s 1005 703 m 16 Y s 981 711 m20 1029 889 m 34 Y s 1029 938 m 34 Y
 s 1005 930 m 16 X s 1036 930 m 17 X s 1021 889 m 15 X s 1021 972 m 15 X s 1005 923 m 15 Y s 1053 923 m 15 Y s 1029 930 m20 1076 1012 m 37 Y s 1076 1064 m 37 Y s 1053 1057 m 16 X s 1084 1057 m 16 X s 1069 1012 m 15 X s 1069 1101 m 15 X s 1053 1049 m
 15 Y s 1100 1049 m 15 Y s 1076 1057 m20 1124 1069 m 38 Y s 1124 1123 m 38 Y s 1100 1115 m 17 X s 1132 1115 m 16 X s 1117 1069 m 15 X s 1117 1161 m 15 X s 1100 1107 m 16 Y s 1148 1107 m 16 Y s 1124 1115 m20 1172 991 m 37 Y s 1172 1043 m 37 Y s 1148
 1036 m 17 X s 1180 1036 m 16 X s 1165 991 m 15 X s 1165 1080 m 15 X s 1148 1028 m 15 Y s 1196 1028 m 15 Y s 1172 1036 m20 1220 951 m 35 Y s 1220 1001 m 36 Y s 1196 994 m 17 X s 1228 994 m 16 X s 1213 951 m 15 X s 1213 1037 m 15 X s 1196 986 m 15 Y s
 1244 986 m 15 Y s 1220 994 m20 1268 749 m 29 Y s 1268 793 m 30 Y s 1244 786 m 16 X s 1276 786 m 16 X s 1260 749 m 16 X s 1260 823 m 16 X s 1244 778 m 15 Y s 1292 778 m 15 Y s 1268 786 m20 1316 665 m 27 Y s 1316 707 m 26 Y s 1292 699 m 16 X s 1324
 699 m 16 X s 1308 665 m 16 X s 1308 733 m 16 X s 1292 692 m 15 Y s 1340 692 m 15 Y s 1316 699 m20 1364 616 m 24 Y s 1364 655 m 25 Y s 1340 648 m 16 X s 1371 648 m 17 X s 1356 616 m 15 X s 1356 680 m 15 X s 1340 640 m 15 Y s 1388 640 m 15 Y s 1364
 648 m20 1412 456 m 18 Y s 1412 490 m 18 Y s 1388 482 m 16 X s 1419 482 m 17 X s 1404 456 m 15 X s 1404 508 m 15 X s 1388 474 m 16 Y s 1436 474 m 16 Y s 1412 482 m20 1460 416 m 16 Y s 1460 448 m 16 Y s 1436 440 m 16 X s 1467 440 m 17 X s 1452 416 m
 15 X s 1452 464 m 15 X s 1436 432 m 16 Y s 1484 432 m 16 Y s 1460 440 m20 1508 346 m 12 Y s 1508 373 m 12 Y s 1484 365 m 16 X s 1515 365 m 17 X s 1500 346 m 15 X s 1500 385 m 15 X s 1484 358 m 15 Y s 1532 358 m 15 Y s 1508 365 m20 1556 366 m 13 Y s
 1556 394 m 13 Y s 1532 386 m 16 X s 1563 386 m 16 X s 1548 366 m 15 X s 1548 407 m 15 X s 1532 379 m 15 Y s 1579 379 m 15 Y s 1556 386 m20 1603 377 m 13 Y s 1603 406 m 13 Y s 1579 398 m 17 X s 1611 398 m 16 X s 1596 377 m 15 X s 1596 419 m 15 X s
 1579 390 m 16 Y s 1627 390 m 16 Y s 1603 398 m20 1651 335 m 11 Y s 1651 361 m 11 Y s 1627 354 m 17 X s 1659 354 m 16 X s 1644 335 m 15 X s 1644 372 m 15 X s 1627 346 m 15 Y s 1675 346 m 15 Y s 1651 354 m20 1699 322 m 10 Y s 1699 347 m 11 Y s 1675
 340 m 17 X s 1707 340 m 16 X s 1692 322 m 15 X s 1692 358 m 15 X s 1675 332 m 15 Y s 1723 332 m 15 Y s 1699 340 m20 1747 432 m 17 Y s 1747 464 m 17 Y s 1723 456 m 17 X s 1755 456 m 16 X s 1740 432 m 15 X s 1740 481 m 15 X s 1723 449 m 15 Y s 1771
 449 m 15 Y s 1747 456 m20 1795 328 m 11 Y s 1795 354 m 11 Y s 1771 347 m 16 X s 1803 347 m 16 X s 1787 328 m 16 X s 1787 365 m 16 X s 1771 339 m 15 Y s 1819 339 m 15 Y s 1795 347 m20 1843 240 m 3 Y s 1843 258 m 4 Y s 1819 251 m 16 X s 1851 251 m 16
 X s 1835 240 m 16 X s 1835 262 m 16 X s 1819 243 m 15 Y s 1867 243 m 15 Y s 1843 251 m20 1891 232 m 2 Y s 1891 249 m 2 Y s 1867 242 m 16 X s 1898 242 m 17 X s 1883 232 m 15 X s 1883 251 m 15 X s 1867 234 m 15 Y s 1915 234 m 15 Y s 1891 242 m20 1939
 280 m 8 Y s 1939 303 m 7 Y s 1915 295 m 16 X s 1946 295 m 17 X s 1931 280 m 15 X s 1931 310 m 15 X s 1915 288 m 15 Y s 1963 288 m 15 Y s 1939 295 m20 1987 359 m 13 Y s 1987 387 m 13 Y s 1963 379 m 16 X s 1994 379 m 17 X s 1979 359 m 15 X s 1979 400
 m 15 X s 1963 372 m 15 Y s 2011 372 m 15 Y s 1987 379 m20 2035 287 m 8 Y s 2035 310 m 8 Y s 2011 302 m 16 X s 2042 302 m 17 X s 2027 287 m 15 X s 2027 318 m 15 X s 2011 295 m 15 Y s 2059 295 m 15 Y s 2035 302 m20 2059 223 m 16 X s 2090 223 m 16 X s
 2059 215 m 15 Y s 2106 215 m 15 Y s 2082 223 m20 1 0 0 c 1 1 1 c 1 0 0 c 238 210 m 16 X s 270 210 m 16 X s 238 202 m 15 Y s 286 202 m 15 Y s 262 210 m20 334 215 m 16 X s 365 215 m 17 X s 334 207 m 15 Y s 382 207 m 15 Y s 358 215 m20 406 258 m 6 Y s
 406 279 m 6 Y s 382 272 m 16 X s 413 272 m 17 X s 398 258 m 15 X s 398 285 m 15 X s 382 264 m 15 Y s 430 264 m 15 Y s 406 272 m20 454 247 m 4 Y s 454 266 m 5 Y s 430 259 m 16 X s 461 259 m 17 X s 446 247 m 15 X s 446 271 m 15 X s 430 251 m 15 Y s
 478 251 m 15 Y s 454 259 m20 502 301 m 10 Y s 502 326 m 10 Y s 478 319 m 16 X s 509 319 m 17 X s 494 301 m 15 X s 494 336 m 15 X s 478 311 m 15 Y s 526 311 m 15 Y s 502 319 m20 549 340 m 12 Y s 549 368 m 12 Y s 526 360 m 16 X s 557 360 m 16 X s 542
 340 m 15 X s 542 380 m 15 X s 526 352 m 16 Y s 573 352 m 16 Y s 549 360 m20 597 403 m 17 Y s 597 435 m 17 Y s 573 427 m 17 X s 605 427 m 16 X s 590 403 m 15 X s 590 452 m 15 X s 573 420 m 15 Y s 621 420 m 15 Y s 597 427 m20 645 423 m 18 Y s 645 456
 m 18 Y s 621 448 m 17 X s 653 448 m 16 X s 638 423 m 15 X s 638 474 m 15 X s 621 441 m 15 Y s 669 441 m 15 Y s 645 448 m20 693 495 m 21 Y s 693 531 m 21 Y s 669 523 m 17 X s 701 523 m 16 X s 686 495 m 15 X s 686 552 m 15 X s 669 516 m 15 Y s 717 516
 m 15 Y s 693 523 m20 741 701 m 30 Y s 741 746 m 30 Y s 717 739 m 17 X s 749 739 m 16 X s 734 701 m 15 X s 734 776 m 15 X s 717 731 m 15 Y s 765 731 m 15 Y s 741 739 m20 789 547 m 23 Y s 789 586 m 23 Y s 765 578 m 16 X s 797 578 m 16 X s 781 547 m 16
 X s 781 609 m 16 X s 765 570 m 16 Y s 813 570 m 16 Y s 789 578 m20 837 829 m 34 Y s 837 879 m 34 Y s 813 871 m 16 X s 845 871 m 16 X s 829 829 m 16 X s 829 913 m 16 X s 813 863 m 16 Y s 861 863 m 16 Y s 837 871 m20 885 824 m 34 Y s 885 873 m 34 Y s
 861 866 m 16 X s 892 866 m 17 X s 877 824 m 15 X s 877 907 m 15 X s 861 858 m 15 Y s 909 858 m 15 Y s 885 866 m20 933 844 m 35 Y s 933 894 m 35 Y s 909 887 m 16 X s 940 887 m 17 X s 925 844 m 15 X s 925 929 m 15 X s 909 879 m 15 Y s 957 879 m 15 Y s
 933 887 m20 981 1132 m 43 Y s 981 1190 m 43 Y s 957 1182 m 16 X s 988 1182 m 17 X s 973 1132 m 15 X s 973 1233 m 15 X s 957 1175 m 15 Y s 1005 1175 m 15 Y s 981 1182 m20 1029 1160 m 43 Y s 1029 1218 m 44 Y s 1005 1211 m 16 X s 1036 1211 m 17 X s
 1021 1160 m 15 X s 1021 1262 m 15 X s 1005 1203 m 15 Y s 1053 1203 m 15 Y s 1029 1211 m20 1076 1099 m 42 Y s 1076 1156 m 42 Y s 1053 1149 m 16 X s 1084 1149 m 16 X s 1069 1099 m 15 X s 1069 1198 m 15 X s 1053 1141 m 15 Y s 1100 1141 m 15 Y s 1076
 1149 m20 1124 1006 m 39 Y s 1124 1060 m 40 Y s 1100 1053 m 17 X s 1132 1053 m 16 X s 1117 1006 m 15 X s 1117 1100 m 15 X s 1100 1045 m 15 Y s 1148 1045 m 15 Y s 1124 1053 m20 1172 787 m 32 Y s 1172 835 m 32 Y s 1148 827 m 17 X s 1180 827 m 16 X s
 1165 787 m 15 X s 1165 867 m 15 X s 1148 819 m 16 Y s 1196 819 m 16 Y s 1172 827 m20 1220 631 m 28 Y s 1220 674 m 27 Y s 1196 666 m 17 X s 1228 666 m 16 X s 1213 631 m 15 X s 1213 701 m 15 X s 1196 659 m 15 Y s 1244 659 m 15 Y s 1220 666 m20 1268
 539 m 24 Y s 1268 578 m 23 Y s 1244 570 m 16 X s 1276 570 m 16 X s 1260 539 m 16 X s 1260 601 m 16 X s 1244 563 m 15 Y s 1292 563 m 15 Y s 1268 570 m20 1316 386 m 16 Y s 1316 417 m 16 Y s 1292 409 m 16 X s 1324 409 m 16 X s 1308 386 m 16 X s 1308
 433 m 16 X s 1292 402 m 15 Y s 1340 402 m 15 Y s 1316 409 m20 1364 352 m 13 Y s 1364 381 m 13 Y s 1340 373 m 16 X s 1371 373 m 17 X s 1356 352 m 15 X s 1356 394 m 15 X s 1340 365 m 16 Y s 1388 365 m 16 Y s 1364 373 m20 1412 294 m 9 Y s 1412 318 m 10
 Y s 1388 311 m 16 X s 1419 311 m 17 X s 1404 294 m 15 X s 1404 328 m 15 X s 1388 303 m 15 Y s 1436 303 m 15 Y s 1412 311 m20 1460 292 m 9 Y s 1460 316 m 9 Y s 1436 308 m 16 X s 1467 308 m 17 X s 1452 292 m 15 X s 1452 325 m 15 X s 1436 301 m 15 Y s
 1484 301 m 15 Y s 1460 308 m20 1508 270 m 7 Y s 1508 292 m 7 Y s 1484 285 m 16 X s 1515 285 m 17 X s 1500 270 m 15 X s 1500 299 m 15 X s 1484 277 m 15 Y s 1532 277 m 15 Y s 1508 285 m20 1556 282 m 8 Y s 1556 305 m 9 Y s 1532 298 m 16 X s 1563 298 m
 16 X s 1548 282 m 15 X s 1548 314 m 15 X s 1532 290 m 15 Y s 1579 290 m 15 Y s 1556 298 m20 1603 226 m 2 Y s 1603 243 m 2 Y s 1579 236 m 17 X s 1611 236 m 16 X s 1596 226 m 15 X s 1596 245 m 15 X s 1579 228 m 15 Y s 1627 228 m 15 Y s 1603 236 m20
 1651 270 m 7 Y s 1651 292 m 7 Y s 1627 285 m 17 X s 1659 285 m 16 X s 1644 270 m 15 X s 1644 299 m 15 X s 1627 277 m 15 Y s 1675 277 m 15 Y s 1651 285 m20 1699 237 m 4 Y s 1699 256 m 4 Y s 1675 249 m 17 X s 1707 249 m 16 X s 1692 237 m 15 X s 1692
 260 m 15 X s 1675 241 m 15 Y s 1723 241 m 15 Y s 1699 249 m20 1747 247 m 4 Y s 1747 266 m 5 Y s 1723 259 m 17 X s 1755 259 m 16 X s 1740 247 m 15 X s 1740 271 m 15 X s 1723 251 m 15 Y s 1771 251 m 15 Y s 1747 259 m20 1795 261 m 6 Y s 1795 282 m 6 Y
 s 1771 274 m 16 X s 1803 274 m 16 X s 1787 261 m 16 X s 1787 288 m 16 X s 1771 267 m 15 Y s 1819 267 m 15 Y s 1795 274 m20 1843 233 m 3 Y s 1843 251 m 3 Y s 1819 243 m 16 X s 1851 243 m 16 X s 1835 233 m 16 X s 1835 254 m 16 X s 1819 236 m 15 Y s
 1867 236 m 15 Y s 1843 243 m20 1891 224 m 1 Y s 1891 241 m 1 Y s 1867 233 m 16 X s 1898 233 m 17 X s 1883 224 m 15 X s 1883 242 m 15 X s 1867 225 m 16 Y s 1915 225 m 16 Y s 1891 233 m20 1963 212 m 16 X s 1994 212 m 17 X s 1963 205 m 15 Y s 2011 205
 m 15 Y s 1987 212 m20 2011 204 m 16 X s 2042 204 m 17 X s 2011 197 m 15 Y s 2059 197 m 15 Y s 2035 204 m20 black
 gsave  2268 1682 0 0 C 272.126 1244.5 t 0 r /Helvetica-Bold findfont 49.4636 sf 0 0 m (Kolmogorov\255Smirnov test: signal \(background\) probability = 0.494 \( 0.14\)) show NC gr  238 202 m 1916 X s 266 244 m -42 Y s 324 223 m -21 Y s 381 223 m -21
 Y s 439 223 m -21 Y s 496 223 m -21 Y s 553 244 m -42 Y s 611 223 m -21 Y s 668 223 m -21 Y s 726 223 m -21 Y s 783 223 m -21 Y s 841 244 m -42 Y s 898 223 m -21 Y s 955 223 m -21 Y s 1013 223 m -21 Y s 1070 223 m -21 Y s 1128 244 m -42 Y s 1185 223
 m -21 Y s 1242 223 m -21 Y s 1300 223 m -21 Y s 1357 223 m -21 Y s 1415 244 m -42 Y s 1472 223 m -21 Y s 1529 223 m -21 Y s 1587 223 m -21 Y s 1644 223 m -21 Y s 1702 244 m -42 Y s 1759 223 m -21 Y s 1817 223 m -21 Y s 1874 223 m -21 Y s 1931 223 m
 -21 Y s 1989 244 m -42 Y s 266 244 m -42 Y s 1989 244 m -42 Y s 2046 223 m -21 Y s 2104 223 m -21 Y s 238 1514 m 1916 X s 266 1471 m 43 Y s 324 1492 m 22 Y s 381 1492 m 22 Y s 439 1492 m 22 Y s 496 1492 m 22 Y s 553 1471 m 43 Y s 611 1492 m 22 Y s
 668 1492 m 22 Y s 726 1492 m 22 Y s 783 1492 m 22 Y s 841 1471 m 43 Y s 898 1492 m 22 Y s 955 1492 m 22 Y s 1013 1492 m 22 Y s 1070 1492 m 22 Y s 1128 1471 m 43 Y s 1185 1492 m 22 Y s 1242 1492 m 22 Y s 1300 1492 m 22 Y s 1357 1492 m 22 Y s 1415
 1471 m 43 Y s 1472 1492 m 22 Y s 1529 1492 m 22 Y s 1587 1492 m 22 Y s 1644 1492 m 22 Y s 1702 1471 m 43 Y s 1759 1492 m 22 Y s 1817 1492 m 22 Y s 1874 1492 m 22 Y s 1931 1492 m 22 Y s 1989 1471 m 43 Y s 266 1471 m 43 Y s 1989 1471 m 43 Y s 2046
 1492 m 22 Y s 2104 1492 m 22 Y s 238 202 m 1312 Y s 291 202 m -53 X s 265 237 m -27 X s 265 272 m -27 X s 265 307 m -27 X s 265 343 m -27 X s 291 378 m -53 X s 265 413 m -27 X s 265 448 m -27 X s 265 483 m -27 X s 265 519 m -27 X s 291 554 m -53 X s
 265 589 m -27 X s 265 624 m -27 X s 265 659 m -27 X s 265 695 m -27 X s 291 730 m -53 X s 265 765 m -27 X s 265 800 m -27 X s 265 835 m -27 X s 265 871 m -27 X s 291 906 m -53 X s 265 941 m -27 X s 265 976 m -27 X s 265 1011 m -27 X s 265 1046 m -27
 X s 291 1082 m -53 X s 265 1117 m -27 X s 265 1152 m -27 X s 265 1187 m -27 X s 265 1222 m -27 X s 291 1258 m -53 X s 265 1293 m -27 X s 265 1328 m -27 X s 265 1363 m -27 X s 265 1398 m -27 X s 291 1434 m -53 X s 291 1434 m -53 X s 265 1469 m -27 X
 s 265 1504 m -27 X s 2154 202 m 1312 Y s 2101 202 m 53 X s 2128 237 m 26 X s 2128 272 m 26 X s 2128 307 m 26 X s 2128 343 m 26 X s 2101 378 m 53 X s 2128 413 m 26 X s 2128 448 m 26 X s 2128 483 m 26 X s 2128 519 m 26 X s 2101 554 m 53 X s 2128 589 m
 26 X s 2128 624 m 26 X s 2128 659 m 26 X s 2128 695 m 26 X s 2101 730 m 53 X s 2128 765 m 26 X s 2128 800 m 26 X s 2128 835 m 26 X s 2128 871 m 26 X s 2101 906 m 53 X s 2128 941 m 26 X s 2128 976 m 26 X s 2128 1011 m 26 X s 2128 1046 m 26 X s 2101
 1082 m 53 X s 2128 1117 m 26 X s 2128 1152 m 26 X s 2128 1187 m 26 X s 2128 1222 m 26 X s 2101 1258 m 53 X s 2128 1293 m 26 X s 2128 1328 m 26 X s 2128 1363 m 26 X s 2128 1398 m 26 X s 2101 1434 m 53 X s 2101 1434 m 53 X s 2128 1469 m 26 X s 2128
 1504 m 26 X s
 gsave  2268 1682 0 0 C 2211.02 193.403 t 90 r /Helvetica-Bold findfont 45.6587 sf 0 0 m (U/O\255flow \(S,B\): \(0.0, 0.0\)% / \(0.0, 0.0\)%) show NC gr  0.490196 0.545098 0.615686 c 0.364706 0.419608 0.490196 c 1587 96 23 1577 bf 0.490196 0.545098
 0.615686 c 23 1577 m 1587 X s 1610 1577 m 96 Y s 1610 1673 m -1587 X s 23 1673 m -96 Y s 1 1 1 c black 1 1 1 c
 gsave  2268 1682 0 0 C 68.4881 1609.47 t 0 r /Helvetica-Bold findfont 60.8783 sf 0 0 m (TMVA overtraining check for classifier: PDERSPCA) show NC gr 
 gr  gr showpage
end
%%EOF
