%!PS-Adobe-2.0 EPSF-2.0
%%BoundingBox:  0 0 567 420
%%Title: plots/proba_MLP.eps: TMVA probability MLP
%%Creator: ROOT Version 5.34/09
%%CreationDate: Wed Dec 18 11:44:37 2013
%%EndComments
%%BeginProlog
80 dict begin
/s {stroke} def /l {lineto} def /m {moveto} def /t {translate} def
/r {rotate} def /rl {roll}  def /R {repeat} def
/d {rlineto} def /rm {rmoveto} def /gr {grestore} def /f {eofill} def
/c {setrgbcolor} def /black {0 setgray} def /sd {setdash} def
/cl {closepath} def /sf {scalefont setfont} def /lw {setlinewidth} def
/box {m dup 0 exch d exch 0 d 0 exch neg d cl} def
/NC{systemdict begin initclip end}def/C{NC box clip newpath}def
/bl {box s} def /bf {box f} def /Y { 0 exch d} def /X { 0 d} def 
/K {{pop pop 0 moveto} exch kshow} bind def
/ita {/ang 15 def gsave [1 0 ang dup sin exch cos div 1 0 0] concat} def 
/mp {newpath /y exch def /x exch def} def
/side {[w .77 mul w .23 mul] .385 w mul sd w 0 l currentpoint t -144 r} def
/mr {mp x y w2 0 360 arc} def /m24 {mr s} def /m20 {mr f} def
/mb {mp x y w2 add m w2 neg 0 d 0 w neg d w 0 d 0 w d cl} def
/mt {mp x y w2 add m w2 neg w neg d w 0 d cl} def
/m21 {mb f} def /m25 {mb s} def /m22 {mt f} def /m26{mt s} def
/m23 {mp x y w2 sub m w2 w d w neg 0 d cl f} def
/m27 {mp x y w2 add m w3 neg w2 neg d w3 w2 neg d w3 w2 d cl s} def
/m28 {mp x w2 sub y w2 sub w3 add m w3 0 d  0 w3 neg d w3 0 d 0 w3 d w3 0 d  0 w3 d w3 neg 0 d 0 w3 d w3 neg 0 d 0 w3 neg d w3 neg 0 d cl s } def
/m29 {mp gsave x w2 sub y w2 add w3 sub m currentpoint t 4 {side} repeat cl fill gr} def
/m30 {mp gsave x w2 sub y w2 add w3 sub m currentpoint t 4 {side} repeat cl s gr} def
/m31 {mp x y w2 sub m 0 w d x w2 sub y m w 0 d x w2 sub y w2 add m w w neg d x w2 sub y w2 sub m w w d s} def
/m32 {mp x y w2 sub m w2 w d w neg 0 d cl s} def
/m33 {mp x y w2 add m w3 neg w2 neg d w3 w2 neg d w3 w2 d cl f} def
/m34 {mp x w2 sub y w2 sub w3 add m w3 0 d  0 w3 neg d w3 0 d 0 w3 d w3 0 d  0 w3 d w3 neg 0 d 0 w3 d w3 neg 0 d 0 w3 neg d w3 neg 0 d cl f } def
/m2 {mp x y w2 sub m 0 w d x w2 sub y m w 0 d s} def
/m5 {mp x w2 sub y w2 sub m w w d x w2 sub y w2 add m w w neg d s} def
/reEncode {exch findfont dup length dict begin {1 index /FID eq  {pop pop} {def} ifelse } forall /Encoding exch def currentdict end dup /FontName get exch definefont pop } def [/Times-Bold /Times-Italic /Times-BoldItalic /Helvetica /Helvetica-Oblique
 /Helvetica-Bold /Helvetica-BoldOblique /Courier /Courier-Oblique /Courier-Bold /Courier-BoldOblique /Times-Roman /AvantGarde-Book /AvantGarde-BookOblique /AvantGarde-Demi /AvantGarde-DemiOblique /Bookman-Demi /Bookman-DemiItalic /Bookman-Light
 /Bookman-LightItalic /Helvetica-Narrow /Helvetica-Narrow-Bold /Helvetica-Narrow-BoldOblique /Helvetica-Narrow-Oblique /NewCenturySchlbk-Roman /NewCenturySchlbk-Bold /NewCenturySchlbk-BoldItalic /NewCenturySchlbk-Italic /Palatino-Bold
 /Palatino-BoldItalic /Palatino-Italic /Palatino-Roman ] {ISOLatin1Encoding reEncode } forall
%%EndProlog
%%BeginSetup
%%EndSetup
newpath  gsave  .25 .25 scale  gsave  0 0 t 0.490196 0.545098 0.615686 c[  ] 0 sd 3 lw 0.941176 0.941176 0.941176 c 2268 1682 0 0 bf black 1 1 0.992157 c 1916 1312 238 202 bf black 1916 1312 238 202 bl 1 1 0.992157 c 1916 1312 238 202 bf black 1916
 1312 238 202 bl 238 202 m 1916 X s
 gsave  2268 1682 0 0 C 1544.79 30.4391 t 0 r /Helvetica-Bold findfont 72.293 sf 0 0 m (Signal probability) show NC gr  238 244 m -42 Y s 276 223 m -21 Y s 315 223 m -21 Y s 353 223 m -21 Y s 391 223 m -21 Y s 430 244 m -42 Y s 468 223 m -21 Y s 506
 223 m -21 Y s 545 223 m -21 Y s 583 223 m -21 Y s 621 244 m -42 Y s 660 223 m -21 Y s 698 223 m -21 Y s 736 223 m -21 Y s 775 223 m -21 Y s 813 244 m -42 Y s 851 223 m -21 Y s 890 223 m -21 Y s 928 223 m -21 Y s 966 223 m -21 Y s 1005 244 m -42 Y s
 1043 223 m -21 Y s 1081 223 m -21 Y s 1120 223 m -21 Y s 1158 223 m -21 Y s 1196 244 m -42 Y s 1235 223 m -21 Y s 1273 223 m -21 Y s 1311 223 m -21 Y s 1350 223 m -21 Y s 1388 244 m -42 Y s 1426 223 m -21 Y s 1464 223 m -21 Y s 1503 223 m -21 Y s
 1541 223 m -21 Y s 1579 244 m -42 Y s 1618 223 m -21 Y s 1656 223 m -21 Y s 1694 223 m -21 Y s 1733 223 m -21 Y s 1771 244 m -42 Y s 1809 223 m -21 Y s 1848 223 m -21 Y s 1886 223 m -21 Y s 1924 223 m -21 Y s 1963 244 m -42 Y s 2001 223 m -21 Y s
 2039 223 m -21 Y s 2078 223 m -21 Y s 2116 223 m -21 Y s 2154 244 m -42 Y s
 gsave  2268 1682 0 0 C 216.879 129.366 t 0 r /Helvetica-Bold findfont 64.6832 sf 0 0 m (0) show NC gr 
 gsave  2268 1682 0 0 C 384.294 129.366 t 0 r /Helvetica-Bold findfont 64.6832 sf 0 0 m (0.1) show NC gr 
 gsave  2268 1682 0 0 C 574.539 129.366 t 0 r /Helvetica-Bold findfont 64.6832 sf 0 0 m (0.2) show NC gr 
 gsave  2268 1682 0 0 C 764.784 129.366 t 0 r /Helvetica-Bold findfont 64.6832 sf 0 0 m (0.3) show NC gr 
 gsave  2268 1682 0 0 C 958.833 129.366 t 0 r /Helvetica-Bold findfont 64.6832 sf 0 0 m (0.4) show NC gr 
 gsave  2268 1682 0 0 C 1149.08 129.366 t 0 r /Helvetica-Bold findfont 64.6832 sf 0 0 m (0.5) show NC gr 
 gsave  2268 1682 0 0 C 1339.32 129.366 t 0 r /Helvetica-Bold findfont 64.6832 sf 0 0 m (0.6) show NC gr 
 gsave  2268 1682 0 0 C 1533.37 129.366 t 0 r /Helvetica-Bold findfont 64.6832 sf 0 0 m (0.7) show NC gr 
 gsave  2268 1682 0 0 C 1723.62 129.366 t 0 r /Helvetica-Bold findfont 64.6832 sf 0 0 m (0.8) show NC gr 
 gsave  2268 1682 0 0 C 1913.86 129.366 t 0 r /Helvetica-Bold findfont 64.6832 sf 0 0 m (0.9) show NC gr 
 gsave  2268 1682 0 0 C 2138.35 129.366 t 0 r /Helvetica-Bold findfont 64.6832 sf 0 0 m (1) show NC gr  238 1514 m 1916 X s 238 1471 m 43 Y s 276 1492 m 22 Y s 315 1492 m 22 Y s 353 1492 m 22 Y s 391 1492 m 22 Y s 430 1471 m 43 Y s 468 1492 m 22 Y s
 506 1492 m 22 Y s 545 1492 m 22 Y s 583 1492 m 22 Y s 621 1471 m 43 Y s 660 1492 m 22 Y s 698 1492 m 22 Y s 736 1492 m 22 Y s 775 1492 m 22 Y s 813 1471 m 43 Y s 851 1492 m 22 Y s 890 1492 m 22 Y s 928 1492 m 22 Y s 966 1492 m 22 Y s 1005 1471 m 43
 Y s 1043 1492 m 22 Y s 1081 1492 m 22 Y s 1120 1492 m 22 Y s 1158 1492 m 22 Y s 1196 1471 m 43 Y s 1235 1492 m 22 Y s 1273 1492 m 22 Y s 1311 1492 m 22 Y s 1350 1492 m 22 Y s 1388 1471 m 43 Y s 1426 1492 m 22 Y s 1464 1492 m 22 Y s 1503 1492 m 22 Y
 s 1541 1492 m 22 Y s 1579 1471 m 43 Y s 1618 1492 m 22 Y s 1656 1492 m 22 Y s 1694 1492 m 22 Y s 1733 1492 m 22 Y s 1771 1471 m 43 Y s 1809 1492 m 22 Y s 1848 1492 m 22 Y s 1886 1492 m 22 Y s 1924 1492 m 22 Y s 1963 1471 m 43 Y s 2001 1492 m 22 Y s
 2039 1492 m 22 Y s 2078 1492 m 22 Y s 2116 1492 m 22 Y s 2154 1471 m 43 Y s 238 202 m 1312 Y s
 gsave  2268 1682 0 0 C 64.6832 1430.64 t 90 r /Helvetica-Bold findfont 72.293 sf 0 0 m (dx) show NC gr 
 gsave  2268 1682 0 0 C 30.4391 1411.62 t 90 r /Helvetica-Bold findfont 45.6587 sf 0 0 m ( ) show NC gr 
 gsave  2268 1682 0 0 C 64.6832 1388.79 t 90 r /Helvetica-Bold findfont 72.293 sf 0 0 m (/) show NC gr 
 gsave  2268 1682 0 0 C 30.4391 1369.76 t 90 r /Helvetica-Bold findfont 45.6587 sf 0 0 m ( ) show NC gr 
 gsave  2268 1682 0 0 C 60.8783 1095.81 t 90 r /Helvetica-Bold findfont 72.293 sf 0 0 m (\(1/N\) dN) show NC gr  291 202 m -53 X s 265 231 m -27 X s 265 260 m -27 X s 265 289 m -27 X s 265 318 m -27 X s 291 347 m -53 X s 265 376 m -27 X s 265 406 m
 -27 X s 265 435 m -27 X s 265 464 m -27 X s 291 493 m -53 X s 265 522 m -27 X s 265 551 m -27 X s 265 580 m -27 X s 265 609 m -27 X s 291 639 m -53 X s 265 668 m -27 X s 265 697 m -27 X s 265 726 m -27 X s 265 755 m -27 X s 291 784 m -53 X s 265 813
 m -27 X s 265 842 m -27 X s 265 871 m -27 X s 265 901 m -27 X s 291 930 m -53 X s 265 959 m -27 X s 265 988 m -27 X s 265 1017 m -27 X s 265 1046 m -27 X s 291 1075 m -53 X s 265 1104 m -27 X s 265 1133 m -27 X s 265 1163 m -27 X s 265 1192 m -27 X
 s 291 1221 m -53 X s 265 1250 m -27 X s 265 1279 m -27 X s 265 1308 m -27 X s 265 1337 m -27 X s 291 1366 m -53 X s 265 1395 m -27 X s 265 1425 m -27 X s 265 1454 m -27 X s 265 1483 m -27 X s 291 1512 m -53 X s 291 1512 m -53 X s
 gsave  2268 1682 0 0 C 175.025 178.83 t 0 r /Helvetica-Bold findfont 64.6832 sf 0 0 m (0) show NC gr 
 gsave  2268 1682 0 0 C 182.635 323.416 t 0 r /Helvetica-Bold findfont 64.6832 sf 0 0 m (1) show NC gr 
 gsave  2268 1682 0 0 C 175.025 468.002 t 0 r /Helvetica-Bold findfont 64.6832 sf 0 0 m (2) show NC gr 
 gsave  2268 1682 0 0 C 175.025 612.588 t 0 r /Helvetica-Bold findfont 64.6832 sf 0 0 m (3) show NC gr 
 gsave  2268 1682 0 0 C 175.025 760.979 t 0 r /Helvetica-Bold findfont 64.6832 sf 0 0 m (4) show NC gr 
 gsave  2268 1682 0 0 C 175.025 905.565 t 0 r /Helvetica-Bold findfont 64.6832 sf 0 0 m (5) show NC gr 
 gsave  2268 1682 0 0 C 175.025 1050.15 t 0 r /Helvetica-Bold findfont 64.6832 sf 0 0 m (6) show NC gr 
 gsave  2268 1682 0 0 C 175.025 1194.74 t 0 r /Helvetica-Bold findfont 64.6832 sf 0 0 m (7) show NC gr 
 gsave  2268 1682 0 0 C 175.025 1343.13 t 0 r /Helvetica-Bold findfont 64.6832 sf 0 0 m (8) show NC gr 
 gsave  2268 1682 0 0 C 175.025 1487.71 t 0 r /Helvetica-Bold findfont 64.6832 sf 0 0 m (9) show NC gr  2154 202 m 1312 Y s 2101 202 m 53 X s 2128 231 m 26 X s 2128 260 m 26 X s 2128 289 m 26 X s 2128 318 m 26 X s 2101 347 m 53 X s 2128 376 m 26 X s
 2128 406 m 26 X s 2128 435 m 26 X s 2128 464 m 26 X s 2101 493 m 53 X s 2128 522 m 26 X s 2128 551 m 26 X s 2128 580 m 26 X s 2128 609 m 26 X s 2101 639 m 53 X s 2128 668 m 26 X s 2128 697 m 26 X s 2128 726 m 26 X s 2128 755 m 26 X s 2101 784 m 53 X
 s 2128 813 m 26 X s 2128 842 m 26 X s 2128 871 m 26 X s 2128 901 m 26 X s 2101 930 m 53 X s 2128 959 m 26 X s 2128 988 m 26 X s 2128 1017 m 26 X s 2128 1046 m 26 X s 2101 1075 m 53 X s 2128 1104 m 26 X s 2128 1133 m 26 X s 2128 1163 m 26 X s 2128
 1192 m 26 X s 2101 1221 m 53 X s 2128 1250 m 26 X s 2128 1279 m 26 X s 2128 1308 m 26 X s 2128 1337 m 26 X s 2101 1366 m 53 X s 2128 1395 m 26 X s 2128 1425 m 26 X s 2128 1454 m 26 X s 2128 1483 m 26 X s 2101 1512 m 53 X s 2101 1512 m 53 X s
 0.490196 0.545098 0.615686 c 0.95 0.95 0.95 c 0.490196 0.545098 0.615686 c 680 202 238 1312 bl 238 1312 m 680 X s 918 1312 m 202 Y s 918 1514 m -680 X s 238 1514 m -202 Y s black
 gsave  2268 1682 0 0 C 441.368 1442.05 t 0 r /Times-Italic findfont 76.0979 sf 0 0 m (Signal) show NC gr  0.49 0.6 0.82 c 269 1428 m 143 X 70 Y -143 X f 0 0 0.933333 c 6 lw 269 1498 m 143 X s 269 1428 m 143 X s 412 1428 m 70 Y s 269 1428 m 70 Y s
 black
 gsave  2268 1682 0 0 C 441.368 1343.13 t 0 r /Times-Italic findfont 76.0979 sf 0 0 m (Background) show NC gr  1 0 0 c 3 lw 412 1374 m -47 -47 d s 387 1398 m -70 -71 d s 339 1398 m -70 -71 d s 291 1398 m -22 -23 d s 6 lw 0 0 0.933333 c 1 0 0 c 269
 1398 m 143 X s 269 1327 m 143 X s 412 1327 m 71 Y s 269 1327 m 71 Y s 0 0 0.933333 c 0.49 0.6 0.82 c black 3 lw 0.49 0.6 0.82 c 238 202 m 6 Y 48 X -3 Y 48 X -1 Y 96 X 5 Y 48 X 3 Y 48 X 2 Y 47 X 7 Y 48 X 4 Y 48 X 11 Y 48 X 24 Y 48 X -6 Y 48 X 2 Y 48
 X 17 Y 48 X 27 Y 48 X 34 Y 48 X 59 Y 48 X 254 Y 47 X 545 Y 48 X -129 Y 48 X -572 Y 48 X -7 Y 48 X 4 Y 48 X 233 Y 48 X -385 Y 48 X 53 Y 48 X 39 Y 48 X -64 Y 47 X -83 Y 48 X 38 Y 48 X 10 Y 48 X -45 Y 48 X -25 Y 48 X -12 Y 48 X -13 Y 48 X -12 Y 96 X 13
 Y 95 X -19 Y 48 X -14 Y f 6 lw 0 0 0.933333 c 0.49 0.6 0.82 c 0 0 0.933333 c 238 208 m 48 X -3 Y 48 X -1 Y 96 X 5 Y 48 X 3 Y 48 X 2 Y 47 X 7 Y 48 X 4 Y 48 X 11 Y 48 X 24 Y 48 X -6 Y 48 X 2 Y 48 X 17 Y 48 X 27 Y 48 X 34 Y 48 X 59 Y 48 X 254 Y 47 X
 545 Y 48 X -129 Y 48 X -572 Y 48 X -7 Y 48 X 4 Y 48 X 233 Y 48 X -385 Y 48 X 53 Y 48 X 39 Y 48 X -64 Y 47 X -83 Y 48 X 38 Y 48 X 10 Y 48 X -45 Y 48 X -25 Y 48 X -12 Y 48 X -13 Y 48 X -12 Y 96 X 13 Y 95 X -19 Y 48 X s 1 0 0 c black 3 lw 1 0 0 c 2128
 204 m -2 -2 d s 2084 208 m -6 -6 d s 2032 204 m -2 -2 d s 1989 209 m -7 -7 d s 1939 207 m -5 -5 d s 1894 210 m -8 -8 d s 1847 211 m -10 -9 d s 1806 219 m -17 -17 d s 1763 223 m -22 -21 d s 1723 232 m -30 -30 d s 1687 244 m -42 -42 d s 1641 246 m -44
 -44 d s 1596 250 m -47 -48 d s 1579 281 m -78 -79 d s 1545 294 m -92 -92 d s 1517 314 m -113 -112 d s 1474 319 m -38 -38 d s 1424 270 m -68 -68 d s 1388 281 m -80 -79 d s 1388 330 m -128 -128 d s 1388 378 m -176 -176 d s 1388 426 m -224 -224 d s
 1388 474 m -272 -272 d s 1388 522 m -48 -48 d s 1324 459 m -256 -257 d s 1388 570 m -48 -48 d s 1272 455 m -252 -253 d s 1342 573 m -2 -3 d s 1232 462 m -260 -260 d s 1196 475 m -273 -273 d s 1196 523 m -321 -321 d s 1196 571 m -369 -369 d s 1196
 619 m -143 -144 d s 1035 458 m -30 -31 d s 958 380 m -1 -1 d s 937 360 m -28 -28 d s 888 310 m -109 -108 d s 1196 667 m -143 -144 d s 861 332 m -130 -130 d s 1196 715 m -143 -144 d s 817 336 m -4 -4 d s 792 310 m -109 -108 d s 1196 763 m -143 -143 d
 s 746 313 m -111 -111 d s 1196 811 m -143 -143 d s 680 295 m -11 -11 d s 651 266 m -64 -64 d s 1196 859 m -96 -95 d s 1065 728 m -12 -12 d s 601 264 m -62 -62 d s 1196 908 m -96 -96 d s 527 238 m -37 -36 d s 1196 956 m -96 -96 d s 491 250 m -13 -13
 d s 467 226 m -25 -24 d s 1196 1004 m -96 -96 d s 409 217 m -15 -15 d s 1196 1052 m -96 -96 d s 380 236 m -34 -34 d s 1196 1100 m -96 -96 d s 323 227 m -25 -25 d s 1156 1108 m -56 -56 d s 286 238 m -36 -36 d s 1148 1148 m -48 -48 d s 286 286 m -48
 -48 d s 1148 1196 m -48 -47 d s 249 297 m -11 -11 d s 1148 1245 m -48 -48 d s 1148 1293 m -48 -48 d s 1103 1295 m -3 -2 d s 6 lw 238 297 m 48 X -70 Y 48 X 9 Y 48 X -19 Y 48 X 9 Y 48 X 24 Y 48 X -12 Y 47 X 26 Y 48 X 2 Y 48 X 29 Y 48 X 18 Y 48 X -3 Y
 48 X 26 Y 48 X -26 Y 48 X 50 Y 48 X 20 Y 48 X 78 Y 48 X 270 Y 47 X 567 Y 48 X -187 Y 48 X -646 Y 48 X -7 Y 48 X 4 Y 48 X 114 Y 48 X -303 Y 48 X 49 Y 48 X -5 Y 48 X -20 Y 47 X -44 Y 48 X -4 Y 48 X -2 Y 48 X -21 Y 48 X -4 Y 48 X -8 Y 48 X -1 Y 48 X -3
 Y 48 X 2 Y 48 X -5 Y 48 X 4 Y 47 X -4 Y 48 X s black 3 lw 238 202 m 1916 X s 238 244 m -42 Y s 276 223 m -21 Y s 315 223 m -21 Y s 353 223 m -21 Y s 391 223 m -21 Y s 430 244 m -42 Y s 468 223 m -21 Y s 506 223 m -21 Y s 545 223 m -21 Y s 583 223 m
 -21 Y s 621 244 m -42 Y s 660 223 m -21 Y s 698 223 m -21 Y s 736 223 m -21 Y s 775 223 m -21 Y s 813 244 m -42 Y s 851 223 m -21 Y s 890 223 m -21 Y s 928 223 m -21 Y s 966 223 m -21 Y s 1005 244 m -42 Y s 1043 223 m -21 Y s 1081 223 m -21 Y s 1120
 223 m -21 Y s 1158 223 m -21 Y s 1196 244 m -42 Y s 1235 223 m -21 Y s 1273 223 m -21 Y s 1311 223 m -21 Y s 1350 223 m -21 Y s 1388 244 m -42 Y s 1426 223 m -21 Y s 1464 223 m -21 Y s 1503 223 m -21 Y s 1541 223 m -21 Y s 1579 244 m -42 Y s 1618
 223 m -21 Y s 1656 223 m -21 Y s 1694 223 m -21 Y s 1733 223 m -21 Y s 1771 244 m -42 Y s 1809 223 m -21 Y s 1848 223 m -21 Y s 1886 223 m -21 Y s 1924 223 m -21 Y s 1963 244 m -42 Y s 2001 223 m -21 Y s 2039 223 m -21 Y s 2078 223 m -21 Y s 2116
 223 m -21 Y s 2154 244 m -42 Y s 238 1514 m 1916 X s 238 1471 m 43 Y s 276 1492 m 22 Y s 315 1492 m 22 Y s 353 1492 m 22 Y s 391 1492 m 22 Y s 430 1471 m 43 Y s 468 1492 m 22 Y s 506 1492 m 22 Y s 545 1492 m 22 Y s 583 1492 m 22 Y s 621 1471 m 43 Y
 s 660 1492 m 22 Y s 698 1492 m 22 Y s 736 1492 m 22 Y s 775 1492 m 22 Y s 813 1471 m 43 Y s 851 1492 m 22 Y s 890 1492 m 22 Y s 928 1492 m 22 Y s 966 1492 m 22 Y s 1005 1471 m 43 Y s 1043 1492 m 22 Y s 1081 1492 m 22 Y s 1120 1492 m 22 Y s 1158 1492
 m 22 Y s 1196 1471 m 43 Y s 1235 1492 m 22 Y s 1273 1492 m 22 Y s 1311 1492 m 22 Y s 1350 1492 m 22 Y s 1388 1471 m 43 Y s 1426 1492 m 22 Y s 1464 1492 m 22 Y s 1503 1492 m 22 Y s 1541 1492 m 22 Y s 1579 1471 m 43 Y s 1618 1492 m 22 Y s 1656 1492 m
 22 Y s 1694 1492 m 22 Y s 1733 1492 m 22 Y s 1771 1471 m 43 Y s 1809 1492 m 22 Y s 1848 1492 m 22 Y s 1886 1492 m 22 Y s 1924 1492 m 22 Y s 1963 1471 m 43 Y s 2001 1492 m 22 Y s 2039 1492 m 22 Y s 2078 1492 m 22 Y s 2116 1492 m 22 Y s 2154 1471 m 43
 Y s 238 202 m 1312 Y s 291 202 m -53 X s 265 231 m -27 X s 265 260 m -27 X s 265 289 m -27 X s 265 318 m -27 X s 291 347 m -53 X s 265 376 m -27 X s 265 406 m -27 X s 265 435 m -27 X s 265 464 m -27 X s 291 493 m -53 X s 265 522 m -27 X s 265 551 m
 -27 X s 265 580 m -27 X s 265 609 m -27 X s 291 639 m -53 X s 265 668 m -27 X s 265 697 m -27 X s 265 726 m -27 X s 265 755 m -27 X s 291 784 m -53 X s 265 813 m -27 X s 265 842 m -27 X s 265 871 m -27 X s 265 901 m -27 X s 291 930 m -53 X s 265 959
 m -27 X s 265 988 m -27 X s 265 1017 m -27 X s 265 1046 m -27 X s 291 1075 m -53 X s 265 1104 m -27 X s 265 1133 m -27 X s 265 1163 m -27 X s 265 1192 m -27 X s 291 1221 m -53 X s 265 1250 m -27 X s 265 1279 m -27 X s 265 1308 m -27 X s 265 1337 m
 -27 X s 291 1366 m -53 X s 265 1395 m -27 X s 265 1425 m -27 X s 265 1454 m -27 X s 265 1483 m -27 X s 291 1512 m -53 X s 291 1512 m -53 X s 2154 202 m 1312 Y s 2101 202 m 53 X s 2128 231 m 26 X s 2128 260 m 26 X s 2128 289 m 26 X s 2128 318 m 26 X
 s 2101 347 m 53 X s 2128 376 m 26 X s 2128 406 m 26 X s 2128 435 m 26 X s 2128 464 m 26 X s 2101 493 m 53 X s 2128 522 m 26 X s 2128 551 m 26 X s 2128 580 m 26 X s 2128 609 m 26 X s 2101 639 m 53 X s 2128 668 m 26 X s 2128 697 m 26 X s 2128 726 m 26
 X s 2128 755 m 26 X s 2101 784 m 53 X s 2128 813 m 26 X s 2128 842 m 26 X s 2128 871 m 26 X s 2128 901 m 26 X s 2101 930 m 53 X s 2128 959 m 26 X s 2128 988 m 26 X s 2128 1017 m 26 X s 2128 1046 m 26 X s 2101 1075 m 53 X s 2128 1104 m 26 X s 2128
 1133 m 26 X s 2128 1163 m 26 X s 2128 1192 m 26 X s 2101 1221 m 53 X s 2128 1250 m 26 X s 2128 1279 m 26 X s 2128 1308 m 26 X s 2128 1337 m 26 X s 2101 1366 m 53 X s 2128 1395 m 26 X s 2128 1425 m 26 X s 2128 1454 m 26 X s 2128 1483 m 26 X s 2101
 1512 m 53 X s 2101 1512 m 53 X s
 gsave  2268 1682 0 0 C 2211.02 193.403 t 90 r /Helvetica-Bold findfont 45.6587 sf 0 0 m (U/O\255flow \(S,B\): \(0.0, 0.0\)% / \(2.3, 0.1\)%) show NC gr  0.490196 0.545098 0.615686 c 0.364706 0.419608 0.490196 c 1415 96 23 1577 bf 0.490196 0.545098
 0.615686 c 23 1577 m 1415 X s 1438 1577 m 96 Y s 1438 1673 m -1415 X s 23 1673 m -96 Y s 1 1 1 c black 1 1 1 c
 gsave  2268 1682 0 0 C 72.293 1605.67 t 0 r /Helvetica-Bold findfont 76.0979 sf 0 0 m (TMVA probability for classifier: MLP) show NC gr 
 gr  gr showpage
end
%%EOF
