%!PS-Adobe-2.0 EPSF-2.0
%%BoundingBox:  0 0 567 420
%%Title: plots/proba_MLPBNN.eps: TMVA probability MLPBNN
%%Creator: ROOT Version 5.34/09
%%CreationDate: Wed Dec 18 11:44:38 2013
%%EndComments
%%BeginProlog
80 dict begin
/s {stroke} def /l {lineto} def /m {moveto} def /t {translate} def
/r {rotate} def /rl {roll}  def /R {repeat} def
/d {rlineto} def /rm {rmoveto} def /gr {grestore} def /f {eofill} def
/c {setrgbcolor} def /black {0 setgray} def /sd {setdash} def
/cl {closepath} def /sf {scalefont setfont} def /lw {setlinewidth} def
/box {m dup 0 exch d exch 0 d 0 exch neg d cl} def
/NC{systemdict begin initclip end}def/C{NC box clip newpath}def
/bl {box s} def /bf {box f} def /Y { 0 exch d} def /X { 0 d} def 
/K {{pop pop 0 moveto} exch kshow} bind def
/ita {/ang 15 def gsave [1 0 ang dup sin exch cos div 1 0 0] concat} def 
/mp {newpath /y exch def /x exch def} def
/side {[w .77 mul w .23 mul] .385 w mul sd w 0 l currentpoint t -144 r} def
/mr {mp x y w2 0 360 arc} def /m24 {mr s} def /m20 {mr f} def
/mb {mp x y w2 add m w2 neg 0 d 0 w neg d w 0 d 0 w d cl} def
/mt {mp x y w2 add m w2 neg w neg d w 0 d cl} def
/m21 {mb f} def /m25 {mb s} def /m22 {mt f} def /m26{mt s} def
/m23 {mp x y w2 sub m w2 w d w neg 0 d cl f} def
/m27 {mp x y w2 add m w3 neg w2 neg d w3 w2 neg d w3 w2 d cl s} def
/m28 {mp x w2 sub y w2 sub w3 add m w3 0 d  0 w3 neg d w3 0 d 0 w3 d w3 0 d  0 w3 d w3 neg 0 d 0 w3 d w3 neg 0 d 0 w3 neg d w3 neg 0 d cl s } def
/m29 {mp gsave x w2 sub y w2 add w3 sub m currentpoint t 4 {side} repeat cl fill gr} def
/m30 {mp gsave x w2 sub y w2 add w3 sub m currentpoint t 4 {side} repeat cl s gr} def
/m31 {mp x y w2 sub m 0 w d x w2 sub y m w 0 d x w2 sub y w2 add m w w neg d x w2 sub y w2 sub m w w d s} def
/m32 {mp x y w2 sub m w2 w d w neg 0 d cl s} def
/m33 {mp x y w2 add m w3 neg w2 neg d w3 w2 neg d w3 w2 d cl f} def
/m34 {mp x w2 sub y w2 sub w3 add m w3 0 d  0 w3 neg d w3 0 d 0 w3 d w3 0 d  0 w3 d w3 neg 0 d 0 w3 d w3 neg 0 d 0 w3 neg d w3 neg 0 d cl f } def
/m2 {mp x y w2 sub m 0 w d x w2 sub y m w 0 d s} def
/m5 {mp x w2 sub y w2 sub m w w d x w2 sub y w2 add m w w neg d s} def
/reEncode {exch findfont dup length dict begin {1 index /FID eq  {pop pop} {def} ifelse } forall /Encoding exch def currentdict end dup /FontName get exch definefont pop } def [/Times-Bold /Times-Italic /Times-BoldItalic /Helvetica /Helvetica-Oblique
 /Helvetica-Bold /Helvetica-BoldOblique /Courier /Courier-Oblique /Courier-Bold /Courier-BoldOblique /Times-Roman /AvantGarde-Book /AvantGarde-BookOblique /AvantGarde-Demi /AvantGarde-DemiOblique /Bookman-Demi /Bookman-DemiItalic /Bookman-Light
 /Bookman-LightItalic /Helvetica-Narrow /Helvetica-Narrow-Bold /Helvetica-Narrow-BoldOblique /Helvetica-Narrow-Oblique /NewCenturySchlbk-Roman /NewCenturySchlbk-Bold /NewCenturySchlbk-BoldItalic /NewCenturySchlbk-Italic /Palatino-Bold
 /Palatino-BoldItalic /Palatino-Italic /Palatino-Roman ] {ISOLatin1Encoding reEncode } forall
%%EndProlog
%%BeginSetup
%%EndSetup
newpath  gsave  .25 .25 scale  gsave  0 0 t 0.490196 0.545098 0.615686 c[  ] 0 sd 3 lw 0.941176 0.941176 0.941176 c 2268 1682 0 0 bf black 1 1 0.992157 c 1916 1312 238 202 bf black 1916 1312 238 202 bl 1 1 0.992157 c 1916 1312 238 202 bf black 1916
 1312 238 202 bl 238 202 m 1916 X s
 gsave  2268 1682 0 0 C 1544.79 30.4391 t 0 r /Helvetica-Bold findfont 72.293 sf 0 0 m (Signal probability) show NC gr  238 244 m -42 Y s 276 223 m -21 Y s 315 223 m -21 Y s 353 223 m -21 Y s 391 223 m -21 Y s 430 244 m -42 Y s 468 223 m -21 Y s 506
 223 m -21 Y s 545 223 m -21 Y s 583 223 m -21 Y s 621 244 m -42 Y s 660 223 m -21 Y s 698 223 m -21 Y s 736 223 m -21 Y s 775 223 m -21 Y s 813 244 m -42 Y s 851 223 m -21 Y s 890 223 m -21 Y s 928 223 m -21 Y s 966 223 m -21 Y s 1005 244 m -42 Y s
 1043 223 m -21 Y s 1081 223 m -21 Y s 1120 223 m -21 Y s 1158 223 m -21 Y s 1196 244 m -42 Y s 1235 223 m -21 Y s 1273 223 m -21 Y s 1311 223 m -21 Y s 1350 223 m -21 Y s 1388 244 m -42 Y s 1426 223 m -21 Y s 1464 223 m -21 Y s 1503 223 m -21 Y s
 1541 223 m -21 Y s 1579 244 m -42 Y s 1618 223 m -21 Y s 1656 223 m -21 Y s 1694 223 m -21 Y s 1733 223 m -21 Y s 1771 244 m -42 Y s 1809 223 m -21 Y s 1848 223 m -21 Y s 1886 223 m -21 Y s 1924 223 m -21 Y s 1963 244 m -42 Y s 2001 223 m -21 Y s
 2039 223 m -21 Y s 2078 223 m -21 Y s 2116 223 m -21 Y s 2154 244 m -42 Y s
 gsave  2268 1682 0 0 C 216.879 129.366 t 0 r /Helvetica-Bold findfont 64.6832 sf 0 0 m (0) show NC gr 
 gsave  2268 1682 0 0 C 384.294 129.366 t 0 r /Helvetica-Bold findfont 64.6832 sf 0 0 m (0.1) show NC gr 
 gsave  2268 1682 0 0 C 574.539 129.366 t 0 r /Helvetica-Bold findfont 64.6832 sf 0 0 m (0.2) show NC gr 
 gsave  2268 1682 0 0 C 764.784 129.366 t 0 r /Helvetica-Bold findfont 64.6832 sf 0 0 m (0.3) show NC gr 
 gsave  2268 1682 0 0 C 958.833 129.366 t 0 r /Helvetica-Bold findfont 64.6832 sf 0 0 m (0.4) show NC gr 
 gsave  2268 1682 0 0 C 1149.08 129.366 t 0 r /Helvetica-Bold findfont 64.6832 sf 0 0 m (0.5) show NC gr 
 gsave  2268 1682 0 0 C 1339.32 129.366 t 0 r /Helvetica-Bold findfont 64.6832 sf 0 0 m (0.6) show NC gr 
 gsave  2268 1682 0 0 C 1533.37 129.366 t 0 r /Helvetica-Bold findfont 64.6832 sf 0 0 m (0.7) show NC gr 
 gsave  2268 1682 0 0 C 1723.62 129.366 t 0 r /Helvetica-Bold findfont 64.6832 sf 0 0 m (0.8) show NC gr 
 gsave  2268 1682 0 0 C 1913.86 129.366 t 0 r /Helvetica-Bold findfont 64.6832 sf 0 0 m (0.9) show NC gr 
 gsave  2268 1682 0 0 C 2138.35 129.366 t 0 r /Helvetica-Bold findfont 64.6832 sf 0 0 m (1) show NC gr  238 1514 m 1916 X s 238 1471 m 43 Y s 276 1492 m 22 Y s 315 1492 m 22 Y s 353 1492 m 22 Y s 391 1492 m 22 Y s 430 1471 m 43 Y s 468 1492 m 22 Y s
 506 1492 m 22 Y s 545 1492 m 22 Y s 583 1492 m 22 Y s 621 1471 m 43 Y s 660 1492 m 22 Y s 698 1492 m 22 Y s 736 1492 m 22 Y s 775 1492 m 22 Y s 813 1471 m 43 Y s 851 1492 m 22 Y s 890 1492 m 22 Y s 928 1492 m 22 Y s 966 1492 m 22 Y s 1005 1471 m 43
 Y s 1043 1492 m 22 Y s 1081 1492 m 22 Y s 1120 1492 m 22 Y s 1158 1492 m 22 Y s 1196 1471 m 43 Y s 1235 1492 m 22 Y s 1273 1492 m 22 Y s 1311 1492 m 22 Y s 1350 1492 m 22 Y s 1388 1471 m 43 Y s 1426 1492 m 22 Y s 1464 1492 m 22 Y s 1503 1492 m 22 Y
 s 1541 1492 m 22 Y s 1579 1471 m 43 Y s 1618 1492 m 22 Y s 1656 1492 m 22 Y s 1694 1492 m 22 Y s 1733 1492 m 22 Y s 1771 1471 m 43 Y s 1809 1492 m 22 Y s 1848 1492 m 22 Y s 1886 1492 m 22 Y s 1924 1492 m 22 Y s 1963 1471 m 43 Y s 2001 1492 m 22 Y s
 2039 1492 m 22 Y s 2078 1492 m 22 Y s 2116 1492 m 22 Y s 2154 1471 m 43 Y s 238 202 m 1312 Y s
 gsave  2268 1682 0 0 C 64.6832 1430.64 t 90 r /Helvetica-Bold findfont 72.293 sf 0 0 m (dx) show NC gr 
 gsave  2268 1682 0 0 C 30.4391 1411.62 t 90 r /Helvetica-Bold findfont 45.6587 sf 0 0 m ( ) show NC gr 
 gsave  2268 1682 0 0 C 64.6832 1388.79 t 90 r /Helvetica-Bold findfont 72.293 sf 0 0 m (/) show NC gr 
 gsave  2268 1682 0 0 C 30.4391 1369.76 t 90 r /Helvetica-Bold findfont 45.6587 sf 0 0 m ( ) show NC gr 
 gsave  2268 1682 0 0 C 60.8783 1095.81 t 90 r /Helvetica-Bold findfont 72.293 sf 0 0 m (\(1/N\) dN) show NC gr  291 202 m -53 X s 265 234 m -27 X s 265 266 m -27 X s 265 298 m -27 X s 265 330 m -27 X s 291 362 m -53 X s 265 394 m -27 X s 265 426 m
 -27 X s 265 459 m -27 X s 265 491 m -27 X s 291 523 m -53 X s 265 555 m -27 X s 265 587 m -27 X s 265 619 m -27 X s 265 651 m -27 X s 291 683 m -53 X s 265 715 m -27 X s 265 747 m -27 X s 265 780 m -27 X s 265 812 m -27 X s 291 844 m -53 X s 265 876
 m -27 X s 265 908 m -27 X s 265 940 m -27 X s 265 972 m -27 X s 291 1004 m -53 X s 265 1036 m -27 X s 265 1068 m -27 X s 265 1101 m -27 X s 265 1133 m -27 X s 291 1165 m -53 X s 265 1197 m -27 X s 265 1229 m -27 X s 265 1261 m -27 X s 265 1293 m -27
 X s 291 1325 m -53 X s 265 1357 m -27 X s 265 1389 m -27 X s 265 1421 m -27 X s 265 1454 m -27 X s 291 1486 m -53 X s 291 1486 m -53 X s
 gsave  2268 1682 0 0 C 175.025 178.83 t 0 r /Helvetica-Bold findfont 64.6832 sf 0 0 m (0) show NC gr 
 gsave  2268 1682 0 0 C 182.635 338.636 t 0 r /Helvetica-Bold findfont 64.6832 sf 0 0 m (1) show NC gr 
 gsave  2268 1682 0 0 C 175.025 498.441 t 0 r /Helvetica-Bold findfont 64.6832 sf 0 0 m (2) show NC gr 
 gsave  2268 1682 0 0 C 175.025 658.247 t 0 r /Helvetica-Bold findfont 64.6832 sf 0 0 m (3) show NC gr 
 gsave  2268 1682 0 0 C 175.025 818.052 t 0 r /Helvetica-Bold findfont 64.6832 sf 0 0 m (4) show NC gr 
 gsave  2268 1682 0 0 C 175.025 977.858 t 0 r /Helvetica-Bold findfont 64.6832 sf 0 0 m (5) show NC gr 
 gsave  2268 1682 0 0 C 175.025 1141.47 t 0 r /Helvetica-Bold findfont 64.6832 sf 0 0 m (6) show NC gr 
 gsave  2268 1682 0 0 C 175.025 1301.27 t 0 r /Helvetica-Bold findfont 64.6832 sf 0 0 m (7) show NC gr 
 gsave  2268 1682 0 0 C 175.025 1461.08 t 0 r /Helvetica-Bold findfont 64.6832 sf 0 0 m (8) show NC gr  2154 202 m 1312 Y s 2101 202 m 53 X s 2128 234 m 26 X s 2128 266 m 26 X s 2128 298 m 26 X s 2128 330 m 26 X s 2101 362 m 53 X s 2128 394 m 26 X s
 2128 426 m 26 X s 2128 459 m 26 X s 2128 491 m 26 X s 2101 523 m 53 X s 2128 555 m 26 X s 2128 587 m 26 X s 2128 619 m 26 X s 2128 651 m 26 X s 2101 683 m 53 X s 2128 715 m 26 X s 2128 747 m 26 X s 2128 780 m 26 X s 2128 812 m 26 X s 2101 844 m 53 X
 s 2128 876 m 26 X s 2128 908 m 26 X s 2128 940 m 26 X s 2128 972 m 26 X s 2101 1004 m 53 X s 2128 1036 m 26 X s 2128 1068 m 26 X s 2128 1101 m 26 X s 2128 1133 m 26 X s 2101 1165 m 53 X s 2128 1197 m 26 X s 2128 1229 m 26 X s 2128 1261 m 26 X s 2128
 1293 m 26 X s 2101 1325 m 53 X s 2128 1357 m 26 X s 2128 1389 m 26 X s 2128 1421 m 26 X s 2128 1454 m 26 X s 2101 1486 m 53 X s 2101 1486 m 53 X s 0.490196 0.545098 0.615686 c 0.95 0.95 0.95 c 0.490196 0.545098 0.615686 c 680 202 238 1312 bl 238
 1312 m 680 X s 918 1312 m 202 Y s 918 1514 m -680 X s 238 1514 m -202 Y s black
 gsave  2268 1682 0 0 C 441.368 1442.05 t 0 r /Times-Italic findfont 76.0979 sf 0 0 m (Signal) show NC gr  0.49 0.6 0.82 c 269 1428 m 143 X 70 Y -143 X f 0 0 0.933333 c 6 lw 269 1498 m 143 X s 269 1428 m 143 X s 412 1428 m 70 Y s 269 1428 m 70 Y s
 black
 gsave  2268 1682 0 0 C 441.368 1343.13 t 0 r /Times-Italic findfont 76.0979 sf 0 0 m (Background) show NC gr  1 0 0 c 3 lw 412 1374 m -47 -47 d s 387 1398 m -70 -71 d s 339 1398 m -70 -71 d s 291 1398 m -22 -23 d s 6 lw 0 0 0.933333 c 1 0 0 c 269
 1398 m 143 X s 269 1327 m 143 X s 412 1327 m 71 Y s 269 1327 m 71 Y s 0 0 0.933333 c 0.49 0.6 0.82 c black 3 lw 0.49 0.6 0.82 c 238 202 m 2 Y 48 X -2 Y 48 X 1 Y 48 X 2 Y 48 X 8 Y 48 X -4 Y 48 X 8 Y 47 X 2 Y 48 X 10 Y 48 X 18 Y 48 X -15 Y 48 X 25 Y
 48 X 41 Y 48 X -28 Y 48 X 11 Y 48 X 195 Y 48 X 200 Y 48 X 110 Y 47 X -371 Y 48 X 154 Y 48 X 726 Y 48 X -29 Y 48 X -621 Y 48 X -78 Y 48 X -260 Y 48 X 86 Y 48 X -62 Y 48 X -64 Y 47 X -15 Y 48 X -8 Y 48 X 29 Y 48 X -8 Y 48 X -14 Y 48 X 14 Y 48 X -2 Y
 48 X -7 Y 48 X -7 Y 48 X -15 Y 48 X -7 Y 47 X 7 Y 48 X -32 Y f 6 lw 0 0 0.933333 c 0.49 0.6 0.82 c 0 0 0.933333 c 238 204 m 48 X -2 Y 48 X 1 Y 48 X 2 Y 48 X 8 Y 48 X -4 Y 48 X 8 Y 47 X 2 Y 48 X 10 Y 48 X 18 Y 48 X -15 Y 48 X 25 Y 48 X 41 Y 48 X -28
 Y 48 X 11 Y 48 X 195 Y 48 X 200 Y 48 X 110 Y 47 X -371 Y 48 X 154 Y 48 X 726 Y 48 X -29 Y 48 X -621 Y 48 X -78 Y 48 X -260 Y 48 X 86 Y 48 X -62 Y 48 X -64 Y 47 X -15 Y 48 X -8 Y 48 X 29 Y 48 X -8 Y 48 X -14 Y 48 X 14 Y 48 X -2 Y 48 X -7 Y 48 X -7 Y
 48 X -15 Y 48 X -7 Y 47 X 7 Y 48 X s 1 0 0 c black 3 lw 1 0 0 c 2128 204 m -2 -2 d s 2082 206 m -4 -4 d s 2034 206 m -4 -4 d s 1989 209 m -7 -7 d s 1940 208 m -6 -6 d s 1899 215 m -13 -13 d s 1851 215 m -14 -13 d s 1806 219 m -17 -17 d s 1755 215 m
 -14 -13 d s 1723 232 m -30 -30 d s 1676 233 m -1 -1 d s 1661 218 m -16 -16 d s 1619 223 m -22 -21 d s 1579 233 m -30 -31 d s 1538 239 m -37 -37 d s 1524 273 m -71 -71 d s 1484 281 m -80 -79 d s 1458 303 m -22 -22 d s 1420 265 m -64 -63 d s 1388 281
 m -80 -79 d s 1388 330 m -128 -128 d s 1388 378 m -176 -176 d s 1388 426 m -224 -224 d s 1388 474 m -272 -272 d s 1351 485 m -283 -283 d s 1340 522 m -320 -320 d s 1324 554 m -352 -352 d s 1292 570 m -369 -368 d s 1292 619 m -96 -96 d s 1187 514 m
 -39 -39 d s 1111 438 m -236 -236 d s 1292 667 m -96 -96 d s 1100 475 m -143 -144 d s 954 329 m -127 -127 d s 1292 715 m -96 -96 d s 1100 523 m -143 -144 d s 909 332 m -130 -130 d s 1292 763 m -96 -96 d s 1100 571 m -143 -143 d s 884 355 m -153 -153
 d s 1292 811 m -96 -96 d s 1100 619 m -143 -143 d s 861 380 m -48 -48 d s 810 329 m -45 -45 d s 757 275 m -74 -73 d s 1292 859 m -96 -96 d s 1100 667 m -143 -143 d s 815 382 m -2 -2 d s 717 284 m -82 -82 d s 1292 907 m -96 -96 d s 1100 716 m -95 -96
 d s 972 587 m -15 -15 d s 692 307 m -105 -105 d s 1292 955 m -96 -96 d s 1100 764 m -95 -96 d s 640 303 m -19 -18 d s 580 243 m -41 -41 d s 1292 1003 m -96 -95 d s 1100 812 m -95 -96 d s 536 247 m -10 -10 d s 524 235 m -34 -33 d s 1292 1052 m -96
 -96 d s 1100 860 m -95 -96 d s 478 237 m -36 -35 d s 1292 1100 m -96 -96 d s 1100 908 m -47 -48 d s 1031 838 m -26 -26 d s 436 244 m -6 -7 d s 401 209 m -7 -7 d s 1251 1107 m -55 -55 d s 1100 956 m -47 -48 d s 350 206 m -4 -4 d s 1244 1148 m -48 -48
 d s 1054 958 m -1 -2 d s 305 208 m -7 -6 d s 1244 1196 m -48 -48 d s 286 238 m -36 -36 d s 1231 1231 m -35 -35 d s 257 257 m -19 -19 d s 6 lw 238 257 m 48 X -49 Y 48 X -2 Y 48 X 3 Y 48 X 35 Y 48 X -9 Y 48 X 12 Y 47 X -4 Y 48 X 60 Y 48 X 4 Y 48 X -32
 Y 48 X 54 Y 48 X 53 Y 48 X -27 Y 48 X -26 Y 48 X 258 Y 48 X 251 Y 48 X 120 Y 47 X -520 Y 48 X 76 Y 48 X 717 Y 48 X -124 Y 48 X -553 Y 48 X -69 Y 48 X -220 Y 48 X 38 Y 48 X -30 Y 48 X -34 Y 47 X -16 Y 48 X -5 Y 48 X 15 Y 48 X -18 Y 48 X 4 Y 48 X -4 Y
 96 X -7 Y 48 X 1 Y 48 X -3 Y 95 X -2 Y 48 X s black 3 lw 238 202 m 1916 X s 238 244 m -42 Y s 276 223 m -21 Y s 315 223 m -21 Y s 353 223 m -21 Y s 391 223 m -21 Y s 430 244 m -42 Y s 468 223 m -21 Y s 506 223 m -21 Y s 545 223 m -21 Y s 583 223 m
 -21 Y s 621 244 m -42 Y s 660 223 m -21 Y s 698 223 m -21 Y s 736 223 m -21 Y s 775 223 m -21 Y s 813 244 m -42 Y s 851 223 m -21 Y s 890 223 m -21 Y s 928 223 m -21 Y s 966 223 m -21 Y s 1005 244 m -42 Y s 1043 223 m -21 Y s 1081 223 m -21 Y s 1120
 223 m -21 Y s 1158 223 m -21 Y s 1196 244 m -42 Y s 1235 223 m -21 Y s 1273 223 m -21 Y s 1311 223 m -21 Y s 1350 223 m -21 Y s 1388 244 m -42 Y s 1426 223 m -21 Y s 1464 223 m -21 Y s 1503 223 m -21 Y s 1541 223 m -21 Y s 1579 244 m -42 Y s 1618
 223 m -21 Y s 1656 223 m -21 Y s 1694 223 m -21 Y s 1733 223 m -21 Y s 1771 244 m -42 Y s 1809 223 m -21 Y s 1848 223 m -21 Y s 1886 223 m -21 Y s 1924 223 m -21 Y s 1963 244 m -42 Y s 2001 223 m -21 Y s 2039 223 m -21 Y s 2078 223 m -21 Y s 2116
 223 m -21 Y s 2154 244 m -42 Y s 238 1514 m 1916 X s 238 1471 m 43 Y s 276 1492 m 22 Y s 315 1492 m 22 Y s 353 1492 m 22 Y s 391 1492 m 22 Y s 430 1471 m 43 Y s 468 1492 m 22 Y s 506 1492 m 22 Y s 545 1492 m 22 Y s 583 1492 m 22 Y s 621 1471 m 43 Y
 s 660 1492 m 22 Y s 698 1492 m 22 Y s 736 1492 m 22 Y s 775 1492 m 22 Y s 813 1471 m 43 Y s 851 1492 m 22 Y s 890 1492 m 22 Y s 928 1492 m 22 Y s 966 1492 m 22 Y s 1005 1471 m 43 Y s 1043 1492 m 22 Y s 1081 1492 m 22 Y s 1120 1492 m 22 Y s 1158 1492
 m 22 Y s 1196 1471 m 43 Y s 1235 1492 m 22 Y s 1273 1492 m 22 Y s 1311 1492 m 22 Y s 1350 1492 m 22 Y s 1388 1471 m 43 Y s 1426 1492 m 22 Y s 1464 1492 m 22 Y s 1503 1492 m 22 Y s 1541 1492 m 22 Y s 1579 1471 m 43 Y s 1618 1492 m 22 Y s 1656 1492 m
 22 Y s 1694 1492 m 22 Y s 1733 1492 m 22 Y s 1771 1471 m 43 Y s 1809 1492 m 22 Y s 1848 1492 m 22 Y s 1886 1492 m 22 Y s 1924 1492 m 22 Y s 1963 1471 m 43 Y s 2001 1492 m 22 Y s 2039 1492 m 22 Y s 2078 1492 m 22 Y s 2116 1492 m 22 Y s 2154 1471 m 43
 Y s 238 202 m 1312 Y s 291 202 m -53 X s 265 234 m -27 X s 265 266 m -27 X s 265 298 m -27 X s 265 330 m -27 X s 291 362 m -53 X s 265 394 m -27 X s 265 426 m -27 X s 265 459 m -27 X s 265 491 m -27 X s 291 523 m -53 X s 265 555 m -27 X s 265 587 m
 -27 X s 265 619 m -27 X s 265 651 m -27 X s 291 683 m -53 X s 265 715 m -27 X s 265 747 m -27 X s 265 780 m -27 X s 265 812 m -27 X s 291 844 m -53 X s 265 876 m -27 X s 265 908 m -27 X s 265 940 m -27 X s 265 972 m -27 X s 291 1004 m -53 X s 265
 1036 m -27 X s 265 1068 m -27 X s 265 1101 m -27 X s 265 1133 m -27 X s 291 1165 m -53 X s 265 1197 m -27 X s 265 1229 m -27 X s 265 1261 m -27 X s 265 1293 m -27 X s 291 1325 m -53 X s 265 1357 m -27 X s 265 1389 m -27 X s 265 1421 m -27 X s 265
 1454 m -27 X s 291 1486 m -53 X s 291 1486 m -53 X s 2154 202 m 1312 Y s 2101 202 m 53 X s 2128 234 m 26 X s 2128 266 m 26 X s 2128 298 m 26 X s 2128 330 m 26 X s 2101 362 m 53 X s 2128 394 m 26 X s 2128 426 m 26 X s 2128 459 m 26 X s 2128 491 m 26
 X s 2101 523 m 53 X s 2128 555 m 26 X s 2128 587 m 26 X s 2128 619 m 26 X s 2128 651 m 26 X s 2101 683 m 53 X s 2128 715 m 26 X s 2128 747 m 26 X s 2128 780 m 26 X s 2128 812 m 26 X s 2101 844 m 53 X s 2128 876 m 26 X s 2128 908 m 26 X s 2128 940 m
 26 X s 2128 972 m 26 X s 2101 1004 m 53 X s 2128 1036 m 26 X s 2128 1068 m 26 X s 2128 1101 m 26 X s 2128 1133 m 26 X s 2101 1165 m 53 X s 2128 1197 m 26 X s 2128 1229 m 26 X s 2128 1261 m 26 X s 2128 1293 m 26 X s 2101 1325 m 53 X s 2128 1357 m 26
 X s 2128 1389 m 26 X s 2128 1421 m 26 X s 2128 1454 m 26 X s 2101 1486 m 53 X s 2101 1486 m 53 X s
 gsave  2268 1682 0 0 C 2211.02 193.403 t 90 r /Helvetica-Bold findfont 45.6587 sf 0 0 m (U/O\255flow \(S,B\): \(0.0, 0.0\)% / \(2.4, 0.1\)%) show NC gr  0.490196 0.545098 0.615686 c 0.364706 0.419608 0.490196 c 1586 96 23 1577 bf 0.490196 0.545098
 0.615686 c 23 1577 m 1586 X s 1609 1577 m 96 Y s 1609 1673 m -1586 X s 23 1673 m -96 Y s 1 1 1 c black 1 1 1 c
 gsave  2268 1682 0 0 C 79.9028 1605.67 t 0 r /Helvetica-Bold findfont 76.0979 sf 0 0 m (TMVA probability for classifier: MLPBNN) show NC gr 
 gr  gr showpage
end
%%EOF
