%!PS-Adobe-2.0 EPSF-2.0
%%BoundingBox:  0 0 567 420
%%Title: plots/proba_TMlpANN.eps: TMVA probability TMlpANN
%%Creator: ROOT Version 5.34/09
%%CreationDate: Wed Dec 18 11:44:39 2013
%%EndComments
%%BeginProlog
80 dict begin
/s {stroke} def /l {lineto} def /m {moveto} def /t {translate} def
/r {rotate} def /rl {roll}  def /R {repeat} def
/d {rlineto} def /rm {rmoveto} def /gr {grestore} def /f {eofill} def
/c {setrgbcolor} def /black {0 setgray} def /sd {setdash} def
/cl {closepath} def /sf {scalefont setfont} def /lw {setlinewidth} def
/box {m dup 0 exch d exch 0 d 0 exch neg d cl} def
/NC{systemdict begin initclip end}def/C{NC box clip newpath}def
/bl {box s} def /bf {box f} def /Y { 0 exch d} def /X { 0 d} def 
/K {{pop pop 0 moveto} exch kshow} bind def
/ita {/ang 15 def gsave [1 0 ang dup sin exch cos div 1 0 0] concat} def 
/mp {newpath /y exch def /x exch def} def
/side {[w .77 mul w .23 mul] .385 w mul sd w 0 l currentpoint t -144 r} def
/mr {mp x y w2 0 360 arc} def /m24 {mr s} def /m20 {mr f} def
/mb {mp x y w2 add m w2 neg 0 d 0 w neg d w 0 d 0 w d cl} def
/mt {mp x y w2 add m w2 neg w neg d w 0 d cl} def
/m21 {mb f} def /m25 {mb s} def /m22 {mt f} def /m26{mt s} def
/m23 {mp x y w2 sub m w2 w d w neg 0 d cl f} def
/m27 {mp x y w2 add m w3 neg w2 neg d w3 w2 neg d w3 w2 d cl s} def
/m28 {mp x w2 sub y w2 sub w3 add m w3 0 d  0 w3 neg d w3 0 d 0 w3 d w3 0 d  0 w3 d w3 neg 0 d 0 w3 d w3 neg 0 d 0 w3 neg d w3 neg 0 d cl s } def
/m29 {mp gsave x w2 sub y w2 add w3 sub m currentpoint t 4 {side} repeat cl fill gr} def
/m30 {mp gsave x w2 sub y w2 add w3 sub m currentpoint t 4 {side} repeat cl s gr} def
/m31 {mp x y w2 sub m 0 w d x w2 sub y m w 0 d x w2 sub y w2 add m w w neg d x w2 sub y w2 sub m w w d s} def
/m32 {mp x y w2 sub m w2 w d w neg 0 d cl s} def
/m33 {mp x y w2 add m w3 neg w2 neg d w3 w2 neg d w3 w2 d cl f} def
/m34 {mp x w2 sub y w2 sub w3 add m w3 0 d  0 w3 neg d w3 0 d 0 w3 d w3 0 d  0 w3 d w3 neg 0 d 0 w3 d w3 neg 0 d 0 w3 neg d w3 neg 0 d cl f } def
/m2 {mp x y w2 sub m 0 w d x w2 sub y m w 0 d s} def
/m5 {mp x w2 sub y w2 sub m w w d x w2 sub y w2 add m w w neg d s} def
/reEncode {exch findfont dup length dict begin {1 index /FID eq  {pop pop} {def} ifelse } forall /Encoding exch def currentdict end dup /FontName get exch definefont pop } def [/Times-Bold /Times-Italic /Times-BoldItalic /Helvetica /Helvetica-Oblique
 /Helvetica-Bold /Helvetica-BoldOblique /Courier /Courier-Oblique /Courier-Bold /Courier-BoldOblique /Times-Roman /AvantGarde-Book /AvantGarde-BookOblique /AvantGarde-Demi /AvantGarde-DemiOblique /Bookman-Demi /Bookman-DemiItalic /Bookman-Light
 /Bookman-LightItalic /Helvetica-Narrow /Helvetica-Narrow-Bold /Helvetica-Narrow-BoldOblique /Helvetica-Narrow-Oblique /NewCenturySchlbk-Roman /NewCenturySchlbk-Bold /NewCenturySchlbk-BoldItalic /NewCenturySchlbk-Italic /Palatino-Bold
 /Palatino-BoldItalic /Palatino-Italic /Palatino-Roman ] {ISOLatin1Encoding reEncode } forall
%%EndProlog
%%BeginSetup
%%EndSetup
newpath  gsave  .25 .25 scale  gsave  0 0 t 0.490196 0.545098 0.615686 c[  ] 0 sd 3 lw 0.941176 0.941176 0.941176 c 2268 1682 0 0 bf black 1 1 0.992157 c 1916 1312 238 202 bf black 1916 1312 238 202 bl 1 1 0.992157 c 1916 1312 238 202 bf black 1916
 1312 238 202 bl 238 202 m 1916 X s
 gsave  2268 1682 0 0 C 1544.79 30.4391 t 0 r /Helvetica-Bold findfont 72.293 sf 0 0 m (Signal probability) show NC gr  238 244 m -42 Y s 276 223 m -21 Y s 315 223 m -21 Y s 353 223 m -21 Y s 391 223 m -21 Y s 430 244 m -42 Y s 468 223 m -21 Y s 506
 223 m -21 Y s 545 223 m -21 Y s 583 223 m -21 Y s 621 244 m -42 Y s 660 223 m -21 Y s 698 223 m -21 Y s 736 223 m -21 Y s 775 223 m -21 Y s 813 244 m -42 Y s 851 223 m -21 Y s 890 223 m -21 Y s 928 223 m -21 Y s 966 223 m -21 Y s 1005 244 m -42 Y s
 1043 223 m -21 Y s 1081 223 m -21 Y s 1120 223 m -21 Y s 1158 223 m -21 Y s 1196 244 m -42 Y s 1235 223 m -21 Y s 1273 223 m -21 Y s 1311 223 m -21 Y s 1350 223 m -21 Y s 1388 244 m -42 Y s 1426 223 m -21 Y s 1464 223 m -21 Y s 1503 223 m -21 Y s
 1541 223 m -21 Y s 1579 244 m -42 Y s 1618 223 m -21 Y s 1656 223 m -21 Y s 1694 223 m -21 Y s 1733 223 m -21 Y s 1771 244 m -42 Y s 1809 223 m -21 Y s 1848 223 m -21 Y s 1886 223 m -21 Y s 1924 223 m -21 Y s 1963 244 m -42 Y s 2001 223 m -21 Y s
 2039 223 m -21 Y s 2078 223 m -21 Y s 2116 223 m -21 Y s 2154 244 m -42 Y s
 gsave  2268 1682 0 0 C 216.879 129.366 t 0 r /Helvetica-Bold findfont 64.6832 sf 0 0 m (0) show NC gr 
 gsave  2268 1682 0 0 C 384.294 129.366 t 0 r /Helvetica-Bold findfont 64.6832 sf 0 0 m (0.1) show NC gr 
 gsave  2268 1682 0 0 C 574.539 129.366 t 0 r /Helvetica-Bold findfont 64.6832 sf 0 0 m (0.2) show NC gr 
 gsave  2268 1682 0 0 C 764.784 129.366 t 0 r /Helvetica-Bold findfont 64.6832 sf 0 0 m (0.3) show NC gr 
 gsave  2268 1682 0 0 C 958.833 129.366 t 0 r /Helvetica-Bold findfont 64.6832 sf 0 0 m (0.4) show NC gr 
 gsave  2268 1682 0 0 C 1149.08 129.366 t 0 r /Helvetica-Bold findfont 64.6832 sf 0 0 m (0.5) show NC gr 
 gsave  2268 1682 0 0 C 1339.32 129.366 t 0 r /Helvetica-Bold findfont 64.6832 sf 0 0 m (0.6) show NC gr 
 gsave  2268 1682 0 0 C 1533.37 129.366 t 0 r /Helvetica-Bold findfont 64.6832 sf 0 0 m (0.7) show NC gr 
 gsave  2268 1682 0 0 C 1723.62 129.366 t 0 r /Helvetica-Bold findfont 64.6832 sf 0 0 m (0.8) show NC gr 
 gsave  2268 1682 0 0 C 1913.86 129.366 t 0 r /Helvetica-Bold findfont 64.6832 sf 0 0 m (0.9) show NC gr 
 gsave  2268 1682 0 0 C 2138.35 129.366 t 0 r /Helvetica-Bold findfont 64.6832 sf 0 0 m (1) show NC gr  238 1514 m 1916 X s 238 1471 m 43 Y s 276 1492 m 22 Y s 315 1492 m 22 Y s 353 1492 m 22 Y s 391 1492 m 22 Y s 430 1471 m 43 Y s 468 1492 m 22 Y s
 506 1492 m 22 Y s 545 1492 m 22 Y s 583 1492 m 22 Y s 621 1471 m 43 Y s 660 1492 m 22 Y s 698 1492 m 22 Y s 736 1492 m 22 Y s 775 1492 m 22 Y s 813 1471 m 43 Y s 851 1492 m 22 Y s 890 1492 m 22 Y s 928 1492 m 22 Y s 966 1492 m 22 Y s 1005 1471 m 43
 Y s 1043 1492 m 22 Y s 1081 1492 m 22 Y s 1120 1492 m 22 Y s 1158 1492 m 22 Y s 1196 1471 m 43 Y s 1235 1492 m 22 Y s 1273 1492 m 22 Y s 1311 1492 m 22 Y s 1350 1492 m 22 Y s 1388 1471 m 43 Y s 1426 1492 m 22 Y s 1464 1492 m 22 Y s 1503 1492 m 22 Y
 s 1541 1492 m 22 Y s 1579 1471 m 43 Y s 1618 1492 m 22 Y s 1656 1492 m 22 Y s 1694 1492 m 22 Y s 1733 1492 m 22 Y s 1771 1471 m 43 Y s 1809 1492 m 22 Y s 1848 1492 m 22 Y s 1886 1492 m 22 Y s 1924 1492 m 22 Y s 1963 1471 m 43 Y s 2001 1492 m 22 Y s
 2039 1492 m 22 Y s 2078 1492 m 22 Y s 2116 1492 m 22 Y s 2154 1471 m 43 Y s 238 202 m 1312 Y s
 gsave  2268 1682 0 0 C 64.6832 1430.64 t 90 r /Helvetica-Bold findfont 72.293 sf 0 0 m (dx) show NC gr 
 gsave  2268 1682 0 0 C 30.4391 1411.62 t 90 r /Helvetica-Bold findfont 45.6587 sf 0 0 m ( ) show NC gr 
 gsave  2268 1682 0 0 C 64.6832 1388.79 t 90 r /Helvetica-Bold findfont 72.293 sf 0 0 m (/) show NC gr 
 gsave  2268 1682 0 0 C 30.4391 1369.76 t 90 r /Helvetica-Bold findfont 45.6587 sf 0 0 m ( ) show NC gr 
 gsave  2268 1682 0 0 C 60.8783 1095.81 t 90 r /Helvetica-Bold findfont 72.293 sf 0 0 m (\(1/N\) dN) show NC gr  291 202 m -53 X s 265 251 m -27 X s 265 301 m -27 X s 265 350 m -27 X s 265 400 m -27 X s 291 449 m -53 X s 265 499 m -27 X s 265 548 m
 -27 X s 265 598 m -27 X s 265 647 m -27 X s 291 697 m -53 X s 265 746 m -27 X s 265 796 m -27 X s 265 845 m -27 X s 265 895 m -27 X s 291 944 m -53 X s 265 994 m -27 X s 265 1043 m -27 X s 265 1093 m -27 X s 265 1142 m -27 X s 291 1192 m -53 X s 265
 1241 m -27 X s 265 1291 m -27 X s 265 1340 m -27 X s 265 1390 m -27 X s 291 1439 m -53 X s 291 1439 m -53 X s 265 1489 m -27 X s
 gsave  2268 1682 0 0 C 175.025 178.83 t 0 r /Helvetica-Bold findfont 64.6832 sf 0 0 m (0) show NC gr 
 gsave  2268 1682 0 0 C 182.635 426.148 t 0 r /Helvetica-Bold findfont 64.6832 sf 0 0 m (1) show NC gr 
 gsave  2268 1682 0 0 C 175.025 673.466 t 0 r /Helvetica-Bold findfont 64.6832 sf 0 0 m (2) show NC gr 
 gsave  2268 1682 0 0 C 175.025 920.784 t 0 r /Helvetica-Bold findfont 64.6832 sf 0 0 m (3) show NC gr 
 gsave  2268 1682 0 0 C 175.025 1168.1 t 0 r /Helvetica-Bold findfont 64.6832 sf 0 0 m (4) show NC gr 
 gsave  2268 1682 0 0 C 175.025 1415.42 t 0 r /Helvetica-Bold findfont 64.6832 sf 0 0 m (5) show NC gr  2154 202 m 1312 Y s 2101 202 m 53 X s 2128 251 m 26 X s 2128 301 m 26 X s 2128 350 m 26 X s 2128 400 m 26 X s 2101 449 m 53 X s 2128 499 m 26 X s
 2128 548 m 26 X s 2128 598 m 26 X s 2128 647 m 26 X s 2101 697 m 53 X s 2128 746 m 26 X s 2128 796 m 26 X s 2128 845 m 26 X s 2128 895 m 26 X s 2101 944 m 53 X s 2128 994 m 26 X s 2128 1043 m 26 X s 2128 1093 m 26 X s 2128 1142 m 26 X s 2101 1192 m
 53 X s 2128 1241 m 26 X s 2128 1291 m 26 X s 2128 1340 m 26 X s 2128 1390 m 26 X s 2101 1439 m 53 X s 2101 1439 m 53 X s 2128 1489 m 26 X s 0.490196 0.545098 0.615686 c 0.95 0.95 0.95 c 0.490196 0.545098 0.615686 c 680 202 238 1312 bl 238 1312 m 680
 X s 918 1312 m 202 Y s 918 1514 m -680 X s 238 1514 m -202 Y s black
 gsave  2268 1682 0 0 C 441.368 1442.05 t 0 r /Times-Italic findfont 76.0979 sf 0 0 m (Signal) show NC gr  0.49 0.6 0.82 c 269 1428 m 143 X 70 Y -143 X f 0 0 0.933333 c 6 lw 269 1498 m 143 X s 269 1428 m 143 X s 412 1428 m 70 Y s 269 1428 m 70 Y s
 black
 gsave  2268 1682 0 0 C 441.368 1343.13 t 0 r /Times-Italic findfont 76.0979 sf 0 0 m (Background) show NC gr  1 0 0 c 3 lw 412 1374 m -47 -47 d s 387 1398 m -70 -71 d s 339 1398 m -70 -71 d s 291 1398 m -22 -23 d s 6 lw 0 0 0.933333 c 1 0 0 c 269
 1398 m 143 X s 269 1327 m 143 X s 412 1327 m 71 Y s 269 1327 m 71 Y s 0 0 0.933333 c 0.49 0.6 0.82 c black 3 lw 0.49 0.6 0.82 c 238 202 m 19 Y 48 X -14 Y 48 X 3 Y 96 X 4 Y 48 X 2 Y 48 X 10 Y 47 X 4 Y 48 X 6 Y 48 X 9 Y 48 X 30 Y 48 X 61 Y 48 X 11 Y
 48 X 47 Y 48 X 134 Y 48 X 145 Y 48 X 42 Y 48 X 122 Y 47 X 442 Y 48 X -234 Y 48 X 87 Y 48 X -51 Y 48 X -309 Y 48 X -136 Y 48 X 7 Y 48 X -134 Y 48 X 69 Y 48 X -147 Y 47 X 19 Y 48 X -51 Y 48 X -55 Y 48 X 8 Y 48 X -45 Y 48 X -24 Y 48 X -31 Y 48 X 7 Y 48
 X -42 Y 48 X 41 Y 48 X -45 Y 47 X -2 Y 48 X -9 Y f 6 lw 0 0 0.933333 c 0.49 0.6 0.82 c 0 0 0.933333 c 238 221 m 48 X -14 Y 48 X 3 Y 96 X 4 Y 48 X 2 Y 48 X 10 Y 47 X 4 Y 48 X 6 Y 48 X 9 Y 48 X 30 Y 48 X 61 Y 48 X 11 Y 48 X 47 Y 48 X 134 Y 48 X 145 Y
 48 X 42 Y 48 X 122 Y 47 X 442 Y 48 X -234 Y 48 X 87 Y 48 X -51 Y 48 X -309 Y 48 X -136 Y 48 X 7 Y 48 X -134 Y 48 X 69 Y 48 X -147 Y 47 X 19 Y 48 X -51 Y 48 X -55 Y 48 X 8 Y 48 X -45 Y 48 X -24 Y 48 X -31 Y 48 X 7 Y 48 X -42 Y 48 X 41 Y 48 X -45 Y 47
 X -2 Y 48 X s 1 0 0 c black 3 lw 1 0 0 c 2129 205 m -3 -3 d s 2080 204 m -2 -2 d s 2039 211 m -9 -9 d s 1993 213 m -11 -11 d s 1949 217 m -15 -15 d s 1891 208 m -5 -6 d s 1867 231 m -30 -29 d s 1822 234 m -3 -2 d s 1815 228 m -26 -26 d s 1771 232 m
 -30 -30 d s 1768 277 m -75 -75 d s 1708 264 m -63 -62 d s 1665 270 m -68 -68 d s 1627 280 m -78 -78 d s 1627 329 m -126 -127 d s 1612 361 m -159 -159 d s 1540 337 m -136 -135 d s 1532 377 m -176 -175 d s 1510 403 m -202 -201 d s 1484 425 m -224 -223
 d s 1444 433 m -232 -231 d s 1436 474 m -272 -272 d s 1436 522 m -320 -320 d s 1417 551 m -29 -29 d s 1341 475 m -273 -273 d s 1340 522 m -320 -320 d s 1340 570 m -368 -368 d s 1340 618 m -417 -416 d s 1333 660 m -458 -458 d s 1292 667 m -465 -465 d
 s 1292 715 m -513 -513 d s 1292 763 m -561 -561 d s 1292 811 m -609 -609 d s 1292 859 m -657 -657 d s 1292 907 m -383 -383 d s 888 503 m -123 -123 d s 750 365 m -33 -33 d s 685 300 m -16 -16 d s 659 274 m -72 -72 d s 1290 953 m -381 -381 d s 830 493
 m -17 -17 d s 801 464 m -36 -36 d s 606 270 m -67 -68 d s 1244 955 m -287 -287 d s 941 652 m -32 -32 d s 556 267 m -66 -65 d s 1244 1004 m -287 -288 d s 485 244 m -43 -42 d s 1244 1052 m -144 -144 d s 1058 865 m -5 -5 d s 1050 858 m -93 -94 d s 438
 245 m -44 -43 d s 1230 1085 m -130 -129 d s 1005 860 m -48 -48 d s 415 270 m -33 -32 d s 380 235 m -34 -33 d s 1196 1100 m -96 -96 d s 1002 906 m -45 -46 d s 331 235 m -33 -33 d s 1151 1103 m -51 -51 d s 286 238 m -36 -36 d s 1148 1148 m -48 -48 d s
 286 286 m -48 -48 d s 1148 1196 m -48 -47 d s 286 334 m -48 -48 d s 1148 1245 m -48 -48 d s 239 336 m -1 -2 d s 1148 1293 m -48 -48 d s 1103 1295 m -3 -2 d s 6 lw 238 336 m 48 X -101 Y 96 X 35 Y 48 X -25 Y 48 X -1 Y 48 X 23 Y 47 X 3 Y 48 X 4 Y 48 X
 26 Y 48 X 65 Y 48 X 99 Y 48 X 29 Y 48 X 10 Y 48 X 149 Y 48 X 254 Y 48 X -48 Y 48 X 7 Y 47 X 430 Y 48 X -192 Y 48 X -18 Y 48 X -132 Y 48 X -293 Y 48 X -185 Y 48 X 76 Y 48 X -118 Y 48 X -30 Y 48 X -66 Y 47 X 24 Y 48 X -91 Y 48 X -6 Y 48 X 13 Y 48 X
 -49 Y 48 X 6 Y 48 X -26 Y 48 X 9 Y 48 X -4 Y 48 X -2 Y 48 X -7 Y 47 X 1 Y 48 X s black 3 lw 238 202 m 1916 X s 238 244 m -42 Y s 276 223 m -21 Y s 315 223 m -21 Y s 353 223 m -21 Y s 391 223 m -21 Y s 430 244 m -42 Y s 468 223 m -21 Y s 506 223 m
 -21 Y s 545 223 m -21 Y s 583 223 m -21 Y s 621 244 m -42 Y s 660 223 m -21 Y s 698 223 m -21 Y s 736 223 m -21 Y s 775 223 m -21 Y s 813 244 m -42 Y s 851 223 m -21 Y s 890 223 m -21 Y s 928 223 m -21 Y s 966 223 m -21 Y s 1005 244 m -42 Y s 1043
 223 m -21 Y s 1081 223 m -21 Y s 1120 223 m -21 Y s 1158 223 m -21 Y s 1196 244 m -42 Y s 1235 223 m -21 Y s 1273 223 m -21 Y s 1311 223 m -21 Y s 1350 223 m -21 Y s 1388 244 m -42 Y s 1426 223 m -21 Y s 1464 223 m -21 Y s 1503 223 m -21 Y s 1541
 223 m -21 Y s 1579 244 m -42 Y s 1618 223 m -21 Y s 1656 223 m -21 Y s 1694 223 m -21 Y s 1733 223 m -21 Y s 1771 244 m -42 Y s 1809 223 m -21 Y s 1848 223 m -21 Y s 1886 223 m -21 Y s 1924 223 m -21 Y s 1963 244 m -42 Y s 2001 223 m -21 Y s 2039
 223 m -21 Y s 2078 223 m -21 Y s 2116 223 m -21 Y s 2154 244 m -42 Y s 238 1514 m 1916 X s 238 1471 m 43 Y s 276 1492 m 22 Y s 315 1492 m 22 Y s 353 1492 m 22 Y s 391 1492 m 22 Y s 430 1471 m 43 Y s 468 1492 m 22 Y s 506 1492 m 22 Y s 545 1492 m 22
 Y s 583 1492 m 22 Y s 621 1471 m 43 Y s 660 1492 m 22 Y s 698 1492 m 22 Y s 736 1492 m 22 Y s 775 1492 m 22 Y s 813 1471 m 43 Y s 851 1492 m 22 Y s 890 1492 m 22 Y s 928 1492 m 22 Y s 966 1492 m 22 Y s 1005 1471 m 43 Y s 1043 1492 m 22 Y s 1081 1492
 m 22 Y s 1120 1492 m 22 Y s 1158 1492 m 22 Y s 1196 1471 m 43 Y s 1235 1492 m 22 Y s 1273 1492 m 22 Y s 1311 1492 m 22 Y s 1350 1492 m 22 Y s 1388 1471 m 43 Y s 1426 1492 m 22 Y s 1464 1492 m 22 Y s 1503 1492 m 22 Y s 1541 1492 m 22 Y s 1579 1471 m
 43 Y s 1618 1492 m 22 Y s 1656 1492 m 22 Y s 1694 1492 m 22 Y s 1733 1492 m 22 Y s 1771 1471 m 43 Y s 1809 1492 m 22 Y s 1848 1492 m 22 Y s 1886 1492 m 22 Y s 1924 1492 m 22 Y s 1963 1471 m 43 Y s 2001 1492 m 22 Y s 2039 1492 m 22 Y s 2078 1492 m 22
 Y s 2116 1492 m 22 Y s 2154 1471 m 43 Y s 238 202 m 1312 Y s 291 202 m -53 X s 265 251 m -27 X s 265 301 m -27 X s 265 350 m -27 X s 265 400 m -27 X s 291 449 m -53 X s 265 499 m -27 X s 265 548 m -27 X s 265 598 m -27 X s 265 647 m -27 X s 291 697
 m -53 X s 265 746 m -27 X s 265 796 m -27 X s 265 845 m -27 X s 265 895 m -27 X s 291 944 m -53 X s 265 994 m -27 X s 265 1043 m -27 X s 265 1093 m -27 X s 265 1142 m -27 X s 291 1192 m -53 X s 265 1241 m -27 X s 265 1291 m -27 X s 265 1340 m -27 X
 s 265 1390 m -27 X s 291 1439 m -53 X s 291 1439 m -53 X s 265 1489 m -27 X s 2154 202 m 1312 Y s 2101 202 m 53 X s 2128 251 m 26 X s 2128 301 m 26 X s 2128 350 m 26 X s 2128 400 m 26 X s 2101 449 m 53 X s 2128 499 m 26 X s 2128 548 m 26 X s 2128
 598 m 26 X s 2128 647 m 26 X s 2101 697 m 53 X s 2128 746 m 26 X s 2128 796 m 26 X s 2128 845 m 26 X s 2128 895 m 26 X s 2101 944 m 53 X s 2128 994 m 26 X s 2128 1043 m 26 X s 2128 1093 m 26 X s 2128 1142 m 26 X s 2101 1192 m 53 X s 2128 1241 m 26 X
 s 2128 1291 m 26 X s 2128 1340 m 26 X s 2128 1390 m 26 X s 2101 1439 m 53 X s 2101 1439 m 53 X s 2128 1489 m 26 X s
 gsave  2268 1682 0 0 C 2211.02 193.403 t 90 r /Helvetica-Bold findfont 45.6587 sf 0 0 m (U/O\255flow \(S,B\): \(0.0, 0.0\)% / \(1.2, 0.1\)%) show NC gr  0.490196 0.545098 0.615686 c 0.364706 0.419608 0.490196 c 1587 96 23 1577 bf 0.490196 0.545098
 0.615686 c 23 1577 m 1587 X s 1610 1577 m 96 Y s 1610 1673 m -1587 X s 23 1673 m -96 Y s 1 1 1 c black 1 1 1 c
 gsave  2268 1682 0 0 C 72.293 1605.67 t 0 r /Helvetica-Bold findfont 76.0979 sf 0 0 m (TMVA probability for classifier: TMlpANN) show NC gr 
 gr  gr showpage
end
%%EOF
