%!PS-Adobe-2.0 EPSF-2.0
%%BoundingBox:  0 0 567 420
%%Title: plots/proba_MLPBFGS.eps: TMVA probability MLPBFGS
%%Creator: ROOT Version 5.34/09
%%CreationDate: Wed Dec 18 11:44:38 2013
%%EndComments
%%BeginProlog
80 dict begin
/s {stroke} def /l {lineto} def /m {moveto} def /t {translate} def
/r {rotate} def /rl {roll}  def /R {repeat} def
/d {rlineto} def /rm {rmoveto} def /gr {grestore} def /f {eofill} def
/c {setrgbcolor} def /black {0 setgray} def /sd {setdash} def
/cl {closepath} def /sf {scalefont setfont} def /lw {setlinewidth} def
/box {m dup 0 exch d exch 0 d 0 exch neg d cl} def
/NC{systemdict begin initclip end}def/C{NC box clip newpath}def
/bl {box s} def /bf {box f} def /Y { 0 exch d} def /X { 0 d} def 
/K {{pop pop 0 moveto} exch kshow} bind def
/ita {/ang 15 def gsave [1 0 ang dup sin exch cos div 1 0 0] concat} def 
/mp {newpath /y exch def /x exch def} def
/side {[w .77 mul w .23 mul] .385 w mul sd w 0 l currentpoint t -144 r} def
/mr {mp x y w2 0 360 arc} def /m24 {mr s} def /m20 {mr f} def
/mb {mp x y w2 add m w2 neg 0 d 0 w neg d w 0 d 0 w d cl} def
/mt {mp x y w2 add m w2 neg w neg d w 0 d cl} def
/m21 {mb f} def /m25 {mb s} def /m22 {mt f} def /m26{mt s} def
/m23 {mp x y w2 sub m w2 w d w neg 0 d cl f} def
/m27 {mp x y w2 add m w3 neg w2 neg d w3 w2 neg d w3 w2 d cl s} def
/m28 {mp x w2 sub y w2 sub w3 add m w3 0 d  0 w3 neg d w3 0 d 0 w3 d w3 0 d  0 w3 d w3 neg 0 d 0 w3 d w3 neg 0 d 0 w3 neg d w3 neg 0 d cl s } def
/m29 {mp gsave x w2 sub y w2 add w3 sub m currentpoint t 4 {side} repeat cl fill gr} def
/m30 {mp gsave x w2 sub y w2 add w3 sub m currentpoint t 4 {side} repeat cl s gr} def
/m31 {mp x y w2 sub m 0 w d x w2 sub y m w 0 d x w2 sub y w2 add m w w neg d x w2 sub y w2 sub m w w d s} def
/m32 {mp x y w2 sub m w2 w d w neg 0 d cl s} def
/m33 {mp x y w2 add m w3 neg w2 neg d w3 w2 neg d w3 w2 d cl f} def
/m34 {mp x w2 sub y w2 sub w3 add m w3 0 d  0 w3 neg d w3 0 d 0 w3 d w3 0 d  0 w3 d w3 neg 0 d 0 w3 d w3 neg 0 d 0 w3 neg d w3 neg 0 d cl f } def
/m2 {mp x y w2 sub m 0 w d x w2 sub y m w 0 d s} def
/m5 {mp x w2 sub y w2 sub m w w d x w2 sub y w2 add m w w neg d s} def
/reEncode {exch findfont dup length dict begin {1 index /FID eq  {pop pop} {def} ifelse } forall /Encoding exch def currentdict end dup /FontName get exch definefont pop } def [/Times-Bold /Times-Italic /Times-BoldItalic /Helvetica /Helvetica-Oblique
 /Helvetica-Bold /Helvetica-BoldOblique /Courier /Courier-Oblique /Courier-Bold /Courier-BoldOblique /Times-Roman /AvantGarde-Book /AvantGarde-BookOblique /AvantGarde-Demi /AvantGarde-DemiOblique /Bookman-Demi /Bookman-DemiItalic /Bookman-Light
 /Bookman-LightItalic /Helvetica-Narrow /Helvetica-Narrow-Bold /Helvetica-Narrow-BoldOblique /Helvetica-Narrow-Oblique /NewCenturySchlbk-Roman /NewCenturySchlbk-Bold /NewCenturySchlbk-BoldItalic /NewCenturySchlbk-Italic /Palatino-Bold
 /Palatino-BoldItalic /Palatino-Italic /Palatino-Roman ] {ISOLatin1Encoding reEncode } forall
%%EndProlog
%%BeginSetup
%%EndSetup
newpath  gsave  .25 .25 scale  gsave  0 0 t 0.490196 0.545098 0.615686 c[  ] 0 sd 3 lw 0.941176 0.941176 0.941176 c 2268 1682 0 0 bf black 1 1 0.992157 c 1916 1312 238 202 bf black 1916 1312 238 202 bl 1 1 0.992157 c 1916 1312 238 202 bf black 1916
 1312 238 202 bl 238 202 m 1916 X s
 gsave  2268 1682 0 0 C 1544.79 30.4391 t 0 r /Helvetica-Bold findfont 72.293 sf 0 0 m (Signal probability) show NC gr  238 244 m -42 Y s 276 223 m -21 Y s 315 223 m -21 Y s 353 223 m -21 Y s 391 223 m -21 Y s 430 244 m -42 Y s 468 223 m -21 Y s 506
 223 m -21 Y s 545 223 m -21 Y s 583 223 m -21 Y s 621 244 m -42 Y s 660 223 m -21 Y s 698 223 m -21 Y s 736 223 m -21 Y s 775 223 m -21 Y s 813 244 m -42 Y s 851 223 m -21 Y s 890 223 m -21 Y s 928 223 m -21 Y s 966 223 m -21 Y s 1005 244 m -42 Y s
 1043 223 m -21 Y s 1081 223 m -21 Y s 1120 223 m -21 Y s 1158 223 m -21 Y s 1196 244 m -42 Y s 1235 223 m -21 Y s 1273 223 m -21 Y s 1311 223 m -21 Y s 1350 223 m -21 Y s 1388 244 m -42 Y s 1426 223 m -21 Y s 1464 223 m -21 Y s 1503 223 m -21 Y s
 1541 223 m -21 Y s 1579 244 m -42 Y s 1618 223 m -21 Y s 1656 223 m -21 Y s 1694 223 m -21 Y s 1733 223 m -21 Y s 1771 244 m -42 Y s 1809 223 m -21 Y s 1848 223 m -21 Y s 1886 223 m -21 Y s 1924 223 m -21 Y s 1963 244 m -42 Y s 2001 223 m -21 Y s
 2039 223 m -21 Y s 2078 223 m -21 Y s 2116 223 m -21 Y s 2154 244 m -42 Y s
 gsave  2268 1682 0 0 C 216.879 129.366 t 0 r /Helvetica-Bold findfont 64.6832 sf 0 0 m (0) show NC gr 
 gsave  2268 1682 0 0 C 384.294 129.366 t 0 r /Helvetica-Bold findfont 64.6832 sf 0 0 m (0.1) show NC gr 
 gsave  2268 1682 0 0 C 574.539 129.366 t 0 r /Helvetica-Bold findfont 64.6832 sf 0 0 m (0.2) show NC gr 
 gsave  2268 1682 0 0 C 764.784 129.366 t 0 r /Helvetica-Bold findfont 64.6832 sf 0 0 m (0.3) show NC gr 
 gsave  2268 1682 0 0 C 958.833 129.366 t 0 r /Helvetica-Bold findfont 64.6832 sf 0 0 m (0.4) show NC gr 
 gsave  2268 1682 0 0 C 1149.08 129.366 t 0 r /Helvetica-Bold findfont 64.6832 sf 0 0 m (0.5) show NC gr 
 gsave  2268 1682 0 0 C 1339.32 129.366 t 0 r /Helvetica-Bold findfont 64.6832 sf 0 0 m (0.6) show NC gr 
 gsave  2268 1682 0 0 C 1533.37 129.366 t 0 r /Helvetica-Bold findfont 64.6832 sf 0 0 m (0.7) show NC gr 
 gsave  2268 1682 0 0 C 1723.62 129.366 t 0 r /Helvetica-Bold findfont 64.6832 sf 0 0 m (0.8) show NC gr 
 gsave  2268 1682 0 0 C 1913.86 129.366 t 0 r /Helvetica-Bold findfont 64.6832 sf 0 0 m (0.9) show NC gr 
 gsave  2268 1682 0 0 C 2138.35 129.366 t 0 r /Helvetica-Bold findfont 64.6832 sf 0 0 m (1) show NC gr  238 1514 m 1916 X s 238 1471 m 43 Y s 276 1492 m 22 Y s 315 1492 m 22 Y s 353 1492 m 22 Y s 391 1492 m 22 Y s 430 1471 m 43 Y s 468 1492 m 22 Y s
 506 1492 m 22 Y s 545 1492 m 22 Y s 583 1492 m 22 Y s 621 1471 m 43 Y s 660 1492 m 22 Y s 698 1492 m 22 Y s 736 1492 m 22 Y s 775 1492 m 22 Y s 813 1471 m 43 Y s 851 1492 m 22 Y s 890 1492 m 22 Y s 928 1492 m 22 Y s 966 1492 m 22 Y s 1005 1471 m 43
 Y s 1043 1492 m 22 Y s 1081 1492 m 22 Y s 1120 1492 m 22 Y s 1158 1492 m 22 Y s 1196 1471 m 43 Y s 1235 1492 m 22 Y s 1273 1492 m 22 Y s 1311 1492 m 22 Y s 1350 1492 m 22 Y s 1388 1471 m 43 Y s 1426 1492 m 22 Y s 1464 1492 m 22 Y s 1503 1492 m 22 Y
 s 1541 1492 m 22 Y s 1579 1471 m 43 Y s 1618 1492 m 22 Y s 1656 1492 m 22 Y s 1694 1492 m 22 Y s 1733 1492 m 22 Y s 1771 1471 m 43 Y s 1809 1492 m 22 Y s 1848 1492 m 22 Y s 1886 1492 m 22 Y s 1924 1492 m 22 Y s 1963 1471 m 43 Y s 2001 1492 m 22 Y s
 2039 1492 m 22 Y s 2078 1492 m 22 Y s 2116 1492 m 22 Y s 2154 1471 m 43 Y s 238 202 m 1312 Y s
 gsave  2268 1682 0 0 C 64.6832 1430.64 t 90 r /Helvetica-Bold findfont 72.293 sf 0 0 m (dx) show NC gr 
 gsave  2268 1682 0 0 C 30.4391 1411.62 t 90 r /Helvetica-Bold findfont 45.6587 sf 0 0 m ( ) show NC gr 
 gsave  2268 1682 0 0 C 64.6832 1388.79 t 90 r /Helvetica-Bold findfont 72.293 sf 0 0 m (/) show NC gr 
 gsave  2268 1682 0 0 C 30.4391 1369.76 t 90 r /Helvetica-Bold findfont 45.6587 sf 0 0 m ( ) show NC gr 
 gsave  2268 1682 0 0 C 60.8783 1095.81 t 90 r /Helvetica-Bold findfont 72.293 sf 0 0 m (\(1/N\) dN) show NC gr  291 202 m -53 X s 265 247 m -27 X s 265 291 m -27 X s 265 336 m -27 X s 265 381 m -27 X s 291 425 m -53 X s 265 470 m -27 X s 265 515 m
 -27 X s 265 559 m -27 X s 265 604 m -27 X s 291 649 m -53 X s 265 694 m -27 X s 265 738 m -27 X s 265 783 m -27 X s 265 828 m -27 X s 291 872 m -53 X s 265 917 m -27 X s 265 962 m -27 X s 265 1006 m -27 X s 265 1051 m -27 X s 291 1096 m -53 X s 265
 1141 m -27 X s 265 1185 m -27 X s 265 1230 m -27 X s 265 1275 m -27 X s 291 1319 m -53 X s 291 1319 m -53 X s 265 1364 m -27 X s 265 1409 m -27 X s 265 1453 m -27 X s 265 1498 m -27 X s
 gsave  2268 1682 0 0 C 175.025 178.83 t 0 r /Helvetica-Bold findfont 64.6832 sf 0 0 m (0) show NC gr 
 gsave  2268 1682 0 0 C 182.635 399.514 t 0 r /Helvetica-Bold findfont 64.6832 sf 0 0 m (1) show NC gr 
 gsave  2268 1682 0 0 C 175.025 624.003 t 0 r /Helvetica-Bold findfont 64.6832 sf 0 0 m (2) show NC gr 
 gsave  2268 1682 0 0 C 175.025 848.491 t 0 r /Helvetica-Bold findfont 64.6832 sf 0 0 m (3) show NC gr 
 gsave  2268 1682 0 0 C 175.025 1072.98 t 0 r /Helvetica-Bold findfont 64.6832 sf 0 0 m (4) show NC gr 
 gsave  2268 1682 0 0 C 175.025 1293.66 t 0 r /Helvetica-Bold findfont 64.6832 sf 0 0 m (5) show NC gr  2154 202 m 1312 Y s 2101 202 m 53 X s 2128 247 m 26 X s 2128 291 m 26 X s 2128 336 m 26 X s 2128 381 m 26 X s 2101 425 m 53 X s 2128 470 m 26 X s
 2128 515 m 26 X s 2128 559 m 26 X s 2128 604 m 26 X s 2101 649 m 53 X s 2128 694 m 26 X s 2128 738 m 26 X s 2128 783 m 26 X s 2128 828 m 26 X s 2101 872 m 53 X s 2128 917 m 26 X s 2128 962 m 26 X s 2128 1006 m 26 X s 2128 1051 m 26 X s 2101 1096 m
 53 X s 2128 1141 m 26 X s 2128 1185 m 26 X s 2128 1230 m 26 X s 2128 1275 m 26 X s 2101 1319 m 53 X s 2101 1319 m 53 X s 2128 1364 m 26 X s 2128 1409 m 26 X s 2128 1453 m 26 X s 2128 1498 m 26 X s 0.490196 0.545098 0.615686 c 0.95 0.95 0.95 c
 0.490196 0.545098 0.615686 c 680 202 238 1312 bl 238 1312 m 680 X s 918 1312 m 202 Y s 918 1514 m -680 X s 238 1514 m -202 Y s black
 gsave  2268 1682 0 0 C 441.368 1442.05 t 0 r /Times-Italic findfont 76.0979 sf 0 0 m (Signal) show NC gr  0.49 0.6 0.82 c 269 1428 m 143 X 70 Y -143 X f 0 0 0.933333 c 6 lw 269 1498 m 143 X s 269 1428 m 143 X s 412 1428 m 70 Y s 269 1428 m 70 Y s
 black
 gsave  2268 1682 0 0 C 441.368 1343.13 t 0 r /Times-Italic findfont 76.0979 sf 0 0 m (Background) show NC gr  1 0 0 c 3 lw 412 1374 m -47 -47 d s 387 1398 m -70 -71 d s 339 1398 m -70 -71 d s 291 1398 m -22 -23 d s 6 lw 0 0 0.933333 c 1 0 0 c 269
 1398 m 143 X s 269 1327 m 143 X s 412 1327 m 71 Y s 269 1327 m 71 Y s 0 0 0.933333 c 0.49 0.6 0.82 c black 3 lw 0.49 0.6 0.82 c 238 202 m 8 Y 48 X -7 Y 48 X 2 Y 48 X 2 Y 48 X 13 Y 48 X 6 Y 48 X -8 Y 47 X 13 Y 48 X -7 Y 48 X 35 Y 48 X 19 Y 48 X 34 Y
 48 X 36 Y 48 X 14 Y 48 X -12 Y 48 X 164 Y 48 X -22 Y 48 X 599 Y 47 X 53 Y 48 X -163 Y 48 X -155 Y 48 X -44 Y 48 X 203 Y 48 X -134 Y 48 X -12 Y 48 X -264 Y 48 X -80 Y 48 X -186 Y 47 X 17 Y 48 X -11 Y 48 X -4 Y 48 X -47 Y 48 X 6 Y 48 X -6 Y 48 X 10 Y
 48 X 7 Y 48 X -47 Y 96 X 17 Y 47 X 3 Y 48 X -52 Y f 6 lw 0 0 0.933333 c 0.49 0.6 0.82 c 0 0 0.933333 c 238 210 m 48 X -7 Y 48 X 2 Y 48 X 2 Y 48 X 13 Y 48 X 6 Y 48 X -8 Y 47 X 13 Y 48 X -7 Y 48 X 35 Y 48 X 19 Y 48 X 34 Y 48 X 36 Y 48 X 14 Y 48 X -12
 Y 48 X 164 Y 48 X -22 Y 48 X 599 Y 47 X 53 Y 48 X -163 Y 48 X -155 Y 48 X -44 Y 48 X 203 Y 48 X -134 Y 48 X -12 Y 48 X -264 Y 48 X -80 Y 48 X -186 Y 47 X 17 Y 48 X -11 Y 48 X -4 Y 48 X -47 Y 48 X 6 Y 48 X -6 Y 48 X 10 Y 48 X 7 Y 48 X -47 Y 96 X 17 Y
 47 X 3 Y 48 X s 1 0 0 c black 3 lw 1 0 0 c 2137 212 m -11 -10 d s 2080 204 m -2 -2 d s 2037 209 m -7 -7 d s 1985 205 m -3 -3 d s 1947 215 m -13 -13 d s 1907 224 m -21 -22 d s 1858 222 m -21 -20 d s 1810 223 m -21 -21 d s 1762 222 m -21 -20 d s 1723
 232 m -30 -30 d s 1693 249 m -48 -47 d s 1653 258 m -56 -56 d s 1592 245 m -43 -43 d s 1556 258 m -55 -56 d s 1532 281 m -79 -79 d s 1532 329 m -128 -127 d s 1516 361 m -160 -159 d s 1484 377 m -176 -175 d s 1484 425 m -224 -223 d s 1465 455 m -253
 -253 d s 1436 474 m -272 -272 d s 1436 522 m -320 -320 d s 1436 570 m -368 -368 d s 1410 593 m -390 -391 d s 1388 618 m -416 -416 d s 1359 637 m -436 -435 d s 1340 666 m -465 -464 d s 1340 715 m -513 -513 d s 1340 763 m -561 -561 d s 1340 811 m -48
 -48 d s 1272 743 m -315 -315 d s 954 424 m -223 -222 d s 1340 859 m -48 -48 d s 1244 763 m -287 -287 d s 909 428 m -226 -226 d s 1318 885 m -26 -26 d s 1226 793 m -173 -173 d s 1033 600 m -76 -76 d s 909 476 m -274 -274 d s 1196 811 m -143 -143 d s
 1005 620 m -48 -48 d s 891 507 m -126 -127 d s 762 377 m -45 -45 d s 701 316 m -32 -32 d s 648 263 m -61 -61 d s 1196 859 m -143 -143 d s 999 662 m -42 -42 d s 857 520 m -44 -44 d s 785 449 m -20 -21 d s 621 285 m -82 -83 d s 1196 908 m -143 -144 d
 s 533 245 m -43 -43 d s 1188 948 m -135 -136 d s 494 254 m -52 -52 d s 1148 956 m -95 -96 d s 478 285 m -48 -48 d s 424 232 m -30 -30 d s 1148 1004 m -95 -96 d s 432 288 m -2 -3 d s 359 215 m -13 -13 d s 1148 1052 m -95 -96 d s 309 213 m -11 -11 d s
 1148 1100 m -95 -96 d s 286 238 m -36 -36 d s 1148 1148 m -95 -95 d s 286 286 m -48 -48 d s 1148 1196 m -95 -95 d s 243 291 m -5 -5 d s 1148 1245 m -95 -96 d s 1148 1293 m -48 -48 d s 1074 1219 m -21 -22 d s 1103 1295 m -3 -2 d s 6 lw 238 291 m 48 X
 -78 Y 48 X 2 Y 48 X 17 Y 48 X 56 Y 48 X -34 Y 48 X -9 Y 47 X 40 Y 48 X -22 Y 48 X 53 Y 48 X 61 Y 48 X 72 Y 48 X 71 Y 48 X -13 Y 48 X -83 Y 48 X 238 Y 48 X -62 Y 48 X 619 Y 47 X 76 Y 48 X -347 Y 48 X -155 Y 48 X -50 Y 48 X 142 Y 48 X -248 Y 48 X -44
 Y 48 X -138 Y 48 X -94 Y 48 X -103 Y 47 X -13 Y 48 X 13 Y 48 X -9 Y 48 X -27 Y 48 X 1 Y 48 X -1 Y 48 X 2 Y 48 X -9 Y 48 X -10 Y 48 X 4 Y 48 X -5 Y 47 X 8 Y 48 X s black 3 lw 238 202 m 1916 X s 238 244 m -42 Y s 276 223 m -21 Y s 315 223 m -21 Y s
 353 223 m -21 Y s 391 223 m -21 Y s 430 244 m -42 Y s 468 223 m -21 Y s 506 223 m -21 Y s 545 223 m -21 Y s 583 223 m -21 Y s 621 244 m -42 Y s 660 223 m -21 Y s 698 223 m -21 Y s 736 223 m -21 Y s 775 223 m -21 Y s 813 244 m -42 Y s 851 223 m -21 Y
 s 890 223 m -21 Y s 928 223 m -21 Y s 966 223 m -21 Y s 1005 244 m -42 Y s 1043 223 m -21 Y s 1081 223 m -21 Y s 1120 223 m -21 Y s 1158 223 m -21 Y s 1196 244 m -42 Y s 1235 223 m -21 Y s 1273 223 m -21 Y s 1311 223 m -21 Y s 1350 223 m -21 Y s
 1388 244 m -42 Y s 1426 223 m -21 Y s 1464 223 m -21 Y s 1503 223 m -21 Y s 1541 223 m -21 Y s 1579 244 m -42 Y s 1618 223 m -21 Y s 1656 223 m -21 Y s 1694 223 m -21 Y s 1733 223 m -21 Y s 1771 244 m -42 Y s 1809 223 m -21 Y s 1848 223 m -21 Y s
 1886 223 m -21 Y s 1924 223 m -21 Y s 1963 244 m -42 Y s 2001 223 m -21 Y s 2039 223 m -21 Y s 2078 223 m -21 Y s 2116 223 m -21 Y s 2154 244 m -42 Y s 238 1514 m 1916 X s 238 1471 m 43 Y s 276 1492 m 22 Y s 315 1492 m 22 Y s 353 1492 m 22 Y s 391
 1492 m 22 Y s 430 1471 m 43 Y s 468 1492 m 22 Y s 506 1492 m 22 Y s 545 1492 m 22 Y s 583 1492 m 22 Y s 621 1471 m 43 Y s 660 1492 m 22 Y s 698 1492 m 22 Y s 736 1492 m 22 Y s 775 1492 m 22 Y s 813 1471 m 43 Y s 851 1492 m 22 Y s 890 1492 m 22 Y s
 928 1492 m 22 Y s 966 1492 m 22 Y s 1005 1471 m 43 Y s 1043 1492 m 22 Y s 1081 1492 m 22 Y s 1120 1492 m 22 Y s 1158 1492 m 22 Y s 1196 1471 m 43 Y s 1235 1492 m 22 Y s 1273 1492 m 22 Y s 1311 1492 m 22 Y s 1350 1492 m 22 Y s 1388 1471 m 43 Y s 1426
 1492 m 22 Y s 1464 1492 m 22 Y s 1503 1492 m 22 Y s 1541 1492 m 22 Y s 1579 1471 m 43 Y s 1618 1492 m 22 Y s 1656 1492 m 22 Y s 1694 1492 m 22 Y s 1733 1492 m 22 Y s 1771 1471 m 43 Y s 1809 1492 m 22 Y s 1848 1492 m 22 Y s 1886 1492 m 22 Y s 1924
 1492 m 22 Y s 1963 1471 m 43 Y s 2001 1492 m 22 Y s 2039 1492 m 22 Y s 2078 1492 m 22 Y s 2116 1492 m 22 Y s 2154 1471 m 43 Y s 238 202 m 1312 Y s 291 202 m -53 X s 265 247 m -27 X s 265 291 m -27 X s 265 336 m -27 X s 265 381 m -27 X s 291 425 m
 -53 X s 265 470 m -27 X s 265 515 m -27 X s 265 559 m -27 X s 265 604 m -27 X s 291 649 m -53 X s 265 694 m -27 X s 265 738 m -27 X s 265 783 m -27 X s 265 828 m -27 X s 291 872 m -53 X s 265 917 m -27 X s 265 962 m -27 X s 265 1006 m -27 X s 265
 1051 m -27 X s 291 1096 m -53 X s 265 1141 m -27 X s 265 1185 m -27 X s 265 1230 m -27 X s 265 1275 m -27 X s 291 1319 m -53 X s 291 1319 m -53 X s 265 1364 m -27 X s 265 1409 m -27 X s 265 1453 m -27 X s 265 1498 m -27 X s 2154 202 m 1312 Y s 2101
 202 m 53 X s 2128 247 m 26 X s 2128 291 m 26 X s 2128 336 m 26 X s 2128 381 m 26 X s 2101 425 m 53 X s 2128 470 m 26 X s 2128 515 m 26 X s 2128 559 m 26 X s 2128 604 m 26 X s 2101 649 m 53 X s 2128 694 m 26 X s 2128 738 m 26 X s 2128 783 m 26 X s
 2128 828 m 26 X s 2101 872 m 53 X s 2128 917 m 26 X s 2128 962 m 26 X s 2128 1006 m 26 X s 2128 1051 m 26 X s 2101 1096 m 53 X s 2128 1141 m 26 X s 2128 1185 m 26 X s 2128 1230 m 26 X s 2128 1275 m 26 X s 2101 1319 m 53 X s 2101 1319 m 53 X s 2128
 1364 m 26 X s 2128 1409 m 26 X s 2128 1453 m 26 X s 2128 1498 m 26 X s
 gsave  2268 1682 0 0 C 2211.02 193.403 t 90 r /Helvetica-Bold findfont 45.6587 sf 0 0 m (U/O\255flow \(S,B\): \(0.0, 0.0\)% / \(1.6, 0.1\)%) show NC gr  0.490196 0.545098 0.615686 c 0.364706 0.419608 0.490196 c 1587 96 23 1577 bf 0.490196 0.545098
 0.615686 c 23 1577 m 1587 X s 1610 1577 m 96 Y s 1610 1673 m -1587 X s 23 1673 m -96 Y s 1 1 1 c black 1 1 1 c
 gsave  2268 1682 0 0 C 91.3174 1605.67 t 0 r /Helvetica-Bold findfont 72.293 sf 0 0 m (TMVA probability for classifier: MLPBFGS) show NC gr 
 gr  gr showpage
end
%%EOF
