%!PS-Adobe-2.0 EPSF-2.0
%%BoundingBox:  0 0 567 420
%%Title: plots/rarity_TMlpANN.eps: TMVA Rarity TMlpANN
%%Creator: ROOT Version 5.34/09
%%CreationDate: Thu Jan  2 18:35:06 2014
%%EndComments
%%BeginProlog
80 dict begin
/s {stroke} def /l {lineto} def /m {moveto} def /t {translate} def
/r {rotate} def /rl {roll}  def /R {repeat} def
/d {rlineto} def /rm {rmoveto} def /gr {grestore} def /f {eofill} def
/c {setrgbcolor} def /black {0 setgray} def /sd {setdash} def
/cl {closepath} def /sf {scalefont setfont} def /lw {setlinewidth} def
/box {m dup 0 exch d exch 0 d 0 exch neg d cl} def
/NC{systemdict begin initclip end}def/C{NC box clip newpath}def
/bl {box s} def /bf {box f} def /Y { 0 exch d} def /X { 0 d} def 
/K {{pop pop 0 moveto} exch kshow} bind def
/ita {/ang 15 def gsave [1 0 ang dup sin exch cos div 1 0 0] concat} def 
/mp {newpath /y exch def /x exch def} def
/side {[w .77 mul w .23 mul] .385 w mul sd w 0 l currentpoint t -144 r} def
/mr {mp x y w2 0 360 arc} def /m24 {mr s} def /m20 {mr f} def
/mb {mp x y w2 add m w2 neg 0 d 0 w neg d w 0 d 0 w d cl} def
/mt {mp x y w2 add m w2 neg w neg d w 0 d cl} def
/m21 {mb f} def /m25 {mb s} def /m22 {mt f} def /m26{mt s} def
/m23 {mp x y w2 sub m w2 w d w neg 0 d cl f} def
/m27 {mp x y w2 add m w3 neg w2 neg d w3 w2 neg d w3 w2 d cl s} def
/m28 {mp x w2 sub y w2 sub w3 add m w3 0 d  0 w3 neg d w3 0 d 0 w3 d w3 0 d  0 w3 d w3 neg 0 d 0 w3 d w3 neg 0 d 0 w3 neg d w3 neg 0 d cl s } def
/m29 {mp gsave x w2 sub y w2 add w3 sub m currentpoint t 4 {side} repeat cl fill gr} def
/m30 {mp gsave x w2 sub y w2 add w3 sub m currentpoint t 4 {side} repeat cl s gr} def
/m31 {mp x y w2 sub m 0 w d x w2 sub y m w 0 d x w2 sub y w2 add m w w neg d x w2 sub y w2 sub m w w d s} def
/m32 {mp x y w2 sub m w2 w d w neg 0 d cl s} def
/m33 {mp x y w2 add m w3 neg w2 neg d w3 w2 neg d w3 w2 d cl f} def
/m34 {mp x w2 sub y w2 sub w3 add m w3 0 d  0 w3 neg d w3 0 d 0 w3 d w3 0 d  0 w3 d w3 neg 0 d 0 w3 d w3 neg 0 d 0 w3 neg d w3 neg 0 d cl f } def
/m2 {mp x y w2 sub m 0 w d x w2 sub y m w 0 d s} def
/m5 {mp x w2 sub y w2 sub m w w d x w2 sub y w2 add m w w neg d s} def
/reEncode {exch findfont dup length dict begin {1 index /FID eq  {pop pop} {def} ifelse } forall /Encoding exch def currentdict end dup /FontName get exch definefont pop } def [/Times-Bold /Times-Italic /Times-BoldItalic /Helvetica /Helvetica-Oblique
 /Helvetica-Bold /Helvetica-BoldOblique /Courier /Courier-Oblique /Courier-Bold /Courier-BoldOblique /Times-Roman /AvantGarde-Book /AvantGarde-BookOblique /AvantGarde-Demi /AvantGarde-DemiOblique /Bookman-Demi /Bookman-DemiItalic /Bookman-Light
 /Bookman-LightItalic /Helvetica-Narrow /Helvetica-Narrow-Bold /Helvetica-Narrow-BoldOblique /Helvetica-Narrow-Oblique /NewCenturySchlbk-Roman /NewCenturySchlbk-Bold /NewCenturySchlbk-BoldItalic /NewCenturySchlbk-Italic /Palatino-Bold
 /Palatino-BoldItalic /Palatino-Italic /Palatino-Roman ] {ISOLatin1Encoding reEncode } forall
%%EndProlog
%%BeginSetup
%%EndSetup
newpath  gsave  .25 .25 scale  gsave  0 0 t 0.490196 0.545098 0.615686 c[  ] 0 sd 3 lw 0.941176 0.941176 0.941176 c 2268 1682 0 0 bf black 1 1 0.992157 c 1916 1312 238 202 bf black 1916 1312 238 202 bl 1 1 0.992157 c 1916 1312 238 202 bf black 1916
 1312 238 202 bl 238 202 m 1916 X s
 gsave  2268 1682 0 0 C 1735.03 30.4391 t 0 r /Helvetica-Bold findfont 72.293 sf 0 0 m (Signal rarity) show NC gr  238 244 m -42 Y s 276 223 m -21 Y s 315 223 m -21 Y s 353 223 m -21 Y s 391 223 m -21 Y s 430 244 m -42 Y s 468 223 m -21 Y s 506 223 m
 -21 Y s 545 223 m -21 Y s 583 223 m -21 Y s 621 244 m -42 Y s 660 223 m -21 Y s 698 223 m -21 Y s 736 223 m -21 Y s 775 223 m -21 Y s 813 244 m -42 Y s 851 223 m -21 Y s 890 223 m -21 Y s 928 223 m -21 Y s 966 223 m -21 Y s 1005 244 m -42 Y s 1043
 223 m -21 Y s 1081 223 m -21 Y s 1120 223 m -21 Y s 1158 223 m -21 Y s 1196 244 m -42 Y s 1235 223 m -21 Y s 1273 223 m -21 Y s 1311 223 m -21 Y s 1350 223 m -21 Y s 1388 244 m -42 Y s 1426 223 m -21 Y s 1464 223 m -21 Y s 1503 223 m -21 Y s 1541
 223 m -21 Y s 1579 244 m -42 Y s 1618 223 m -21 Y s 1656 223 m -21 Y s 1694 223 m -21 Y s 1733 223 m -21 Y s 1771 244 m -42 Y s 1809 223 m -21 Y s 1848 223 m -21 Y s 1886 223 m -21 Y s 1924 223 m -21 Y s 1963 244 m -42 Y s 2001 223 m -21 Y s 2039
 223 m -21 Y s 2078 223 m -21 Y s 2116 223 m -21 Y s 2154 244 m -42 Y s
 gsave  2268 1682 0 0 C 216.879 129.366 t 0 r /Helvetica-Bold findfont 64.6832 sf 0 0 m (0) show NC gr 
 gsave  2268 1682 0 0 C 384.294 129.366 t 0 r /Helvetica-Bold findfont 64.6832 sf 0 0 m (0.1) show NC gr 
 gsave  2268 1682 0 0 C 574.539 129.366 t 0 r /Helvetica-Bold findfont 64.6832 sf 0 0 m (0.2) show NC gr 
 gsave  2268 1682 0 0 C 764.784 129.366 t 0 r /Helvetica-Bold findfont 64.6832 sf 0 0 m (0.3) show NC gr 
 gsave  2268 1682 0 0 C 958.833 129.366 t 0 r /Helvetica-Bold findfont 64.6832 sf 0 0 m (0.4) show NC gr 
 gsave  2268 1682 0 0 C 1149.08 129.366 t 0 r /Helvetica-Bold findfont 64.6832 sf 0 0 m (0.5) show NC gr 
 gsave  2268 1682 0 0 C 1339.32 129.366 t 0 r /Helvetica-Bold findfont 64.6832 sf 0 0 m (0.6) show NC gr 
 gsave  2268 1682 0 0 C 1533.37 129.366 t 0 r /Helvetica-Bold findfont 64.6832 sf 0 0 m (0.7) show NC gr 
 gsave  2268 1682 0 0 C 1723.62 129.366 t 0 r /Helvetica-Bold findfont 64.6832 sf 0 0 m (0.8) show NC gr 
 gsave  2268 1682 0 0 C 1913.86 129.366 t 0 r /Helvetica-Bold findfont 64.6832 sf 0 0 m (0.9) show NC gr 
 gsave  2268 1682 0 0 C 2138.35 129.366 t 0 r /Helvetica-Bold findfont 64.6832 sf 0 0 m (1) show NC gr  238 1514 m 1916 X s 238 1471 m 43 Y s 276 1492 m 22 Y s 315 1492 m 22 Y s 353 1492 m 22 Y s 391 1492 m 22 Y s 430 1471 m 43 Y s 468 1492 m 22 Y s
 506 1492 m 22 Y s 545 1492 m 22 Y s 583 1492 m 22 Y s 621 1471 m 43 Y s 660 1492 m 22 Y s 698 1492 m 22 Y s 736 1492 m 22 Y s 775 1492 m 22 Y s 813 1471 m 43 Y s 851 1492 m 22 Y s 890 1492 m 22 Y s 928 1492 m 22 Y s 966 1492 m 22 Y s 1005 1471 m 43
 Y s 1043 1492 m 22 Y s 1081 1492 m 22 Y s 1120 1492 m 22 Y s 1158 1492 m 22 Y s 1196 1471 m 43 Y s 1235 1492 m 22 Y s 1273 1492 m 22 Y s 1311 1492 m 22 Y s 1350 1492 m 22 Y s 1388 1471 m 43 Y s 1426 1492 m 22 Y s 1464 1492 m 22 Y s 1503 1492 m 22 Y
 s 1541 1492 m 22 Y s 1579 1471 m 43 Y s 1618 1492 m 22 Y s 1656 1492 m 22 Y s 1694 1492 m 22 Y s 1733 1492 m 22 Y s 1771 1471 m 43 Y s 1809 1492 m 22 Y s 1848 1492 m 22 Y s 1886 1492 m 22 Y s 1924 1492 m 22 Y s 1963 1471 m 43 Y s 2001 1492 m 22 Y s
 2039 1492 m 22 Y s 2078 1492 m 22 Y s 2116 1492 m 22 Y s 2154 1471 m 43 Y s 238 202 m 1312 Y s
 gsave  2268 1682 0 0 C 64.6832 1430.64 t 90 r /Helvetica-Bold findfont 72.293 sf 0 0 m (dx) show NC gr 
 gsave  2268 1682 0 0 C 30.4391 1411.62 t 90 r /Helvetica-Bold findfont 45.6587 sf 0 0 m ( ) show NC gr 
 gsave  2268 1682 0 0 C 64.6832 1388.79 t 90 r /Helvetica-Bold findfont 72.293 sf 0 0 m (/) show NC gr 
 gsave  2268 1682 0 0 C 30.4391 1369.76 t 90 r /Helvetica-Bold findfont 45.6587 sf 0 0 m ( ) show NC gr 
 gsave  2268 1682 0 0 C 60.8783 1095.81 t 90 r /Helvetica-Bold findfont 72.293 sf 0 0 m (\(1/N\) dN) show NC gr  291 202 m -53 X s 265 229 m -27 X s 265 256 m -27 X s 265 283 m -27 X s 265 310 m -27 X s 291 337 m -53 X s 265 363 m -27 X s 265 390 m
 -27 X s 265 417 m -27 X s 265 444 m -27 X s 291 471 m -53 X s 265 498 m -27 X s 265 525 m -27 X s 265 552 m -27 X s 265 579 m -27 X s 291 606 m -53 X s 265 633 m -27 X s 265 660 m -27 X s 265 687 m -27 X s 265 714 m -27 X s 291 741 m -53 X s 265 768
 m -27 X s 265 795 m -27 X s 265 821 m -27 X s 265 848 m -27 X s 291 875 m -53 X s 265 902 m -27 X s 265 929 m -27 X s 265 956 m -27 X s 265 983 m -27 X s 291 1010 m -53 X s 265 1037 m -27 X s 265 1064 m -27 X s 265 1091 m -27 X s 265 1118 m -27 X s
 291 1145 m -53 X s 265 1172 m -27 X s 265 1199 m -27 X s 265 1226 m -27 X s 265 1253 m -27 X s 291 1279 m -53 X s 265 1306 m -27 X s 265 1333 m -27 X s 265 1360 m -27 X s 265 1387 m -27 X s 291 1414 m -53 X s 291 1414 m -53 X s 265 1441 m -27 X s
 265 1468 m -27 X s 265 1495 m -27 X s
 gsave  2268 1682 0 0 C 175.025 178.83 t 0 r /Helvetica-Bold findfont 64.6832 sf 0 0 m (0) show NC gr 
 gsave  2268 1682 0 0 C 182.635 312.001 t 0 r /Helvetica-Bold findfont 64.6832 sf 0 0 m (1) show NC gr 
 gsave  2268 1682 0 0 C 175.025 445.173 t 0 r /Helvetica-Bold findfont 64.6832 sf 0 0 m (2) show NC gr 
 gsave  2268 1682 0 0 C 175.025 582.149 t 0 r /Helvetica-Bold findfont 64.6832 sf 0 0 m (3) show NC gr 
 gsave  2268 1682 0 0 C 175.025 715.32 t 0 r /Helvetica-Bold findfont 64.6832 sf 0 0 m (4) show NC gr 
 gsave  2268 1682 0 0 C 175.025 852.296 t 0 r /Helvetica-Bold findfont 64.6832 sf 0 0 m (5) show NC gr 
 gsave  2268 1682 0 0 C 175.025 985.467 t 0 r /Helvetica-Bold findfont 64.6832 sf 0 0 m (6) show NC gr 
 gsave  2268 1682 0 0 C 175.025 1118.64 t 0 r /Helvetica-Bold findfont 64.6832 sf 0 0 m (7) show NC gr 
 gsave  2268 1682 0 0 C 175.025 1255.61 t 0 r /Helvetica-Bold findfont 64.6832 sf 0 0 m (8) show NC gr 
 gsave  2268 1682 0 0 C 175.025 1388.79 t 0 r /Helvetica-Bold findfont 64.6832 sf 0 0 m (9) show NC gr  2154 202 m 1312 Y s 2101 202 m 53 X s 2128 229 m 26 X s 2128 256 m 26 X s 2128 283 m 26 X s 2128 310 m 26 X s 2101 337 m 53 X s 2128 363 m 26 X s
 2128 390 m 26 X s 2128 417 m 26 X s 2128 444 m 26 X s 2101 471 m 53 X s 2128 498 m 26 X s 2128 525 m 26 X s 2128 552 m 26 X s 2128 579 m 26 X s 2101 606 m 53 X s 2128 633 m 26 X s 2128 660 m 26 X s 2128 687 m 26 X s 2128 714 m 26 X s 2101 741 m 53 X
 s 2128 768 m 26 X s 2128 795 m 26 X s 2128 821 m 26 X s 2128 848 m 26 X s 2101 875 m 53 X s 2128 902 m 26 X s 2128 929 m 26 X s 2128 956 m 26 X s 2128 983 m 26 X s 2101 1010 m 53 X s 2128 1037 m 26 X s 2128 1064 m 26 X s 2128 1091 m 26 X s 2128 1118
 m 26 X s 2101 1145 m 53 X s 2128 1172 m 26 X s 2128 1199 m 26 X s 2128 1226 m 26 X s 2128 1253 m 26 X s 2101 1279 m 53 X s 2128 1306 m 26 X s 2128 1333 m 26 X s 2128 1360 m 26 X s 2128 1387 m 26 X s 2101 1414 m 53 X s 2101 1414 m 53 X s 2128 1441 m
 26 X s 2128 1468 m 26 X s 2128 1495 m 26 X s 0.490196 0.545098 0.615686 c 0.95 0.95 0.95 c 0.490196 0.545098 0.615686 c 680 202 238 1312 bl 238 1312 m 680 X s 918 1312 m 202 Y s 918 1514 m -680 X s 238 1514 m -202 Y s black
 gsave  2268 1682 0 0 C 441.368 1442.05 t 0 r /Times-Italic findfont 76.0979 sf 0 0 m (Signal) show NC gr  0.49 0.6 0.82 c 269 1428 m 143 X 70 Y -143 X f 0 0 0.933333 c 6 lw 269 1498 m 143 X s 269 1428 m 143 X s 412 1428 m 70 Y s 269 1428 m 70 Y s
 black
 gsave  2268 1682 0 0 C 441.368 1343.13 t 0 r /Times-Italic findfont 76.0979 sf 0 0 m (Background) show NC gr  1 0 0 c 3 lw 412 1374 m -47 -47 d s 387 1398 m -70 -71 d s 339 1398 m -70 -71 d s 291 1398 m -22 -23 d s 6 lw 0 0 0.933333 c 1 0 0 c 269
 1398 m 143 X s 269 1327 m 143 X s 412 1327 m 71 Y s 269 1327 m 71 Y s 0 0 0.933333 c 0.49 0.6 0.82 c black 3 lw 0.49 0.6 0.82 c 238 202 m 7 Y 48 X 18 Y 48 X -6 Y 96 X -10 Y 48 X 2 Y 48 X 19 Y 47 X -10 Y 48 X 16 Y 48 X 13 Y 96 X -12 Y 48 X -4 Y 48 X
 17 Y 48 X -19 Y 48 X -1 Y 48 X 12 Y 95 X 8 Y 48 X -7 Y 48 X 14 Y 48 X 12 Y 48 X 14 Y 96 X 46 Y 48 X -22 Y 48 X 22 Y 48 X 6 Y 47 X 71 Y 48 X -83 Y 48 X 68 Y 48 X -54 Y 48 X 57 Y 48 X 127 Y 48 X -93 Y 96 X 71 Y 48 X 98 Y 48 X 146 Y 47 X 550 Y 48 X
 -1093 Y f 6 lw 0 0 0.933333 c 0.49 0.6 0.82 c 0 0 0.933333 c 238 209 m 48 X 18 Y 48 X -6 Y 96 X -10 Y 48 X 2 Y 48 X 19 Y 47 X -10 Y 48 X 16 Y 48 X 13 Y 96 X -12 Y 48 X -4 Y 48 X 17 Y 48 X -19 Y 48 X -1 Y 48 X 12 Y 95 X 8 Y 48 X -7 Y 48 X 14 Y 48 X
 12 Y 48 X 14 Y 96 X 46 Y 48 X -22 Y 48 X 22 Y 48 X 6 Y 47 X 71 Y 48 X -83 Y 48 X 68 Y 48 X -54 Y 48 X 57 Y 48 X 127 Y 48 X -93 Y 96 X 71 Y 48 X 98 Y 48 X 146 Y 47 X 550 Y 48 X s 1 0 0 c black 3 lw 1 0 0 c 2154 230 m -28 -28 d s 2154 278 m -76 -76 d
 s 2154 326 m -124 -124 d s 2137 357 m -155 -155 d s 2073 341 m -139 -139 d s 2039 356 m -153 -154 d s 1991 356 m -28 -29 d s 1947 312 m -110 -110 d s 1915 327 m -126 -125 d s 1900 361 m -159 -159 d s 1853 362 m -160 -160 d s 1792 349 m -21 -21 d s
 1756 313 m -111 -111 d s 1723 328 m -126 -126 d s 1683 336 m -134 -134 d s 1633 334 m -6 -5 d s 1624 325 m -123 -123 d s 1552 301 m -99 -99 d s 1529 326 m -125 -124 d s 1484 329 m -128 -127 d s 1446 340 m -138 -138 d s 1391 333 m -131 -131 d s 1342
 332 m -130 -130 d s 1296 334 m -132 -132 d s 1276 362 m -160 -160 d s 1212 346 m -144 -144 d s 1179 361 m -159 -159 d s 1103 333 m -131 -131 d s 1071 349 m -18 -18 d s 1044 322 m -121 -120 d s 1005 331 m -130 -129 d s 974 349 m -17 -18 d s 954 329 m
 -127 -127 d s 909 332 m -130 -130 d s 894 365 m -163 -163 d s 831 350 m -18 -18 d s 796 314 m -113 -112 d s 765 332 m -130 -130 d s 722 337 m -5 -5 d s 689 304 m -102 -102 d s 635 299 m -96 -97 d s 607 318 m -117 -116 d s 573 333 m -131 -131 d s 551
 358 m -25 -25 d s 520 328 m -126 -126 d s 478 333 m -132 -131 d s 445 349 m -147 -147 d s 396 348 m -14 -14 d s 353 305 m -103 -103 d s 334 334 m -96 -96 d s 293 341 m -7 -7 d s 277 325 m -39 -39 d s 6 lw 238 325 m 48 X 16 Y 48 X -36 Y 48 X 43 Y 48
 X 1 Y 48 X -21 Y 48 X 30 Y 47 X -40 Y 48 X -19 Y 48 X 5 Y 48 X 33 Y 48 X -23 Y 48 X 36 Y 48 X 15 Y 48 X -36 Y 48 X 20 Y 48 X -27 Y 48 X 27 Y 47 X -16 Y 48 X 28 Y 48 X -15 Y 48 X 16 Y 48 X -28 Y 48 X -2 Y 48 X 1 Y 48 X 7 Y 48 X -14 Y 48 X -25 Y 47 X
 24 Y 48 X 9 Y 48 X 2 Y 48 X -23 Y 48 X 36 Y 48 X 13 Y 48 X -1 Y 48 X -49 Y 48 X 44 Y 96 X -15 Y 47 X 16 Y 48 X s black 3 lw 238 202 m 1916 X s 238 244 m -42 Y s 276 223 m -21 Y s 315 223 m -21 Y s 353 223 m -21 Y s 391 223 m -21 Y s 430 244 m -42 Y
 s 468 223 m -21 Y s 506 223 m -21 Y s 545 223 m -21 Y s 583 223 m -21 Y s 621 244 m -42 Y s 660 223 m -21 Y s 698 223 m -21 Y s 736 223 m -21 Y s 775 223 m -21 Y s 813 244 m -42 Y s 851 223 m -21 Y s 890 223 m -21 Y s 928 223 m -21 Y s 966 223 m -21
 Y s 1005 244 m -42 Y s 1043 223 m -21 Y s 1081 223 m -21 Y s 1120 223 m -21 Y s 1158 223 m -21 Y s 1196 244 m -42 Y s 1235 223 m -21 Y s 1273 223 m -21 Y s 1311 223 m -21 Y s 1350 223 m -21 Y s 1388 244 m -42 Y s 1426 223 m -21 Y s 1464 223 m -21 Y
 s 1503 223 m -21 Y s 1541 223 m -21 Y s 1579 244 m -42 Y s 1618 223 m -21 Y s 1656 223 m -21 Y s 1694 223 m -21 Y s 1733 223 m -21 Y s 1771 244 m -42 Y s 1809 223 m -21 Y s 1848 223 m -21 Y s 1886 223 m -21 Y s 1924 223 m -21 Y s 1963 244 m -42 Y s
 2001 223 m -21 Y s 2039 223 m -21 Y s 2078 223 m -21 Y s 2116 223 m -21 Y s 2154 244 m -42 Y s 238 1514 m 1916 X s 238 1471 m 43 Y s 276 1492 m 22 Y s 315 1492 m 22 Y s 353 1492 m 22 Y s 391 1492 m 22 Y s 430 1471 m 43 Y s 468 1492 m 22 Y s 506 1492
 m 22 Y s 545 1492 m 22 Y s 583 1492 m 22 Y s 621 1471 m 43 Y s 660 1492 m 22 Y s 698 1492 m 22 Y s 736 1492 m 22 Y s 775 1492 m 22 Y s 813 1471 m 43 Y s 851 1492 m 22 Y s 890 1492 m 22 Y s 928 1492 m 22 Y s 966 1492 m 22 Y s 1005 1471 m 43 Y s 1043
 1492 m 22 Y s 1081 1492 m 22 Y s 1120 1492 m 22 Y s 1158 1492 m 22 Y s 1196 1471 m 43 Y s 1235 1492 m 22 Y s 1273 1492 m 22 Y s 1311 1492 m 22 Y s 1350 1492 m 22 Y s 1388 1471 m 43 Y s 1426 1492 m 22 Y s 1464 1492 m 22 Y s 1503 1492 m 22 Y s 1541
 1492 m 22 Y s 1579 1471 m 43 Y s 1618 1492 m 22 Y s 1656 1492 m 22 Y s 1694 1492 m 22 Y s 1733 1492 m 22 Y s 1771 1471 m 43 Y s 1809 1492 m 22 Y s 1848 1492 m 22 Y s 1886 1492 m 22 Y s 1924 1492 m 22 Y s 1963 1471 m 43 Y s 2001 1492 m 22 Y s 2039
 1492 m 22 Y s 2078 1492 m 22 Y s 2116 1492 m 22 Y s 2154 1471 m 43 Y s 238 202 m 1312 Y s 291 202 m -53 X s 265 229 m -27 X s 265 256 m -27 X s 265 283 m -27 X s 265 310 m -27 X s 291 337 m -53 X s 265 363 m -27 X s 265 390 m -27 X s 265 417 m -27 X
 s 265 444 m -27 X s 291 471 m -53 X s 265 498 m -27 X s 265 525 m -27 X s 265 552 m -27 X s 265 579 m -27 X s 291 606 m -53 X s 265 633 m -27 X s 265 660 m -27 X s 265 687 m -27 X s 265 714 m -27 X s 291 741 m -53 X s 265 768 m -27 X s 265 795 m -27
 X s 265 821 m -27 X s 265 848 m -27 X s 291 875 m -53 X s 265 902 m -27 X s 265 929 m -27 X s 265 956 m -27 X s 265 983 m -27 X s 291 1010 m -53 X s 265 1037 m -27 X s 265 1064 m -27 X s 265 1091 m -27 X s 265 1118 m -27 X s 291 1145 m -53 X s 265
 1172 m -27 X s 265 1199 m -27 X s 265 1226 m -27 X s 265 1253 m -27 X s 291 1279 m -53 X s 265 1306 m -27 X s 265 1333 m -27 X s 265 1360 m -27 X s 265 1387 m -27 X s 291 1414 m -53 X s 291 1414 m -53 X s 265 1441 m -27 X s 265 1468 m -27 X s 265
 1495 m -27 X s 2154 202 m 1312 Y s 2101 202 m 53 X s 2128 229 m 26 X s 2128 256 m 26 X s 2128 283 m 26 X s 2128 310 m 26 X s 2101 337 m 53 X s 2128 363 m 26 X s 2128 390 m 26 X s 2128 417 m 26 X s 2128 444 m 26 X s 2101 471 m 53 X s 2128 498 m 26 X
 s 2128 525 m 26 X s 2128 552 m 26 X s 2128 579 m 26 X s 2101 606 m 53 X s 2128 633 m 26 X s 2128 660 m 26 X s 2128 687 m 26 X s 2128 714 m 26 X s 2101 741 m 53 X s 2128 768 m 26 X s 2128 795 m 26 X s 2128 821 m 26 X s 2128 848 m 26 X s 2101 875 m 53
 X s 2128 902 m 26 X s 2128 929 m 26 X s 2128 956 m 26 X s 2128 983 m 26 X s 2101 1010 m 53 X s 2128 1037 m 26 X s 2128 1064 m 26 X s 2128 1091 m 26 X s 2128 1118 m 26 X s 2101 1145 m 53 X s 2128 1172 m 26 X s 2128 1199 m 26 X s 2128 1226 m 26 X s
 2128 1253 m 26 X s 2101 1279 m 53 X s 2128 1306 m 26 X s 2128 1333 m 26 X s 2128 1360 m 26 X s 2128 1387 m 26 X s 2101 1414 m 53 X s 2101 1414 m 53 X s 2128 1441 m 26 X s 2128 1468 m 26 X s 2128 1495 m 26 X s
 gsave  2268 1682 0 0 C 2211.02 193.403 t 90 r /Helvetica-Bold findfont 45.6587 sf 0 0 m (U/O\255flow \(S,B\): \(0.0, 0.0\)% / \(0.0, 0.0\)%) show NC gr  0.490196 0.545098 0.615686 c 0.364706 0.419608 0.490196 c 1422 96 23 1577 bf 0.490196 0.545098
 0.615686 c 23 1577 m 1422 X s 1445 1577 m 96 Y s 1445 1673 m -1422 X s 23 1673 m -96 Y s 1 1 1 c black 1 1 1 c
 gsave  2268 1682 0 0 C 72.293 1605.67 t 0 r /Helvetica-Bold findfont 76.0979 sf 0 0 m (TMVA Rarity for classifier: TMlpANN) show NC gr 
 gr  gr showpage
end
%%EOF
