%!PS-Adobe-2.0 EPSF-2.0
%%BoundingBox:  0 0 567 420
%%Title: plots/rarity_MLP.eps: TMVA Rarity MLP
%%Creator: ROOT Version 5.34/09
%%CreationDate: Thu Jan  2 18:35:05 2014
%%EndComments
%%BeginProlog
80 dict begin
/s {stroke} def /l {lineto} def /m {moveto} def /t {translate} def
/r {rotate} def /rl {roll}  def /R {repeat} def
/d {rlineto} def /rm {rmoveto} def /gr {grestore} def /f {eofill} def
/c {setrgbcolor} def /black {0 setgray} def /sd {setdash} def
/cl {closepath} def /sf {scalefont setfont} def /lw {setlinewidth} def
/box {m dup 0 exch d exch 0 d 0 exch neg d cl} def
/NC{systemdict begin initclip end}def/C{NC box clip newpath}def
/bl {box s} def /bf {box f} def /Y { 0 exch d} def /X { 0 d} def 
/K {{pop pop 0 moveto} exch kshow} bind def
/ita {/ang 15 def gsave [1 0 ang dup sin exch cos div 1 0 0] concat} def 
/mp {newpath /y exch def /x exch def} def
/side {[w .77 mul w .23 mul] .385 w mul sd w 0 l currentpoint t -144 r} def
/mr {mp x y w2 0 360 arc} def /m24 {mr s} def /m20 {mr f} def
/mb {mp x y w2 add m w2 neg 0 d 0 w neg d w 0 d 0 w d cl} def
/mt {mp x y w2 add m w2 neg w neg d w 0 d cl} def
/m21 {mb f} def /m25 {mb s} def /m22 {mt f} def /m26{mt s} def
/m23 {mp x y w2 sub m w2 w d w neg 0 d cl f} def
/m27 {mp x y w2 add m w3 neg w2 neg d w3 w2 neg d w3 w2 d cl s} def
/m28 {mp x w2 sub y w2 sub w3 add m w3 0 d  0 w3 neg d w3 0 d 0 w3 d w3 0 d  0 w3 d w3 neg 0 d 0 w3 d w3 neg 0 d 0 w3 neg d w3 neg 0 d cl s } def
/m29 {mp gsave x w2 sub y w2 add w3 sub m currentpoint t 4 {side} repeat cl fill gr} def
/m30 {mp gsave x w2 sub y w2 add w3 sub m currentpoint t 4 {side} repeat cl s gr} def
/m31 {mp x y w2 sub m 0 w d x w2 sub y m w 0 d x w2 sub y w2 add m w w neg d x w2 sub y w2 sub m w w d s} def
/m32 {mp x y w2 sub m w2 w d w neg 0 d cl s} def
/m33 {mp x y w2 add m w3 neg w2 neg d w3 w2 neg d w3 w2 d cl f} def
/m34 {mp x w2 sub y w2 sub w3 add m w3 0 d  0 w3 neg d w3 0 d 0 w3 d w3 0 d  0 w3 d w3 neg 0 d 0 w3 d w3 neg 0 d 0 w3 neg d w3 neg 0 d cl f } def
/m2 {mp x y w2 sub m 0 w d x w2 sub y m w 0 d s} def
/m5 {mp x w2 sub y w2 sub m w w d x w2 sub y w2 add m w w neg d s} def
/reEncode {exch findfont dup length dict begin {1 index /FID eq  {pop pop} {def} ifelse } forall /Encoding exch def currentdict end dup /FontName get exch definefont pop } def [/Times-Bold /Times-Italic /Times-BoldItalic /Helvetica /Helvetica-Oblique
 /Helvetica-Bold /Helvetica-BoldOblique /Courier /Courier-Oblique /Courier-Bold /Courier-BoldOblique /Times-Roman /AvantGarde-Book /AvantGarde-BookOblique /AvantGarde-Demi /AvantGarde-DemiOblique /Bookman-Demi /Bookman-DemiItalic /Bookman-Light
 /Bookman-LightItalic /Helvetica-Narrow /Helvetica-Narrow-Bold /Helvetica-Narrow-BoldOblique /Helvetica-Narrow-Oblique /NewCenturySchlbk-Roman /NewCenturySchlbk-Bold /NewCenturySchlbk-BoldItalic /NewCenturySchlbk-Italic /Palatino-Bold
 /Palatino-BoldItalic /Palatino-Italic /Palatino-Roman ] {ISOLatin1Encoding reEncode } forall
%%EndProlog
%%BeginSetup
%%EndSetup
newpath  gsave  .25 .25 scale  gsave  0 0 t 0.490196 0.545098 0.615686 c[  ] 0 sd 3 lw 0.941176 0.941176 0.941176 c 2268 1682 0 0 bf black 1 1 0.992157 c 1916 1312 238 202 bf black 1916 1312 238 202 bl 1 1 0.992157 c 1916 1312 238 202 bf black 1916
 1312 238 202 bl 238 202 m 1916 X s
 gsave  2268 1682 0 0 C 1735.03 30.4391 t 0 r /Helvetica-Bold findfont 72.293 sf 0 0 m (Signal rarity) show NC gr  238 244 m -42 Y s 276 223 m -21 Y s 315 223 m -21 Y s 353 223 m -21 Y s 391 223 m -21 Y s 430 244 m -42 Y s 468 223 m -21 Y s 506 223 m
 -21 Y s 545 223 m -21 Y s 583 223 m -21 Y s 621 244 m -42 Y s 660 223 m -21 Y s 698 223 m -21 Y s 736 223 m -21 Y s 775 223 m -21 Y s 813 244 m -42 Y s 851 223 m -21 Y s 890 223 m -21 Y s 928 223 m -21 Y s 966 223 m -21 Y s 1005 244 m -42 Y s 1043
 223 m -21 Y s 1081 223 m -21 Y s 1120 223 m -21 Y s 1158 223 m -21 Y s 1196 244 m -42 Y s 1235 223 m -21 Y s 1273 223 m -21 Y s 1311 223 m -21 Y s 1350 223 m -21 Y s 1388 244 m -42 Y s 1426 223 m -21 Y s 1464 223 m -21 Y s 1503 223 m -21 Y s 1541
 223 m -21 Y s 1579 244 m -42 Y s 1618 223 m -21 Y s 1656 223 m -21 Y s 1694 223 m -21 Y s 1733 223 m -21 Y s 1771 244 m -42 Y s 1809 223 m -21 Y s 1848 223 m -21 Y s 1886 223 m -21 Y s 1924 223 m -21 Y s 1963 244 m -42 Y s 2001 223 m -21 Y s 2039
 223 m -21 Y s 2078 223 m -21 Y s 2116 223 m -21 Y s 2154 244 m -42 Y s
 gsave  2268 1682 0 0 C 216.879 129.366 t 0 r /Helvetica-Bold findfont 64.6832 sf 0 0 m (0) show NC gr 
 gsave  2268 1682 0 0 C 384.294 129.366 t 0 r /Helvetica-Bold findfont 64.6832 sf 0 0 m (0.1) show NC gr 
 gsave  2268 1682 0 0 C 574.539 129.366 t 0 r /Helvetica-Bold findfont 64.6832 sf 0 0 m (0.2) show NC gr 
 gsave  2268 1682 0 0 C 764.784 129.366 t 0 r /Helvetica-Bold findfont 64.6832 sf 0 0 m (0.3) show NC gr 
 gsave  2268 1682 0 0 C 958.833 129.366 t 0 r /Helvetica-Bold findfont 64.6832 sf 0 0 m (0.4) show NC gr 
 gsave  2268 1682 0 0 C 1149.08 129.366 t 0 r /Helvetica-Bold findfont 64.6832 sf 0 0 m (0.5) show NC gr 
 gsave  2268 1682 0 0 C 1339.32 129.366 t 0 r /Helvetica-Bold findfont 64.6832 sf 0 0 m (0.6) show NC gr 
 gsave  2268 1682 0 0 C 1533.37 129.366 t 0 r /Helvetica-Bold findfont 64.6832 sf 0 0 m (0.7) show NC gr 
 gsave  2268 1682 0 0 C 1723.62 129.366 t 0 r /Helvetica-Bold findfont 64.6832 sf 0 0 m (0.8) show NC gr 
 gsave  2268 1682 0 0 C 1913.86 129.366 t 0 r /Helvetica-Bold findfont 64.6832 sf 0 0 m (0.9) show NC gr 
 gsave  2268 1682 0 0 C 2138.35 129.366 t 0 r /Helvetica-Bold findfont 64.6832 sf 0 0 m (1) show NC gr  238 1514 m 1916 X s 238 1471 m 43 Y s 276 1492 m 22 Y s 315 1492 m 22 Y s 353 1492 m 22 Y s 391 1492 m 22 Y s 430 1471 m 43 Y s 468 1492 m 22 Y s
 506 1492 m 22 Y s 545 1492 m 22 Y s 583 1492 m 22 Y s 621 1471 m 43 Y s 660 1492 m 22 Y s 698 1492 m 22 Y s 736 1492 m 22 Y s 775 1492 m 22 Y s 813 1471 m 43 Y s 851 1492 m 22 Y s 890 1492 m 22 Y s 928 1492 m 22 Y s 966 1492 m 22 Y s 1005 1471 m 43
 Y s 1043 1492 m 22 Y s 1081 1492 m 22 Y s 1120 1492 m 22 Y s 1158 1492 m 22 Y s 1196 1471 m 43 Y s 1235 1492 m 22 Y s 1273 1492 m 22 Y s 1311 1492 m 22 Y s 1350 1492 m 22 Y s 1388 1471 m 43 Y s 1426 1492 m 22 Y s 1464 1492 m 22 Y s 1503 1492 m 22 Y
 s 1541 1492 m 22 Y s 1579 1471 m 43 Y s 1618 1492 m 22 Y s 1656 1492 m 22 Y s 1694 1492 m 22 Y s 1733 1492 m 22 Y s 1771 1471 m 43 Y s 1809 1492 m 22 Y s 1848 1492 m 22 Y s 1886 1492 m 22 Y s 1924 1492 m 22 Y s 1963 1471 m 43 Y s 2001 1492 m 22 Y s
 2039 1492 m 22 Y s 2078 1492 m 22 Y s 2116 1492 m 22 Y s 2154 1471 m 43 Y s 238 202 m 1312 Y s
 gsave  2268 1682 0 0 C 64.6832 1430.64 t 90 r /Helvetica-Bold findfont 72.293 sf 0 0 m (dx) show NC gr 
 gsave  2268 1682 0 0 C 30.4391 1411.62 t 90 r /Helvetica-Bold findfont 45.6587 sf 0 0 m ( ) show NC gr 
 gsave  2268 1682 0 0 C 64.6832 1388.79 t 90 r /Helvetica-Bold findfont 72.293 sf 0 0 m (/) show NC gr 
 gsave  2268 1682 0 0 C 30.4391 1369.76 t 90 r /Helvetica-Bold findfont 45.6587 sf 0 0 m ( ) show NC gr 
 gsave  2268 1682 0 0 C 60.8783 1095.81 t 90 r /Helvetica-Bold findfont 72.293 sf 0 0 m (\(1/N\) dN) show NC gr  291 202 m -53 X s 265 250 m -27 X s 265 299 m -27 X s 265 348 m -27 X s 291 396 m -53 X s 265 445 m -27 X s 265 494 m -27 X s 265 542 m
 -27 X s 291 591 m -53 X s 265 640 m -27 X s 265 688 m -27 X s 265 737 m -27 X s 291 786 m -53 X s 265 834 m -27 X s 265 883 m -27 X s 265 932 m -27 X s 291 980 m -53 X s 265 1029 m -27 X s 265 1078 m -27 X s 265 1126 m -27 X s 291 1175 m -53 X s 265
 1224 m -27 X s 265 1272 m -27 X s 265 1321 m -27 X s 291 1370 m -53 X s 291 1370 m -53 X s 265 1418 m -27 X s 265 1467 m -27 X s
 gsave  2268 1682 0 0 C 175.025 178.83 t 0 r /Helvetica-Bold findfont 64.6832 sf 0 0 m (0) show NC gr 
 gsave  2268 1682 0 0 C 175.025 372.88 t 0 r /Helvetica-Bold findfont 64.6832 sf 0 0 m (2) show NC gr 
 gsave  2268 1682 0 0 C 175.025 566.929 t 0 r /Helvetica-Bold findfont 64.6832 sf 0 0 m (4) show NC gr 
 gsave  2268 1682 0 0 C 175.025 760.979 t 0 r /Helvetica-Bold findfont 64.6832 sf 0 0 m (6) show NC gr 
 gsave  2268 1682 0 0 C 175.025 955.028 t 0 r /Helvetica-Bold findfont 64.6832 sf 0 0 m (8) show NC gr 
 gsave  2268 1682 0 0 C 136.976 1149.08 t 0 r /Helvetica-Bold findfont 64.6832 sf 0 0 m (10) show NC gr 
 gsave  2268 1682 0 0 C 136.976 1343.13 t 0 r /Helvetica-Bold findfont 64.6832 sf 0 0 m (12) show NC gr  2154 202 m 1312 Y s 2101 202 m 53 X s 2128 250 m 26 X s 2128 299 m 26 X s 2128 348 m 26 X s 2101 396 m 53 X s 2128 445 m 26 X s 2128 494 m 26 X s
 2128 542 m 26 X s 2101 591 m 53 X s 2128 640 m 26 X s 2128 688 m 26 X s 2128 737 m 26 X s 2101 786 m 53 X s 2128 834 m 26 X s 2128 883 m 26 X s 2128 932 m 26 X s 2101 980 m 53 X s 2128 1029 m 26 X s 2128 1078 m 26 X s 2128 1126 m 26 X s 2101 1175 m
 53 X s 2128 1224 m 26 X s 2128 1272 m 26 X s 2128 1321 m 26 X s 2101 1370 m 53 X s 2101 1370 m 53 X s 2128 1418 m 26 X s 2128 1467 m 26 X s 0.490196 0.545098 0.615686 c 0.95 0.95 0.95 c 0.490196 0.545098 0.615686 c 680 202 238 1312 bl 238 1312 m 680
 X s 918 1312 m 202 Y s 918 1514 m -680 X s 238 1514 m -202 Y s black
 gsave  2268 1682 0 0 C 441.368 1442.05 t 0 r /Times-Italic findfont 76.0979 sf 0 0 m (Signal) show NC gr  0.49 0.6 0.82 c 269 1428 m 143 X 70 Y -143 X f 0 0 0.933333 c 6 lw 269 1498 m 143 X s 269 1428 m 143 X s 412 1428 m 70 Y s 269 1428 m 70 Y s
 black
 gsave  2268 1682 0 0 C 441.368 1343.13 t 0 r /Times-Italic findfont 76.0979 sf 0 0 m (Background) show NC gr  1 0 0 c 3 lw 412 1374 m -47 -47 d s 387 1398 m -70 -71 d s 339 1398 m -70 -71 d s 291 1398 m -22 -23 d s 6 lw 0 0 0.933333 c 1 0 0 c 269
 1398 m 143 X s 269 1327 m 143 X s 412 1327 m 71 Y s 269 1327 m 71 Y s 0 0 0.933333 c 0.49 0.6 0.82 c black 3 lw 0.49 0.6 0.82 c 238 202 m 6 Y 48 X 2 Y 48 X -3 Y 48 X 7 Y 48 X -4 Y 96 X 3 Y 47 X 5 Y 48 X 3 Y 48 X -6 Y 48 X 3 Y 48 X 18 Y 48 X -10 Y 48
 X -3 Y 48 X 17 Y 48 X 1 Y 96 X 4 Y 95 X 8 Y 48 X 23 Y 48 X 1 Y 48 X -13 Y 48 X -14 Y 48 X 4 Y 48 X 33 Y 48 X 18 Y 48 X -26 Y 47 X 32 Y 48 X -11 Y 48 X 17 Y 48 X -13 Y 48 X 64 Y 48 X -30 Y 48 X -15 Y 48 X 45 Y 48 X 55 Y 48 X 31 Y 48 X 25 Y 47 X 816 Y
 48 X -1093 Y f 6 lw 0 0 0.933333 c 0.49 0.6 0.82 c 0 0 0.933333 c 238 208 m 48 X 2 Y 48 X -3 Y 48 X 7 Y 48 X -4 Y 96 X 3 Y 47 X 5 Y 48 X 3 Y 48 X -6 Y 48 X 3 Y 48 X 18 Y 48 X -10 Y 48 X -3 Y 48 X 17 Y 48 X 1 Y 96 X 4 Y 95 X 8 Y 48 X 23 Y 48 X 1 Y 48
 X -13 Y 48 X -14 Y 48 X 4 Y 48 X 33 Y 48 X 18 Y 48 X -26 Y 47 X 32 Y 48 X -11 Y 48 X 17 Y 48 X -13 Y 48 X 64 Y 48 X -30 Y 48 X -15 Y 48 X 45 Y 48 X 55 Y 48 X 31 Y 48 X 25 Y 47 X 816 Y 48 X s 1 0 0 c black 3 lw 1 0 0 c 2154 230 m -28 -28 d s 2154 278
 m -76 -76 d s 2139 311 m -109 -109 d s 2091 311 m -109 -109 d s 2032 300 m -98 -98 d s 2009 325 m -123 -123 d s 1924 288 m -87 -86 d s 1872 284 m -83 -82 d s 1831 292 m -90 -90 d s 1785 294 m -92 -92 d s 1729 286 m -84 -84 d s 1701 306 m -104 -104 d
 s 1675 328 m -126 -126 d s 1621 322 m -120 -120 d s 1536 285 m -83 -83 d s 1492 289 m -88 -87 d s 1462 307 m -106 -105 d s 1397 291 m -9 -10 d s 1379 273 m -71 -71 d s 1340 282 m -80 -80 d s 1340 330 m -48 -48 d s 1286 276 m -74 -74 d s 1305 343 m
 -13 -13 d s 1244 282 m -80 -80 d s 1234 320 m -118 -118 d s 1173 307 m -105 -105 d s 1116 299 m -16 -16 d s 1096 278 m -76 -76 d s 1053 283 m -81 -81 d s 1024 302 m -101 -100 d s 969 296 m -94 -94 d s 917 292 m -90 -90 d s 868 291 m -89 -89 d s 828
 299 m -97 -97 d s 804 322 m -121 -120 d s 742 309 m -107 -107 d s 686 301 m -99 -99 d s 636 299 m -97 -97 d s 600 311 m -27 -26 d s 573 284 m -83 -82 d s 526 285 m -84 -83 d s 484 292 m -90 -90 d s 433 289 m -3 -4 d s 427 282 m -81 -80 d s 382 286 m
 -84 -84 d s 343 295 m -93 -93 d s 292 292 m -54 -54 d s 246 294 m -8 -8 d s 6 lw 238 294 m 48 X -2 Y 48 X 3 Y 48 X -13 Y 48 X 7 Y 48 X 3 Y 48 X -8 Y 47 X 27 Y 48 X -12 Y 48 X 2 Y 48 X 8 Y 48 X 13 Y 48 X -23 Y 48 X -8 Y 48 X 1 Y 48 X 4 Y 48 X 6 Y 48
 X -24 Y 47 X 21 Y 48 X 8 Y 48 X 13 Y 48 X -44 Y 48 X 67 Y 48 X -70 Y 48 X 18 Y 48 X 16 Y 48 X -18 Y 48 X -4 Y 47 X 37 Y 48 X 6 Y 48 X -22 Y 48 X -20 Y 48 X 8 Y 48 X -2 Y 48 X -8 Y 48 X 4 Y 48 X 37 Y 48 X -25 Y 48 X 11 Y 95 X s black 3 lw 238 202 m
 1916 X s 238 244 m -42 Y s 276 223 m -21 Y s 315 223 m -21 Y s 353 223 m -21 Y s 391 223 m -21 Y s 430 244 m -42 Y s 468 223 m -21 Y s 506 223 m -21 Y s 545 223 m -21 Y s 583 223 m -21 Y s 621 244 m -42 Y s 660 223 m -21 Y s 698 223 m -21 Y s 736
 223 m -21 Y s 775 223 m -21 Y s 813 244 m -42 Y s 851 223 m -21 Y s 890 223 m -21 Y s 928 223 m -21 Y s 966 223 m -21 Y s 1005 244 m -42 Y s 1043 223 m -21 Y s 1081 223 m -21 Y s 1120 223 m -21 Y s 1158 223 m -21 Y s 1196 244 m -42 Y s 1235 223 m
 -21 Y s 1273 223 m -21 Y s 1311 223 m -21 Y s 1350 223 m -21 Y s 1388 244 m -42 Y s 1426 223 m -21 Y s 1464 223 m -21 Y s 1503 223 m -21 Y s 1541 223 m -21 Y s 1579 244 m -42 Y s 1618 223 m -21 Y s 1656 223 m -21 Y s 1694 223 m -21 Y s 1733 223 m
 -21 Y s 1771 244 m -42 Y s 1809 223 m -21 Y s 1848 223 m -21 Y s 1886 223 m -21 Y s 1924 223 m -21 Y s 1963 244 m -42 Y s 2001 223 m -21 Y s 2039 223 m -21 Y s 2078 223 m -21 Y s 2116 223 m -21 Y s 2154 244 m -42 Y s 238 1514 m 1916 X s 238 1471 m
 43 Y s 276 1492 m 22 Y s 315 1492 m 22 Y s 353 1492 m 22 Y s 391 1492 m 22 Y s 430 1471 m 43 Y s 468 1492 m 22 Y s 506 1492 m 22 Y s 545 1492 m 22 Y s 583 1492 m 22 Y s 621 1471 m 43 Y s 660 1492 m 22 Y s 698 1492 m 22 Y s 736 1492 m 22 Y s 775 1492
 m 22 Y s 813 1471 m 43 Y s 851 1492 m 22 Y s 890 1492 m 22 Y s 928 1492 m 22 Y s 966 1492 m 22 Y s 1005 1471 m 43 Y s 1043 1492 m 22 Y s 1081 1492 m 22 Y s 1120 1492 m 22 Y s 1158 1492 m 22 Y s 1196 1471 m 43 Y s 1235 1492 m 22 Y s 1273 1492 m 22 Y
 s 1311 1492 m 22 Y s 1350 1492 m 22 Y s 1388 1471 m 43 Y s 1426 1492 m 22 Y s 1464 1492 m 22 Y s 1503 1492 m 22 Y s 1541 1492 m 22 Y s 1579 1471 m 43 Y s 1618 1492 m 22 Y s 1656 1492 m 22 Y s 1694 1492 m 22 Y s 1733 1492 m 22 Y s 1771 1471 m 43 Y s
 1809 1492 m 22 Y s 1848 1492 m 22 Y s 1886 1492 m 22 Y s 1924 1492 m 22 Y s 1963 1471 m 43 Y s 2001 1492 m 22 Y s 2039 1492 m 22 Y s 2078 1492 m 22 Y s 2116 1492 m 22 Y s 2154 1471 m 43 Y s 238 202 m 1312 Y s 291 202 m -53 X s 265 250 m -27 X s 265
 299 m -27 X s 265 348 m -27 X s 291 396 m -53 X s 265 445 m -27 X s 265 494 m -27 X s 265 542 m -27 X s 291 591 m -53 X s 265 640 m -27 X s 265 688 m -27 X s 265 737 m -27 X s 291 786 m -53 X s 265 834 m -27 X s 265 883 m -27 X s 265 932 m -27 X s
 291 980 m -53 X s 265 1029 m -27 X s 265 1078 m -27 X s 265 1126 m -27 X s 291 1175 m -53 X s 265 1224 m -27 X s 265 1272 m -27 X s 265 1321 m -27 X s 291 1370 m -53 X s 291 1370 m -53 X s 265 1418 m -27 X s 265 1467 m -27 X s 2154 202 m 1312 Y s
 2101 202 m 53 X s 2128 250 m 26 X s 2128 299 m 26 X s 2128 348 m 26 X s 2101 396 m 53 X s 2128 445 m 26 X s 2128 494 m 26 X s 2128 542 m 26 X s 2101 591 m 53 X s 2128 640 m 26 X s 2128 688 m 26 X s 2128 737 m 26 X s 2101 786 m 53 X s 2128 834 m 26 X
 s 2128 883 m 26 X s 2128 932 m 26 X s 2101 980 m 53 X s 2128 1029 m 26 X s 2128 1078 m 26 X s 2128 1126 m 26 X s 2101 1175 m 53 X s 2128 1224 m 26 X s 2128 1272 m 26 X s 2128 1321 m 26 X s 2101 1370 m 53 X s 2101 1370 m 53 X s 2128 1418 m 26 X s
 2128 1467 m 26 X s
 gsave  2268 1682 0 0 C 2211.02 193.403 t 90 r /Helvetica-Bold findfont 45.6587 sf 0 0 m (U/O\255flow \(S,B\): \(0.0, 0.0\)% / \(0.0, 0.0\)%) show NC gr  0.490196 0.545098 0.615686 c 0.364706 0.419608 0.490196 c 1232 96 23 1577 bf 0.490196 0.545098
 0.615686 c 23 1577 m 1232 X s 1255 1577 m 96 Y s 1255 1673 m -1232 X s 23 1673 m -96 Y s 1 1 1 c black 1 1 1 c
 gsave  2268 1682 0 0 C 68.4881 1605.67 t 0 r /Helvetica-Bold findfont 76.0979 sf 0 0 m (TMVA Rarity for classifier: MLP) show NC gr 
 gr  gr showpage
end
%%EOF
