%!PS-Adobe-2.0 EPSF-2.0
%%BoundingBox:  0 0 567 416
%%Title: plots/rejBvsS.eps: the canvas
%%Creator: ROOT Version 5.34/09
%%CreationDate: Thu Jan  2 18:34:33 2014
%%EndComments
%%BeginProlog
80 dict begin
/s {stroke} def /l {lineto} def /m {moveto} def /t {translate} def
/r {rotate} def /rl {roll}  def /R {repeat} def
/d {rlineto} def /rm {rmoveto} def /gr {grestore} def /f {eofill} def
/c {setrgbcolor} def /black {0 setgray} def /sd {setdash} def
/cl {closepath} def /sf {scalefont setfont} def /lw {setlinewidth} def
/box {m dup 0 exch d exch 0 d 0 exch neg d cl} def
/NC{systemdict begin initclip end}def/C{NC box clip newpath}def
/bl {box s} def /bf {box f} def /Y { 0 exch d} def /X { 0 d} def 
/K {{pop pop 0 moveto} exch kshow} bind def
/ita {/ang 15 def gsave [1 0 ang dup sin exch cos div 1 0 0] concat} def 
/mp {newpath /y exch def /x exch def} def
/side {[w .77 mul w .23 mul] .385 w mul sd w 0 l currentpoint t -144 r} def
/mr {mp x y w2 0 360 arc} def /m24 {mr s} def /m20 {mr f} def
/mb {mp x y w2 add m w2 neg 0 d 0 w neg d w 0 d 0 w d cl} def
/mt {mp x y w2 add m w2 neg w neg d w 0 d cl} def
/m21 {mb f} def /m25 {mb s} def /m22 {mt f} def /m26{mt s} def
/m23 {mp x y w2 sub m w2 w d w neg 0 d cl f} def
/m27 {mp x y w2 add m w3 neg w2 neg d w3 w2 neg d w3 w2 d cl s} def
/m28 {mp x w2 sub y w2 sub w3 add m w3 0 d  0 w3 neg d w3 0 d 0 w3 d w3 0 d  0 w3 d w3 neg 0 d 0 w3 d w3 neg 0 d 0 w3 neg d w3 neg 0 d cl s } def
/m29 {mp gsave x w2 sub y w2 add w3 sub m currentpoint t 4 {side} repeat cl fill gr} def
/m30 {mp gsave x w2 sub y w2 add w3 sub m currentpoint t 4 {side} repeat cl s gr} def
/m31 {mp x y w2 sub m 0 w d x w2 sub y m w 0 d x w2 sub y w2 add m w w neg d x w2 sub y w2 sub m w w d s} def
/m32 {mp x y w2 sub m w2 w d w neg 0 d cl s} def
/m33 {mp x y w2 add m w3 neg w2 neg d w3 w2 neg d w3 w2 d cl f} def
/m34 {mp x w2 sub y w2 sub w3 add m w3 0 d  0 w3 neg d w3 0 d 0 w3 d w3 0 d  0 w3 d w3 neg 0 d 0 w3 d w3 neg 0 d 0 w3 neg d w3 neg 0 d cl f } def
/m2 {mp x y w2 sub m 0 w d x w2 sub y m w 0 d s} def
/m5 {mp x w2 sub y w2 sub m w w d x w2 sub y w2 add m w w neg d s} def
/reEncode {exch findfont dup length dict begin {1 index /FID eq  {pop pop} {def} ifelse } forall /Encoding exch def currentdict end dup /FontName get exch definefont pop } def [/Times-Bold /Times-Italic /Times-BoldItalic /Helvetica /Helvetica-Oblique
 /Helvetica-Bold /Helvetica-BoldOblique /Courier /Courier-Oblique /Courier-Bold /Courier-BoldOblique /Times-Roman /AvantGarde-Book /AvantGarde-BookOblique /AvantGarde-Demi /AvantGarde-DemiOblique /Bookman-Demi /Bookman-DemiItalic /Bookman-Light
 /Bookman-LightItalic /Helvetica-Narrow /Helvetica-Narrow-Bold /Helvetica-Narrow-BoldOblique /Helvetica-Narrow-Oblique /NewCenturySchlbk-Roman /NewCenturySchlbk-Bold /NewCenturySchlbk-BoldItalic /NewCenturySchlbk-Italic /Palatino-Bold
 /Palatino-BoldItalic /Palatino-Italic /Palatino-Roman ] {ISOLatin1Encoding reEncode } forall
%%EndProlog
%%BeginSetup
%%EndSetup
newpath  gsave  .25 .25 scale  gsave  0 0 t 0.490196 0.545098 0.615686 c[  ] 0 sd 3 lw 0.941176 0.941176 0.941176 c 2268 1664 0 0 bf black 1 1 0.992157 c 1909 1298 245 200 bf black 1909 1298 245 200 bl 1 1 0.992157 c 1909 1298 245 200 bf black 1909
 1298 245 200 bl 245 200 m 1909 X s
 gsave  2268 1664 0 0 C 1597.23 31.5936 t 0 r /Helvetica-Bold findfont 70.2079 sf 0 0 m (Signal efficiency) show NC gr  245 242 m -42 Y s[ 4 8] 0 sd 245 1498 m -1298 Y s[  ] 0 sd 283 221 m -21 Y s 321 221 m -21 Y s 359 221 m -21 Y s 398 221 m -21 Y s
 436 242 m -42 Y s[ 4 8] 0 sd 436 1498 m -1298 Y s[  ] 0 sd 474 221 m -21 Y s 512 221 m -21 Y s 550 221 m -21 Y s 589 221 m -21 Y s 627 242 m -42 Y s[ 4 8] 0 sd 627 1498 m -1298 Y s[  ] 0 sd 665 221 m -21 Y s 703 221 m -21 Y s 741 221 m -21 Y s 780
 221 m -21 Y s 818 242 m -42 Y s[ 4 8] 0 sd 818 1498 m -1298 Y s[  ] 0 sd 856 221 m -21 Y s 894 221 m -21 Y s 932 221 m -21 Y s 970 221 m -21 Y s 1009 242 m -42 Y s[ 4 8] 0 sd 1009 1498 m -1298 Y s[  ] 0 sd 1047 221 m -21 Y s 1085 221 m -21 Y s 1123
 221 m -21 Y s 1161 221 m -21 Y s 1200 242 m -42 Y s[ 4 8] 0 sd 1200 1498 m -1298 Y s[  ] 0 sd 1238 221 m -21 Y s 1276 221 m -21 Y s 1314 221 m -21 Y s 1352 221 m -21 Y s 1391 242 m -42 Y s[ 4 8] 0 sd 1391 1498 m -1298 Y s[  ] 0 sd 1429 221 m -21 Y s
 1467 221 m -21 Y s 1505 221 m -21 Y s 1543 221 m -21 Y s 1582 242 m -42 Y s[ 4 8] 0 sd 1582 1498 m -1298 Y s[  ] 0 sd 1620 221 m -21 Y s 1658 221 m -21 Y s 1696 221 m -21 Y s 1734 221 m -21 Y s 1772 242 m -42 Y s[ 4 8] 0 sd 1772 1498 m -1298 Y s[  ]
 0 sd 1811 221 m -21 Y s 1849 221 m -21 Y s 1887 221 m -21 Y s 1925 221 m -21 Y s 1963 242 m -42 Y s[ 4 8] 0 sd 1963 1498 m -1298 Y s[  ] 0 sd 2002 221 m -21 Y s 2040 221 m -21 Y s 2078 221 m -21 Y s 2116 221 m -21 Y s 2154 242 m -42 Y s[ 4 8] 0 sd
 2154 1498 m -1298 Y s
 gsave  2268 1664 0 0 C 224.665 129.885 t 0 r /Helvetica-Bold findfont 63.1872 sf 0 0 m (0) show NC gr 
 gsave  2268 1664 0 0 C 396.675 129.885 t 0 r /Helvetica-Bold findfont 63.1872 sf 0 0 m (0.1) show NC gr 
 gsave  2268 1664 0 0 C 579.216 129.885 t 0 r /Helvetica-Bold findfont 63.1872 sf 0 0 m (0.2) show NC gr 
 gsave  2268 1664 0 0 C 768.777 129.885 t 0 r /Helvetica-Bold findfont 63.1872 sf 0 0 m (0.3) show NC gr 
 gsave  2268 1664 0 0 C 961.849 129.885 t 0 r /Helvetica-Bold findfont 63.1872 sf 0 0 m (0.4) show NC gr 
 gsave  2268 1664 0 0 C 1151.41 129.885 t 0 r /Helvetica-Bold findfont 63.1872 sf 0 0 m (0.5) show NC gr 
 gsave  2268 1664 0 0 C 1344.48 129.885 t 0 r /Helvetica-Bold findfont 63.1872 sf 0 0 m (0.6) show NC gr 
 gsave  2268 1664 0 0 C 1534.04 129.885 t 0 r /Helvetica-Bold findfont 63.1872 sf 0 0 m (0.7) show NC gr 
 gsave  2268 1664 0 0 C 1723.6 129.885 t 0 r /Helvetica-Bold findfont 63.1872 sf 0 0 m (0.8) show NC gr 
 gsave  2268 1664 0 0 C 1916.68 129.885 t 0 r /Helvetica-Bold findfont 63.1872 sf 0 0 m (0.9) show NC gr 
 gsave  2268 1664 0 0 C 2137.83 129.885 t 0 r /Helvetica-Bold findfont 63.1872 sf 0 0 m (1) show NC gr [  ] 0 sd 245 1498 m 1909 X s 245 1456 m 42 Y s 283 1477 m 21 Y s 321 1477 m 21 Y s 359 1477 m 21 Y s 398 1477 m 21 Y s 436 1456 m 42 Y s 474 1477
 m 21 Y s 512 1477 m 21 Y s 550 1477 m 21 Y s 589 1477 m 21 Y s 627 1456 m 42 Y s 665 1477 m 21 Y s 703 1477 m 21 Y s 741 1477 m 21 Y s 780 1477 m 21 Y s 818 1456 m 42 Y s 856 1477 m 21 Y s 894 1477 m 21 Y s 932 1477 m 21 Y s 970 1477 m 21 Y s 1009
 1456 m 42 Y s 1047 1477 m 21 Y s 1085 1477 m 21 Y s 1123 1477 m 21 Y s 1161 1477 m 21 Y s 1200 1456 m 42 Y s 1238 1477 m 21 Y s 1276 1477 m 21 Y s 1314 1477 m 21 Y s 1352 1477 m 21 Y s 1391 1456 m 42 Y s 1429 1477 m 21 Y s 1467 1477 m 21 Y s 1505
 1477 m 21 Y s 1543 1477 m 21 Y s 1582 1456 m 42 Y s 1620 1477 m 21 Y s 1658 1477 m 21 Y s 1696 1477 m 21 Y s 1734 1477 m 21 Y s 1772 1456 m 42 Y s 1811 1477 m 21 Y s 1849 1477 m 21 Y s 1887 1477 m 21 Y s 1925 1477 m 21 Y s 1963 1456 m 42 Y s 2002
 1477 m 21 Y s 2040 1477 m 21 Y s 2078 1477 m 21 Y s 2116 1477 m 21 Y s 2154 1456 m 42 Y s 245 200 m 1298 Y s
 gsave  2268 1664 0 0 C 63.1871 779.308 t 90 r /Helvetica-Bold findfont 70.2079 sf 0 0 m (Background rejection) show NC gr  298 200 m -53 X s[ 4 8] 0 sd 2154 200 m -1909 X s[  ] 0 sd 271 232 m -26 X s 271 265 m -26 X s 271 297 m -26 X s 271 329 m -26
 X s 298 362 m -53 X s[ 4 8] 0 sd 2154 362 m -1909 X s[  ] 0 sd 271 394 m -26 X s 271 427 m -26 X s 271 459 m -26 X s 271 492 m -26 X s 298 524 m -53 X s[ 4 8] 0 sd 2154 524 m -1909 X s[  ] 0 sd 271 557 m -26 X s 271 589 m -26 X s 271 621 m -26 X s
 271 654 m -26 X s 298 686 m -53 X s[ 4 8] 0 sd 2154 686 m -1909 X s[  ] 0 sd 271 719 m -26 X s 271 751 m -26 X s 271 784 m -26 X s 271 816 m -26 X s 298 849 m -53 X s[ 4 8] 0 sd 2154 849 m -1909 X s[  ] 0 sd 271 881 m -26 X s 271 913 m -26 X s 271
 946 m -26 X s 271 978 m -26 X s 298 1011 m -53 X s[ 4 8] 0 sd 2154 1011 m -1909 X s[  ] 0 sd 271 1043 m -26 X s 271 1076 m -26 X s 271 1108 m -26 X s 271 1141 m -26 X s 298 1173 m -53 X s[ 4 8] 0 sd 2154 1173 m -1909 X s[  ] 0 sd 271 1206 m -26 X s
 271 1238 m -26 X s 271 1270 m -26 X s 271 1303 m -26 X s 298 1335 m -53 X s[ 4 8] 0 sd 2154 1335 m -1909 X s[  ] 0 sd 271 1368 m -26 X s 271 1400 m -26 X s 271 1433 m -26 X s 271 1465 m -26 X s 298 1498 m -53 X s[ 4 8] 0 sd 2154 1498 m -1909 X s[  ]
 0 sd 298 200 m -53 X s[ 4 8] 0 sd 2154 200 m -1909 X s
 gsave  2268 1664 0 0 C 129.885 175.52 t 0 r /Helvetica-Bold findfont 63.1872 sf 0 0 m (0.2) show NC gr 
 gsave  2268 1664 0 0 C 129.885 340.509 t 0 r /Helvetica-Bold findfont 63.1872 sf 0 0 m (0.3) show NC gr 
 gsave  2268 1664 0 0 C 129.885 501.987 t 0 r /Helvetica-Bold findfont 63.1872 sf 0 0 m (0.4) show NC gr 
 gsave  2268 1664 0 0 C 129.885 663.465 t 0 r /Helvetica-Bold findfont 63.1872 sf 0 0 m (0.5) show NC gr 
 gsave  2268 1664 0 0 C 129.885 824.943 t 0 r /Helvetica-Bold findfont 63.1872 sf 0 0 m (0.6) show NC gr 
 gsave  2268 1664 0 0 C 129.885 986.422 t 0 r /Helvetica-Bold findfont 63.1872 sf 0 0 m (0.7) show NC gr 
 gsave  2268 1664 0 0 C 129.885 1151.41 t 0 r /Helvetica-Bold findfont 63.1872 sf 0 0 m (0.8) show NC gr 
 gsave  2268 1664 0 0 C 129.885 1312.89 t 0 r /Helvetica-Bold findfont 63.1872 sf 0 0 m (0.9) show NC gr 
 gsave  2268 1664 0 0 C 193.072 1474.37 t 0 r /Helvetica-Bold findfont 63.1872 sf 0 0 m (1) show NC gr [  ] 0 sd 2154 200 m 1298 Y s 2101 200 m 53 X s 2128 232 m 26 X s 2128 265 m 26 X s 2128 297 m 26 X s 2128 329 m 26 X s 2101 362 m 53 X s 2128 394
 m 26 X s 2128 427 m 26 X s 2128 459 m 26 X s 2128 492 m 26 X s 2101 524 m 53 X s 2128 557 m 26 X s 2128 589 m 26 X s 2128 621 m 26 X s 2128 654 m 26 X s 2101 686 m 53 X s 2128 719 m 26 X s 2128 751 m 26 X s 2128 784 m 26 X s 2128 816 m 26 X s 2101
 849 m 53 X s 2128 881 m 26 X s 2128 913 m 26 X s 2128 946 m 26 X s 2128 978 m 26 X s 2101 1011 m 53 X s 2128 1043 m 26 X s 2128 1076 m 26 X s 2128 1108 m 26 X s 2128 1141 m 26 X s 2101 1173 m 53 X s 2128 1206 m 26 X s 2128 1238 m 26 X s 2128 1270 m
 26 X s 2128 1303 m 26 X s 2101 1335 m 53 X s 2128 1368 m 26 X s 2128 1400 m 26 X s 2128 1433 m 26 X s 2128 1465 m 26 X s 2101 1498 m 53 X s 2101 200 m 53 X s 9 lw 1 1 1 c black 254 1498 m 10 -1 d 10 -3 d 19 -8 d 19 -9 d 19 -7 d 19 -10 d 19 -8 d 19
 -9 d 9 -2 d 8 -1 d 2 -2 d 19 -14 d 10 -4 d 9 -3 d 7 -1 d 11 -1 d 1 X 8 -3 d 12 -6 d 19 -10 d 12 -4 d 7 -2 d 10 -1 d 6 -1 d 3 -1 d 19 -13 d 19 -9 d 19 -13 d 9 -3 d 10 -3 d 15 -4 d 4 -2 d 19 -15 d 20 -14 d 19 -17 d 7 -4 d 12 -5 d 13 -4 d 6 -3 d 17 -12
 d 2 -1 d 6 -2 d 11 -2 d 2 -1 d 19 -12 d 19 -10 d 8 -3 d 7 -2 d 4 -3 d 5 -5 d 14 -19 d 8 -7 d 8 -6 d 3 -2 d 7 -2 d 13 -3 d 15 -4 d 4 -2 d 19 -13 d 7 -3 d 10 -3 d 2 -1 d 8 -5 d 8 -7 d 3 -2 d 7 -8 d 10 -14 d 2 -2 d 6 -4 d 13 -10 d 19 -17 d 6 -3 d 13 -6
 d 19 -11 d 9 -4 d 7 -3 d 4 -3 d 5 -6 d 14 -18 d 14 -18 d 5 -4 d 5 -4 d 14 -7 d 14 -9 d 5 -4 d 5 -6 d 13 -16 d 1 -1 d 7 -5 d 7 -4 d 5 -2 d s 1190 957 m 19 -13 d 18 -11 d 1 -1 d 19 -18 d 8 -3 d 11 -5 d 12 -9 d 8 -6 d 19 -20 d 9 -7 d 10 -5 d 19 -13 d
 19 -15 d 19 -11 d 19 -11 d 19 -11 d 16 -10 d 3 -2 d 19 -21 d 7 -4 d 10 -6 d 2 -1 d 16 -19 d 4 -5 d 6 -4 d 9 -5 d 4 -4 d 6 -8 d 13 -25 d 19 -40 d 11 -19 d 6 -10 d 2 -2 d 6 -6 d 13 -9 d 19 -17 d 19 -16 d 19 -17 d 16 -15 d 3 -4 d 20 -29 d 19 -26 d 19
 -24 d 19 -20 d 19 -25 d 19 -21 d 19 -23 d 17 -20 d 2 -2 d 7 -4 d 10 -7 d 2 -1 d 19 -24 d 12 -13 d 7 -6 d 10 -7 d 10 -5 d 19 -9 d 19 -13 d 6 -2 d 7 -2 d 4 -3 d 2 -2 d 5 -8 d 5 -10 d 5 -12 d 3 -11 d s 1 0 0 c 1 1 1 c black 1 0 0 c 254 1498 m 39 X s
 312 1498 m cl s 312 1498 m 6 -1 d 11 -3 d 21 X 19 -1 d 76 X 19 -1 d 17 1 d 3 -1 d 19 -3 d 17 -2 d 2 -1 d 38 X 19 -1 d 19 -1 d 19 X 19 -2 d 19 -2 d 8 -1 d 7 X 5 -1 d 4 -1 d 14 -6 d 1 -1 d 4 X 13 -2 d 2 X 19 -4 d 12 -2 d 7 -1 d 17 X 2 -1 d 4 -1 d 15
 -10 d 6 -2 d 13 -3 d 16 -4 d 3 X 6 -1 d 9 X 4 -1 d 19 -8 d 7 -1 d 9 -2 d 4 -2 d 5 -2 d 14 -8 d 18 -10 d 1 X 7 -3 d 12 -4 d 14 -5 d 5 -1 d 19 -5 d 19 -6 d 19 -7 d 19 -7 d 14 -5 d 5 -3 d 15 -10 d 3 -2 d 2 -1 d 3 -1 d 4 -1 d 8 X 4 -1 d 6 -2 d 10 -4 d 3
 -2 d 10 -5 d 9 -5 d 19 -11 d 5 -3 d 13 -5 d 1 -1 d 12 -5 d 7 -4 d s 1190 1296 m 19 -7 d 19 -9 d 19 -10 d 19 -7 d 20 -16 d 19 -9 d 19 -11 d 19 -15 d 19 -8 d 19 -11 d 19 -10 d 19 -4 d 15 -8 d 4 -2 d 19 -16 d 19 -15 d 20 -11 d 16 -5 d 3 -1 d 19 -21 d
 19 -15 d 17 -15 d 2 -3 d 19 -26 d 18 -24 d 1 -2 d 7 -5 d 12 -7 d 19 -20 d 19 -14 d 20 -18 d 19 -11 d 19 -19 d 14 -8 d 5 -3 d 19 -25 d 19 -22 d 17 -18 d 2 -3 d 19 -32 d 7 -7 d 9 -9 d 3 -4 d 5 -12 d 12 -29 d 2 -4 d 5 -4 d 11 -5 d 3 -2 d 11 -10 d 9 -12
 d 19 -34 d 7 -7 d 10 -7 d 2 -3 d 9 -15 d 10 -19 d 19 -38 d 19 -30 d 19 -34 d 17 -32 d 2 -4 d 13 -28 d 6 -17 d 10 -27 d 9 -32 d 14 -42 d 6 -22 d 5 -26 d 14 -70 d 5 -25 d s 0 1 0 c 1 1 1 c black 0 1 0 c 254 1498 m 20 X 19 -1 d 19 X 19 -2 d 19 -1 d 19
 -1 d 19 X 19 -3 d 19 X 17 -1 d 2 X 19 -2 d 20 -1 d 19 -2 d 11 -1 d 8 1 d 17 X 2 -1 d 3 -1 d 16 -9 d 4 -1 d 6 -1 d 9 -1 d 19 -2 d 19 -2 d 19 -3 d 19 -3 d 11 -1 d 7 X 2 -1 d 19 -5 d 9 -2 d 10 -1 d 17 -3 d 2 -1 d 19 -5 d 19 -5 d 12 -1 d 7 -2 d 7 -2 d
 12 -5 d 19 -7 d 10 -3 d 9 -3 d 18 -4 d 1 X 12 -4 d 6 -2 d 2 -1 d 4 -3 d 13 -9 d 2 -1 d 3 -2 d 5 -1 d 9 -1 d 2 X 12 -4 d 7 -2 d 19 -8 d 16 -7 d 3 -1 d 8 -2 d 11 -2 d 17 -3 d 2 -1 d 10 -3 d 6 -2 d 3 -1 d 5 -3 d 14 -10 d 8 -3 d 12 -5 d 7 -3 d 12 -3 d
 12 -4 d 4 -2 d 3 -1 d 3 -2 d 13 -12 d 3 -2 d 3 -1 d 6 -2 d 6 -1 d 4 -1 d 19 -12 d 8 -4 d 8 -3 d 3 -1 d s 1190 1274 m 19 -9 d 19 -11 d 19 -8 d 19 -9 d 20 -10 d 19 -11 d 19 -8 d 19 -11 d 19 -16 d 19 -12 d 19 -11 d 19 -18 d 8 -3 d 11 -4 d 19 -11 d 16
 -12 d 3 -3 d 20 -20 d 19 -10 d 19 -18 d 19 -16 d 16 -14 d 3 -3 d 19 -27 d 7 -6 d 12 -7 d 15 -15 d 4 -4 d 19 -24 d 11 -9 d 8 -6 d 20 -13 d 19 -14 d 16 -13 d 3 -4 d 19 -26 d 19 -21 d 19 -23 d 14 -17 d 5 -7 d 14 -35 d 5 -9 d -2 Y 5 -6 d 14 -8 d 16 -12
 d 3 -3 d 10 -12 d 9 -14 d 9 -16 d 11 -23 d 19 -44 d 13 -25 d 6 -11 d 13 -21 d 6 -8 d 19 -22 d 15 -21 d 4 -6 d 15 -24 d 4 -8 d 19 -41 d 19 -39 d 17 -32 d 2 -5 d 12 -28 d 8 -20 d 19 -54 d 14 -41 d s 0 0 1 c 1 1 1 c black 0 0 1 c 254 1498 m 10 -2 d 10
 -2 d 19 X 19 -1 d 76 X 19 -1 d 38 X 19 -1 d 54 X 4 -1 d 19 -3 d 19 -2 d 19 -3 d 19 -2 d 19 -2 d 19 -3 d 19 -2 d 16 -2 d 4 -1 d 19 -5 d 17 -5 d 2 X 19 -8 d 19 -6 d 17 -5 d 2 -1 d 7 -1 d 10 -2 d 2 -1 d 19 -6 d 13 -4 d 6 -1 d 12 -3 d 6 -1 d 1 X 7 -3 d
 12 -5 d 18 -7 d 2 -1 d 16 -8 d 3 -2 d 19 -10 d 8 -3 d 11 -5 d 13 -6 d 6 -3 d 19 -11 d 10 -4 d 9 -4 d 8 -2 d 11 -3 d 19 -5 d 17 -3 d 2 -1 d 20 -3 d 13 -3 d 6 -1 d 19 -10 d 7 -3 d 8 -3 d 4 -2 d 19 -12 d 9 -6 d 10 -4 d 10 -5 d 9 -3 d s 1190 1280 m 19
 -16 d 19 -18 d 7 -3 d 12 -3 d 19 -12 d 20 -13 d 19 -8 d 19 -16 d 17 -12 d 2 -2 d 19 -24 d 7 -5 d 12 -5 d 19 -6 d 16 -9 d 3 -2 d 19 -16 d 19 -9 d 19 -15 d 17 -7 d 3 -1 d 16 -5 d 3 -1 d 10 -10 d 9 -9 d 19 -22 d 6 -3 d 13 -3 d 14 -6 d 5 -5 d 19 -29 d
 19 -25 d 19 -26 d 16 -18 d 3 -5 d 20 -38 d 4 -4 d 15 -8 d 19 -20 d 10 -8 d 7 -6 d 2 -3 d 19 -36 d 9 -13 d 10 -12 d 19 -22 d 19 -22 d 19 -23 d 19 -14 d 14 -13 d 5 -7 d 10 -13 d 10 -17 d 15 -26 d 4 -9 d 17 -45 d 2 -4 d 6 -11 d 11 -18 d 2 -3 d 19 -43 d
 7 -12 d 12 -19 d 19 -36 d 9 -12 d 7 -11 d 3 -7 d 6 -16 d 13 -43 d 12 -42 d 7 -26 d 13 -48 d -1 Y s 1 0 1 c 1 1 1 c black 1 0 1 c 254 1434 m 399 X 2 -1 d 13 -1 d 7 -2 d 15 -6 d 4 -2 d 7 -2 d 12 -1 d 19 -2 d 13 -2 d 6 -2 d 19 -13 d 7 -3 d 10 -4 d 2 -1
 d 19 -12 d 11 -5 d 8 -4 d 19 -9 d 19 -8 d 20 -9 d 19 -9 d 14 -7 d 5 -3 d 7 -5 d 12 -9 d 19 -18 d 19 -17 d 19 -17 d 19 -18 d 19 -17 d 19 -17 d 20 -17 d 19 -18 d 19 -17 d 19 -17 d 19 -17 d 19 -18 d 19 -17 d s 1190 1087 m 10 -10 d 9 -7 d 7 -3 d 11 -4 d
 1 -1 d 15 -16 d 4 -4 d 9 -4 d 10 -4 d 20 -5 d 13 -6 d 6 -4 d 19 -19 d 19 -17 d 19 -14 d 19 -19 d 6 -2 d 10 X 3 -1 d 7 -5 d 12 -13 d 19 -22 d 19 -23 d 19 -23 d 20 -23 d 19 -22 d 19 -23 d 19 -23 d 19 -23 d 19 -22 d 19 -23 d 19 -23 d 19 -22 d 19 -23 d
 20 -23 d 19 -23 d 19 -22 d 19 -23 d 19 -23 d 19 -23 d 19 -22 d 19 -23 d 19 -18 d 15 -14 d 4 -4 d 7 -10 d 12 -23 d 20 -35 d 19 -35 d 19 -35 d 19 -35 d 19 -35 d 5 -8 d s 0 1 1 c 1 1 1 c black 0 1 1 c 254 1498 m 330 X 13 -1 d 194 X 17 -1 d 2 -1 d 3 X 5
 1 d 9 X 2 -1 d 6 X 7 -1 d 43 X 6 -1 d 16 X 13 -1 d 129 X 4 -1 d 24 X 2 -1 d 4 X 5 -1 d 2 -1 d 43 X 6 -1 d 16 X 7 -1 d 12 X 2 -1 d 5 X 3 -1 d 2 X 2 -1 d 2 X s 1190 1483 m 19 -1 d 19 -3 d 19 -1 d 19 -2 d 20 -5 d 19 X 19 -1 d 19 -1 d 19 -1 d 19 -3 d 17
 -1 d 2 -1 d 19 -8 d 15 -3 d 4 X 18 -1 d 1 X 19 -7 d 20 -2 d 19 -5 d 19 -6 d 19 -2 d 19 -6 d 19 -4 d 19 -4 d 19 -5 d 19 -8 d 19 -7 d 20 -10 d 7 -1 d 12 X 9 -3 d 10 -5 d 19 -12 d 15 -6 d 4 -1 d 16 -3 d 3 -1 d 19 -14 d 7 -2 d 10 -3 d 2 -2 d 19 -20 d 8
 -6 d 10 -6 d 1 -2 d 10 -10 d 9 -12 d 20 -26 d 19 -22 d 19 -21 d 15 -19 d 4 -5 d 19 -34 d 11 -17 d 8 -9 d 6 -5 d 9 -5 d 4 -5 d 4 -6 d 15 -31 d 13 -28 d 6 -14 d 6 -14 d 6 -13 d 3 -10 d 3 -11 d 1 -6 d 3 -11 d 13 -95 d 2 -13 d 2 -7 d 2 -10 d 3 -10 d 5
 -13 d 5 -12 d 4 -11 d 5 -21 d 5 -23 d 6 -25 d 3 -16 d s 2126 708 m 19 -215 d s 0.35 0.83 0.33 c 1 1 1 c black 0.35 0.83 0.33 c 254 1497 m 20 X 15 -2 d 4 -1 d 15 -3 d 4 -1 d 19 -10 d 6 -1 d 13 -2 d 19 -5 d 19 -5 d 19 -5 d 19 -6 d 19 -6 d 19 -2 d 20
 -3 d 13 -3 d 6 -2 d 19 -8 d 19 -7 d 17 -8 d 2 -1 d 19 -12 d 8 -4 d 11 -3 d 14 -2 d 5 -1 d 10 -4 d 9 -5 d 19 -14 d 6 -2 d 12 -2 d 2 -1 d 19 -9 d 19 -9 d 19 -11 d 6 -2 d 10 -2 d 3 -1 d 8 -4 d 8 -6 d 3 -2 d 15 -16 d 4 -4 d 8 -6 d 11 -7 d 19 -11 d 19
 -12 d 7 -2 d 11 -2 d 1 X 20 -10 d 19 -7 d 15 -7 d 4 -1 d 19 -14 d 16 -10 d 3 -2 d 8 -3 d 10 -3 d 1 X 19 -12 d 16 -8 d 3 -2 d 19 -16 d 19 -16 d 20 -17 d 17 -16 d 2 -1 d 4 -3 d 11 -3 d 4 -1 d 10 -6 d 9 -6 d 19 -16 d 5 -2 d 13 -4 d 1 -1 d 12 -5 d 7 -5
 d s 1190 1063 m 19 -8 d 17 -9 d 2 -2 d 19 -16 d 19 -11 d 15 -9 d 5 -5 d 19 -29 d 10 -14 d 9 -9 d 8 -5 d 11 -8 d 19 -20 d 7 -4 d 10 -4 d 2 -2 d 7 -7 d 12 -13 d 19 -22 d 7 -5 d 12 -6 d 19 -16 d 19 -13 d 17 -14 d 3 -3 d 19 -23 d 7 -5 d 10 -6 d 2 -1 d
 17 -23 d 2 -2 d 5 -3 d 14 -5 d 14 -10 d 5 -4 d 19 -17 d 19 -17 d 15 -12 d 4 -4 d 7 -9 d 12 -20 d 20 -31 d 5 -4 d 10 -6 d 4 -4 d 6 -10 d 13 -23 d 18 -31 d 1 -2 d 7 -8 d 12 -9 d 19 -15 d 15 -9 d 4 -5 d 7 -9 d 12 -22 d 19 -38 d 8 -11 d 11 -15 d 10 -9 d
 6 -7 d 3 -4 d 6 -10 d 13 -27 d 1 -1 d 7 -11 d 12 -14 d 17 -21 d 2 -3 d 19 -30 d 19 -27 d 13 -21 d 6 -11 d s 0.35 0.33 0.85 c 1 1 1 c black 0.35 0.33 0.85 c 254 1495 m 20 -1 d 15 1 d 4 -1 d 5 -1 d 12 -3 d 21 X 19 -2 d 19 -1 d 15 -1 d 4 -1 d 14 -2 d 5
 -1 d 11 -3 d 8 -2 d 19 -7 d 8 -2 d 9 -2 d 22 X 19 -2 d 19 -2 d 19 -2 d 19 -4 d 16 -2 d 3 X 19 -1 d 16 -1 d 3 X 8 -1 d 11 -3 d 19 -4 d 12 -1 d 6 -1 d 2 X 19 -6 d 11 -3 d 8 -1 d 19 -3 d 19 -3 d 19 -3 d 11 -1 d 7 -1 d 1 X 8 -2 d 11 -4 d 19 -6 d 8 -2 d
 10 -1 d 1 -1 d 12 -2 d 5 -2 d 2 -1 d 4 -2 d 14 -11 d 2 X 3 -2 d 6 -1 d 7 -1 d 3 -1 d 5 -2 d 14 -7 d 9 -4 d 10 -2 d 19 -4 d 12 -3 d 5 -2 d 2 -1 d 19 -12 d 9 -5 d 8 -4 d 2 X 6 -2 d 10 -2 d 3 -1 d 6 -3 d 11 -6 d 2 -1 d 6 -1 d 11 -3 d 3 -1 d 10 -3 d 9
 -4 d 19 -10 d 11 -4 d 8 -3 d 15 -6 d 4 -2 d 17 -10 d 2 -1 d 8 -3 d 7 -3 d 4 -1 d s 1190 1266 m 16 -14 d 3 -2 d 19 -12 d 19 -12 d 19 -7 d 20 -10 d 19 -4 d 19 -2 d 13 -6 d 6 -4 d 19 -17 d 19 -8 d 19 -13 d 19 -12 d 19 -14 d 19 -12 d 19 -12 d 15 -3 d 5
 -2 d 19 -17 d 17 -14 d 2 -1 d 19 -24 d 6 -4 d 12 -3 d 1 -1 d 19 -17 d 12 -6 d 7 -3 d 19 -9 d 19 -9 d 19 -11 d 20 -16 d 19 -8 d 19 -16 d 19 -17 d 19 -21 d 19 -21 d 19 -17 d 19 -20 d 13 -9 d 6 -6 d 19 -29 d 19 -27 d 20 -35 d 16 -26 d 3 -6 d 7 -16 d 12
 -31 d 19 -49 d 19 -51 d 14 -41 d 5 -14 d 17 -66 d 2 -6 d 6 -16 d 10 -25 d 3 -9 d 17 -62 d 2 -8 d 4 -10 d 6 -10 d 8 -14 d 1 -2 d 20 -47 d 13 -30 d s black 3 lw 245 200 m 1909 X s 245 242 m -42 Y s[ 4 8] 0 sd 245 1498 m -1298 Y s[  ] 0 sd 283 221 m
 -21 Y s 321 221 m -21 Y s 359 221 m -21 Y s 398 221 m -21 Y s 436 242 m -42 Y s[ 4 8] 0 sd 436 1498 m -1298 Y s[  ] 0 sd 474 221 m -21 Y s 512 221 m -21 Y s 550 221 m -21 Y s 589 221 m -21 Y s 627 242 m -42 Y s[ 4 8] 0 sd 627 1498 m -1298 Y s[  ] 0
 sd 665 221 m -21 Y s 703 221 m -21 Y s 741 221 m -21 Y s 780 221 m -21 Y s 818 242 m -42 Y s[ 4 8] 0 sd 818 1498 m -1298 Y s[  ] 0 sd 856 221 m -21 Y s 894 221 m -21 Y s 932 221 m -21 Y s 970 221 m -21 Y s 1009 242 m -42 Y s[ 4 8] 0 sd 1009 1498 m
 -1298 Y s[  ] 0 sd 1047 221 m -21 Y s 1085 221 m -21 Y s 1123 221 m -21 Y s 1161 221 m -21 Y s 1200 242 m -42 Y s[ 4 8] 0 sd 1200 1498 m -1298 Y s[  ] 0 sd 1238 221 m -21 Y s 1276 221 m -21 Y s 1314 221 m -21 Y s 1352 221 m -21 Y s 1391 242 m -42 Y
 s[ 4 8] 0 sd 1391 1498 m -1298 Y s[  ] 0 sd 1429 221 m -21 Y s 1467 221 m -21 Y s 1505 221 m -21 Y s 1543 221 m -21 Y s 1582 242 m -42 Y s[ 4 8] 0 sd 1582 1498 m -1298 Y s[  ] 0 sd 1620 221 m -21 Y s 1658 221 m -21 Y s 1696 221 m -21 Y s 1734 221 m
 -21 Y s 1772 242 m -42 Y s[ 4 8] 0 sd 1772 1498 m -1298 Y s[  ] 0 sd 1811 221 m -21 Y s 1849 221 m -21 Y s 1887 221 m -21 Y s 1925 221 m -21 Y s 1963 242 m -42 Y s[ 4 8] 0 sd 1963 1498 m -1298 Y s[  ] 0 sd 2002 221 m -21 Y s 2040 221 m -21 Y s 2078
 221 m -21 Y s 2116 221 m -21 Y s 2154 242 m -42 Y s[ 4 8] 0 sd 2154 1498 m -1298 Y s[  ] 0 sd 245 1498 m 1909 X s 245 1456 m 42 Y s 283 1477 m 21 Y s 321 1477 m 21 Y s 359 1477 m 21 Y s 398 1477 m 21 Y s 436 1456 m 42 Y s 474 1477 m 21 Y s 512 1477
 m 21 Y s 550 1477 m 21 Y s 589 1477 m 21 Y s 627 1456 m 42 Y s 665 1477 m 21 Y s 703 1477 m 21 Y s 741 1477 m 21 Y s 780 1477 m 21 Y s 818 1456 m 42 Y s 856 1477 m 21 Y s 894 1477 m 21 Y s 932 1477 m 21 Y s 970 1477 m 21 Y s 1009 1456 m 42 Y s 1047
 1477 m 21 Y s 1085 1477 m 21 Y s 1123 1477 m 21 Y s 1161 1477 m 21 Y s 1200 1456 m 42 Y s 1238 1477 m 21 Y s 1276 1477 m 21 Y s 1314 1477 m 21 Y s 1352 1477 m 21 Y s 1391 1456 m 42 Y s 1429 1477 m 21 Y s 1467 1477 m 21 Y s 1505 1477 m 21 Y s 1543
 1477 m 21 Y s 1582 1456 m 42 Y s 1620 1477 m 21 Y s 1658 1477 m 21 Y s 1696 1477 m 21 Y s 1734 1477 m 21 Y s 1772 1456 m 42 Y s 1811 1477 m 21 Y s 1849 1477 m 21 Y s 1887 1477 m 21 Y s 1925 1477 m 21 Y s 1963 1456 m 42 Y s 2002 1477 m 21 Y s 2040
 1477 m 21 Y s 2078 1477 m 21 Y s 2116 1477 m 21 Y s 2154 1456 m 42 Y s 245 200 m 1298 Y s 298 200 m -53 X s[ 4 8] 0 sd 2154 200 m -1909 X s[  ] 0 sd 271 232 m -26 X s 271 265 m -26 X s 271 297 m -26 X s 271 329 m -26 X s 298 362 m -53 X s[ 4 8] 0 sd
 2154 362 m -1909 X s[  ] 0 sd 271 394 m -26 X s 271 427 m -26 X s 271 459 m -26 X s 271 492 m -26 X s 298 524 m -53 X s[ 4 8] 0 sd 2154 524 m -1909 X s[  ] 0 sd 271 557 m -26 X s 271 589 m -26 X s 271 621 m -26 X s 271 654 m -26 X s 298 686 m -53 X
 s[ 4 8] 0 sd 2154 686 m -1909 X s[  ] 0 sd 271 719 m -26 X s 271 751 m -26 X s 271 784 m -26 X s 271 816 m -26 X s 298 849 m -53 X s[ 4 8] 0 sd 2154 849 m -1909 X s[  ] 0 sd 271 881 m -26 X s 271 913 m -26 X s 271 946 m -26 X s 271 978 m -26 X s 298
 1011 m -53 X s[ 4 8] 0 sd 2154 1011 m -1909 X s[  ] 0 sd 271 1043 m -26 X s 271 1076 m -26 X s 271 1108 m -26 X s 271 1141 m -26 X s 298 1173 m -53 X s[ 4 8] 0 sd 2154 1173 m -1909 X s[  ] 0 sd 271 1206 m -26 X s 271 1238 m -26 X s 271 1270 m -26 X
 s 271 1303 m -26 X s 298 1335 m -53 X s[ 4 8] 0 sd 2154 1335 m -1909 X s[  ] 0 sd 271 1368 m -26 X s 271 1400 m -26 X s 271 1433 m -26 X s 271 1465 m -26 X s 298 1498 m -53 X s[ 4 8] 0 sd 2154 1498 m -1909 X s[  ] 0 sd 298 200 m -53 X s[ 4 8] 0 sd
 2154 200 m -1909 X s[  ] 0 sd 2154 200 m 1298 Y s 2101 200 m 53 X s 2128 232 m 26 X s 2128 265 m 26 X s 2128 297 m 26 X s 2128 329 m 26 X s 2101 362 m 53 X s 2128 394 m 26 X s 2128 427 m 26 X s 2128 459 m 26 X s 2128 492 m 26 X s 2101 524 m 53 X s
 2128 557 m 26 X s 2128 589 m 26 X s 2128 621 m 26 X s 2128 654 m 26 X s 2101 686 m 53 X s 2128 719 m 26 X s 2128 751 m 26 X s 2128 784 m 26 X s 2128 816 m 26 X s 2101 849 m 53 X s 2128 881 m 26 X s 2128 913 m 26 X s 2128 946 m 26 X s 2128 978 m 26 X
 s 2101 1011 m 53 X s 2128 1043 m 26 X s 2128 1076 m 26 X s 2128 1108 m 26 X s 2128 1141 m 26 X s 2101 1173 m 53 X s 2128 1206 m 26 X s 2128 1238 m 26 X s 2128 1270 m 26 X s 2128 1303 m 26 X s 2101 1335 m 53 X s 2128 1368 m 26 X s 2128 1400 m 26 X s
 2128 1433 m 26 X s 2128 1465 m 26 X s 2101 1498 m 53 X s 2101 200 m 53 X s
 gsave  2268 1664 0 0 C 368.592 1039.08 t 0 r /Times-Italic findfont 63.1872 sf 0 0 m (MVA Method:) show NC gr 
 gsave  2268 1664 0 0 C 656.444 944.297 t 0 r /Times-Italic findfont 63.1872 sf 0 0 m (BDTD) show NC gr  0 1 1 c 9 lw 388 971 m 222 X s black
 gsave  2268 1664 0 0 C 656.444 853.026 t 0 r /Times-Italic findfont 63.1872 sf 0 0 m (MLP) show NC gr  1 0 0 c 388 879 m 222 X s black
 gsave  2268 1664 0 0 C 656.444 768.777 t 0 r /Times-Italic findfont 63.1872 sf 0 0 m (TMlpANN) show NC gr  0.35 0.33 0.85 c 388 788 m 222 X s black
 gsave  2268 1664 0 0 C 656.444 673.996 t 0 r /Times-Italic findfont 63.1872 sf 0 0 m (MLPBFGS) show NC gr  0 1 0 c 388 696 m 222 X s black
 gsave  2268 1664 0 0 C 656.444 579.216 t 0 r /Times-Italic findfont 63.1872 sf 0 0 m (MLPBNN) show NC gr  0 0 1 c 388 605 m 222 X s black
 gsave  2268 1664 0 0 C 656.444 487.945 t 0 r /Times-Italic findfont 63.1872 sf 0 0 m (BDTB) show NC gr  1 0 1 c 388 513 m 222 X s black
 gsave  2268 1664 0 0 C 656.444 400.185 t 0 r /Times-Italic findfont 63.1872 sf 0 0 m (PDERSPCA) show NC gr  0.35 0.83 0.33 c 388 422 m 222 X s black
 gsave  2268 1664 0 0 C 656.444 308.915 t 0 r /Times-Italic findfont 63.1872 sf 0 0 m (LikelihoodKDE) show NC gr  388 330 m 222 X s 0.490196 0.545098 0.615686 c 3 lw 0.364706 0.419608 0.490196 c 1587 101 23 1555 bf 0.490196 0.545098 0.615686 c 23
 1555 m 1587 X s 1610 1555 m 101 Y s 1610 1656 m -1587 X s 23 1656 m -101 Y s 1 1 1 c black 1 1 1 c
 gsave  2268 1664 0 0 C 80.7391 1586.7 t 0 r /Helvetica-Bold findfont 66.6975 sf 0 0 m (Background rejection versus Signal efficiency) show NC gr  0.490196 0.545098 0.615686 c 1 1 1 c 366 92 1788 1514 bf 366 92 1788 1514 bf 366 92 1788 1514 bl
/WT 3.51985 def /HT 3.51985 def /XS 1788 def /YY 1606 def /NX 104 def /NY 128 def /DrawCell {WT HT XX YY bf /NBBD NBBD 1 add def NBBD NBB eq {exit} if /XX WT XX add def IX NX eq {/YY YY HT sub def /XX XS def /IX 0 def} if /IX IX 1 add def} def
 /DrawCT {/NBB NX NY mul def /XX XS def /IX 1 def /NBBD 0 def /RC 0 def /GC 1 def /BC 2 def 1 1 NBB {/NB CT RC get def NB 301 ge {/NBL NB 300 sub def 1 1 NBL {DrawCell} for /RC RC 1 add def /GC RC 1 add def /BC RC 2 add def}{CT RC get 255 div CT GC
 get 255 div CT BC get 255 div setrgbcolor DrawCell /RC RC 3 add def /GC GC 3 add def /BC BC 3 add def} ifelse NBBD NBB eq {exit} if} for /YY YY HT sub def clear} def /CT [ 255 255 255 317 255 233 201 255 192 99 255 169 44 255 165 33 255 169 44 255
 187 88 255 222 175 255 255 255 395 255 204 130 255 165 33 306 255 198 116 255 255 255 393 255 223 177 255 165 33 308 255 210 143 255 255 255 392 255 178 66 255 165 33 308 255 169 44 255 249 241 255 255 255 390 255 238 213 255 165 33 310 255 221 171
 255 255 255 390 255 210 144 255 165 33 310 255 198 116 255 255 255 390 255 210 144 255 165 33 310 255 187 88 255 255 255 313 255 51 51 255 0 0 309 255 25 25 102 102 178 51 51 153 302 152 152 203 255 255 255 304 112 112 183 51 51 153 302 153 153 204
 255 255 255 140 140 197 51 51 153 302 234 234 244 255 255 255 304 112 112 183 51 51 153 301 140 140 197 255 255 255 303 234 234 244 51 51 153 303 193 193 224 255 255 255 324 255 215 157 255 165 33 310 255 204 130 255 255 255 313 255 12 12 255 0 0
 309 255 63 63 102 102 178 51 51 153 302 81 81 168 255 255 255 303 229 229 242 51 51 153 303 153 153 204 255 255 255 216 216 235 51 51 153 302 163 163 209 255 255 255 304 61 61 158 51 51 153 301 216 216 235 255 255 255 303 183 183 219 51 51 153 303
 142 142 198 255 255 255 324 255 241 221 255 165 33 310 255 223 177 255 255 255 312 255 229 229 255 102 102 303 255 0 0 302 255 38 38 255 102 102 302 255 163 163 102 102 178 51 51 153 303 193 193 224 255 255 255 302 132 132 193 51 51 153 303 153 153
 204 255 255 255 301 91 91 173 51 51 153 301 108 108 181 255 255 255 303 173 173 214 51 51 153 301 83 83 169 255 255 255 304 116 116 185 51 51 153 303 75 75 165 255 255 255 325 255 192 99 255 165 33 308 255 183 77 255 255 255 317 255 216 216 255 0 0
 302 255 143 143 255 255 255 303 102 102 178 51 51 153 303 76 76 165 255 255 255 301 229 229 242 51 51 153 304 153 153 204 255 255 255 301 178 178 216 51 51 153 302 242 242 248 255 255 255 302 89 89 172 51 51 153 301 152 152 203 255 255 255 303 242
 242 248 51 51 153 301 61 61 158 51 51 153 302 191 191 223 255 255 255 324 255 241 221 255 170 46 255 165 33 307 255 228 188 255 255 255 317 255 178 178 255 0 0 302 255 207 207 255 255 255 303 102 102 178 51 51 153 301 63 63 159 51 51 153 301 178 178
 216 255 255 255 127 127 191 51 51 153 61 61 158 51 51 153 302 153 153 204 255 255 255 301 242 242 248 51 51 153 302 178 178 216 255 255 255 301 229 229 242 51 51 153 302 203 203 229 255 255 255 303 178 178 216 51 51 153 301 122 122 188 89 89 172 51
 51 153 301 127 127 191 255 255 255 325 255 193 102 255 174 55 255 165 33 304 255 169 44 255 187 88 255 250 243 255 255 255 317 255 127 127 255 0 0 301 255 12 12 255 255 255 304 102 102 178 51 51 153 301 140 140 197 51 51 153 301 102 102 178 234 234
 244 51 51 153 301 122 122 188 51 51 153 302 153 153 204 255 255 255 302 112 112 183 51 51 153 301 114 114 184 255 255 255 301 165 165 210 51 51 153 301 76 76 165 255 255 255 304 89 89 172 51 51 153 301 183 183 219 165 165 210 51 51 153 302 242 242
 248 255 255 255 317 255 232 199 301 255 243 227 255 255 255 302 255 210 143 255 221 171 255 246 232 255 204 130 255 187 88 255 169 44 255 187 88 255 204 130 255 246 232 255 249 241 255 196 110 255 255 255 302 255 243 227 255 232 199 301 255 249 241
 255 255 255 310 255 76 76 255 0 0 301 255 51 51 255 255 255 304 102 102 178 51 51 153 301 153 153 204 112 112 183 51 51 153 301 122 122 188 51 51 153 301 193 193 224 51 51 153 302 153 153 204 255 255 255 302 163 163 209 51 51 153 302 242 242 248 255
 255 255 89 89 172 51 51 153 301 140 140 197 255 255 255 303 229 229 242 51 51 153 302 234 234 244 229 229 242 51 51 153 302 178 178 216 255 255 255 315 255 232 199 301 255 255 255 301 255 243 227 255 232 199 255 243 227 255 238 213 255 214 155 255
 255 255 308 255 228 188 255 198 116 255 243 227 255 232 199 255 243 227 255 255 255 301 255 238 213 255 232 199 255 249 241 255 255 255 308 255 25 25 255 0 0 301 255 102 102 255 255 255 304 102 102 178 51 51 153 301 153 153 204 193 193 224 51 51 153
 303 76 76 165 255 255 255 51 51 153 302 153 153 204 255 255 255 302 224 224 239 51 51 153 302 178 178 216 234 234 244 51 51 153 302 216 216 235 255 255 255 303 153 153 204 51 51 153 301 89 89 172 255 255 255 301 89 89 172 51 51 153 301 102 102 178
 255 255 255 313 255 249 241 255 232 199 255 255 255 305 255 243 227 255 204 130 255 255 255 310 255 210 144 255 238 213 255 255 255 305 255 238 213 255 243 227 255 255 255 306 255 223 223 255 0 0 302 255 153 153 255 255 255 304 102 102 178 51 51 153
 301 153 153 204 244 244 249 63 63 159 51 51 153 302 153 153 204 255 255 255 51 51 153 302 153 153 204 255 255 255 303 89 89 172 51 51 153 301 102 102 178 183 183 219 51 51 153 301 81 81 168 255 255 255 304 76 76 165 51 51 153 301 127 127 191 204 204
 229 301 127 127 191 51 51 153 302 234 234 244 255 255 255 312 255 232 199 255 255 255 307 255 249 241 255 241 221 255 255 255 308 255 246 232 255 243 227 255 255 255 307 255 238 213 255 250 243 255 255 255 305 255 159 159 255 0 0 302 255 204 204 255
 255 255 304 102 102 178 51 51 153 301 153 153 204 255 255 255 153 153 204 51 51 153 301 63 63 159 242 242 248 255 255 255 51 51 153 302 153 153 204 255 255 255 303 165 165 210 51 51 153 302 101 101 178 51 51 153 301 142 142 198 255 255 255 303 214
 214 234 51 51 153 309 173 173 214 255 255 255 306 255 219 166 255 210 144 303 255 210 143 255 255 255 309 255 228 188 255 210 144 308 255 223 177 255 255 255 309 255 214 155 255 210 144 305 255 84 67 255 0 0 302 255 210 144 305 102 90 150 51 51 153
 301 153 130 148 255 210 144 229 184 131 102 79 123 301 153 119 120 255 210 144 301 51 51 153 302 153 130 148 255 210 144 303 229 184 131 51 51 153 305 193 157 135 255 210 144 303 152 134 159 51 51 153 309 112 103 161 255 210 144 305 255 221 171 255
 183 77 255 165 33 303 255 208 139 255 255 255 309 255 244 228 255 165 33 308 255 233 201 255 255 255 309 255 215 157 255 165 33 305 255 24 4 255 0 0 301 255 49 9 255 165 33 305 102 79 123 51 51 153 301 153 108 93 255 165 33 306 51 51 153 302 153 108
 93 255 165 33 304 108 82 119 51 51 153 303 71 62 141 255 165 33 304 91 73 129 51 51 153 301 116 87 114 173 119 81 303 116 87 114 51 51 153 301 59 55 148 244 159 39 255 165 33 304 255 187 88 255 183 77 255 165 33 303 255 219 166 255 255 255 310 255
 165 33 308 255 255 255 310 255 237 210 255 165 33 304 255 144 28 255 0 0 302 255 92 18 255 165 33 305 102 79 123 51 51 153 301 153 108 93 255 165 33 306 51 51 153 302 153 108 93 255 165 33 304 163 113 87 51 51 153 303 140 100 100 255 165 33 303 216
 143 55 51 51 153 302 214 142 57 255 165 33 303 203 136 63 51 51 153 302 165 115 85 255 165 33 304 255 187 88 255 183 77 255 165 33 303 255 219 166 255 255 255 310 255 165 33 308 255 255 255 310 255 237 210 255 165 33 304 255 103 20 255 0 0 302 255
 123 24 255 165 33 305 102 79 123 51 51 153 301 153 108 93 255 165 33 306 51 51 153 302 153 108 93 255 165 33 304 234 153 45 51 51 153 303 229 150 48 255 165 33 303 140 100 100 51 51 153 301 76 65 138 255 165 33 305 63 58 145 51 51 153 301 89 72 130
 255 165 33 304 255 187 88 255 183 77 255 165 33 303 255 219 166 255 255 255 310 255 165 33 308 255 241 221 255 255 255 309 255 223 177 255 165 33 364 255 187 88 255 183 77 255 165 33 303 255 196 110 255 255 255 309 255 232 199 255 165 33 308 255 223
 177 255 255 255 309 255 205 132 255 165 33 364 255 187 88 255 183 77 255 165 33 303 255 169 44 255 249 241 255 255 255 308 255 201 121 255 165 33 308 255 192 99 255 255 255 309 255 174 55 255 165 33 364 255 187 88 255 183 77 255 165 33 304 255 187
 88 255 255 255 307 255 232 199 255 165 33 310 255 221 171 255 255 255 307 255 198 116 255 165 33 365 255 187 88 255 183 77 255 165 33 305 255 181 74 255 246 232 255 255 255 304 255 215 157 255 165 33 312 255 210 144 255 250 243 255 255 255 303 255
 246 232 255 193 102 255 165 33 366 255 187 88 242 188 109 255 187 88 306 255 192 99 255 221 171 255 232 199 302 255 201 121 255 187 88 314 255 201 121 255 226 185 255 232 199 301 255 221 171 255 196 110 255 187 88 367 255 204 130] def /NY 26 def
 DrawCT 
 gr  gr showpage
end
%%EOF
